<?xml version="1.0" encoding="UTF-8" standalone="no"?>
<svg
   xmlns:ns0="http://www.iki.fi/pav/software/textext/"
   xmlns:dc="http://purl.org/dc/elements/1.1/"
   xmlns:cc="http://creativecommons.org/ns#"
   xmlns:rdf="http://www.w3.org/1999/02/22-rdf-syntax-ns#"
   xmlns:svg="http://www.w3.org/2000/svg"
   xmlns="http://www.w3.org/2000/svg"
   xmlns:xlink="http://www.w3.org/1999/xlink"
   xmlns:sodipodi="http://sodipodi.sourceforge.net/DTD/sodipodi-0.dtd"
   xmlns:inkscape="http://www.inkscape.org/namespaces/inkscape"
   width="600.409"
   height="501.59103"
   viewBox="0 0 600.409 501.59103"
   id="svg2"
   version="1.1"
   inkscape:version="0.91 r13725"
   sodipodi:docname="time_rad0.1.svg">
  <metadata
     id="metadata181">
    <rdf:RDF>
      <cc:Work
         rdf:about="">
        <dc:format>image/svg+xml</dc:format>
        <dc:type
           rdf:resource="http://purl.org/dc/dcmitype/StillImage" />
        <dc:title>Gnuplot</dc:title>
      </cc:Work>
    </rdf:RDF>
  </metadata>
  <defs
     id="defs179" />
  <sodipodi:namedview
     pagecolor="#ffffff"
     bordercolor="#666666"
     borderopacity="1"
     objecttolerance="10"
     gridtolerance="10"
     guidetolerance="10"
     inkscape:pageopacity="0"
     inkscape:pageshadow="2"
     inkscape:window-width="1920"
     inkscape:window-height="1867"
     id="namedview177"
     showgrid="false"
     inkscape:zoom="1.7133333"
     inkscape:cx="363.30233"
     inkscape:cy="133.81094"
     inkscape:window-x="0"
     inkscape:window-y="0"
     inkscape:window-maximized="1"
     inkscape:current-layer="svg2"
     fit-margin-top="0"
     fit-margin-left="0"
     fit-margin-right="0"
     fit-margin-bottom="0" />
  <title
     id="title4">Gnuplot</title>
  <desc
     id="desc6">Produced by GNUPLOT 5.0 patchlevel 3 </desc>
  <g
     id="gnuplot_canvas"
     transform="translate(0.40897506,0)">
    <rect
       x="0"
       y="0"
       width="600"
       height="480"
       id="rect9"
       style="fill:none" />
    <defs
       id="defs11">
      <circle
         id="gpDot"
         r="0.5"
         cx="0"
         cy="0"
         style="stroke-width:0.5" />
      <path
         id="gpPt0"
         d="M -1,0 1,0 M 0,-1 0,1"
         inkscape:connector-curvature="0"
         style="stroke:currentColor;stroke-width:0.15700001" />
      <path
         id="gpPt1"
         d="M -1,-1 1,1 M 1,-1 -1,1"
         inkscape:connector-curvature="0"
         style="stroke:currentColor;stroke-width:0.15700001" />
      <path
         id="gpPt2"
         d="M -1,0 1,0 M 0,-1 0,1 m -1,-2 2,2 m -2,0 2,-2"
         inkscape:connector-curvature="0"
         style="stroke:currentColor;stroke-width:0.15700001" />
      <rect
         id="gpPt3"
         x="-1"
         y="-1"
         width="2"
         height="2"
         style="stroke:currentColor;stroke-width:0.15700001" />
      <rect
         id="gpPt4"
         x="-1"
         y="-1"
         width="2"
         height="2"
         style="fill:currentColor;stroke:currentColor;stroke-width:0.15700001" />
      <circle
         id="gpPt5"
         cx="0"
         cy="0"
         r="1"
         style="stroke:currentColor;stroke-width:0.15700001" />
      <use
         xlink:href="#gpPt5"
         id="gpPt6"
         style="fill:currentColor;stroke:none"
         x="0"
         y="0"
         width="100%"
         height="100%" />
      <path
         id="gpPt7"
         d="m 0,-1.33 -1.33,2 2.66,0 z"
         inkscape:connector-curvature="0"
         style="stroke:currentColor;stroke-width:0.15700001" />
      <use
         xlink:href="#gpPt7"
         id="gpPt8"
         style="fill:currentColor;stroke:none"
         x="0"
         y="0"
         width="100%"
         height="100%" />
      <use
         xlink:href="#gpPt7"
         id="gpPt9"
         transform="scale(-1,-1)"
         style="stroke:currentColor"
         x="0"
         y="0"
         width="100%"
         height="100%" />
      <use
         xlink:href="#gpPt9"
         id="gpPt10"
         style="fill:currentColor;stroke:none"
         x="0"
         y="0"
         width="100%"
         height="100%" />
      <use
         xlink:href="#gpPt3"
         id="gpPt11"
         transform="matrix(0.70710678,0.70710678,-0.70710678,0.70710678,0,0)"
         style="stroke:currentColor"
         x="0"
         y="0"
         width="100%"
         height="100%" />
      <use
         xlink:href="#gpPt11"
         id="gpPt12"
         style="fill:currentColor;stroke:none"
         x="0"
         y="0"
         width="100%"
         height="100%" />
      <path
         id="gpPt13"
         d="M 0,1.33 1.265,0.411 0.782,-1.067 -0.782,-1.076 -1.265,0.411 Z"
         inkscape:connector-curvature="0"
         style="stroke:currentColor;stroke-width:0.15700001" />
      <use
         xlink:href="#gpPt13"
         id="gpPt14"
         style="fill:currentColor;stroke:none"
         x="0"
         y="0"
         width="100%"
         height="100%" />
      <filter
         id="textbox"
         filterUnits="objectBoundingBox"
         x="0"
         y="0"
         height="1"
         width="1">
        <feFlood
           flood-color="white"
           flood-opacity="1"
           result="bgnd"
           id="feFlood30" />
        <feComposite
           in="SourceGraphic"
           in2="bgnd"
           operator="atop"
           id="feComposite32" />
      </filter>
      <filter
         id="greybox"
         filterUnits="objectBoundingBox"
         x="0"
         y="0"
         height="1"
         width="1">
        <feFlood
           flood-color="lightgrey"
           flood-opacity="1"
           result="grey"
           id="feFlood35" />
        <feComposite
           in="SourceGraphic"
           in2="grey"
           operator="atop"
           id="feComposite37" />
      </filter>
    </defs>
    <g
       id="g39"
       style="color:#ffffff;fill:none;stroke:currentColor;stroke-width:1;stroke-linecap:butt;stroke-linejoin:miter" />
    <g
       id="g41"
       style="color:#000000;fill:none;stroke:currentColor;stroke-width:1;stroke-linecap:butt;stroke-linejoin:miter">
      <path
         d="m 100.3,429.2 12.7,0 m 451.5,0 -12.7,0"
         id="path43"
         inkscape:connector-curvature="0"
         style="stroke:#000000" />
      <g
         transform="translate(88.5,435.6)"
         font-size="17.00"
         id="g45"
         style="font-size:17px;font-family:Arial;text-anchor:end;fill:#000000;stroke:none">
        <text
           id="text47">
          <tspan
             id="tspan49"
             style="font-family:Arial">1</tspan>
        </text>
      </g>
    </g>
    <g
       id="g51"
       style="color:#000000;fill:none;stroke:currentColor;stroke-width:1;stroke-linecap:butt;stroke-linejoin:miter">
      <path
         d="m 100.3,398.7 6.3,0 m 457.9,0 -6.3,0 m -457.9,-17.9 6.3,0 m 457.9,0 -6.3,0 m -457.9,-12.6 6.3,0 m 457.9,0 -6.3,0 m -457.9,-9.9 6.3,0 m 457.9,0 -6.3,0 m -457.9,-8 6.3,0 m 457.9,0 -6.3,0 m -457.9,-6.8 6.3,0 m 457.9,0 -6.3,0 m -457.9,-5.9 6.3,0 m 457.9,0 -6.3,0 m -457.9,-5.1 6.3,0 m 457.9,0 -6.3,0 m -457.9,-4.7 12.7,0 m 451.5,0 -12.7,0"
         id="path53"
         inkscape:connector-curvature="0"
         style="stroke:#000000" />
      <g
         transform="translate(88.5,334.2)"
         font-size="17.00"
         id="g55"
         style="font-size:17px;font-family:Arial;text-anchor:end;fill:#000000;stroke:none">
        <text
           id="text57">
          <tspan
             id="tspan59"
             style="font-family:Arial">10</tspan>
        </text>
      </g>
    </g>
    <g
       id="g61"
       style="color:#000000;fill:none;stroke:currentColor;stroke-width:1;stroke-linecap:butt;stroke-linejoin:miter">
      <path
         d="m 100.3,297.3 6.3,0 m 457.9,0 -6.3,0 m -457.9,-17.8 6.3,0 m 457.9,0 -6.3,0 m -457.9,-12.7 6.3,0 m 457.9,0 -6.3,0 m -457.9,-9.8 6.3,0 m 457.9,0 -6.3,0 m -457.9,-8.1 6.3,0 m 457.9,0 -6.3,0 m -457.9,-6.7 6.3,0 m 457.9,0 -6.3,0 m -457.9,-5.9 6.3,0 m 457.9,0 -6.3,0 m -457.9,-5.2 6.3,0 m 457.9,0 -6.3,0 m -457.9,-4.7 12.7,0 m 451.5,0 -12.7,0"
         id="path63"
         inkscape:connector-curvature="0"
         style="stroke:#000000" />
      <g
         transform="translate(88.5,232.8)"
         font-size="17.00"
         id="g65"
         style="font-size:17px;font-family:Arial;text-anchor:end;fill:#000000;stroke:none">
        <text
           id="text67">
          <tspan
             id="tspan69"
             style="font-family:Arial">100</tspan>
        </text>
      </g>
    </g>
    <g
       id="g71"
       style="color:#000000;fill:none;stroke:currentColor;stroke-width:1;stroke-linecap:butt;stroke-linejoin:miter">
      <path
         d="m 100.3,195.9 6.3,0 m 457.9,0 -6.3,0 m -457.9,-17.8 6.3,0 m 457.9,0 -6.3,0 m -457.9,-12.7 6.3,0 m 457.9,0 -6.3,0 m -457.9,-9.8 6.3,0 m 457.9,0 -6.3,0 m -457.9,-8 6.3,0 m 457.9,0 -6.3,0 m -457.9,-6.8 6.3,0 m 457.9,0 -6.3,0 m -457.9,-5.9 6.3,0 m 457.9,0 -6.3,0 m -457.9,-5.2 6.3,0 m 457.9,0 -6.3,0 m -457.9,-4.6 12.7,0 m 451.5,0 -12.7,0"
         id="path73"
         inkscape:connector-curvature="0"
         style="stroke:#000000" />
      <g
         transform="translate(88.5,131.5)"
         font-size="17.00"
         id="g75"
         style="font-size:17px;font-family:Arial;text-anchor:end;fill:#000000;stroke:none">
        <text
           id="text77">
          <tspan
             id="tspan79"
             style="font-family:Arial">1000</tspan>
        </text>
      </g>
    </g>
    <g
       id="g81"
       style="color:#000000;fill:none;stroke:currentColor;stroke-width:1;stroke-linecap:butt;stroke-linejoin:miter">
      <path
         d="m 100.3,94.6 6.3,0 m 457.9,0 -6.3,0 m -457.9,-17.9 6.3,0 m 457.9,0 -6.3,0 M 100.3,64 l 6.3,0 m 457.9,0 -6.3,0 m -457.9,-9.8 6.3,0 m 457.9,0 -6.3,0 m -457.9,-8 6.3,0 m 457.9,0 -6.3,0 m -457.9,-6.8 6.3,0 m 457.9,0 -6.3,0 m -457.9,-5.9 6.3,0 m 457.9,0 -6.3,0 m -457.9,-5.2 6.3,0 m 457.9,0 -6.3,0 m -457.9,-4.6 12.7,0 m 451.5,0 -12.7,0"
         id="path83"
         inkscape:connector-curvature="0"
         style="stroke:#000000" />
      <g
         transform="translate(88.5,30.1)"
         font-size="17.00"
         id="g85"
         style="font-size:17px;font-family:Arial;text-anchor:end;fill:#000000;stroke:none">
        <text
           id="text87">
          <tspan
             id="tspan89"
             style="font-family:Arial">10000</tspan>
        </text>
      </g>
    </g>
    <g
       id="g91"
       style="color:#000000;fill:none;stroke:currentColor;stroke-width:1;stroke-linecap:butt;stroke-linejoin:miter">
      <path
         d="m 100.3,429.2 0,-12.7 m 0,-392.8 0,12.7"
         id="path93"
         inkscape:connector-curvature="0"
         style="stroke:#000000" />
      <g
         transform="translate(100.3,461)"
         font-size="17.00"
         id="g95"
         style="font-size:17px;font-family:Arial;text-anchor:middle;fill:#000000;stroke:none">
        <text
           id="text97">
          <tspan
             id="tspan99"
             style="font-family:Arial">100</tspan>
        </text>
      </g>
    </g>
    <g
       id="g101"
       style="color:#000000;fill:none;stroke:currentColor;stroke-width:1;stroke-linecap:butt;stroke-linejoin:miter">
      <path
         d="m 170.2,429.2 0,-6.3 m 0,-399.2 0,6.3 m 40.8,399.2 0,-6.3 m 0,-399.2 0,6.3 m 29,399.2 0,-6.3 m 0,-399.2 0,6.3 m 22.5,399.2 0,-6.3 m 0,-399.2 0,6.3 m 18.4,399.2 0,-6.3 m 0,-399.2 0,6.3 m 15.5,399.2 0,-6.3 m 0,-399.2 0,6.3 m 13.5,399.2 0,-6.3 m 0,-399.2 0,6.3 m 11.9,399.2 0,-6.3 m 0,-399.2 0,6.3 m 10.6,399.2 0,-12.7 m 0,-392.8 0,12.7"
         id="path103"
         inkscape:connector-curvature="0"
         style="stroke:#000000" />
      <g
         transform="translate(332.4,461)"
         font-size="17.00"
         id="g105"
         style="font-size:17px;font-family:Arial;text-anchor:middle;fill:#000000;stroke:none">
        <text
           id="text107">
          <tspan
             id="tspan109"
             style="font-family:Arial">1000</tspan>
        </text>
      </g>
    </g>
    <g
       id="g111"
       style="color:#000000;fill:none;stroke:currentColor;stroke-width:1;stroke-linecap:butt;stroke-linejoin:miter">
      <path
         d="m 402.3,429.2 0,-6.3 m 0,-399.2 0,6.3 m 40.8,399.2 0,-6.3 m 0,-399.2 0,6.3 m 29,399.2 0,-6.3 m 0,-399.2 0,6.3 m 22.5,399.2 0,-6.3 m 0,-399.2 0,6.3 m 18.4,399.2 0,-6.3 m 0,-399.2 0,6.3 m 15.5,399.2 0,-6.3 m 0,-399.2 0,6.3 m 13.5,399.2 0,-6.3 m 0,-399.2 0,6.3 m 11.9,399.2 0,-6.3 m 0,-399.2 0,6.3 m 10.6,399.2 0,-12.7 m 0,-392.8 0,12.7"
         id="path113"
         inkscape:connector-curvature="0"
         style="stroke:#000000" />
      <g
         transform="translate(564.5,461)"
         font-size="17.00"
         id="g115"
         style="font-size:17px;font-family:Arial;text-anchor:middle;fill:#000000;stroke:none">
        <text
           id="text117">
          <tspan
             id="tspan119"
             style="font-family:Arial">10000</tspan>
        </text>
      </g>
    </g>
    <g
       id="g121"
       style="color:#000000;fill:none;stroke:currentColor;stroke-width:1;stroke-linecap:butt;stroke-linejoin:miter" />
    <g
       id="g123"
       style="color:#000000;fill:none;stroke:currentColor;stroke-width:1;stroke-linecap:butt;stroke-linejoin:miter">
      <path
         d="m 100.3,23.7 0,405.5 464.2,0 0,-405.5 -464.2,0 z"
         id="path125"
         inkscape:connector-curvature="0"
         style="stroke:#000000" />
    </g>
    <g
       id="g127"
       style="color:#000000;fill:none;stroke:currentColor;stroke-width:1;stroke-linecap:butt;stroke-linejoin:miter" />
    <g
       id="gnuplot_plot_1">
      <title
         id="title130">gnuplot_plot_1</title>
      <g
         id="g132"
         style="color:#000000;fill:none;stroke:currentColor;stroke-width:1;stroke-linecap:butt;stroke-linejoin:miter">
        <path
           d="m 152.6,377.9 89.4,-74.4 69.7,-62 72.4,-65.2 68.3,-66.4"
           id="path134"
           inkscape:connector-curvature="0"
           style="stroke:#009e73" />
        <use
           xlink:href="#gpPt1"
           transform="matrix(6.35,0,0,6.35,152.6,377.9)"
           id="use136"
           style="color:#009e73"
           x="0"
           y="0"
           width="100%"
           height="100%" />
        <use
           xlink:href="#gpPt1"
           transform="matrix(6.35,0,0,6.35,242,303.5)"
           id="use138"
           style="color:#009e73"
           x="0"
           y="0"
           width="100%"
           height="100%" />
        <use
           xlink:href="#gpPt1"
           transform="matrix(6.35,0,0,6.35,311.7,241.5)"
           id="use140"
           style="color:#009e73"
           x="0"
           y="0"
           width="100%"
           height="100%" />
        <use
           xlink:href="#gpPt1"
           transform="matrix(6.35,0,0,6.35,384.1,176.3)"
           id="use142"
           style="color:#009e73"
           x="0"
           y="0"
           width="100%"
           height="100%" />
        <use
           xlink:href="#gpPt1"
           transform="matrix(6.35,0,0,6.35,452.4,109.9)"
           id="use144"
           style="color:#009e73"
           x="0"
           y="0"
           width="100%"
           height="100%" />
      </g>
    </g>
    <g
       id="gnuplot_plot_2">
      <title
         id="title147">gnuplot_plot_2</title>
      <g
         id="g149"
         style="color:#000000;fill:none;stroke:currentColor;stroke-width:1;stroke-linecap:butt;stroke-linejoin:miter">
        <path
           d="M 152.6,344.4 242,267.3 311.7,208.8 384.1,166 452.4,125.8 522.6,90.3"
           id="path151"
           inkscape:connector-curvature="0"
           style="stroke:#56b4e9" />
        <use
           xlink:href="#gpPt2"
           transform="matrix(6.35,0,0,6.35,152.6,344.4)"
           id="use153"
           style="color:#56b4e9"
           x="0"
           y="0"
           width="100%"
           height="100%" />
        <use
           xlink:href="#gpPt2"
           transform="matrix(6.35,0,0,6.35,242,267.3)"
           id="use155"
           style="color:#56b4e9"
           x="0"
           y="0"
           width="100%"
           height="100%" />
        <use
           xlink:href="#gpPt2"
           transform="matrix(6.35,0,0,6.35,311.7,208.8)"
           id="use157"
           style="color:#56b4e9"
           x="0"
           y="0"
           width="100%"
           height="100%" />
        <use
           xlink:href="#gpPt2"
           transform="matrix(6.35,0,0,6.35,384.1,166)"
           id="use159"
           style="color:#56b4e9"
           x="0"
           y="0"
           width="100%"
           height="100%" />
        <use
           xlink:href="#gpPt2"
           transform="matrix(6.35,0,0,6.35,452.4,125.8)"
           id="use161"
           style="color:#56b4e9"
           x="0"
           y="0"
           width="100%"
           height="100%" />
        <use
           xlink:href="#gpPt2"
           transform="matrix(6.35,0,0,6.35,522.6,90.3)"
           id="use163"
           style="color:#56b4e9"
           x="0"
           y="0"
           width="100%"
           height="100%" />
      </g>
    </g>
    <g
       id="g165"
       style="color:#ffffff;fill:none;stroke:#56b4e9;stroke-width:2;stroke-linecap:butt;stroke-linejoin:miter" />
    <g
       id="g167"
       style="color:#000000;fill:none;stroke:currentColor;stroke-width:2;stroke-linecap:butt;stroke-linejoin:miter" />
    <g
       id="g169"
       style="color:#000000;fill:none;stroke:#000000;stroke-width:1;stroke-linecap:butt;stroke-linejoin:miter" />
    <g
       id="g171"
       style="color:#000000;fill:none;stroke:currentColor;stroke-width:1;stroke-linecap:butt;stroke-linejoin:miter">
      <path
         d="m 100.3,23.7 0,405.5 464.2,0 0,-405.5 -464.2,0 z"
         id="path173"
         inkscape:connector-curvature="0"
         style="stroke:#000000" />
    </g>
    <g
       id="g175"
       style="color:#000000;fill:none;stroke:currentColor;stroke-width:1;stroke-linecap:butt;stroke-linejoin:miter" />
  </g>
  <g
     ns0:text="Number of elements"
     ns0:preamble=""
     id="g4159"
     transform="matrix(3.3691516,0,0,3.3691516,-563.87427,47.178805)">
    <defs
       id="defs4161">
      <g
         id="g4163">
        <symbol
           overflow="visible"
           id="textext-34f4551a-0"
           style="overflow:visible">
          <path
             style="stroke:none"
             d=""
             id="path4166"
             inkscape:connector-curvature="0" />
        </symbol>
        <symbol
           overflow="visible"
           id="textext-34f4551a-1"
           style="overflow:visible">
          <path
             style="stroke:none"
             d="M 2.3125,-6.671875 C 2.21875,-6.796875 2.21875,-6.8125 2.03125,-6.8125 l -1.703125,0 0,0.3125 0.296875,0 c 0.140625,0 0.34375,0.015625 0.484375,0.015625 0.234375,0.03125 0.25,0.046875 0.25,0.234375 l 0,5.203125 c 0,0.265625 0,0.734375 -1.03125,0.734375 l 0,0.3125 C 0.671875,-0.015625 1.171875,-0.03125 1.5,-0.03125 c 0.328125,0 0.8125,0.015625 1.15625,0.03125 l 0,-0.3125 c -1.015625,0 -1.015625,-0.46875 -1.015625,-0.734375 l 0,-5.1875 c 0.046875,0.046875 0.046875,0.0625 0.09375,0.125 L 5.796875,-0.125 C 5.890625,-0.015625 5.90625,0 5.96875,0 6.109375,0 6.109375,-0.0625 6.109375,-0.265625 l 0,-5.5 c 0,-0.265625 0,-0.734375 1.03125,-0.734375 l 0,-0.3125 c -0.359375,0.015625 -0.84375,0.03125 -1.171875,0.03125 -0.328125,0 -0.8125,-0.015625 -1.15625,-0.03125 l 0,0.3125 c 1.015625,0 1.015625,0.46875 1.015625,0.734375 l 0,4.265625 z m 0,0"
             id="path4169"
             inkscape:connector-curvature="0" />
        </symbol>
        <symbol
           overflow="visible"
           id="textext-34f4551a-2"
           style="overflow:visible">
          <path
             style="stroke:none"
             d="m 3.890625,-0.78125 0,0.890625 L 5.328125,0 l 0,-0.3125 C 4.640625,-0.3125 4.5625,-0.375 4.5625,-0.875 l 0,-3.53125 -1.46875,0.109375 0,0.3125 c 0.6875,0 0.78125,0.0625 0.78125,0.5625 l 0,1.765625 c 0,0.875 -0.484375,1.546875 -1.21875,1.546875 -0.828125,0 -0.875,-0.46875 -0.875,-0.984375 l 0,-3.3125 -1.46875,0.109375 0,0.3125 c 0.78125,0 0.78125,0.03125 0.78125,0.90625 l 0,1.5 c 0,0.78125 0,1.6875 1.515625,1.6875 0.5625,0 1,-0.28125 1.28125,-0.890625 z m 0,0"
             id="path4172"
             inkscape:connector-curvature="0" />
        </symbol>
        <symbol
           overflow="visible"
           id="textext-34f4551a-3"
           style="overflow:visible">
          <path
             style="stroke:none"
             d="m 1.09375,-3.421875 0,2.671875 c 0,0.4375 -0.109375,0.4375 -0.78125,0.4375 l 0,0.3125 c 0.359375,-0.015625 0.859375,-0.03125 1.140625,-0.03125 0.25,0 0.765625,0.015625 1.109375,0.03125 l 0,-0.3125 c -0.671875,0 -0.78125,0 -0.78125,-0.4375 l 0,-1.84375 C 1.78125,-3.625 2.5,-4.1875 3.125,-4.1875 c 0.640625,0 0.75,0.53125 0.75,1.109375 l 0,2.328125 c 0,0.4375 -0.109375,0.4375 -0.78125,0.4375 l 0,0.3125 c 0.34375,-0.015625 0.859375,-0.03125 1.125,-0.03125 0.25,0 0.78125,0.015625 1.109375,0.03125 l 0,-0.3125 c -0.65625,0 -0.765625,0 -0.765625,-0.4375 l 0,-1.84375 c 0,-1.03125 0.703125,-1.59375 1.34375,-1.59375 0.625,0 0.734375,0.53125 0.734375,1.109375 l 0,2.328125 c 0,0.4375 -0.109375,0.4375 -0.78125,0.4375 l 0,0.3125 c 0.34375,-0.015625 0.859375,-0.03125 1.125,-0.03125 0.265625,0 0.78125,0.015625 1.125,0.03125 l 0,-0.3125 c -0.515625,0 -0.765625,0 -0.78125,-0.296875 l 0,-1.90625 c 0,-0.859375 0,-1.15625 -0.3125,-1.515625 -0.140625,-0.171875 -0.46875,-0.375 -1.046875,-0.375 -0.828125,0 -1.28125,0.59375 -1.4375,0.984375 C 4.390625,-4.296875 3.65625,-4.40625 3.203125,-4.40625 2.46875,-4.40625 2,-3.984375 1.71875,-3.359375 l 0,-1.046875 -1.40625,0.109375 0,0.3125 c 0.703125,0 0.78125,0.0625 0.78125,0.5625 z m 0,0"
             id="path4175"
             inkscape:connector-curvature="0" />
        </symbol>
        <symbol
           overflow="visible"
           id="textext-34f4551a-4"
           style="overflow:visible">
          <path
             style="stroke:none"
             d="m 1.71875,-3.765625 0,-3.15625 -1.4375,0.109375 0,0.3125 c 0.703125,0 0.78125,0.0625 0.78125,0.5625 l 0,5.9375 0.25,0 c 0,-0.015625 0.078125,-0.15625 0.359375,-0.625 0.140625,0.234375 0.5625,0.734375 1.296875,0.734375 1.1875,0 2.21875,-0.984375 2.21875,-2.265625 0,-1.265625 -0.96875,-2.25 -2.109375,-2.25 -0.78125,0 -1.203125,0.46875 -1.359375,0.640625 z m 0.03125,2.625 0,-2.046875 c 0,-0.1875 0,-0.203125 0.109375,-0.359375 C 2.25,-4.109375 2.796875,-4.1875 3.03125,-4.1875 c 0.453125,0 0.8125,0.265625 1.046875,0.640625 0.265625,0.40625 0.28125,0.96875 0.28125,1.390625 0,0.359375 -0.015625,0.953125 -0.296875,1.40625 -0.21875,0.3125 -0.59375,0.640625 -1.125,0.640625 -0.453125,0 -0.8125,-0.234375 -1.046875,-0.609375 C 1.75,-0.921875 1.75,-0.953125 1.75,-1.140625 Z m 0,0"
             id="path4178"
             inkscape:connector-curvature="0" />
        </symbol>
        <symbol
           overflow="visible"
           id="textext-34f4551a-5"
           style="overflow:visible">
          <path
             style="stroke:none"
             d="M 1.109375,-2.515625 C 1.171875,-4 2.015625,-4.25 2.359375,-4.25 c 1.015625,0 1.125,1.34375 1.125,1.734375 z m 0,0.21875 2.78125,0 c 0.21875,0 0.25,0 0.25,-0.21875 0,-0.984375 -0.546875,-1.953125 -1.78125,-1.953125 -1.15625,0 -2.078125,1.03125 -2.078125,2.28125 0,1.328125 1.046875,2.296875 2.1875,2.296875 C 3.6875,0.109375 4.140625,-1 4.140625,-1.1875 4.140625,-1.28125 4.0625,-1.3125 4,-1.3125 c -0.078125,0 -0.109375,0.0625 -0.125,0.140625 -0.34375,1.03125 -1.25,1.03125 -1.34375,1.03125 -0.5,0 -0.890625,-0.296875 -1.125,-0.671875 -0.296875,-0.46875 -0.296875,-1.125 -0.296875,-1.484375 z m 0,0"
             id="path4181"
             inkscape:connector-curvature="0" />
        </symbol>
        <symbol
           overflow="visible"
           id="textext-34f4551a-6"
           style="overflow:visible">
          <path
             style="stroke:none"
             d="m 1.671875,-3.3125 0,-1.09375 -1.390625,0.109375 0,0.3125 c 0.703125,0 0.78125,0.0625 0.78125,0.5625 l 0,2.671875 c 0,0.4375 -0.109375,0.4375 -0.78125,0.4375 l 0,0.3125 c 0.390625,-0.015625 0.859375,-0.03125 1.140625,-0.03125 0.390625,0 0.859375,0 1.265625,0.03125 l 0,-0.3125 -0.21875,0 c -0.734375,0 -0.75,-0.109375 -0.75,-0.46875 l 0,-1.53125 c 0,-0.984375 0.421875,-1.875 1.171875,-1.875 0.0625,0 0.09375,0 0.109375,0.015625 -0.03125,0 -0.234375,0.125 -0.234375,0.390625 0,0.265625 0.21875,0.421875 0.4375,0.421875 0.171875,0 0.421875,-0.125 0.421875,-0.4375 0,-0.3125 -0.3125,-0.609375 -0.734375,-0.609375 -0.734375,0 -1.09375,0.671875 -1.21875,1.09375 z m 0,0"
             id="path4184"
             inkscape:connector-curvature="0" />
        </symbol>
        <symbol
           overflow="visible"
           id="textext-34f4551a-7"
           style="overflow:visible">
          <path
             style="stroke:none"
             d="M 4.6875,-2.140625 C 4.6875,-3.40625 3.703125,-4.46875 2.5,-4.46875 c -1.25,0 -2.21875,1.09375 -2.21875,2.328125 0,1.296875 1.03125,2.25 2.203125,2.25 1.203125,0 2.203125,-0.984375 2.203125,-2.25 z m -2.1875,2 c -0.4375,0 -0.875,-0.203125 -1.140625,-0.671875 -0.25,-0.4375 -0.25,-1.046875 -0.25,-1.40625 0,-0.390625 0,-0.921875 0.234375,-1.359375 C 1.609375,-4.03125 2.078125,-4.25 2.484375,-4.25 c 0.4375,0 0.859375,0.21875 1.125,0.65625 0.265625,0.421875 0.265625,1 0.265625,1.375 0,0.359375 0,0.90625 -0.21875,1.34375 C 3.421875,-0.421875 2.984375,-0.140625 2.5,-0.140625 Z m 0,0"
             id="path4187"
             inkscape:connector-curvature="0" />
        </symbol>
        <symbol
           overflow="visible"
           id="textext-34f4551a-8"
           style="overflow:visible">
          <path
             style="stroke:none"
             d="m 1.75,-4.296875 0,-1.15625 c 0,-0.875 0.46875,-1.359375 0.90625,-1.359375 0.03125,0 0.1875,0 0.328125,0.078125 C 2.875,-6.703125 2.6875,-6.5625 2.6875,-6.3125 c 0,0.21875 0.15625,0.421875 0.4375,0.421875 0.28125,0 0.4375,-0.203125 0.4375,-0.4375 0,-0.375 -0.375,-0.703125 -0.90625,-0.703125 -0.6875,0 -1.546875,0.53125 -1.546875,1.59375 l 0,1.140625 -0.78125,0 0,0.3125 0.78125,0 0,3.234375 c 0,0.4375 -0.109375,0.4375 -0.765625,0.4375 l 0,0.3125 c 0.390625,-0.015625 0.859375,-0.03125 1.125,-0.03125 0.40625,0 0.875,0 1.265625,0.03125 l 0,-0.3125 -0.203125,0 c -0.734375,0 -0.75,-0.109375 -0.75,-0.46875 l 0,-3.203125 1.125,0 0,-0.3125 z m 0,0"
             id="path4190"
             inkscape:connector-curvature="0" />
        </symbol>
        <symbol
           overflow="visible"
           id="textext-34f4551a-9"
           style="overflow:visible">
          <path
             style="stroke:none"
             d="m 1.765625,-6.921875 -1.4375,0.109375 0,0.3125 c 0.703125,0 0.78125,0.0625 0.78125,0.5625 l 0,5.1875 c 0,0.4375 -0.109375,0.4375 -0.78125,0.4375 l 0,0.3125 C 0.65625,-0.015625 1.1875,-0.03125 1.4375,-0.03125 c 0.25,0 0.734375,0.015625 1.109375,0.03125 l 0,-0.3125 c -0.671875,0 -0.78125,0 -0.78125,-0.4375 z m 0,0"
             id="path4193"
             inkscape:connector-curvature="0" />
        </symbol>
        <symbol
           overflow="visible"
           id="textext-34f4551a-10"
           style="overflow:visible">
          <path
             style="stroke:none"
             d="m 1.09375,-3.421875 0,2.671875 c 0,0.4375 -0.109375,0.4375 -0.78125,0.4375 l 0,0.3125 c 0.359375,-0.015625 0.859375,-0.03125 1.140625,-0.03125 0.25,0 0.765625,0.015625 1.109375,0.03125 l 0,-0.3125 c -0.671875,0 -0.78125,0 -0.78125,-0.4375 l 0,-1.84375 C 1.78125,-3.625 2.5,-4.1875 3.125,-4.1875 c 0.640625,0 0.75,0.53125 0.75,1.109375 l 0,2.328125 c 0,0.4375 -0.109375,0.4375 -0.78125,0.4375 l 0,0.3125 c 0.34375,-0.015625 0.859375,-0.03125 1.125,-0.03125 0.25,0 0.78125,0.015625 1.109375,0.03125 l 0,-0.3125 c -0.515625,0 -0.765625,0 -0.765625,-0.296875 l 0,-1.90625 c 0,-0.859375 0,-1.15625 -0.3125,-1.515625 -0.140625,-0.171875 -0.46875,-0.375 -1.046875,-0.375 C 2.46875,-4.40625 2,-3.984375 1.71875,-3.359375 l 0,-1.046875 -1.40625,0.109375 0,0.3125 c 0.703125,0 0.78125,0.0625 0.78125,0.5625 z m 0,0"
             id="path4196"
             inkscape:connector-curvature="0" />
        </symbol>
        <symbol
           overflow="visible"
           id="textext-34f4551a-11"
           style="overflow:visible">
          <path
             style="stroke:none"
             d="m 1.71875,-3.984375 1.4375,0 0,-0.3125 -1.4375,0 0,-1.828125 -0.25,0 c 0,0.8125 -0.296875,1.875 -1.28125,1.921875 l 0,0.21875 0.84375,0 0,2.75 c 0,1.21875 0.9375,1.34375 1.296875,1.34375 0.703125,0 0.984375,-0.703125 0.984375,-1.34375 l 0,-0.5625 -0.25,0 0,0.546875 c 0,0.734375 -0.296875,1.109375 -0.671875,1.109375 -0.671875,0 -0.671875,-0.90625 -0.671875,-1.078125 z m 0,0"
             id="path4199"
             inkscape:connector-curvature="0" />
        </symbol>
        <symbol
           overflow="visible"
           id="textext-34f4551a-12"
           style="overflow:visible">
          <path
             style="stroke:none"
             d="m 2.078125,-1.9375 c 0.21875,0.046875 1.03125,0.203125 1.03125,0.921875 0,0.5 -0.34375,0.90625 -1.125,0.90625 -0.84375,0 -1.203125,-0.5625 -1.390625,-1.421875 C 0.5625,-1.65625 0.5625,-1.6875 0.453125,-1.6875 c -0.125,0 -0.125,0.0625 -0.125,0.234375 l 0,1.328125 c 0,0.171875 0,0.234375 0.109375,0.234375 0.046875,0 0.0625,-0.015625 0.25,-0.203125 0.015625,-0.015625 0.015625,-0.03125 0.203125,-0.21875 0.4375,0.40625 0.890625,0.421875 1.09375,0.421875 1.140625,0 1.609375,-0.671875 1.609375,-1.390625 0,-0.515625 -0.296875,-0.828125 -0.421875,-0.9375 C 2.84375,-2.546875 2.453125,-2.625 2.03125,-2.703125 1.46875,-2.8125 0.8125,-2.9375 0.8125,-3.515625 c 0,-0.359375 0.25,-0.765625 1.109375,-0.765625 1.09375,0 1.15625,0.90625 1.171875,1.203125 0,0.09375 0.09375,0.09375 0.109375,0.09375 0.140625,0 0.140625,-0.046875 0.140625,-0.234375 l 0,-1.015625 c 0,-0.15625 0,-0.234375 -0.109375,-0.234375 -0.046875,0 -0.078125,0 -0.203125,0.125 -0.03125,0.03125 -0.125,0.125 -0.171875,0.15625 -0.375,-0.28125 -0.78125,-0.28125 -0.9375,-0.28125 -1.21875,0 -1.59375,0.671875 -1.59375,1.234375 0,0.34375 0.15625,0.625 0.421875,0.84375 0.328125,0.25 0.609375,0.3125 1.328125,0.453125 z m 0,0"
             id="path4202"
             inkscape:connector-curvature="0" />
        </symbol>
      </g>
    </defs>
    <g
       id="textext-34f4551a-13">
      <g
         style="fill:#000000;fill-opacity:1"
         id="g4205">
        <use
           xlink:href="#textext-34f4551a-1"
           x="223.43201"
           y="134.765"
           id="use4207"
           width="100%"
           height="100%" />
        <use
           xlink:href="#textext-34f4551a-2"
           x="230.90395"
           y="134.765"
           id="use4209"
           width="100%"
           height="100%" />
        <use
           xlink:href="#textext-34f4551a-3"
           x="236.43918"
           y="134.765"
           id="use4211"
           width="100%"
           height="100%" />
      </g>
      <g
         style="fill:#000000;fill-opacity:1"
         id="g4213">
        <use
           xlink:href="#textext-34f4551a-4"
           x="244.46205"
           y="134.765"
           id="use4215"
           width="100%"
           height="100%" />
      </g>
      <g
         style="fill:#000000;fill-opacity:1"
         id="g4217">
        <use
           xlink:href="#textext-34f4551a-5"
           x="250.27623"
           y="134.765"
           id="use4219"
           width="100%"
           height="100%" />
        <use
           xlink:href="#textext-34f4551a-6"
           x="254.7036"
           y="134.765"
           id="use4221"
           width="100%"
           height="100%" />
      </g>
      <g
         style="fill:#000000;fill-opacity:1"
         id="g4223">
        <use
           xlink:href="#textext-34f4551a-7"
           x="261.92349"
           y="134.765"
           id="use4225"
           width="100%"
           height="100%" />
        <use
           xlink:href="#textext-34f4551a-8"
           x="266.90482"
           y="134.765"
           id="use4227"
           width="100%"
           height="100%" />
      </g>
      <g
         style="fill:#000000;fill-opacity:1"
         id="g4229">
        <use
           xlink:href="#textext-34f4551a-5"
           x="273.27689"
           y="134.765"
           id="use4231"
           width="100%"
           height="100%" />
        <use
           xlink:href="#textext-34f4551a-9"
           x="277.70425"
           y="134.765"
           id="use4233"
           width="100%"
           height="100%" />
        <use
           xlink:href="#textext-34f4551a-5"
           x="280.47186"
           y="134.765"
           id="use4235"
           width="100%"
           height="100%" />
        <use
           xlink:href="#textext-34f4551a-3"
           x="284.89926"
           y="134.765"
           id="use4237"
           width="100%"
           height="100%" />
        <use
           xlink:href="#textext-34f4551a-5"
           x="293.20108"
           y="134.765"
           id="use4239"
           width="100%"
           height="100%" />
        <use
           xlink:href="#textext-34f4551a-10"
           x="297.62845"
           y="134.765"
           id="use4241"
           width="100%"
           height="100%" />
      </g>
      <g
         style="fill:#000000;fill-opacity:1"
         id="g4243">
        <use
           xlink:href="#textext-34f4551a-11"
           x="302.88474"
           y="134.765"
           id="use4245"
           width="100%"
           height="100%" />
        <use
           xlink:href="#textext-34f4551a-12"
           x="306.75919"
           y="134.765"
           id="use4247"
           width="100%"
           height="100%" />
      </g>
    </g>
  </g>
  <g
     id="g6321"
     style="font-style:normal;font-variant:normal;font-weight:normal;font-stretch:normal;letter-spacing:normal;word-spacing:normal;text-anchor:start;fill:none;stroke:#000000;stroke-linecap:butt;stroke-linejoin:miter;stroke-miterlimit:10.43299961;stroke-dasharray:none;stroke-dashoffset:0;stroke-opacity:1"
     transform="matrix(0,-3.1572439,3.1572439,0,-401.85597,1087.2513)"
     ns0:preamble=""
     ns0:text="Computational time [$s$]">
    <defs
       id="defs6323">
      <g
         id="g6325">
        <symbol
           id="textext-37c58db4-0"
           overflow="visible"
           style="overflow:visible">
          <path
             id="path6328"
             d=""
             style="stroke:none"
             inkscape:connector-curvature="0" />
        </symbol>
        <symbol
           id="textext-37c58db4-1"
           overflow="visible"
           style="overflow:visible">
          <path
             id="path6331"
             d="m 0.5625,-3.40625 c 0,2.0625 1.609375,3.625 3.46875,3.625 1.625,0 2.59375,-1.390625 2.59375,-2.546875 C 6.625,-2.421875 6.625,-2.5 6.5,-2.5 6.390625,-2.5 6.390625,-2.4375 6.375,-2.328125 6.296875,-0.90625 5.234375,-0.09375 4.140625,-0.09375 c -0.609375,0 -2.5625,-0.328125 -2.5625,-3.3125 0,-2.96875 1.953125,-3.3125 2.5625,-3.3125 1.078125,0 1.96875,0.90625 2.171875,2.359375 0.015625,0.140625 0.015625,0.171875 0.15625,0.171875 0.15625,0 0.15625,-0.03125 0.15625,-0.234375 l 0,-2.359375 c 0,-0.171875 0,-0.25 -0.109375,-0.25 -0.03125,0 -0.078125,0 -0.15625,0.125 l -0.5,0.734375 C 5.5,-6.53125 4.984375,-7.03125 4.03125,-7.03125 c -1.875,0 -3.46875,1.59375 -3.46875,3.625 z m 0,0"
             style="stroke:none"
             inkscape:connector-curvature="0" />
        </symbol>
        <symbol
           id="textext-37c58db4-2"
           overflow="visible"
           style="overflow:visible">
          <path
             id="path6334"
             d="M 4.6875,-2.140625 C 4.6875,-3.40625 3.703125,-4.46875 2.5,-4.46875 c -1.25,0 -2.21875,1.09375 -2.21875,2.328125 0,1.296875 1.03125,2.25 2.203125,2.25 1.203125,0 2.203125,-0.984375 2.203125,-2.25 z m -2.1875,2 c -0.4375,0 -0.875,-0.203125 -1.140625,-0.671875 -0.25,-0.4375 -0.25,-1.046875 -0.25,-1.40625 0,-0.390625 0,-0.921875 0.234375,-1.359375 C 1.609375,-4.03125 2.078125,-4.25 2.484375,-4.25 c 0.4375,0 0.859375,0.21875 1.125,0.65625 0.265625,0.421875 0.265625,1 0.265625,1.375 0,0.359375 0,0.90625 -0.21875,1.34375 C 3.421875,-0.421875 2.984375,-0.140625 2.5,-0.140625 Z m 0,0"
             style="stroke:none"
             inkscape:connector-curvature="0" />
        </symbol>
        <symbol
           id="textext-37c58db4-3"
           overflow="visible"
           style="overflow:visible">
          <path
             id="path6337"
             d="m 1.09375,-3.421875 0,2.671875 c 0,0.4375 -0.109375,0.4375 -0.78125,0.4375 l 0,0.3125 c 0.359375,-0.015625 0.859375,-0.03125 1.140625,-0.03125 0.25,0 0.765625,0.015625 1.109375,0.03125 l 0,-0.3125 c -0.671875,0 -0.78125,0 -0.78125,-0.4375 l 0,-1.84375 C 1.78125,-3.625 2.5,-4.1875 3.125,-4.1875 c 0.640625,0 0.75,0.53125 0.75,1.109375 l 0,2.328125 c 0,0.4375 -0.109375,0.4375 -0.78125,0.4375 l 0,0.3125 c 0.34375,-0.015625 0.859375,-0.03125 1.125,-0.03125 0.25,0 0.78125,0.015625 1.109375,0.03125 l 0,-0.3125 c -0.65625,0 -0.765625,0 -0.765625,-0.4375 l 0,-1.84375 c 0,-1.03125 0.703125,-1.59375 1.34375,-1.59375 0.625,0 0.734375,0.53125 0.734375,1.109375 l 0,2.328125 c 0,0.4375 -0.109375,0.4375 -0.78125,0.4375 l 0,0.3125 c 0.34375,-0.015625 0.859375,-0.03125 1.125,-0.03125 0.265625,0 0.78125,0.015625 1.125,0.03125 l 0,-0.3125 c -0.515625,0 -0.765625,0 -0.78125,-0.296875 l 0,-1.90625 c 0,-0.859375 0,-1.15625 -0.3125,-1.515625 -0.140625,-0.171875 -0.46875,-0.375 -1.046875,-0.375 -0.828125,0 -1.28125,0.59375 -1.4375,0.984375 C 4.390625,-4.296875 3.65625,-4.40625 3.203125,-4.40625 2.46875,-4.40625 2,-3.984375 1.71875,-3.359375 l 0,-1.046875 -1.40625,0.109375 0,0.3125 c 0.703125,0 0.78125,0.0625 0.78125,0.5625 z m 0,0"
             style="stroke:none"
             inkscape:connector-curvature="0" />
        </symbol>
        <symbol
           id="textext-37c58db4-4"
           overflow="visible"
           style="overflow:visible">
          <path
             id="path6340"
             d="m 1.71875,-3.75 0,-0.65625 -1.4375,0.109375 0,0.3125 c 0.703125,0 0.78125,0.0625 0.78125,0.5 l 0,4.65625 C 1.0625,1.625 0.953125,1.625 0.28125,1.625 l 0,0.3125 C 0.625,1.921875 1.140625,1.90625 1.390625,1.90625 c 0.28125,0 0.78125,0.015625 1.125,0.03125 l 0,-0.3125 C 1.859375,1.625 1.75,1.625 1.75,1.171875 l 0,-1.765625 c 0.046875,0.171875 0.46875,0.703125 1.21875,0.703125 1.1875,0 2.21875,-0.984375 2.21875,-2.265625 0,-1.265625 -0.953125,-2.25 -2.078125,-2.25 -0.78125,0 -1.203125,0.4375 -1.390625,0.65625 z m 0.03125,2.609375 0,-2.21875 C 2.03125,-3.875 2.515625,-4.15625 3.03125,-4.15625 c 0.734375,0 1.328125,0.875 1.328125,2 0,1.203125 -0.6875,2.046875 -1.421875,2.046875 -0.40625,0 -0.78125,-0.203125 -1.046875,-0.609375 C 1.75,-0.921875 1.75,-0.9375 1.75,-1.140625 Z m 0,0"
             style="stroke:none"
             inkscape:connector-curvature="0" />
        </symbol>
        <symbol
           id="textext-37c58db4-5"
           overflow="visible"
           style="overflow:visible">
          <path
             id="path6343"
             d="m 3.890625,-0.78125 0,0.890625 L 5.328125,0 l 0,-0.3125 C 4.640625,-0.3125 4.5625,-0.375 4.5625,-0.875 l 0,-3.53125 -1.46875,0.109375 0,0.3125 c 0.6875,0 0.78125,0.0625 0.78125,0.5625 l 0,1.765625 c 0,0.875 -0.484375,1.546875 -1.21875,1.546875 -0.828125,0 -0.875,-0.46875 -0.875,-0.984375 l 0,-3.3125 -1.46875,0.109375 0,0.3125 c 0.78125,0 0.78125,0.03125 0.78125,0.90625 l 0,1.5 c 0,0.78125 0,1.6875 1.515625,1.6875 0.5625,0 1,-0.28125 1.28125,-0.890625 z m 0,0"
             style="stroke:none"
             inkscape:connector-curvature="0" />
        </symbol>
        <symbol
           id="textext-37c58db4-6"
           overflow="visible"
           style="overflow:visible">
          <path
             id="path6346"
             d="m 1.71875,-3.984375 1.4375,0 0,-0.3125 -1.4375,0 0,-1.828125 -0.25,0 c 0,0.8125 -0.296875,1.875 -1.28125,1.921875 l 0,0.21875 0.84375,0 0,2.75 c 0,1.21875 0.9375,1.34375 1.296875,1.34375 0.703125,0 0.984375,-0.703125 0.984375,-1.34375 l 0,-0.5625 -0.25,0 0,0.546875 c 0,0.734375 -0.296875,1.109375 -0.671875,1.109375 -0.671875,0 -0.671875,-0.90625 -0.671875,-1.078125 z m 0,0"
             style="stroke:none"
             inkscape:connector-curvature="0" />
        </symbol>
        <symbol
           id="textext-37c58db4-7"
           overflow="visible"
           style="overflow:visible">
          <path
             id="path6349"
             d="m 3.3125,-0.75 c 0.046875,0.390625 0.3125,0.8125 0.78125,0.8125 0.21875,0 0.828125,-0.140625 0.828125,-0.953125 l 0,-0.5625 -0.25,0 0,0.5625 c 0,0.578125 -0.25,0.640625 -0.359375,0.640625 -0.328125,0 -0.375,-0.453125 -0.375,-0.5 l 0,-1.984375 c 0,-0.421875 0,-0.8125 -0.359375,-1.1875 C 3.1875,-4.3125 2.6875,-4.46875 2.21875,-4.46875 c -0.828125,0 -1.515625,0.46875 -1.515625,1.125 0,0.296875 0.203125,0.46875 0.46875,0.46875 0.28125,0 0.453125,-0.203125 0.453125,-0.453125 0,-0.125 -0.046875,-0.453125 -0.515625,-0.453125 C 1.390625,-4.140625 1.875,-4.25 2.1875,-4.25 c 0.5,0 1.0625,0.390625 1.0625,1.28125 l 0,0.359375 c -0.515625,0.03125 -1.203125,0.0625 -1.828125,0.359375 -0.75,0.34375 -1,0.859375 -1,1.296875 0,0.8125 0.96875,1.0625 1.59375,1.0625 0.65625,0 1.109375,-0.40625 1.296875,-0.859375 z M 3.25,-2.390625 l 0,1 c 0,0.9375 -0.71875,1.28125 -1.171875,1.28125 -0.484375,0 -0.890625,-0.34375 -0.890625,-0.84375 0,-0.546875 0.421875,-1.375 2.0625,-1.4375 z m 0,0"
             style="stroke:none"
             inkscape:connector-curvature="0" />
        </symbol>
        <symbol
           id="textext-37c58db4-8"
           overflow="visible"
           style="overflow:visible">
          <path
             id="path6352"
             d="M 1.765625,-4.40625 0.375,-4.296875 l 0,0.3125 c 0.640625,0 0.734375,0.0625 0.734375,0.546875 l 0,2.6875 c 0,0.4375 -0.109375,0.4375 -0.78125,0.4375 l 0,0.3125 C 0.640625,-0.015625 1.1875,-0.03125 1.421875,-0.03125 1.78125,-0.03125 2.125,-0.015625 2.46875,0 l 0,-0.3125 c -0.671875,0 -0.703125,-0.046875 -0.703125,-0.4375 z m 0.03125,-1.734375 c 0,-0.3125 -0.234375,-0.53125 -0.515625,-0.53125 -0.3125,0 -0.53125,0.265625 -0.53125,0.53125 0,0.265625 0.21875,0.53125 0.53125,0.53125 0.28125,0 0.515625,-0.21875 0.515625,-0.53125 z m 0,0"
             style="stroke:none"
             inkscape:connector-curvature="0" />
        </symbol>
        <symbol
           id="textext-37c58db4-9"
           overflow="visible"
           style="overflow:visible">
          <path
             id="path6355"
             d="m 1.09375,-3.421875 0,2.671875 c 0,0.4375 -0.109375,0.4375 -0.78125,0.4375 l 0,0.3125 c 0.359375,-0.015625 0.859375,-0.03125 1.140625,-0.03125 0.25,0 0.765625,0.015625 1.109375,0.03125 l 0,-0.3125 c -0.671875,0 -0.78125,0 -0.78125,-0.4375 l 0,-1.84375 C 1.78125,-3.625 2.5,-4.1875 3.125,-4.1875 c 0.640625,0 0.75,0.53125 0.75,1.109375 l 0,2.328125 c 0,0.4375 -0.109375,0.4375 -0.78125,0.4375 l 0,0.3125 c 0.34375,-0.015625 0.859375,-0.03125 1.125,-0.03125 0.25,0 0.78125,0.015625 1.109375,0.03125 l 0,-0.3125 c -0.515625,0 -0.765625,0 -0.765625,-0.296875 l 0,-1.90625 c 0,-0.859375 0,-1.15625 -0.3125,-1.515625 -0.140625,-0.171875 -0.46875,-0.375 -1.046875,-0.375 C 2.46875,-4.40625 2,-3.984375 1.71875,-3.359375 l 0,-1.046875 -1.40625,0.109375 0,0.3125 c 0.703125,0 0.78125,0.0625 0.78125,0.5625 z m 0,0"
             style="stroke:none"
             inkscape:connector-curvature="0" />
        </symbol>
        <symbol
           id="textext-37c58db4-10"
           overflow="visible"
           style="overflow:visible">
          <path
             id="path6358"
             d="m 1.765625,-6.921875 -1.4375,0.109375 0,0.3125 c 0.703125,0 0.78125,0.0625 0.78125,0.5625 l 0,5.1875 c 0,0.4375 -0.109375,0.4375 -0.78125,0.4375 l 0,0.3125 C 0.65625,-0.015625 1.1875,-0.03125 1.4375,-0.03125 c 0.25,0 0.734375,0.015625 1.109375,0.03125 l 0,-0.3125 c -0.671875,0 -0.78125,0 -0.78125,-0.4375 z m 0,0"
             style="stroke:none"
             inkscape:connector-curvature="0" />
        </symbol>
        <symbol
           id="textext-37c58db4-11"
           overflow="visible"
           style="overflow:visible">
          <path
             id="path6361"
             d="M 1.109375,-2.515625 C 1.171875,-4 2.015625,-4.25 2.359375,-4.25 c 1.015625,0 1.125,1.34375 1.125,1.734375 z m 0,0.21875 2.78125,0 c 0.21875,0 0.25,0 0.25,-0.21875 0,-0.984375 -0.546875,-1.953125 -1.78125,-1.953125 -1.15625,0 -2.078125,1.03125 -2.078125,2.28125 0,1.328125 1.046875,2.296875 2.1875,2.296875 C 3.6875,0.109375 4.140625,-1 4.140625,-1.1875 4.140625,-1.28125 4.0625,-1.3125 4,-1.3125 c -0.078125,0 -0.109375,0.0625 -0.125,0.140625 -0.34375,1.03125 -1.25,1.03125 -1.34375,1.03125 -0.5,0 -0.890625,-0.296875 -1.125,-0.671875 -0.296875,-0.46875 -0.296875,-1.125 -0.296875,-1.484375 z m 0,0"
             style="stroke:none"
             inkscape:connector-curvature="0" />
        </symbol>
        <symbol
           id="textext-37c58db4-12"
           overflow="visible"
           style="overflow:visible">
          <path
             id="path6364"
             d="m 2.546875,2.5 0,-0.40625 -0.96875,0 0,-9.171875 0.96875,0 0,-0.40625 -1.375,0 0,9.984375 z m 0,0"
             style="stroke:none"
             inkscape:connector-curvature="0" />
        </symbol>
        <symbol
           id="textext-37c58db4-13"
           overflow="visible"
           style="overflow:visible">
          <path
             id="path6367"
             d="m 1.578125,-7.484375 -1.359375,0 0,0.40625 0.96875,0 0,9.171875 -0.96875,0 0,0.40625 1.359375,0 z m 0,0"
             style="stroke:none"
             inkscape:connector-curvature="0" />
        </symbol>
        <symbol
           id="textext-37c58db4-14"
           overflow="visible"
           style="overflow:visible">
          <path
             id="path6370"
             d=""
             style="stroke:none"
             inkscape:connector-curvature="0" />
        </symbol>
        <symbol
           id="textext-37c58db4-15"
           overflow="visible"
           style="overflow:visible">
          <path
             id="path6373"
             d="M 3.890625,-3.734375 C 3.625,-3.71875 3.421875,-3.5 3.421875,-3.28125 c 0,0.140625 0.09375,0.296875 0.3125,0.296875 0.21875,0 0.453125,-0.171875 0.453125,-0.5625 C 4.1875,-4 3.765625,-4.40625 3,-4.40625 c -1.3125,0 -1.6875,1.015625 -1.6875,1.453125 0,0.78125 0.734375,0.921875 1.03125,0.984375 0.515625,0.109375 1.03125,0.21875 1.03125,0.765625 0,0.25 -0.21875,1.09375 -1.421875,1.09375 -0.140625,0 -0.90625,0 -1.140625,-0.53125 0.390625,0.046875 0.640625,-0.25 0.640625,-0.53125 0,-0.21875 -0.171875,-0.34375 -0.375,-0.34375 -0.265625,0 -0.5625,0.203125 -0.5625,0.65625 0,0.5625 0.578125,0.96875 1.421875,0.96875 1.625,0 2.015625,-1.203125 2.015625,-1.65625 0,-0.359375 -0.1875,-0.609375 -0.3125,-0.71875 -0.265625,-0.28125 -0.5625,-0.34375 -1,-0.421875 -0.359375,-0.078125 -0.75,-0.15625 -0.75,-0.609375 C 1.890625,-3.578125 2.125,-4.1875 3,-4.1875 c 0.25,0 0.75,0.078125 0.890625,0.453125 z m 0,0"
             style="stroke:none"
             inkscape:connector-curvature="0" />
        </symbol>
      </g>
    </defs>
    <g
       id="textext-37c58db4-16">
      <g
         id="g6376"
         style="fill:#000000;fill-opacity:1">
        <use
           id="use6378"
           y="134.765"
           x="223.43201"
           xlink:href="#textext-37c58db4-1"
           width="100%"
           height="100%" />
        <use
           id="use6380"
           y="134.765"
           x="230.62698"
           xlink:href="#textext-37c58db4-2"
           width="100%"
           height="100%" />
        <use
           id="use6382"
           y="134.765"
           x="235.60829"
           xlink:href="#textext-37c58db4-3"
           width="100%"
           height="100%" />
        <use
           id="use6384"
           y="134.765"
           x="243.91013"
           xlink:href="#textext-37c58db4-4"
           width="100%"
           height="100%" />
        <use
           id="use6386"
           y="134.765"
           x="249.44534"
           xlink:href="#textext-37c58db4-5"
           width="100%"
           height="100%" />
        <use
           id="use6388"
           y="134.765"
           x="254.98056"
           xlink:href="#textext-37c58db4-6"
           width="100%"
           height="100%" />
        <use
           id="use6390"
           y="134.765"
           x="258.85501"
           xlink:href="#textext-37c58db4-7"
           width="100%"
           height="100%" />
        <use
           id="use6392"
           y="134.765"
           x="263.83633"
           xlink:href="#textext-37c58db4-6"
           width="100%"
           height="100%" />
        <use
           id="use6394"
           y="134.765"
           x="267.71078"
           xlink:href="#textext-37c58db4-8"
           width="100%"
           height="100%" />
        <use
           id="use6396"
           y="134.765"
           x="270.47839"
           xlink:href="#textext-37c58db4-2"
           width="100%"
           height="100%" />
        <use
           id="use6398"
           y="134.765"
           x="275.45969"
           xlink:href="#textext-37c58db4-9"
           width="100%"
           height="100%" />
        <use
           id="use6400"
           y="134.765"
           x="280.9949"
           xlink:href="#textext-37c58db4-7"
           width="100%"
           height="100%" />
        <use
           id="use6402"
           y="134.765"
           x="285.9762"
           xlink:href="#textext-37c58db4-10"
           width="100%"
           height="100%" />
      </g>
      <g
         id="g6404"
         style="fill:#000000;fill-opacity:1">
        <use
           id="use6406"
           y="134.765"
           x="292.06137"
           xlink:href="#textext-37c58db4-6"
           width="100%"
           height="100%" />
        <use
           id="use6408"
           y="134.765"
           x="295.93582"
           xlink:href="#textext-37c58db4-8"
           width="100%"
           height="100%" />
        <use
           id="use6410"
           y="134.765"
           x="298.70343"
           xlink:href="#textext-37c58db4-3"
           width="100%"
           height="100%" />
        <use
           id="use6412"
           y="134.765"
           x="307.00525"
           xlink:href="#textext-37c58db4-11"
           width="100%"
           height="100%" />
      </g>
      <g
         id="g6414"
         style="fill:#000000;fill-opacity:1">
        <use
           id="use6416"
           y="134.765"
           x="314.76016"
           xlink:href="#textext-37c58db4-12"
           width="100%"
           height="100%" />
      </g>
      <g
         id="g6418"
         style="fill:#000000;fill-opacity:1">
        <use
           id="use6420"
           y="134.765"
           x="317.52399"
           xlink:href="#textext-37c58db4-15"
           width="100%"
           height="100%" />
      </g>
      <g
         id="g6422"
         style="fill:#000000;fill-opacity:1">
        <use
           id="use6424"
           y="134.765"
           x="322.194"
           xlink:href="#textext-37c58db4-13"
           width="100%"
           height="100%" />
      </g>
    </g>
  </g>
  <use
     height="100%"
     width="100%"
     y="0"
     x="0"
     style="color:#56b4e9;fill:none;stroke:currentColor;stroke-width:1;stroke-linecap:butt;stroke-linejoin:miter"
     id="use4790-3"
     transform="matrix(6.35,0,0,6.35,126.23285,81.48043)"
     xlink:href="#gpPt2" />
  <use
     height="100%"
     width="100%"
     y="0"
     x="0"
     style="color:#009e73;fill:none;stroke:currentColor;stroke-width:1;stroke-linecap:butt;stroke-linejoin:miter"
     id="use4769-6"
     transform="matrix(6.35,0,0,6.35,125.5416,58.05761)"
     xlink:href="#gpPt1" />
  <g
     transform="matrix(2.818623,0,0,2.818623,-495.00872,-312.6066)"
     ns0:text="Proposed method $2$"
     ns0:preamble=""
     id="g5304">
    <defs
       id="defs5306">
      <g
         id="g5308">
        <symbol
           style="overflow:visible"
           overflow="visible"
           id="textext-4fdae250-0">
          <path
             inkscape:connector-curvature="0"
             style="stroke:none"
             d=""
             id="path5311" />
        </symbol>
        <symbol
           style="overflow:visible"
           overflow="visible"
           id="textext-4fdae250-1">
          <path
             inkscape:connector-curvature="0"
             style="stroke:none"
             d="m 2.265625,-3.15625 1.6875,0 c 1.1875,0 2.265625,-0.796875 2.265625,-1.796875 C 6.21875,-5.9375 5.234375,-6.8125 3.875,-6.8125 l -3.53125,0 0,0.3125 0.25,0 c 0.765625,0 0.78125,0.109375 0.78125,0.46875 l 0,5.25 c 0,0.359375 -0.015625,0.46875 -0.78125,0.46875 l -0.25,0 0,0.3125 c 0.359375,-0.03125 1.09375,-0.03125 1.46875,-0.03125 0.375,0 1.125,0 1.484375,0.03125 l 0,-0.3125 -0.25,0 c -0.765625,0 -0.78125,-0.109375 -0.78125,-0.46875 z m -0.03125,-0.25 0,-2.6875 C 2.234375,-6.4375 2.25,-6.5 2.71875,-6.5 l 0.890625,0 c 1.578125,0 1.578125,1.0625 1.578125,1.546875 0,0.46875 0,1.546875 -1.578125,1.546875 z m 0,0"
             id="path5314" />
        </symbol>
        <symbol
           style="overflow:visible"
           overflow="visible"
           id="textext-4fdae250-2">
          <path
             inkscape:connector-curvature="0"
             style="stroke:none"
             d="m 1.671875,-3.3125 0,-1.09375 -1.390625,0.109375 0,0.3125 c 0.703125,0 0.78125,0.0625 0.78125,0.5625 l 0,2.671875 c 0,0.4375 -0.109375,0.4375 -0.78125,0.4375 l 0,0.3125 c 0.390625,-0.015625 0.859375,-0.03125 1.140625,-0.03125 0.390625,0 0.859375,0 1.265625,0.03125 l 0,-0.3125 -0.21875,0 c -0.734375,0 -0.75,-0.109375 -0.75,-0.46875 l 0,-1.53125 c 0,-0.984375 0.421875,-1.875 1.171875,-1.875 0.0625,0 0.09375,0 0.109375,0.015625 -0.03125,0 -0.234375,0.125 -0.234375,0.390625 0,0.265625 0.21875,0.421875 0.4375,0.421875 0.171875,0 0.421875,-0.125 0.421875,-0.4375 0,-0.3125 -0.3125,-0.609375 -0.734375,-0.609375 -0.734375,0 -1.09375,0.671875 -1.21875,1.09375 z m 0,0"
             id="path5317" />
        </symbol>
        <symbol
           style="overflow:visible"
           overflow="visible"
           id="textext-4fdae250-3">
          <path
             inkscape:connector-curvature="0"
             style="stroke:none"
             d="M 4.6875,-2.140625 C 4.6875,-3.40625 3.703125,-4.46875 2.5,-4.46875 c -1.25,0 -2.21875,1.09375 -2.21875,2.328125 0,1.296875 1.03125,2.25 2.203125,2.25 1.203125,0 2.203125,-0.984375 2.203125,-2.25 z m -2.1875,2 c -0.4375,0 -0.875,-0.203125 -1.140625,-0.671875 -0.25,-0.4375 -0.25,-1.046875 -0.25,-1.40625 0,-0.390625 0,-0.921875 0.234375,-1.359375 C 1.609375,-4.03125 2.078125,-4.25 2.484375,-4.25 c 0.4375,0 0.859375,0.21875 1.125,0.65625 0.265625,0.421875 0.265625,1 0.265625,1.375 0,0.359375 0,0.90625 -0.21875,1.34375 C 3.421875,-0.421875 2.984375,-0.140625 2.5,-0.140625 Z m 0,0"
             id="path5320" />
        </symbol>
        <symbol
           style="overflow:visible"
           overflow="visible"
           id="textext-4fdae250-4">
          <path
             inkscape:connector-curvature="0"
             style="stroke:none"
             d="m 1.71875,-3.75 0,-0.65625 -1.4375,0.109375 0,0.3125 c 0.703125,0 0.78125,0.0625 0.78125,0.5 l 0,4.65625 C 1.0625,1.625 0.953125,1.625 0.28125,1.625 l 0,0.3125 C 0.625,1.921875 1.140625,1.90625 1.390625,1.90625 c 0.28125,0 0.78125,0.015625 1.125,0.03125 l 0,-0.3125 C 1.859375,1.625 1.75,1.625 1.75,1.171875 l 0,-1.765625 c 0.046875,0.171875 0.46875,0.703125 1.21875,0.703125 1.1875,0 2.21875,-0.984375 2.21875,-2.265625 0,-1.265625 -0.953125,-2.25 -2.078125,-2.25 -0.78125,0 -1.203125,0.4375 -1.390625,0.65625 z m 0.03125,2.609375 0,-2.21875 C 2.03125,-3.875 2.515625,-4.15625 3.03125,-4.15625 c 0.734375,0 1.328125,0.875 1.328125,2 0,1.203125 -0.6875,2.046875 -1.421875,2.046875 -0.40625,0 -0.78125,-0.203125 -1.046875,-0.609375 C 1.75,-0.921875 1.75,-0.9375 1.75,-1.140625 Z m 0,0"
             id="path5323" />
        </symbol>
        <symbol
           style="overflow:visible"
           overflow="visible"
           id="textext-4fdae250-5">
          <path
             inkscape:connector-curvature="0"
             style="stroke:none"
             d="m 2.078125,-1.9375 c 0.21875,0.046875 1.03125,0.203125 1.03125,0.921875 0,0.5 -0.34375,0.90625 -1.125,0.90625 -0.84375,0 -1.203125,-0.5625 -1.390625,-1.421875 C 0.5625,-1.65625 0.5625,-1.6875 0.453125,-1.6875 c -0.125,0 -0.125,0.0625 -0.125,0.234375 l 0,1.328125 c 0,0.171875 0,0.234375 0.109375,0.234375 0.046875,0 0.0625,-0.015625 0.25,-0.203125 0.015625,-0.015625 0.015625,-0.03125 0.203125,-0.21875 0.4375,0.40625 0.890625,0.421875 1.09375,0.421875 1.140625,0 1.609375,-0.671875 1.609375,-1.390625 0,-0.515625 -0.296875,-0.828125 -0.421875,-0.9375 C 2.84375,-2.546875 2.453125,-2.625 2.03125,-2.703125 1.46875,-2.8125 0.8125,-2.9375 0.8125,-3.515625 c 0,-0.359375 0.25,-0.765625 1.109375,-0.765625 1.09375,0 1.15625,0.90625 1.171875,1.203125 0,0.09375 0.09375,0.09375 0.109375,0.09375 0.140625,0 0.140625,-0.046875 0.140625,-0.234375 l 0,-1.015625 c 0,-0.15625 0,-0.234375 -0.109375,-0.234375 -0.046875,0 -0.078125,0 -0.203125,0.125 -0.03125,0.03125 -0.125,0.125 -0.171875,0.15625 -0.375,-0.28125 -0.78125,-0.28125 -0.9375,-0.28125 -1.21875,0 -1.59375,0.671875 -1.59375,1.234375 0,0.34375 0.15625,0.625 0.421875,0.84375 0.328125,0.25 0.609375,0.3125 1.328125,0.453125 z m 0,0"
             id="path5326" />
        </symbol>
        <symbol
           style="overflow:visible"
           overflow="visible"
           id="textext-4fdae250-6">
          <path
             inkscape:connector-curvature="0"
             style="stroke:none"
             d="M 1.109375,-2.515625 C 1.171875,-4 2.015625,-4.25 2.359375,-4.25 c 1.015625,0 1.125,1.34375 1.125,1.734375 z m 0,0.21875 2.78125,0 c 0.21875,0 0.25,0 0.25,-0.21875 0,-0.984375 -0.546875,-1.953125 -1.78125,-1.953125 -1.15625,0 -2.078125,1.03125 -2.078125,2.28125 0,1.328125 1.046875,2.296875 2.1875,2.296875 C 3.6875,0.109375 4.140625,-1 4.140625,-1.1875 4.140625,-1.28125 4.0625,-1.3125 4,-1.3125 c -0.078125,0 -0.109375,0.0625 -0.125,0.140625 -0.34375,1.03125 -1.25,1.03125 -1.34375,1.03125 -0.5,0 -0.890625,-0.296875 -1.125,-0.671875 -0.296875,-0.46875 -0.296875,-1.125 -0.296875,-1.484375 z m 0,0"
             id="path5329" />
        </symbol>
        <symbol
           style="overflow:visible"
           overflow="visible"
           id="textext-4fdae250-7">
          <path
             inkscape:connector-curvature="0"
             style="stroke:none"
             d="m 3.78125,-0.546875 0,0.65625 L 5.25,0 l 0,-0.3125 c -0.6875,0 -0.78125,-0.0625 -0.78125,-0.5625 l 0,-6.046875 -1.421875,0.109375 0,0.3125 c 0.6875,0 0.765625,0.0625 0.765625,0.5625 l 0,2.15625 c -0.28125,-0.359375 -0.71875,-0.625 -1.25,-0.625 -1.171875,0 -2.21875,0.984375 -2.21875,2.265625 0,1.265625 0.96875,2.25 2.109375,2.25 0.640625,0 1.078125,-0.34375 1.328125,-0.65625 z m 0,-2.671875 0,2.046875 c 0,0.171875 0,0.1875 -0.109375,0.359375 C 3.375,-0.328125 2.9375,-0.109375 2.5,-0.109375 2.046875,-0.109375 1.6875,-0.375 1.453125,-0.75 1.203125,-1.15625 1.171875,-1.71875 1.171875,-2.140625 1.171875,-2.5 1.1875,-3.09375 1.46875,-3.546875 1.6875,-3.859375 2.0625,-4.1875 2.609375,-4.1875 c 0.34375,0 0.765625,0.15625 1.0625,0.59375 0.109375,0.171875 0.109375,0.1875 0.109375,0.375 z m 0,0"
             id="path5332" />
        </symbol>
        <symbol
           style="overflow:visible"
           overflow="visible"
           id="textext-4fdae250-8">
          <path
             inkscape:connector-curvature="0"
             style="stroke:none"
             d="m 1.09375,-3.421875 0,2.671875 c 0,0.4375 -0.109375,0.4375 -0.78125,0.4375 l 0,0.3125 c 0.359375,-0.015625 0.859375,-0.03125 1.140625,-0.03125 0.25,0 0.765625,0.015625 1.109375,0.03125 l 0,-0.3125 c -0.671875,0 -0.78125,0 -0.78125,-0.4375 l 0,-1.84375 C 1.78125,-3.625 2.5,-4.1875 3.125,-4.1875 c 0.640625,0 0.75,0.53125 0.75,1.109375 l 0,2.328125 c 0,0.4375 -0.109375,0.4375 -0.78125,0.4375 l 0,0.3125 c 0.34375,-0.015625 0.859375,-0.03125 1.125,-0.03125 0.25,0 0.78125,0.015625 1.109375,0.03125 l 0,-0.3125 c -0.65625,0 -0.765625,0 -0.765625,-0.4375 l 0,-1.84375 c 0,-1.03125 0.703125,-1.59375 1.34375,-1.59375 0.625,0 0.734375,0.53125 0.734375,1.109375 l 0,2.328125 c 0,0.4375 -0.109375,0.4375 -0.78125,0.4375 l 0,0.3125 c 0.34375,-0.015625 0.859375,-0.03125 1.125,-0.03125 0.265625,0 0.78125,0.015625 1.125,0.03125 l 0,-0.3125 c -0.515625,0 -0.765625,0 -0.78125,-0.296875 l 0,-1.90625 c 0,-0.859375 0,-1.15625 -0.3125,-1.515625 -0.140625,-0.171875 -0.46875,-0.375 -1.046875,-0.375 -0.828125,0 -1.28125,0.59375 -1.4375,0.984375 C 4.390625,-4.296875 3.65625,-4.40625 3.203125,-4.40625 2.46875,-4.40625 2,-3.984375 1.71875,-3.359375 l 0,-1.046875 -1.40625,0.109375 0,0.3125 c 0.703125,0 0.78125,0.0625 0.78125,0.5625 z m 0,0"
             id="path5335" />
        </symbol>
        <symbol
           style="overflow:visible"
           overflow="visible"
           id="textext-4fdae250-9">
          <path
             inkscape:connector-curvature="0"
             style="stroke:none"
             d="m 1.71875,-3.984375 1.4375,0 0,-0.3125 -1.4375,0 0,-1.828125 -0.25,0 c 0,0.8125 -0.296875,1.875 -1.28125,1.921875 l 0,0.21875 0.84375,0 0,2.75 c 0,1.21875 0.9375,1.34375 1.296875,1.34375 0.703125,0 0.984375,-0.703125 0.984375,-1.34375 l 0,-0.5625 -0.25,0 0,0.546875 c 0,0.734375 -0.296875,1.109375 -0.671875,1.109375 -0.671875,0 -0.671875,-0.90625 -0.671875,-1.078125 z m 0,0"
             id="path5338" />
        </symbol>
        <symbol
           style="overflow:visible"
           overflow="visible"
           id="textext-4fdae250-10">
          <path
             inkscape:connector-curvature="0"
             style="stroke:none"
             d="m 1.09375,-0.75 c 0,0.4375 -0.109375,0.4375 -0.78125,0.4375 l 0,0.3125 c 0.359375,-0.015625 0.859375,-0.03125 1.140625,-0.03125 0.25,0 0.765625,0.015625 1.109375,0.03125 l 0,-0.3125 c -0.671875,0 -0.78125,0 -0.78125,-0.4375 l 0,-1.84375 C 1.78125,-3.625 2.5,-4.1875 3.125,-4.1875 c 0.640625,0 0.75,0.53125 0.75,1.109375 l 0,2.328125 c 0,0.4375 -0.109375,0.4375 -0.78125,0.4375 l 0,0.3125 c 0.34375,-0.015625 0.859375,-0.03125 1.125,-0.03125 0.25,0 0.78125,0.015625 1.109375,0.03125 l 0,-0.3125 c -0.515625,0 -0.765625,0 -0.765625,-0.296875 l 0,-1.90625 c 0,-0.859375 0,-1.15625 -0.3125,-1.515625 -0.140625,-0.171875 -0.46875,-0.375 -1.046875,-0.375 -0.84375,0 -1.28125,0.59375 -1.453125,0.984375 l 0,-3.5 -1.4375,0.109375 0,0.3125 c 0.703125,0 0.78125,0.0625 0.78125,0.5625 z m 0,0"
             id="path5341" />
        </symbol>
        <symbol
           style="overflow:visible"
           overflow="visible"
           id="textext-4fdae250-11">
          <path
             inkscape:connector-curvature="0"
             style="stroke:none"
             d="m 1.265625,-0.765625 1.0625,-1.03125 c 1.546875,-1.375 2.140625,-1.90625 2.140625,-2.90625 0,-1.140625 -0.890625,-1.9375 -2.109375,-1.9375 -1.125,0 -1.859375,0.921875 -1.859375,1.8125 0,0.546875 0.5,0.546875 0.53125,0.546875 0.171875,0 0.515625,-0.109375 0.515625,-0.53125 0,-0.25 -0.1875,-0.515625 -0.53125,-0.515625 -0.078125,0 -0.09375,0 -0.125,0.015625 0.21875,-0.65625 0.765625,-1.015625 1.34375,-1.015625 0.90625,0 1.328125,0.8125 1.328125,1.625 C 3.5625,-3.90625 3.078125,-3.125 2.515625,-2.5 l -1.90625,2.125 C 0.5,-0.265625 0.5,-0.234375 0.5,0 l 3.703125,0 0.265625,-1.734375 -0.234375,0 C 4.171875,-1.4375 4.109375,-1 4,-0.84375 3.9375,-0.765625 3.28125,-0.765625 3.0625,-0.765625 Z m 0,0"
             id="path5344" />
        </symbol>
      </g>
    </defs>
    <g
       id="textext-4fdae250-12">
      <g
         style="fill:#000000;fill-opacity:1"
         id="g5347">
        <use
           height="100%"
           width="100%"
           xlink:href="#textext-4fdae250-1"
           x="223.43201"
           y="134.765"
           id="use5349" />
        <use
           height="100%"
           width="100%"
           xlink:href="#textext-4fdae250-2"
           x="230.21254"
           y="134.765"
           id="use5351" />
        <use
           height="100%"
           width="100%"
           xlink:href="#textext-4fdae250-3"
           x="234.1149"
           y="134.765"
           id="use5353" />
        <use
           height="100%"
           width="100%"
           xlink:href="#textext-4fdae250-4"
           x="239.09619"
           y="134.765"
           id="use5355" />
      </g>
      <g
         style="fill:#000000;fill-opacity:1"
         id="g5357">
        <use
           height="100%"
           width="100%"
           xlink:href="#textext-4fdae250-3"
           x="244.91037"
           y="134.765"
           id="use5359" />
        <use
           height="100%"
           width="100%"
           xlink:href="#textext-4fdae250-5"
           x="249.89166"
           y="134.765"
           id="use5361" />
        <use
           height="100%"
           width="100%"
           xlink:href="#textext-4fdae250-6"
           x="253.82092"
           y="134.765"
           id="use5363" />
        <use
           height="100%"
           width="100%"
           xlink:href="#textext-4fdae250-7"
           x="258.24829"
           y="134.765"
           id="use5365" />
      </g>
      <g
         style="fill:#000000;fill-opacity:1"
         id="g5367">
        <use
           height="100%"
           width="100%"
           xlink:href="#textext-4fdae250-8"
           x="267.10107"
           y="134.765"
           id="use5369" />
        <use
           height="100%"
           width="100%"
           xlink:href="#textext-4fdae250-6"
           x="275.40289"
           y="134.765"
           id="use5371" />
        <use
           height="100%"
           width="100%"
           xlink:href="#textext-4fdae250-9"
           x="279.83029"
           y="134.765"
           id="use5373" />
        <use
           height="100%"
           width="100%"
           xlink:href="#textext-4fdae250-10"
           x="283.70474"
           y="134.765"
           id="use5375" />
        <use
           height="100%"
           width="100%"
           xlink:href="#textext-4fdae250-3"
           x="289.23996"
           y="134.765"
           id="use5377" />
      </g>
      <g
         style="fill:#000000;fill-opacity:1"
         id="g5379">
        <use
           height="100%"
           width="100%"
           xlink:href="#textext-4fdae250-7"
           x="294.50021"
           y="134.765"
           id="use5381" />
      </g>
      <g
         style="fill:#000000;fill-opacity:1"
         id="g5383">
        <use
           height="100%"
           width="100%"
           xlink:href="#textext-4fdae250-11"
           x="303.35297"
           y="134.765"
           id="use5385" />
      </g>
    </g>
  </g>
  <g
     transform="matrix(2.818623,0,0,2.818623,-495.29268,-288.24354)"
     id="g5797"
     ns0:preamble=""
     ns0:text="Proposed method $3$">
    <defs
       id="defs5799">
      <g
         id="g5801">
        <symbol
           style="overflow:visible"
           id="textext-dc4c7815-0"
           overflow="visible">
          <path
             inkscape:connector-curvature="0"
             id="path5804"
             d=""
             style="stroke:none" />
        </symbol>
        <symbol
           style="overflow:visible"
           id="textext-dc4c7815-1"
           overflow="visible">
          <path
             inkscape:connector-curvature="0"
             id="path5807"
             d="m 2.265625,-3.15625 1.6875,0 c 1.1875,0 2.265625,-0.796875 2.265625,-1.796875 C 6.21875,-5.9375 5.234375,-6.8125 3.875,-6.8125 l -3.53125,0 0,0.3125 0.25,0 c 0.765625,0 0.78125,0.109375 0.78125,0.46875 l 0,5.25 c 0,0.359375 -0.015625,0.46875 -0.78125,0.46875 l -0.25,0 0,0.3125 c 0.359375,-0.03125 1.09375,-0.03125 1.46875,-0.03125 0.375,0 1.125,0 1.484375,0.03125 l 0,-0.3125 -0.25,0 c -0.765625,0 -0.78125,-0.109375 -0.78125,-0.46875 z m -0.03125,-0.25 0,-2.6875 C 2.234375,-6.4375 2.25,-6.5 2.71875,-6.5 l 0.890625,0 c 1.578125,0 1.578125,1.0625 1.578125,1.546875 0,0.46875 0,1.546875 -1.578125,1.546875 z m 0,0"
             style="stroke:none" />
        </symbol>
        <symbol
           style="overflow:visible"
           id="textext-dc4c7815-2"
           overflow="visible">
          <path
             inkscape:connector-curvature="0"
             id="path5810"
             d="m 1.671875,-3.3125 0,-1.09375 -1.390625,0.109375 0,0.3125 c 0.703125,0 0.78125,0.0625 0.78125,0.5625 l 0,2.671875 c 0,0.4375 -0.109375,0.4375 -0.78125,0.4375 l 0,0.3125 c 0.390625,-0.015625 0.859375,-0.03125 1.140625,-0.03125 0.390625,0 0.859375,0 1.265625,0.03125 l 0,-0.3125 -0.21875,0 c -0.734375,0 -0.75,-0.109375 -0.75,-0.46875 l 0,-1.53125 c 0,-0.984375 0.421875,-1.875 1.171875,-1.875 0.0625,0 0.09375,0 0.109375,0.015625 -0.03125,0 -0.234375,0.125 -0.234375,0.390625 0,0.265625 0.21875,0.421875 0.4375,0.421875 0.171875,0 0.421875,-0.125 0.421875,-0.4375 0,-0.3125 -0.3125,-0.609375 -0.734375,-0.609375 -0.734375,0 -1.09375,0.671875 -1.21875,1.09375 z m 0,0"
             style="stroke:none" />
        </symbol>
        <symbol
           style="overflow:visible"
           id="textext-dc4c7815-3"
           overflow="visible">
          <path
             inkscape:connector-curvature="0"
             id="path5813"
             d="M 4.6875,-2.140625 C 4.6875,-3.40625 3.703125,-4.46875 2.5,-4.46875 c -1.25,0 -2.21875,1.09375 -2.21875,2.328125 0,1.296875 1.03125,2.25 2.203125,2.25 1.203125,0 2.203125,-0.984375 2.203125,-2.25 z m -2.1875,2 c -0.4375,0 -0.875,-0.203125 -1.140625,-0.671875 -0.25,-0.4375 -0.25,-1.046875 -0.25,-1.40625 0,-0.390625 0,-0.921875 0.234375,-1.359375 C 1.609375,-4.03125 2.078125,-4.25 2.484375,-4.25 c 0.4375,0 0.859375,0.21875 1.125,0.65625 0.265625,0.421875 0.265625,1 0.265625,1.375 0,0.359375 0,0.90625 -0.21875,1.34375 C 3.421875,-0.421875 2.984375,-0.140625 2.5,-0.140625 Z m 0,0"
             style="stroke:none" />
        </symbol>
        <symbol
           style="overflow:visible"
           id="textext-dc4c7815-4"
           overflow="visible">
          <path
             inkscape:connector-curvature="0"
             id="path5816"
             d="m 1.71875,-3.75 0,-0.65625 -1.4375,0.109375 0,0.3125 c 0.703125,0 0.78125,0.0625 0.78125,0.5 l 0,4.65625 C 1.0625,1.625 0.953125,1.625 0.28125,1.625 l 0,0.3125 C 0.625,1.921875 1.140625,1.90625 1.390625,1.90625 c 0.28125,0 0.78125,0.015625 1.125,0.03125 l 0,-0.3125 C 1.859375,1.625 1.75,1.625 1.75,1.171875 l 0,-1.765625 c 0.046875,0.171875 0.46875,0.703125 1.21875,0.703125 1.1875,0 2.21875,-0.984375 2.21875,-2.265625 0,-1.265625 -0.953125,-2.25 -2.078125,-2.25 -0.78125,0 -1.203125,0.4375 -1.390625,0.65625 z m 0.03125,2.609375 0,-2.21875 C 2.03125,-3.875 2.515625,-4.15625 3.03125,-4.15625 c 0.734375,0 1.328125,0.875 1.328125,2 0,1.203125 -0.6875,2.046875 -1.421875,2.046875 -0.40625,0 -0.78125,-0.203125 -1.046875,-0.609375 C 1.75,-0.921875 1.75,-0.9375 1.75,-1.140625 Z m 0,0"
             style="stroke:none" />
        </symbol>
        <symbol
           style="overflow:visible"
           id="textext-dc4c7815-5"
           overflow="visible">
          <path
             inkscape:connector-curvature="0"
             id="path5819"
             d="m 2.078125,-1.9375 c 0.21875,0.046875 1.03125,0.203125 1.03125,0.921875 0,0.5 -0.34375,0.90625 -1.125,0.90625 -0.84375,0 -1.203125,-0.5625 -1.390625,-1.421875 C 0.5625,-1.65625 0.5625,-1.6875 0.453125,-1.6875 c -0.125,0 -0.125,0.0625 -0.125,0.234375 l 0,1.328125 c 0,0.171875 0,0.234375 0.109375,0.234375 0.046875,0 0.0625,-0.015625 0.25,-0.203125 0.015625,-0.015625 0.015625,-0.03125 0.203125,-0.21875 0.4375,0.40625 0.890625,0.421875 1.09375,0.421875 1.140625,0 1.609375,-0.671875 1.609375,-1.390625 0,-0.515625 -0.296875,-0.828125 -0.421875,-0.9375 C 2.84375,-2.546875 2.453125,-2.625 2.03125,-2.703125 1.46875,-2.8125 0.8125,-2.9375 0.8125,-3.515625 c 0,-0.359375 0.25,-0.765625 1.109375,-0.765625 1.09375,0 1.15625,0.90625 1.171875,1.203125 0,0.09375 0.09375,0.09375 0.109375,0.09375 0.140625,0 0.140625,-0.046875 0.140625,-0.234375 l 0,-1.015625 c 0,-0.15625 0,-0.234375 -0.109375,-0.234375 -0.046875,0 -0.078125,0 -0.203125,0.125 -0.03125,0.03125 -0.125,0.125 -0.171875,0.15625 -0.375,-0.28125 -0.78125,-0.28125 -0.9375,-0.28125 -1.21875,0 -1.59375,0.671875 -1.59375,1.234375 0,0.34375 0.15625,0.625 0.421875,0.84375 0.328125,0.25 0.609375,0.3125 1.328125,0.453125 z m 0,0"
             style="stroke:none" />
        </symbol>
        <symbol
           style="overflow:visible"
           id="textext-dc4c7815-6"
           overflow="visible">
          <path
             inkscape:connector-curvature="0"
             id="path5822"
             d="M 1.109375,-2.515625 C 1.171875,-4 2.015625,-4.25 2.359375,-4.25 c 1.015625,0 1.125,1.34375 1.125,1.734375 z m 0,0.21875 2.78125,0 c 0.21875,0 0.25,0 0.25,-0.21875 0,-0.984375 -0.546875,-1.953125 -1.78125,-1.953125 -1.15625,0 -2.078125,1.03125 -2.078125,2.28125 0,1.328125 1.046875,2.296875 2.1875,2.296875 C 3.6875,0.109375 4.140625,-1 4.140625,-1.1875 4.140625,-1.28125 4.0625,-1.3125 4,-1.3125 c -0.078125,0 -0.109375,0.0625 -0.125,0.140625 -0.34375,1.03125 -1.25,1.03125 -1.34375,1.03125 -0.5,0 -0.890625,-0.296875 -1.125,-0.671875 -0.296875,-0.46875 -0.296875,-1.125 -0.296875,-1.484375 z m 0,0"
             style="stroke:none" />
        </symbol>
        <symbol
           style="overflow:visible"
           id="textext-dc4c7815-7"
           overflow="visible">
          <path
             inkscape:connector-curvature="0"
             id="path5825"
             d="m 3.78125,-0.546875 0,0.65625 L 5.25,0 l 0,-0.3125 c -0.6875,0 -0.78125,-0.0625 -0.78125,-0.5625 l 0,-6.046875 -1.421875,0.109375 0,0.3125 c 0.6875,0 0.765625,0.0625 0.765625,0.5625 l 0,2.15625 c -0.28125,-0.359375 -0.71875,-0.625 -1.25,-0.625 -1.171875,0 -2.21875,0.984375 -2.21875,2.265625 0,1.265625 0.96875,2.25 2.109375,2.25 0.640625,0 1.078125,-0.34375 1.328125,-0.65625 z m 0,-2.671875 0,2.046875 c 0,0.171875 0,0.1875 -0.109375,0.359375 C 3.375,-0.328125 2.9375,-0.109375 2.5,-0.109375 2.046875,-0.109375 1.6875,-0.375 1.453125,-0.75 1.203125,-1.15625 1.171875,-1.71875 1.171875,-2.140625 1.171875,-2.5 1.1875,-3.09375 1.46875,-3.546875 1.6875,-3.859375 2.0625,-4.1875 2.609375,-4.1875 c 0.34375,0 0.765625,0.15625 1.0625,0.59375 0.109375,0.171875 0.109375,0.1875 0.109375,0.375 z m 0,0"
             style="stroke:none" />
        </symbol>
        <symbol
           style="overflow:visible"
           id="textext-dc4c7815-8"
           overflow="visible">
          <path
             inkscape:connector-curvature="0"
             id="path5828"
             d="m 1.09375,-3.421875 0,2.671875 c 0,0.4375 -0.109375,0.4375 -0.78125,0.4375 l 0,0.3125 c 0.359375,-0.015625 0.859375,-0.03125 1.140625,-0.03125 0.25,0 0.765625,0.015625 1.109375,0.03125 l 0,-0.3125 c -0.671875,0 -0.78125,0 -0.78125,-0.4375 l 0,-1.84375 C 1.78125,-3.625 2.5,-4.1875 3.125,-4.1875 c 0.640625,0 0.75,0.53125 0.75,1.109375 l 0,2.328125 c 0,0.4375 -0.109375,0.4375 -0.78125,0.4375 l 0,0.3125 c 0.34375,-0.015625 0.859375,-0.03125 1.125,-0.03125 0.25,0 0.78125,0.015625 1.109375,0.03125 l 0,-0.3125 c -0.65625,0 -0.765625,0 -0.765625,-0.4375 l 0,-1.84375 c 0,-1.03125 0.703125,-1.59375 1.34375,-1.59375 0.625,0 0.734375,0.53125 0.734375,1.109375 l 0,2.328125 c 0,0.4375 -0.109375,0.4375 -0.78125,0.4375 l 0,0.3125 c 0.34375,-0.015625 0.859375,-0.03125 1.125,-0.03125 0.265625,0 0.78125,0.015625 1.125,0.03125 l 0,-0.3125 c -0.515625,0 -0.765625,0 -0.78125,-0.296875 l 0,-1.90625 c 0,-0.859375 0,-1.15625 -0.3125,-1.515625 -0.140625,-0.171875 -0.46875,-0.375 -1.046875,-0.375 -0.828125,0 -1.28125,0.59375 -1.4375,0.984375 C 4.390625,-4.296875 3.65625,-4.40625 3.203125,-4.40625 2.46875,-4.40625 2,-3.984375 1.71875,-3.359375 l 0,-1.046875 -1.40625,0.109375 0,0.3125 c 0.703125,0 0.78125,0.0625 0.78125,0.5625 z m 0,0"
             style="stroke:none" />
        </symbol>
        <symbol
           style="overflow:visible"
           id="textext-dc4c7815-9"
           overflow="visible">
          <path
             inkscape:connector-curvature="0"
             id="path5831"
             d="m 1.71875,-3.984375 1.4375,0 0,-0.3125 -1.4375,0 0,-1.828125 -0.25,0 c 0,0.8125 -0.296875,1.875 -1.28125,1.921875 l 0,0.21875 0.84375,0 0,2.75 c 0,1.21875 0.9375,1.34375 1.296875,1.34375 0.703125,0 0.984375,-0.703125 0.984375,-1.34375 l 0,-0.5625 -0.25,0 0,0.546875 c 0,0.734375 -0.296875,1.109375 -0.671875,1.109375 -0.671875,0 -0.671875,-0.90625 -0.671875,-1.078125 z m 0,0"
             style="stroke:none" />
        </symbol>
        <symbol
           style="overflow:visible"
           id="textext-dc4c7815-10"
           overflow="visible">
          <path
             inkscape:connector-curvature="0"
             id="path5834"
             d="m 1.09375,-0.75 c 0,0.4375 -0.109375,0.4375 -0.78125,0.4375 l 0,0.3125 c 0.359375,-0.015625 0.859375,-0.03125 1.140625,-0.03125 0.25,0 0.765625,0.015625 1.109375,0.03125 l 0,-0.3125 c -0.671875,0 -0.78125,0 -0.78125,-0.4375 l 0,-1.84375 C 1.78125,-3.625 2.5,-4.1875 3.125,-4.1875 c 0.640625,0 0.75,0.53125 0.75,1.109375 l 0,2.328125 c 0,0.4375 -0.109375,0.4375 -0.78125,0.4375 l 0,0.3125 c 0.34375,-0.015625 0.859375,-0.03125 1.125,-0.03125 0.25,0 0.78125,0.015625 1.109375,0.03125 l 0,-0.3125 c -0.515625,0 -0.765625,0 -0.765625,-0.296875 l 0,-1.90625 c 0,-0.859375 0,-1.15625 -0.3125,-1.515625 -0.140625,-0.171875 -0.46875,-0.375 -1.046875,-0.375 -0.84375,0 -1.28125,0.59375 -1.453125,0.984375 l 0,-3.5 -1.4375,0.109375 0,0.3125 c 0.703125,0 0.78125,0.0625 0.78125,0.5625 z m 0,0"
             style="stroke:none" />
        </symbol>
        <symbol
           style="overflow:visible"
           id="textext-dc4c7815-11"
           overflow="visible">
          <path
             inkscape:connector-curvature="0"
             id="path5837"
             d="m 2.890625,-3.515625 c 0.8125,-0.265625 1.390625,-0.953125 1.390625,-1.75 0,-0.8125 -0.875,-1.375 -1.828125,-1.375 -1,0 -1.765625,0.59375 -1.765625,1.359375 0,0.328125 0.21875,0.515625 0.515625,0.515625 0.296875,0 0.5,-0.21875 0.5,-0.515625 0,-0.484375 -0.46875,-0.484375 -0.609375,-0.484375 0.296875,-0.5 0.953125,-0.625 1.3125,-0.625 0.421875,0 0.96875,0.21875 0.96875,1.109375 0,0.125 -0.03125,0.703125 -0.28125,1.140625 C 2.796875,-3.65625 2.453125,-3.625 2.203125,-3.625 2.125,-3.609375 1.890625,-3.59375 1.8125,-3.59375 c -0.078125,0.015625 -0.140625,0.03125 -0.140625,0.125 0,0.109375 0.0625,0.109375 0.234375,0.109375 l 0.4375,0 c 0.8125,0 1.1875,0.671875 1.1875,1.65625 0,1.359375 -0.6875,1.640625 -1.125,1.640625 -0.4375,0 -1.1875,-0.171875 -1.53125,-0.75 0.34375,0.046875 0.65625,-0.171875 0.65625,-0.546875 0,-0.359375 -0.265625,-0.5625 -0.546875,-0.5625 -0.25,0 -0.5625,0.140625 -0.5625,0.578125 0,0.90625 0.921875,1.5625 2.015625,1.5625 1.21875,0 2.125,-0.90625 2.125,-1.921875 0,-0.8125 -0.640625,-1.59375 -1.671875,-1.8125 z m 0,0"
             style="stroke:none" />
        </symbol>
      </g>
    </defs>
    <g
       id="textext-dc4c7815-12">
      <g
         id="g5840"
         style="fill:#000000;fill-opacity:1">
        <use
           height="100%"
           width="100%"
           id="use5842"
           y="134.765"
           x="223.43201"
           xlink:href="#textext-dc4c7815-1" />
        <use
           height="100%"
           width="100%"
           id="use5844"
           y="134.765"
           x="230.21254"
           xlink:href="#textext-dc4c7815-2" />
        <use
           height="100%"
           width="100%"
           id="use5846"
           y="134.765"
           x="234.1149"
           xlink:href="#textext-dc4c7815-3" />
        <use
           height="100%"
           width="100%"
           id="use5848"
           y="134.765"
           x="239.09619"
           xlink:href="#textext-dc4c7815-4" />
      </g>
      <g
         id="g5850"
         style="fill:#000000;fill-opacity:1">
        <use
           height="100%"
           width="100%"
           id="use5852"
           y="134.765"
           x="244.91037"
           xlink:href="#textext-dc4c7815-3" />
        <use
           height="100%"
           width="100%"
           id="use5854"
           y="134.765"
           x="249.89166"
           xlink:href="#textext-dc4c7815-5" />
        <use
           height="100%"
           width="100%"
           id="use5856"
           y="134.765"
           x="253.82092"
           xlink:href="#textext-dc4c7815-6" />
        <use
           height="100%"
           width="100%"
           id="use5858"
           y="134.765"
           x="258.24829"
           xlink:href="#textext-dc4c7815-7" />
      </g>
      <g
         id="g5860"
         style="fill:#000000;fill-opacity:1">
        <use
           height="100%"
           width="100%"
           id="use5862"
           y="134.765"
           x="267.10107"
           xlink:href="#textext-dc4c7815-8" />
        <use
           height="100%"
           width="100%"
           id="use5864"
           y="134.765"
           x="275.40289"
           xlink:href="#textext-dc4c7815-6" />
        <use
           height="100%"
           width="100%"
           id="use5866"
           y="134.765"
           x="279.83029"
           xlink:href="#textext-dc4c7815-9" />
        <use
           height="100%"
           width="100%"
           id="use5868"
           y="134.765"
           x="283.70474"
           xlink:href="#textext-dc4c7815-10" />
        <use
           height="100%"
           width="100%"
           id="use5870"
           y="134.765"
           x="289.23996"
           xlink:href="#textext-dc4c7815-3" />
      </g>
      <g
         id="g5872"
         style="fill:#000000;fill-opacity:1">
        <use
           height="100%"
           width="100%"
           id="use5874"
           y="134.765"
           x="294.50021"
           xlink:href="#textext-dc4c7815-7" />
      </g>
      <g
         id="g5876"
         style="fill:#000000;fill-opacity:1">
        <use
           height="100%"
           width="100%"
           id="use5878"
           y="134.765"
           x="303.35297"
           xlink:href="#textext-dc4c7815-11" />
      </g>
    </g>
  </g>
</svg>
