<?xml version="1.0" encoding="utf-8"  standalone="no"?>
<!DOCTYPE svg PUBLIC "-//W3C//DTD SVG 1.1//EN"
 "http://www.w3.org/Graphics/SVG/1.1/DTD/svg11.dtd">
<svg 
 width="600" height="480"
 viewBox="0 0 600 480"
 xmlns="http://www.w3.org/2000/svg"
 xmlns:xlink="http://www.w3.org/1999/xlink"
>

<title>Gnuplot</title>
<desc>Produced by GNUPLOT 5.0 patchlevel 3 </desc>

<g id="gnuplot_canvas">

<rect x="0" y="0" width="600" height="480" fill="none"/>
<defs>

	<circle id='gpDot' r='0.5' stroke-width='0.5'/>
	<path id='gpPt0' stroke-width='0.157' stroke='currentColor' d='M-1,0 h2 M0,-1 v2'/>
	<path id='gpPt1' stroke-width='0.157' stroke='currentColor' d='M-1,-1 L1,1 M1,-1 L-1,1'/>
	<path id='gpPt2' stroke-width='0.157' stroke='currentColor' d='M-1,0 L1,0 M0,-1 L0,1 M-1,-1 L1,1 M-1,1 L1,-1'/>
	<rect id='gpPt3' stroke-width='0.157' stroke='currentColor' x='-1' y='-1' width='2' height='2'/>
	<rect id='gpPt4' stroke-width='0.157' stroke='currentColor' fill='currentColor' x='-1' y='-1' width='2' height='2'/>
	<circle id='gpPt5' stroke-width='0.157' stroke='currentColor' cx='0' cy='0' r='1'/>
	<use xlink:href='#gpPt5' id='gpPt6' fill='currentColor' stroke='none'/>
	<path id='gpPt7' stroke-width='0.157' stroke='currentColor' d='M0,-1.33 L-1.33,0.67 L1.33,0.67 z'/>
	<use xlink:href='#gpPt7' id='gpPt8' fill='currentColor' stroke='none'/>
	<use xlink:href='#gpPt7' id='gpPt9' stroke='currentColor' transform='rotate(180)'/>
	<use xlink:href='#gpPt9' id='gpPt10' fill='currentColor' stroke='none'/>
	<use xlink:href='#gpPt3' id='gpPt11' stroke='currentColor' transform='rotate(45)'/>
	<use xlink:href='#gpPt11' id='gpPt12' fill='currentColor' stroke='none'/>
	<path id='gpPt13' stroke-width='0.157' stroke='currentColor' d='M0,1.330 L1.265,0.411 L0.782,-1.067 L-0.782,-1.076 L-1.265,0.411 z'/>
	<use xlink:href='#gpPt13' id='gpPt14' fill='currentColor' stroke='none'/>
	<filter id='textbox' filterUnits='objectBoundingBox' x='0' y='0' height='1' width='1'>
	  <feFlood flood-color='white' flood-opacity='1' result='bgnd'/>
	  <feComposite in='SourceGraphic' in2='bgnd' operator='atop'/>
	</filter>
	<filter id='greybox' filterUnits='objectBoundingBox' x='0' y='0' height='1' width='1'>
	  <feFlood flood-color='lightgrey' flood-opacity='1' result='grey'/>
	  <feComposite in='SourceGraphic' in2='grey' operator='atop'/>
	</filter>
</defs>
<g fill="none" color="white" stroke="currentColor" stroke-width="1.00" stroke-linecap="butt" stroke-linejoin="miter">
</g>
<g fill="none" color="black" stroke="currentColor" stroke-width="1.00" stroke-linecap="butt" stroke-linejoin="miter">
	<path stroke='black'  d='M117.8,429.2 L130.5,429.2 M523.4,429.2 L510.7,429.2  '/>	<g transform="translate(106.0,435.6)" stroke="none" fill="black" font-family="Arial" font-size="17.00"  text-anchor="end">
		<text><tspan font-family="Arial" > 0</tspan></text>
	</g>
</g>
<g fill="none" color="black" stroke="currentColor" stroke-width="1.00" stroke-linecap="butt" stroke-linejoin="miter">
	<path stroke='black'  d='M117.8,348.1 L130.5,348.1 M523.4,348.1 L510.7,348.1  '/>	<g transform="translate(106.0,354.5)" stroke="none" fill="black" font-family="Arial" font-size="17.00"  text-anchor="end">
		<text><tspan font-family="Arial" > 0.2</tspan></text>
	</g>
</g>
<g fill="none" color="black" stroke="currentColor" stroke-width="1.00" stroke-linecap="butt" stroke-linejoin="miter">
	<path stroke='black'  d='M117.8,267.0 L130.5,267.0 M523.4,267.0 L510.7,267.0  '/>	<g transform="translate(106.0,273.4)" stroke="none" fill="black" font-family="Arial" font-size="17.00"  text-anchor="end">
		<text><tspan font-family="Arial" > 0.4</tspan></text>
	</g>
</g>
<g fill="none" color="black" stroke="currentColor" stroke-width="1.00" stroke-linecap="butt" stroke-linejoin="miter">
	<path stroke='black'  d='M117.8,185.9 L130.5,185.9 M523.4,185.9 L510.7,185.9  '/>	<g transform="translate(106.0,192.3)" stroke="none" fill="black" font-family="Arial" font-size="17.00"  text-anchor="end">
		<text><tspan font-family="Arial" > 0.6</tspan></text>
	</g>
</g>
<g fill="none" color="black" stroke="currentColor" stroke-width="1.00" stroke-linecap="butt" stroke-linejoin="miter">
	<path stroke='black'  d='M117.8,104.8 L130.5,104.8 M523.4,104.8 L510.7,104.8  '/>	<g transform="translate(106.0,111.2)" stroke="none" fill="black" font-family="Arial" font-size="17.00"  text-anchor="end">
		<text><tspan font-family="Arial" > 0.8</tspan></text>
	</g>
</g>
<g fill="none" color="black" stroke="currentColor" stroke-width="1.00" stroke-linecap="butt" stroke-linejoin="miter">
	<path stroke='black'  d='M117.8,23.7 L130.5,23.7 M523.4,23.7 L510.7,23.7  '/>	<g transform="translate(106.0,30.1)" stroke="none" fill="black" font-family="Arial" font-size="17.00"  text-anchor="end">
		<text><tspan font-family="Arial" > 1</tspan></text>
	</g>
</g>
<g fill="none" color="black" stroke="currentColor" stroke-width="1.00" stroke-linecap="butt" stroke-linejoin="miter">
	<path stroke='black'  d='M117.8,429.2 L117.8,416.5 M117.8,23.7 L117.8,36.4  '/>	<g transform="translate(117.8,461.0)" stroke="none" fill="black" font-family="Arial" font-size="17.00"  text-anchor="middle">
		<text><tspan font-family="Arial" > 0</tspan></text>
	</g>
</g>
<g fill="none" color="black" stroke="currentColor" stroke-width="1.00" stroke-linecap="butt" stroke-linejoin="miter">
	<path stroke='black'  d='M198.9,429.2 L198.9,416.5 M198.9,23.7 L198.9,36.4  '/>	<g transform="translate(198.9,461.0)" stroke="none" fill="black" font-family="Arial" font-size="17.00"  text-anchor="middle">
		<text><tspan font-family="Arial" > 0.2</tspan></text>
	</g>
</g>
<g fill="none" color="black" stroke="currentColor" stroke-width="1.00" stroke-linecap="butt" stroke-linejoin="miter">
	<path stroke='black'  d='M280.0,429.2 L280.0,416.5 M280.0,23.7 L280.0,36.4  '/>	<g transform="translate(280.0,461.0)" stroke="none" fill="black" font-family="Arial" font-size="17.00"  text-anchor="middle">
		<text><tspan font-family="Arial" > 0.4</tspan></text>
	</g>
</g>
<g fill="none" color="black" stroke="currentColor" stroke-width="1.00" stroke-linecap="butt" stroke-linejoin="miter">
	<path stroke='black'  d='M361.2,429.2 L361.2,416.5 M361.2,23.7 L361.2,36.4  '/>	<g transform="translate(361.2,461.0)" stroke="none" fill="black" font-family="Arial" font-size="17.00"  text-anchor="middle">
		<text><tspan font-family="Arial" > 0.6</tspan></text>
	</g>
</g>
<g fill="none" color="black" stroke="currentColor" stroke-width="1.00" stroke-linecap="butt" stroke-linejoin="miter">
	<path stroke='black'  d='M442.3,429.2 L442.3,416.5 M442.3,23.7 L442.3,36.4  '/>	<g transform="translate(442.3,461.0)" stroke="none" fill="black" font-family="Arial" font-size="17.00"  text-anchor="middle">
		<text><tspan font-family="Arial" > 0.8</tspan></text>
	</g>
</g>
<g fill="none" color="black" stroke="currentColor" stroke-width="1.00" stroke-linecap="butt" stroke-linejoin="miter">
	<path stroke='black'  d='M523.4,429.2 L523.4,416.5 M523.4,23.7 L523.4,36.4  '/>	<g transform="translate(523.4,461.0)" stroke="none" fill="black" font-family="Arial" font-size="17.00"  text-anchor="middle">
		<text><tspan font-family="Arial" > 1</tspan></text>
	</g>
</g>
<g fill="none" color="black" stroke="currentColor" stroke-width="1.00" stroke-linecap="butt" stroke-linejoin="miter">
</g>
<g fill="none" color="black" stroke="currentColor" stroke-width="1.00" stroke-linecap="butt" stroke-linejoin="miter">
	<path stroke='black'  d='M117.8,23.7 L117.8,429.2 L523.4,429.2 L523.4,23.7 L117.8,23.7 Z  '/></g>
<g fill="none" color="black" stroke="currentColor" stroke-width="1.00" stroke-linecap="butt" stroke-linejoin="miter">
</g>
	<g id="gnuplot_plot_1" ><title>gnuplot_plot_1</title>
<g fill="none" color="black" stroke="currentColor" stroke-width="1.00" stroke-linecap="butt" stroke-linejoin="miter">
	<path stroke='gray'  d='M131.3,422.3 L130.4,421.7 L129.3,420.9 L128.2,419.9 L127.1,418.8 L126.1,417.7 L125.3,416.6 L124.7,415.7
		M138.1,422.0 L136.7,422.3 L135.3,422.6 L133.9,422.8 L132.6,422.7 L131.3,422.3 M144.8,419.2 L143.5,419.7
		L142.2,420.3 L140.8,421.0 L139.4,421.6 L138.1,422.0 M151.6,417.2 L150.3,417.5 L148.9,417.9 L147.5,418.3
		L146.1,418.7 L144.8,419.2 M158.4,416.1 L157.0,416.3 L155.6,416.4 L154.3,416.6 L152.9,416.9 L151.6,417.2
		M165.1,415.9 L163.8,415.9 L162.4,416.0 L161.1,416.0 L159.7,416.0 L158.4,416.1 M170.6,415.2 L169.2,415.6
		L167.9,415.8 L166.6,415.8 L165.1,415.9 M476.1,415.9 L474.6,415.8 L473.3,415.8 L472.0,415.6 L470.6,415.2
		M482.8,416.1 L481.5,416.0 L480.1,416.0 L478.8,416.0 L477.4,415.9 L476.1,415.9 M489.6,417.2 L488.3,416.9
		L486.9,416.6 L485.6,416.4 L484.2,416.3 L482.8,416.1 M496.4,419.2 L495.1,418.7 L493.7,418.3 L492.3,417.9
		L490.9,417.5 L489.6,417.2 M503.1,422.0 L501.8,421.6 L500.4,421.0 L499.0,420.3 L497.7,419.7 L496.4,419.2
		M509.9,422.3 L508.6,422.7 L507.3,422.8 L505.9,422.6 L504.5,422.3 L503.1,422.0 M516.5,415.7 L515.9,416.6
		L515.1,417.7 L514.1,418.8 L513.0,419.9 L511.9,420.9 L510.8,421.7 L509.9,422.3 M124.7,415.7 L124.3,414.4
		L124.3,413.1 L124.4,411.7 L124.7,410.3 L125.0,408.9 M178.6,411.2 L177.5,411.9 L176.1,412.6 L174.7,413.4
		L173.2,414.1 L171.8,414.8 L170.6,415.2 M182.2,408.9 L181.1,410.1 L180.1,410.5 L178.6,411.2 M462.6,411.2
		L461.1,410.5 L460.1,410.1 L459.0,408.9 M470.6,415.2 L469.4,414.8 L468.0,414.1 L466.5,413.4 L465.1,412.6
		L463.7,411.9 L462.6,411.2 M516.2,408.9 L516.5,410.3 L516.8,411.7 L516.9,413.1 L516.9,414.4 L516.5,415.7
		M125.0,408.9 L125.4,407.6 L126.0,406.2 L126.7,404.8 L127.3,403.5 L127.8,402.2 M185.7,402.7 L185.2,403.9
		L184.5,405.3 L183.8,406.6 L183.0,407.8 L182.2,408.9 M459.0,408.9 L458.2,407.8 L457.4,406.6 L456.7,405.3
		L456.0,403.9 L455.5,402.7 M513.4,402.2 L513.9,403.5 L514.5,404.8 L515.2,406.2 L515.8,407.6 L516.2,408.9
		M127.8,402.2 L128.3,400.9 L128.7,399.5 L129.1,398.1 L129.5,396.8 L129.9,395.4 M187.6,395.4 L187.5,396.8
		L187.2,398.3 L186.7,399.8 L186.2,401.3 L185.7,402.7 M455.5,402.7 L455.0,401.3 L454.5,399.8 L454.0,398.3
		L453.7,396.8 L453.6,395.4 M511.3,395.4 L511.7,396.8 L512.1,398.1 L512.5,399.5 L512.9,400.9 L513.4,402.2
		M129.9,395.4 L130.1,394.1 L130.4,392.7 L130.6,391.4 L130.7,390.0 L130.9,388.6 M185.9,388.6 L186.2,390.0
		L186.7,391.3 L187.1,392.7 L187.5,394.1 L187.6,395.4 M453.6,395.4 L453.7,394.1 L454.1,392.7 L454.5,391.3
		L455.0,390.0 L455.3,388.6 M510.3,388.6 L510.5,390.0 L510.6,391.4 L510.8,392.7 L511.1,394.1 L511.3,395.4
		M130.9,388.6 L131.0,387.3 L131.0,385.9 L131.1,384.6 L131.1,383.2 L131.2,381.9 M185.4,381.9 L185.3,383.2
		L185.4,384.6 L185.5,386.0 L185.7,387.3 L185.9,388.6 M455.3,388.6 L455.5,387.3 L455.7,386.0 L455.8,384.6
		L455.9,383.2 L455.8,381.9 M510.0,381.9 L510.1,383.2 L510.1,384.6 L510.2,385.9 L510.2,387.3 L510.3,388.6
		M131.2,381.9 L131.2,380.4 L131.2,379.1 L131.4,377.9 L131.8,376.4 M187.5,375.1 L187.0,376.4 L186.5,377.8
		L186.0,379.1 L185.6,380.5 L185.4,381.9 M455.8,381.9 L455.6,380.5 L455.2,379.1 L454.7,377.8 L454.2,376.4
		L453.7,375.1 M509.4,376.4 L509.8,377.9 L510.0,379.1 L510.0,380.4 L510.0,381.9 M131.8,376.4 L132.2,375.2
		L132.9,373.8 L133.6,372.3 L134.4,370.9 L135.1,369.5 L135.8,368.4 M191.0,368.4 L190.5,369.7 L189.7,371.1
		L188.9,372.5 L188.1,373.8 L187.5,375.1 M453.7,375.1 L453.1,373.8 L452.3,372.5 L451.5,371.1 L450.7,369.7
		L450.2,368.4 M505.4,368.4 L506.1,369.5 L506.8,370.9 L507.6,372.3 L508.3,373.8 L509.0,375.2 L509.4,376.4
		M135.8,368.4 L136.5,366.9 L136.9,365.9 L138.1,364.8 L139.2,364.0 L140.4,363.2 L141.7,362.5 L143.1,361.9
		L144.4,361.3 M192.0,362.9 L191.4,364.2 L191.4,365.5 L191.3,366.9 L191.0,368.4 M450.2,368.4 L449.9,366.9
		L449.8,365.5 L449.8,364.2 L449.2,362.9 M496.8,361.3 L498.1,361.9 L499.5,362.5 L500.8,363.2 L502.0,364.0
		L503.1,364.8 L504.3,365.9 L504.7,366.9 L505.4,368.4 M144.4,361.3 L145.7,360.8 L147.2,360.3 L148.7,359.9
		L150.2,359.5 L151.6,359.4 L153.0,359.5 L154.3,359.9 L155.7,360.4 L157.0,360.8 L158.4,361.1 L159.7,361.3
		L161.1,361.5 L162.4,361.7 L163.8,361.7 L165.1,361.6 L166.5,361.4 L167.9,361.0 L169.2,360.6 L170.6,360.1
		L171.9,359.5 L173.2,358.9 L174.5,358.1 L175.9,357.3 L177.3,356.6 L178.6,356.0 L180.1,355.7 L181.5,355.7
		L182.8,355.6 L184.1,355.0 M198.9,357.2 L197.9,358.0 L196.6,358.9 L195.3,359.9 L194.0,360.9 L192.9,361.9
		L192.0,362.9 M202.9,354.9 L201.5,355.8 L200.4,356.3 L198.9,357.2 M442.3,357.2 L440.8,356.3 L439.7,355.8
		L438.3,354.9 M449.2,362.9 L448.3,361.9 L447.2,360.9 L445.9,359.9 L444.6,358.9 L443.3,358.0 L442.3,357.2
		M457.1,355.0 L458.4,355.6 L459.7,355.7 L461.1,355.7 L462.6,356.0 L463.9,356.6 L465.3,357.3 L466.7,358.1
		L468.0,358.9 L469.3,359.5 L470.6,360.1 L472.0,360.6 L473.3,361.0 L474.7,361.4 L476.1,361.6 L477.4,361.7
		L478.8,361.7 L480.1,361.5 L481.5,361.3 L482.8,361.1 L484.2,360.8 L485.5,360.4 L486.9,359.9 L488.2,359.5
		L489.6,359.4 L491.0,359.5 L492.5,359.9 L494.0,360.3 L495.5,360.8 L496.8,361.3 M184.1,355.0 L185.1,354.1
		L186.1,353.0 L187.2,351.7 L188.2,350.4 L189.1,349.1 L189.8,348.1 M205.7,352.1 L204.7,353.2 L204.1,353.9
		L202.9,354.9 M208.8,348.1 L207.6,349.5 L206.8,350.7 L205.7,352.1 M435.5,352.1 L434.4,350.7 L433.6,349.5
		L432.4,348.1 M438.3,354.9 L437.1,353.9 L436.5,353.2 L435.5,352.1 M451.4,348.1 L452.1,349.1 L453.0,350.4
		L454.0,351.7 L455.1,353.0 L456.1,354.1 L457.1,355.0 M189.8,348.1 L190.7,346.7 L191.2,345.6 L192.2,344.1
		L193.1,343.0 L193.8,342.3 L195.0,341.3 M212.4,344.4 L211.4,345.5 L210.6,346.2 L209.8,347.0 L208.8,348.1
		M214.9,341.3 L213.9,342.5 L213.4,343.2 L212.4,344.4 M428.8,344.4 L427.8,343.2 L427.3,342.5 L426.3,341.3
		M432.4,348.1 L431.4,347.0 L430.6,346.2 L429.8,345.5 L428.8,344.4 M446.2,341.3 L447.4,342.3 L448.1,343.0
		L449.0,344.1 L450.0,345.6 L450.5,346.7 L451.4,348.1 M195.0,341.3 L196.4,340.2 L197.5,339.4 L198.9,338.2
		L200.0,337.3 L200.8,336.4 L201.6,335.6 L202.6,334.6 M219.2,337.6 L218.1,338.6 L217.0,339.5 L216.0,340.3
		L214.9,341.3 M221.7,334.6 L220.7,335.8 L220.2,336.5 L219.2,337.6 M422.0,337.6 L421.0,336.5 L420.5,335.8
		L419.5,334.6 M426.3,341.3 L425.2,340.3 L424.2,339.5 L423.1,338.6 L422.0,337.6 M438.6,334.6 L439.6,335.6
		L440.4,336.4 L441.2,337.3 L442.3,338.2 L443.7,339.4 L444.8,340.2 L446.2,341.3 M202.6,334.6 L203.8,333.6
		L204.5,333.1 L205.7,332.1 L206.7,331.0 L207.6,330.0 L208.4,328.9 L209.4,327.8 M226.8,328.9 L225.8,330.0
		L224.8,331.1 L223.7,332.3 L222.7,333.5 L221.7,334.6 M419.5,334.6 L418.5,333.5 L417.5,332.3 L416.4,331.1
		L415.4,330.0 L414.4,328.9 M431.8,327.8 L432.8,328.9 L433.6,330.0 L434.5,331.0 L435.5,332.1 L436.7,333.1
		L437.4,333.6 L438.6,334.6 M209.4,327.8 L210.6,326.8 L211.3,326.3 L212.4,325.3 L213.5,324.4 L214.7,323.3
		L215.9,322.2 L217.1,321.2 L218.2,320.3 M232.6,321.0 L231.9,321.8 L231.0,322.9 L230.1,324.2 L229.2,325.5
		L228.3,326.8 L227.4,328.0 L226.8,328.9  '/>	<path stroke='gray'  d='M414.4,328.9 L413.8,328.0 L412.9,326.8 L412.0,325.5 L411.1,324.2 L410.2,322.9 L409.3,321.8 L408.6,321.0
		M423.0,320.3 L424.1,321.2 L425.3,322.2 L426.5,323.3 L427.7,324.4 L428.8,325.3 L429.9,326.3 L430.6,326.8
		L431.8,327.8 M218.2,320.3 L219.1,319.6 L220.2,318.8 L221.5,317.9 L222.8,316.9 L224.1,316.0 L225.2,315.2
		L226.1,314.4 M240.1,314.9 L239.3,315.6 L238.2,316.5 L237.0,317.4 L235.7,318.4 L234.5,319.3 L233.4,320.2
		L232.6,321.0 M408.6,321.0 L407.8,320.2 L406.7,319.3 L405.5,318.4 L404.2,317.4 L403.0,316.5 L401.9,315.6
		L401.1,314.9 M415.1,314.4 L416.0,315.2 L417.1,316.0 L418.4,316.9 L419.7,317.9 L421.0,318.8 L422.1,319.6
		L423.0,320.3 M226.1,314.4 L226.8,313.6 L227.7,312.5 L228.7,311.3 L229.6,310.1 L230.6,308.8 L231.4,307.8
		L232.2,306.9 M246.9,307.6 L246.0,308.3 L245.0,309.3 L244.0,310.5 L242.9,311.8 L241.9,313.0 L240.9,314.0
		L240.1,314.9 M401.1,314.9 L400.3,314.0 L399.3,313.0 L398.3,311.8 L397.2,310.5 L396.2,309.3 L395.2,308.3
		L394.3,307.6 M409.0,306.9 L409.8,307.8 L410.6,308.8 L411.6,310.1 L412.5,311.3 L413.5,312.5 L414.4,313.6
		L415.1,314.4 M232.2,306.9 L233.0,306.1 L234.1,305.2 L235.3,304.1 L236.5,303.1 L237.7,302.0 L238.7,301.0
		L239.5,300.2 M253.0,305.8 L251.4,306.2 L249.8,306.5 L248.3,306.8 L246.9,307.6 M259.8,303.5 L258.4,304.0
		L257.1,304.5 L255.7,304.9 L254.3,305.4 L253.0,305.8 M266.9,301.1 L265.6,301.6 L264.1,302.1 L262.6,302.6
		L261.1,303.1 L259.8,303.5 M381.4,303.5 L380.1,303.1 L378.6,302.6 L377.1,302.1 L375.6,301.6 L374.3,301.1
		M388.2,305.8 L386.9,305.4 L385.5,304.9 L384.1,304.5 L382.8,304.0 L381.4,303.5 M394.3,307.6 L392.9,306.8
		L391.4,306.5 L389.8,306.2 L388.2,305.8 M401.7,300.2 L402.5,301.0 L403.5,302.0 L404.7,303.1 L405.9,304.1
		L407.1,305.2 L408.2,306.1 L409.0,306.9 M239.5,300.2 L240.2,298.7 L240.6,297.2 L240.8,295.6 L241.2,294.0
		M273.3,297.4 L272.1,298.2 L270.9,299.0 L269.5,299.8 L268.2,300.5 L266.9,301.1 M275.7,294.0 L274.9,295.4
		L274.4,296.3 L273.3,297.4 M367.9,297.4 L366.8,296.3 L366.3,295.4 L365.5,294.0 M374.3,301.1 L373.0,300.5
		L371.7,299.8 L370.3,299.0 L369.1,298.2 L367.9,297.4 M400.0,294.0 L400.4,295.6 L400.6,297.2 L401.0,298.7
		L401.7,300.2 M241.2,294.0 L241.6,292.7 L242.1,291.3 L242.6,290.0 L243.1,288.6 L243.5,287.3 M280.0,287.0
		L279.2,287.9 L278.4,289.0 L277.7,290.3 L277.0,291.7 L276.4,293.0 L275.7,294.0 M300.3,289.9 L299.0,289.5
		L297.8,288.9 L296.5,288.2 L295.3,287.5 L294.1,287.0 M307.1,289.6 L305.7,289.7 L304.4,289.9 L303.0,290.0
		L301.7,290.0 L300.3,289.9 M313.8,289.3 L312.5,289.3 L311.1,289.4 L309.8,289.5 L308.4,289.6 L307.1,289.6
		M320.6,289.2 L319.2,289.2 L317.9,289.2 L316.5,289.2 L315.2,289.2 L313.8,289.3 M327.4,289.3 L326.0,289.2
		L324.7,289.2 L323.3,289.2 L322.0,289.2 L320.6,289.2 M334.1,289.6 L332.8,289.6 L331.4,289.5 L330.1,289.4
		L328.7,289.3 L327.4,289.3 M340.9,289.9 L339.5,290.0 L338.2,290.0 L336.8,289.9 L335.5,289.7 L334.1,289.6
		M347.1,287.0 L345.9,287.5 L344.7,288.2 L343.4,288.9 L342.2,289.5 L340.9,289.9 M365.5,294.0 L364.8,293.0
		L364.2,291.7 L363.5,290.3 L362.8,289.0 L362.0,287.9 L361.2,287.0 M397.7,287.3 L398.1,288.6 L398.6,290.0
		L399.1,291.3 L399.6,292.7 L400.0,294.0 M243.5,287.3 L244.0,285.9 L244.4,284.4 L244.9,282.9 L245.4,281.4
		L246.0,280.1 M286.8,285.1 L285.4,285.2 L284.0,285.4 L282.5,285.7 L281.2,286.3 L280.0,287.0 M294.1,287.0
		L292.7,286.5 L291.2,286.0 L289.7,285.5 L288.2,285.2 L286.8,285.1 M354.4,285.1 L353.0,285.2 L351.5,285.5
		L350.0,286.0 L348.5,286.5 L347.1,287.0 M361.2,287.0 L360.0,286.3 L358.7,285.7 L357.2,285.4 L355.8,285.2
		L354.4,285.1 M395.2,280.1 L395.8,281.4 L396.3,282.9 L396.8,284.4 L397.2,285.9 L397.7,287.3 M246.0,280.1
		L246.6,278.8 L247.3,277.5 L248.0,276.2 L248.8,274.9 L249.6,273.8 M391.6,273.8 L392.4,274.9 L393.2,276.2
		L393.9,277.5 L394.6,278.8 L395.2,280.1 M249.6,273.8 L250.7,272.6 L251.6,272.1 L253.0,271.3 L254.1,270.7
		L255.3,270.0 L256.7,269.3 L258.0,268.6 L259.1,267.8 L260.0,267.0 M381.2,267.0 L382.1,267.8 L383.2,268.6
		L384.5,269.3 L385.9,270.0 L387.1,270.7 L388.2,271.3 L389.6,272.1 L390.5,272.6 L391.6,273.8 M260.0,267.0
		L260.8,265.8 L261.3,264.5 L261.7,263.1 L261.9,261.6 L261.9,260.2 M379.3,260.2 L379.3,261.6 L379.5,263.1
		L379.9,264.5 L380.4,265.8 L381.2,267.0 M261.9,260.2 L261.8,258.8 L261.5,257.3 L261.0,255.8 L260.5,254.3
		L260.0,253.0 M381.2,253.0 L380.7,254.3 L380.2,255.8 L379.7,257.3 L379.4,258.8 L379.3,260.2 M260.0,253.0
		L259.5,251.7 L258.8,250.5 L258.2,249.3 L257.6,248.0 L257.2,246.7 M384.0,246.7 L383.6,248.0 L383.0,249.3
		L382.4,250.5 L381.7,251.7 L381.2,253.0 M257.2,246.7 L257.0,245.4 L257.0,244.0 L257.1,242.7 L257.3,241.3
		L257.4,240.0 M383.8,240.0 L383.9,241.3 L384.1,242.7 L384.2,244.0 L384.2,245.4 L384.0,246.7 M257.4,240.0
		L257.5,238.6 L257.5,237.3 L257.6,235.9 L257.7,234.6 L257.7,233.2 M383.5,233.2 L383.5,234.6 L383.6,235.9
		L383.7,237.3 L383.7,238.6 L383.8,240.0 M257.7,233.2 L257.8,231.9 L257.8,230.5 L257.8,229.2 L257.9,227.8
		L257.9,226.4 M383.3,226.4 L383.3,227.8 L383.4,229.2 L383.4,230.5 L383.4,231.9 L383.5,233.2 M257.9,226.4
		L257.9,225.1 L257.8,223.7 L257.8,222.4 L257.8,221.0 L257.7,219.7 M383.5,219.7 L383.4,221.0 L383.4,222.4
		L383.4,223.7 L383.3,225.1 L383.3,226.4 M257.7,219.7 L257.7,218.3 L257.6,217.0 L257.5,215.6 L257.5,214.3
		L257.4,212.9 M383.8,212.9 L383.7,214.3 L383.7,215.6 L383.6,217.0 L383.5,218.3 L383.5,219.7 M257.4,212.9
		L257.3,211.6 L257.1,210.2 L257.0,208.9 L257.0,207.5 L257.2,206.2 M384.0,206.2 L384.2,207.5 L384.2,208.9
		L384.1,210.2 L383.9,211.6 L383.8,212.9 M257.2,206.2 L257.6,204.9 L258.2,203.6 L258.8,202.4 L259.5,201.2
		L260.0,199.9 M381.2,199.9 L381.7,201.2 L382.4,202.4 L383.0,203.6 L383.6,204.9 L384.0,206.2 M260.0,199.9
		L260.5,198.6 L261.0,197.1 L261.5,195.6 L261.8,194.1 L261.9,192.7 M379.3,192.7 L379.4,194.1 L379.7,195.6
		L380.2,197.1 L380.7,198.6 L381.2,199.9 M261.9,192.7 L261.9,191.3 L261.7,189.8 L261.3,188.4 L260.8,187.1
		L260.0,185.9 M381.2,185.9 L380.4,187.1 L379.9,188.4 L379.5,189.8 L379.3,191.3 L379.3,192.7 M253.0,181.6
		L251.6,180.8 L250.7,180.3 L249.6,179.1 M260.0,185.9 L259.1,185.1 L258.0,184.3 L256.7,183.6 L255.3,182.9
		L254.1,182.2 L253.0,181.6 M388.2,181.6 L387.1,182.2 L385.9,182.9 L384.5,183.6 L383.2,184.3 L382.1,185.1
		L381.2,185.9 M391.6,179.1 L390.5,180.3 L389.6,180.8 L388.2,181.6 M249.6,179.1 L248.8,178.0 L248.0,176.7
		L247.3,175.4 L246.6,174.1 L246.0,172.8 M395.2,172.8 L394.6,174.1 L393.9,175.4 L393.2,176.7 L392.4,178.0
		L391.6,179.1 M246.0,172.8 L245.4,171.5 L244.9,170.0 L244.4,168.5 L244.0,167.0 L243.5,165.6 M280.0,165.9
		L281.2,166.6 L282.5,167.2 L284.0,167.5 L285.4,167.7 L286.8,167.8 L288.2,167.7 L289.7,167.4 L291.2,166.9
		L292.7,166.4 L294.1,165.9 M347.1,165.9 L348.5,166.4 L350.0,166.9 L351.5,167.4 L353.0,167.7 L354.4,167.8
		L355.8,167.7 L357.2,167.5 L358.7,167.2 L360.0,166.6 L361.2,165.9 M397.7,165.6 L397.2,167.0 L396.8,168.5
		L396.3,170.0 L395.8,171.5 L395.2,172.8  '/>	<path stroke='gray'  d='M243.5,165.6 L243.1,164.3 L242.6,162.9 L242.1,161.6 L241.6,160.2 L241.2,158.9 M275.7,158.9 L276.4,159.9
		L277.0,161.2 L277.7,162.6 L278.4,163.9 L279.2,165.0 L280.0,165.9 M294.1,165.9 L295.3,165.4 L296.5,164.7
		L297.8,164.0 L299.0,163.4 L300.3,163.0 L301.7,162.9 L303.0,162.9 L304.4,163.0 L305.7,163.2 L307.1,163.3
		L308.4,163.3 L309.8,163.4 L311.1,163.5 L312.5,163.6 L313.8,163.6 L315.2,163.7 L316.5,163.7 L317.9,163.7
		L319.2,163.7 L320.6,163.7 L322.0,163.7 L323.3,163.7 L324.7,163.7 L326.0,163.7 L327.4,163.6 L328.7,163.6
		L330.1,163.5 L331.4,163.4 L332.8,163.3 L334.1,163.3 L335.5,163.2 L336.8,163.0 L338.2,162.9 L339.5,162.9
		L340.9,163.0 L342.2,163.4 L343.4,164.0 L344.7,164.7 L345.9,165.4 L347.1,165.9 M361.2,165.9 L362.0,165.0
		L362.8,163.9 L363.5,162.6 L364.2,161.2 L364.8,159.9 L365.5,158.9 M400.0,158.9 L399.6,160.2 L399.1,161.6
		L398.6,162.9 L398.1,164.3 L397.7,165.6 M241.2,158.9 L240.8,157.3 L240.6,155.7 L240.2,154.2 L239.5,152.7
		M266.9,151.8 L268.2,152.4 L269.5,153.1 L270.9,153.9 L272.1,154.7 L273.3,155.5 L274.4,156.6 L274.9,157.5
		L275.7,158.9 M365.5,158.9 L366.3,157.5 L366.8,156.6 L367.9,155.5 L369.1,154.7 L370.3,153.9 L371.7,153.1
		L373.0,152.4 L374.3,151.8 M401.7,152.7 L401.0,154.2 L400.6,155.7 L400.4,157.3 L400.0,158.9 M239.5,152.7
		L238.7,151.9 L237.7,150.9 L236.5,149.8 L235.3,148.8 L234.1,147.7 L233.0,146.8 L232.2,146.0 M246.9,145.3
		L248.3,146.1 L249.8,146.4 L251.4,146.7 L253.0,147.1 L254.3,147.5 L255.7,148.0 L257.1,148.4 L258.4,148.9
		L259.8,149.4 L261.1,149.8 L262.6,150.3 L264.1,150.8 L265.6,151.3 L266.9,151.8 M374.3,151.8 L375.6,151.3
		L377.1,150.8 L378.6,150.3 L380.1,149.8 L381.4,149.4 L382.8,148.9 L384.1,148.4 L385.5,148.0 L386.9,147.5
		L388.2,147.1 L389.8,146.7 L391.4,146.4 L392.9,146.1 L394.3,145.3 M409.0,146.0 L408.2,146.8 L407.1,147.7
		L405.9,148.8 L404.7,149.8 L403.5,150.9 L402.5,151.9 L401.7,152.7 M232.2,146.0 L231.4,145.1 L230.6,144.1
		L229.6,142.8 L228.7,141.6 L227.7,140.4 L226.8,139.3 L226.1,138.5 M240.1,138.0 L240.9,138.9 L241.9,139.9
		L242.9,141.1 L244.0,142.4 L245.0,143.6 L246.0,144.6 L246.9,145.3 M394.3,145.3 L395.2,144.6 L396.2,143.6
		L397.2,142.4 L398.3,141.1 L399.3,139.9 L400.3,138.9 L401.1,138.0 M415.1,138.5 L414.4,139.3 L413.5,140.4
		L412.5,141.6 L411.6,142.8 L410.6,144.1 L409.8,145.1 L409.0,146.0 M226.1,138.5 L225.2,137.7 L224.1,136.9
		L222.8,136.0 L221.5,135.0 L220.2,134.1 L219.1,133.3 L218.2,132.6 M232.6,131.9 L233.4,132.7 L234.5,133.6
		L235.7,134.5 L237.0,135.5 L238.2,136.4 L239.3,137.3 L240.1,138.0 M401.1,138.0 L401.9,137.3 L403.0,136.4
		L404.2,135.5 L405.5,134.5 L406.7,133.6 L407.8,132.7 L408.6,131.9 M423.0,132.6 L422.1,133.3 L421.0,134.1
		L419.7,135.0 L418.4,136.0 L417.1,136.9 L416.0,137.7 L415.1,138.5 M212.4,127.6 L211.3,126.6 L210.6,126.1
		L209.4,125.1 M218.2,132.6 L217.1,131.7 L215.9,130.7 L214.7,129.6 L213.5,128.5 L212.4,127.6 M226.8,124.0
		L227.4,124.9 L228.3,126.1 L229.2,127.4 L230.1,128.7 L231.0,130.0 L231.9,131.1 L232.6,131.9 M408.6,131.9
		L409.3,131.1 L410.2,130.0 L411.1,128.7 L412.0,127.4 L412.9,126.1 L413.8,124.9 L414.4,124.0 M428.8,127.6
		L427.7,128.5 L426.5,129.6 L425.3,130.7 L424.1,131.7 L423.0,132.6 M431.8,125.1 L430.6,126.1 L429.9,126.6
		L428.8,127.6 M205.7,120.8 L204.5,119.8 L203.8,119.3 L202.6,118.3 M209.4,125.1 L208.4,124.0 L207.6,122.9
		L206.7,121.9 L205.7,120.8 M221.7,118.3 L222.7,119.4 L223.7,120.6 L224.8,121.8 L225.8,122.9 L226.8,124.0
		M414.4,124.0 L415.4,122.9 L416.4,121.8 L417.5,120.6 L418.5,119.4 L419.5,118.3 M435.5,120.8 L434.5,121.9
		L433.6,122.9 L432.8,124.0 L431.8,125.1 M438.6,118.3 L437.4,119.3 L436.7,119.8 L435.5,120.8 M198.9,114.7
		L197.5,113.5 L196.4,112.7 L195.0,111.6 M202.6,118.3 L201.6,117.3 L200.8,116.5 L200.0,115.6 L198.9,114.7
		M214.9,111.6 L216.0,112.6 L217.0,113.4 L218.1,114.3 L219.2,115.3 L220.2,116.4 L220.7,117.1 L221.7,118.3
		M419.5,118.3 L420.5,117.1 L421.0,116.4 L422.0,115.3 L423.1,114.3 L424.2,113.4 L425.2,112.6 L426.3,111.6
		M442.3,114.7 L441.2,115.6 L440.4,116.5 L439.6,117.3 L438.6,118.3 M446.2,111.6 L444.8,112.7 L443.7,113.5
		L442.3,114.7 M192.2,108.8 L191.2,107.3 L190.7,106.2 L189.8,104.8 M195.0,111.6 L193.8,110.6 L193.1,109.9
		L192.2,108.8 M208.8,104.8 L209.8,105.9 L210.6,106.7 L211.4,107.4 L212.4,108.5 L213.4,109.7 L213.9,110.4
		L214.9,111.6 M426.3,111.6 L427.3,110.4 L427.8,109.7 L428.8,108.5 L429.8,107.4 L430.6,106.7 L431.4,105.9
		L432.4,104.8 M449.0,108.8 L448.1,109.9 L447.4,110.6 L446.2,111.6 M451.4,104.8 L450.5,106.2 L450.0,107.3
		L449.0,108.8 M189.8,104.8 L189.1,103.8 L188.2,102.5 L187.2,101.2 L186.1,99.9 L185.1,98.8 L184.1,97.9
		M202.9,98.0 L204.1,99.0 L204.7,99.7 L205.7,100.8 L206.8,102.2 L207.6,103.4 L208.8,104.8 M432.4,104.8
		L433.6,103.4 L434.4,102.2 L435.5,100.8 L436.5,99.7 L437.1,99.0 L438.3,98.0 M457.1,97.9 L456.1,98.8
		L455.1,99.9 L454.0,101.2 L453.0,102.5 L452.1,103.8 L451.4,104.8 M151.6,93.5 L150.2,93.4 L148.7,93.0
		L147.2,92.6 L145.7,92.1 L144.4,91.6 M158.4,91.8 L157.0,92.1 L155.7,92.5 L154.3,93.0 L153.0,93.4
		L151.6,93.5 M165.1,91.3 L163.8,91.2 L162.4,91.2 L161.1,91.4 L159.7,91.6 L158.4,91.8 M171.9,93.4
		L170.6,92.8 L169.2,92.3 L167.9,91.9 L166.5,91.5 L165.1,91.3 M178.6,96.9 L177.3,96.3 L175.9,95.6
		L174.5,94.8 L173.2,94.0 L171.9,93.4 M184.1,97.9 L182.8,97.3 L181.5,97.2 L180.1,97.2 L178.6,96.9
		M192.0,90.0 L192.9,91.0 L194.0,92.0 L195.3,93.0 L196.6,94.0 L197.9,94.9 L198.9,95.7 L200.4,96.6
		L201.5,97.1 L202.9,98.0 M438.3,98.0 L439.7,97.1 L440.8,96.6 L442.3,95.7 L443.3,94.9 L444.6,94.0
		L445.9,93.0 L447.2,92.0 L448.3,91.0 L449.2,90.0 M462.6,96.9 L461.1,97.2 L459.7,97.2 L458.4,97.3
		L457.1,97.9 M469.3,93.4 L468.0,94.0 L466.7,94.8 L465.3,95.6 L463.9,96.3 L462.6,96.9 M476.1,91.3
		L474.7,91.5 L473.3,91.9 L472.0,92.3 L470.6,92.8 L469.3,93.4 M482.8,91.8 L481.5,91.6 L480.1,91.4
		L478.8,91.2 L477.4,91.2 L476.1,91.3 M489.6,93.5 L488.2,93.4 L486.9,93.0 L485.5,92.5 L484.2,92.1
		L482.8,91.8 M496.8,91.6 L495.5,92.1 L494.0,92.6 L492.5,93.0 L491.0,93.4 L489.6,93.5 M138.1,88.1
		L136.9,87.0 L136.5,86.0 L135.8,84.5 M144.4,91.6 L143.1,91.0 L141.7,90.4 L140.4,89.7 L139.2,88.9
		L138.1,88.1 M191.0,84.5 L191.3,86.0 L191.4,87.4 L191.4,88.7 L192.0,90.0 M449.2,90.0 L449.8,88.7
		L449.8,87.4 L449.9,86.0 L450.2,84.5 M503.1,88.1 L502.0,88.9 L500.8,89.7 L499.5,90.4 L498.1,91.0
		L496.8,91.6 M505.4,84.5 L504.7,86.0 L504.3,87.0 L503.1,88.1 M135.8,84.5 L135.1,83.4 L134.4,82.0
		L133.6,80.6 L132.9,79.1 L132.2,77.7 L131.8,76.5 M187.5,77.8 L188.1,79.1 L188.9,80.4 L189.7,81.8
		L190.5,83.2 L191.0,84.5 M450.2,84.5 L450.7,83.2 L451.5,81.8 L452.3,80.4 L453.1,79.1 L453.7,77.8
		M509.4,76.5 L509.0,77.7 L508.3,79.1 L507.6,80.6 L506.8,82.0 L506.1,83.4 L505.4,84.5 M131.8,76.5
		L131.4,75.0 L131.2,73.8 L131.2,72.5 L131.2,71.0  '/>	<path stroke='gray'  d='M185.4,71.0 L185.6,72.4 L186.0,73.8 L186.5,75.1 L187.0,76.5 L187.5,77.8 M453.7,77.8 L454.2,76.5
		L454.7,75.1 L455.2,73.8 L455.6,72.4 L455.8,71.0 M510.0,71.0 L510.0,72.5 L510.0,73.8 L509.8,75.0
		L509.4,76.5 M131.2,71.0 L131.1,69.7 L131.1,68.3 L131.0,67.0 L131.0,65.6 L130.9,64.2 M185.9,64.2
		L185.7,65.6 L185.5,66.9 L185.4,68.3 L185.3,69.7 L185.4,71.0 M455.8,71.0 L455.9,69.7 L455.8,68.3
		L455.7,66.9 L455.5,65.6 L455.3,64.2 M510.3,64.2 L510.2,65.6 L510.2,67.0 L510.1,68.3 L510.1,69.7
		L510.0,71.0 M130.9,64.2 L130.7,62.9 L130.6,61.5 L130.4,60.2 L130.1,58.8 L129.9,57.5 M187.6,57.5
		L187.5,58.8 L187.1,60.2 L186.7,61.6 L186.2,62.9 L185.9,64.2 M455.3,64.2 L455.0,62.9 L454.5,61.6
		L454.1,60.2 L453.7,58.8 L453.6,57.5 M511.3,57.5 L511.1,58.8 L510.8,60.2 L510.6,61.5 L510.5,62.9
		L510.3,64.2 M129.9,57.5 L129.5,56.1 L129.1,54.8 L128.7,53.4 L128.3,52.0 L127.8,50.7 M185.7,50.2
		L186.2,51.6 L186.7,53.1 L187.2,54.6 L187.5,56.1 L187.6,57.5 M453.6,57.5 L453.7,56.1 L454.0,54.6
		L454.5,53.1 L455.0,51.6 L455.5,50.2 M513.4,50.7 L512.9,52.0 L512.5,53.4 L512.1,54.8 L511.7,56.1
		L511.3,57.5 M127.8,50.7 L127.3,49.4 L126.7,48.1 L126.0,46.7 L125.4,45.3 L125.0,44.0 M182.2,44.0
		L183.0,45.1 L183.8,46.3 L184.5,47.6 L185.2,49.0 L185.7,50.2 M455.5,50.2 L456.0,49.0 L456.7,47.6
		L457.4,46.3 L458.2,45.1 L459.0,44.0 M516.2,44.0 L515.8,45.3 L515.2,46.7 L514.5,48.1 L513.9,49.4
		L513.4,50.7 M125.0,44.0 L124.7,42.6 L124.4,41.2 L124.3,39.8 L124.3,38.5 L124.7,37.2 M170.6,37.7
		L171.8,38.1 L173.2,38.8 L174.7,39.5 L176.1,40.3 L177.5,41.0 L178.6,41.7 L180.1,42.4 L181.1,42.8
		L182.2,44.0 M459.0,44.0 L460.1,42.8 L461.1,42.4 L462.6,41.7 L463.7,41.0 L465.1,40.3 L466.5,39.5
		L468.0,38.8 L469.4,38.1 L470.6,37.7 M516.5,37.2 L516.9,38.5 L516.9,39.8 L516.8,41.2 L516.5,42.6
		L516.2,44.0 M124.7,37.2 L125.3,36.3 L126.1,35.2 L127.1,34.1 L128.2,33.0 L129.3,32.0 L130.4,31.2
		L131.3,30.6 L132.6,30.2 L133.9,30.1 L135.3,30.3 L136.7,30.6 L138.1,30.9 L139.4,31.3 L140.8,31.9
		L142.2,32.6 L143.5,33.2 L144.8,33.7 L146.1,34.2 L147.5,34.6 L148.9,35.0 L150.3,35.4 L151.6,35.7
		L152.9,36.0 L154.3,36.3 L155.6,36.5 L157.0,36.6 L158.4,36.8 L159.7,36.9 L161.1,36.9 L162.4,36.9
		L163.8,37.0 L165.1,37.0 L166.6,37.1 L167.9,37.1 L169.2,37.3 L170.6,37.7 M470.6,37.7 L472.0,37.3
		L473.3,37.1 L474.6,37.1 L476.1,37.0 L477.4,37.0 L478.8,36.9 L480.1,36.9 L481.5,36.9 L482.8,36.8
		L484.2,36.6 L485.6,36.5 L486.9,36.3 L488.3,36.0 L489.6,35.7 L490.9,35.4 L492.3,35.0 L493.7,34.6
		L495.1,34.2 L496.4,33.7 L497.7,33.2 L499.0,32.6 L500.4,31.9 L501.8,31.3 L503.1,30.9 L504.5,30.6
		L505.9,30.3 L507.3,30.1 L508.6,30.2 L509.9,30.6 L510.8,31.2 L511.9,32.0 L513.0,33.0 L514.1,34.1
		L515.1,35.2 L515.9,36.3 L516.5,37.2 M117.8,429.2 L117.9,429.2 L118.0,429.2 L118.1,429.2 L118.2,429.2
		L118.3,429.2 L118.4,429.2 L118.5,429.2 L118.6,429.2 L118.7,429.2 L118.9,429.2 L119.0,429.2 L119.2,429.2
		L119.3,429.2 L119.5,429.2 L119.7,429.2 L119.9,429.2 L120.1,429.2 L120.3,429.2 L120.5,429.2 L120.7,429.2
		L121.0,429.2 L121.2,429.2 L121.5,429.2 L121.7,429.2 L122.0,429.2 L122.3,429.2 L122.6,429.2 L122.9,429.2
		L123.2,429.2 L123.5,429.2 L123.8,429.2 L124.2,429.2 L124.5,429.2 L124.9,429.2 L125.3,429.2 L125.6,429.2
		L126.0,429.2 L126.4,429.2 L126.8,429.2 L127.2,429.2 L127.6,429.2 L128.1,429.2 L128.5,429.2 L129.0,429.2
		L129.4,429.2 L129.9,429.2 L130.3,429.2 L130.8,429.2 L131.3,429.2 L131.8,429.2 L132.3,429.2 L132.8,429.2
		L133.4,429.2 L133.9,429.2 L134.4,429.2 L135.0,429.2 L135.6,429.2 L136.1,429.2 L136.7,429.2 L137.3,429.2
		L137.9,429.2 L138.5,429.2 L139.1,429.2 L139.7,429.2 L140.3,429.2 L141.0,429.2 L141.6,429.2 L142.3,429.2
		L142.9,429.2 L143.6,429.2 L144.3,429.2 L145.0,429.2 L145.7,429.2 L146.4,429.2 L147.1,429.2 L147.8,429.2
		L148.5,429.2 L149.3,429.2 L150.0,429.2 L150.7,429.2 L151.5,429.2 L152.3,429.2 L153.0,429.2 L153.8,429.2
		L154.6,429.2 L155.4,429.2 L156.2,429.2 L157.0,429.2 L157.8,429.2 L158.7,429.2 L159.5,429.2 L160.3,429.2
		L161.2,429.2 L162.0,429.2 L162.9,429.2 L163.8,429.2 L164.7,429.2 L165.5,429.2 L166.4,429.2 L167.3,429.2
		L168.2,429.2 L169.2,429.2 L170.1,429.2 L171.0,429.2 L171.9,429.2 L172.9,429.2 L173.8,429.2 L174.8,429.2
		L175.7,429.2 L176.7,429.2 L177.7,429.2 L178.7,429.2 L179.7,429.2 L180.7,429.2 L181.7,429.2 L182.7,429.2
		L183.7,429.2 L184.7,429.2 L185.7,429.2 L186.8,429.2 L187.8,429.2 L188.8,429.2 L189.9,429.2 L190.9,429.2
		L192.0,429.2 L193.1,429.2 L194.2,429.2 L195.2,429.2 L196.3,429.2 L197.4,429.2 L198.5,429.2 L199.6,429.2
		L200.7,429.2 L201.8,429.2 L203.0,429.2 L204.1,429.2 L205.2,429.2 L206.4,429.2 L207.5,429.2 L208.6,429.2
		L209.8,429.2 L211.0,429.2 L212.1,429.2 L213.3,429.2 L214.5,429.2 L215.6,429.2 L216.8,429.2 L218.0,429.2
		L219.2,429.2 L220.4,429.2 L221.6,429.2 L222.8,429.2 L224.0,429.2 L225.2,429.2 L226.4,429.2 L227.7,429.2
		L228.9,429.2 L230.1,429.2 L231.4,429.2 L232.6,429.2 L233.9,429.2 L235.1,429.2 L236.4,429.2 L237.6,429.2
		L238.9,429.2 L240.1,429.2 L241.4,429.2 L242.7,429.2 L243.9,429.2 L245.2,429.2 L246.5,429.2 L247.8,429.2
		L249.1,429.2 L250.4,429.2 L251.7,429.2 L253.0,429.2 L254.3,429.2 L255.6,429.2 L256.9,429.2 L258.2,429.2
		L259.5,429.2 L260.8,429.2 L262.1,429.2 L263.5,429.2 L264.8,429.2 L266.1,429.2 L267.4,429.2 L268.8,429.2
		L270.1,429.2 L271.4,429.2 L272.8,429.2 L274.1,429.2 L275.5,429.2 L276.8,429.2 L278.2,429.2 L279.5,429.2
		L280.9,429.2 L282.2,429.2 L283.6,429.2 L284.9,429.2 L286.3,429.2 L287.6,429.2 L289.0,429.2 L290.4,429.2
		L291.7,429.2 L293.1,429.2 L294.5,429.2 L295.8,429.2 L297.2,429.2 L298.6,429.2 L300.0,429.2 L301.3,429.2
		L302.7,429.2 L304.1,429.2 L305.4,429.2 L306.8,429.2 L308.2,429.2 L309.6,429.2 L311.0,429.2 L312.3,429.2
		L313.7,429.2 L315.1,429.2 L316.5,429.2 L317.8,429.2 L319.2,429.2 L320.6,429.2 L322.0,429.2 L323.4,429.2
		L324.7,429.2 L326.1,429.2 L327.5,429.2 L328.9,429.2 L330.2,429.2 L331.6,429.2 L333.0,429.2 L334.4,429.2
		L335.8,429.2 L337.1,429.2 L338.5,429.2 L339.9,429.2 L341.2,429.2 L342.6,429.2 L344.0,429.2 L345.4,429.2
		L346.7,429.2 L348.1,429.2 L349.5,429.2 L350.8,429.2 L352.2,429.2 L353.6,429.2 L354.9,429.2 L356.3,429.2
		L357.6,429.2 L359.0,429.2 L360.3,429.2 L361.7,429.2 L363.0,429.2 L364.4,429.2 L365.7,429.2 L367.1,429.2
		L368.4,429.2 L369.8,429.2 L371.1,429.2 L372.4,429.2 L373.8,429.2 L375.1,429.2 L376.4,429.2 L377.7,429.2
		L379.1,429.2 L380.4,429.2 L381.7,429.2 L383.0,429.2 L384.3,429.2 L385.6,429.2 L386.9,429.2 L388.2,429.2
		L389.5,429.2 L390.8,429.2 L392.1,429.2 L393.4,429.2 L394.7,429.2 L396.0,429.2 L397.3,429.2 L398.5,429.2
		L399.8,429.2 L401.1,429.2 L402.3,429.2 L403.6,429.2 L404.8,429.2 L406.1,429.2 L407.3,429.2 L408.6,429.2
		L409.8,429.2 L411.1,429.2 L412.3,429.2 L413.5,429.2 L414.8,429.2 L416.0,429.2 L417.2,429.2 L418.4,429.2
		L419.6,429.2 L420.8,429.2 L422.0,429.2 L423.2,429.2 L424.4,429.2 L425.6,429.2 L426.7,429.2 L427.9,429.2
		L429.1,429.2 L430.2,429.2 L431.4,429.2 L432.6,429.2 L433.7,429.2 L434.8,429.2 L436.0,429.2 L437.1,429.2
		L438.2,429.2 L439.4,429.2 L440.5,429.2 L441.6,429.2 L442.7,429.2 L443.8,429.2 L444.9,429.2 L446.0,429.2
		L447.0,429.2 L448.1,429.2 L449.2,429.2 L450.3,429.2 L451.3,429.2 L452.4,429.2 L453.4,429.2 L454.4,429.2
		L455.5,429.2 L456.5,429.2 L457.5,429.2 L458.5,429.2 L459.5,429.2 L460.5,429.2 L461.5,429.2 L462.5,429.2
		L463.5,429.2 L464.5,429.2 L465.5,429.2 L466.4,429.2 L467.4,429.2 L468.3,429.2 L469.3,429.2 L470.2,429.2
		L471.1,429.2 L472.0,429.2 L473.0,429.2 L473.9,429.2 L474.8,429.2 L475.7,429.2 L476.5,429.2 L477.4,429.2
		L478.3,429.2 L479.2,429.2 L480.0,429.2 L480.9,429.2 L481.7,429.2 L482.5,429.2 L483.4,429.2 L484.2,429.2
		L485.0,429.2 L485.8,429.2 L486.6,429.2 L487.4,429.2 L488.2,429.2 L488.9,429.2 L489.7,429.2 L490.5,429.2
		L491.2,429.2 L491.9,429.2 L492.7,429.2 L493.4,429.2 L494.1,429.2 L494.8,429.2 L495.5,429.2 L496.2,429.2
		L496.9,429.2 L497.6,429.2 L498.3,429.2 L498.9,429.2 L499.6,429.2 L500.2,429.2 L500.9,429.2 L501.5,429.2
		L502.1,429.2 L502.7,429.2 L503.3,429.2 L503.9,429.2 L504.5,429.2 L505.1,429.2 L505.6,429.2 L506.2,429.2
		L506.8,429.2 L507.3,429.2 L507.8,429.2 L508.4,429.2 L508.9,429.2 L509.4,429.2 L509.9,429.2 L510.4,429.2
		L510.9,429.2 L511.3,429.2 L511.8,429.2 L512.2,429.2 L512.7,429.2 L513.1,429.2 L513.6,429.2 L514.0,429.2
		L514.4,429.2 L514.8,429.2 L515.2,429.2 L515.6,429.2 L515.9,429.2 L516.3,429.2 L516.7,429.2 L517.0,429.2
		L517.4,429.2 L517.7,429.2 L518.0,429.2 L518.3,429.2 L518.6,429.2 L518.9,429.2 L519.2,429.2 L519.5,429.2
		L519.7,429.2 L520.0,429.2 L520.2,429.2 L520.5,429.2 L520.7,429.2 L520.9,429.2 L521.1,429.2 L521.3,429.2
		L521.5,429.2 L521.7,429.2 L521.9,429.2 L522.0,429.2 L522.2,429.2 L522.3,429.2 L522.5,429.2 L522.6,429.2
		L522.7,429.2 L522.8,429.2 L522.9,429.2 L523.0,429.2 L523.1,429.2 L523.2,429.2 L523.3,429.2 L523.4,429.2
		 '/>	<path stroke='gray'  d='M117.8,429.2 M117.8,429.1 L117.8,429.2 M117.8,429.1 M117.8,429.0 L117.8,429.1 M117.8,429.0 M117.8,428.9
		L117.8,429.0 M117.8,428.8 L117.8,428.9 M117.8,428.7 L117.8,428.8 M117.8,428.6 L117.8,428.7 M117.8,428.5
		L117.8,428.6 M117.8,428.4 L117.8,428.5 M117.8,428.3 L117.8,428.4 M117.8,428.1 L117.8,428.3 M117.8,428.0
		L117.8,428.1 M117.8,427.8 L117.8,428.0 M117.8,427.7 L117.8,427.8 M117.8,427.5 L117.8,427.7 M117.8,427.3
		L117.8,427.5 M117.8,427.1 L117.8,427.3 M117.8,426.9 L117.8,427.1 M117.8,426.7 L117.8,426.9 M117.8,426.5
		L117.8,426.7 M117.8,426.3 L117.8,426.5 M117.8,426.0 L117.8,426.3 M117.8,425.8 L117.8,426.0 M117.8,425.5
		L117.8,425.8 M117.8,425.3 L117.8,425.5 M117.8,425.0 L117.8,425.3 M117.8,424.7 L117.8,425.0 M117.8,424.4
		L117.8,424.7 M117.8,424.1 L117.8,424.4 M117.8,423.8 L117.8,424.1 M117.8,423.5 L117.8,423.8 M117.8,423.2
		L117.8,423.5 M117.8,422.8 L117.8,423.2 M117.8,422.5 L117.8,422.8 M117.8,422.1 L117.8,422.5 M117.8,421.7
		L117.8,422.1 M117.8,421.4 L117.8,421.7 M117.8,421.0 L117.8,421.4 M117.8,420.6 L117.8,421.0 M117.8,420.2
		L117.8,420.6 M117.8,419.8 L117.8,420.2 M117.8,419.4 L117.8,419.8 M117.8,418.9 L117.8,419.4 M117.8,418.5
		L117.8,418.9 M117.8,418.0 L117.8,418.5 M117.8,417.6 L117.8,418.0 M117.8,417.1 L117.8,417.6 M117.8,416.7
		L117.8,417.1 M117.8,416.2 L117.8,416.7 M117.8,415.7 L117.8,416.2 M117.8,415.2 L117.8,415.7 M117.8,414.7
		L117.8,415.2 M117.8,414.2 L117.8,414.7 M117.8,413.6 L117.8,414.2 M117.8,413.1 L117.8,413.6 M117.8,412.6
		L117.8,413.1 M117.8,412.0 L117.8,412.6 M117.8,411.4 L117.8,412.0 M117.8,410.9 L117.8,411.4 M117.8,410.3
		L117.8,410.9 M117.8,409.7 L117.8,410.3 M117.8,409.1 L117.8,409.7 M117.8,408.5 L117.8,409.1 M117.8,407.9
		L117.8,408.5 M117.8,407.3 L117.8,407.9 M117.8,406.7 L117.8,407.3 M117.8,406.0 L117.8,406.7 M117.8,405.4
		L117.8,406.0 M117.8,404.7 L117.8,405.4 M117.8,404.1 L117.8,404.7 M117.8,403.4 L117.8,404.1 M117.8,402.7
		L117.8,403.4 M117.8,402.0 L117.8,402.7 M117.8,401.3 L117.8,402.0 M117.8,400.6 L117.8,401.3 M117.8,399.9
		L117.8,400.6 M117.8,399.2 L117.8,399.9 M117.8,398.5 L117.8,399.2 M117.8,397.8 L117.8,398.5 M117.8,397.0
		L117.8,397.8 M117.8,396.3 L117.8,397.0 M117.8,395.5 L117.8,396.3 M117.8,394.7 L117.8,395.5 M117.8,394.0
		L117.8,394.7 M117.8,393.2 L117.8,394.0 M117.8,392.4 L117.8,393.2 M117.8,391.6 L117.8,392.4 M117.8,390.8
		L117.8,391.6 M117.8,390.0 L117.8,390.8 M117.8,389.2 L117.8,390.0 M117.8,388.3 L117.8,389.2 M117.8,387.5
		L117.8,388.3 M117.8,386.7 L117.8,387.5 M117.8,385.8 L117.8,386.7 M117.8,385.0 L117.8,385.8 M117.8,384.1
		L117.8,385.0 M117.8,383.2 L117.8,384.1 M117.8,382.4 L117.8,383.2 M117.8,381.5 L117.8,382.4 M117.8,380.6
		L117.8,381.5 M117.8,379.7 L117.8,380.6 M117.8,378.8 L117.8,379.7 M117.8,377.9 L117.8,378.8 M117.8,376.9
		L117.8,377.9 M117.8,376.0 L117.8,376.9 M117.8,375.1 L117.8,376.0 M117.8,374.1 L117.8,375.1 M117.8,373.2
		L117.8,374.1 M117.8,372.2 L117.8,373.2 M117.8,371.3 L117.8,372.2 M117.8,370.3 L117.8,371.3 M117.8,369.3
		L117.8,370.3 M117.8,368.3 L117.8,369.3 M117.8,367.4 L117.8,368.3 M117.8,366.4 L117.8,367.4 M117.8,365.4
		L117.8,366.4 M117.8,364.4 L117.8,365.4 M117.8,363.3 L117.8,364.4 M117.8,362.3 L117.8,363.3 M117.8,361.3
		L117.8,362.3 M117.8,360.3 L117.8,361.3 M117.8,359.2 L117.8,360.3 M117.8,358.2 L117.8,359.2 M117.8,357.1
		L117.8,358.2 M117.8,356.1 L117.8,357.1 M117.8,355.0 L117.8,356.1 M117.8,353.9 L117.8,355.0 M117.8,352.9
		L117.8,353.9 M117.8,351.8 L117.8,352.9 M117.8,350.7 L117.8,351.8 M117.8,349.6 L117.8,350.7 M117.8,348.5
		L117.8,349.6 M117.8,347.4 L117.8,348.5 M117.8,346.3 L117.8,347.4 M117.8,345.2 L117.8,346.3 M117.8,344.1
		L117.8,345.2 M117.8,342.9 L117.8,344.1 M117.8,341.8 L117.8,342.9 M117.8,340.7 L117.8,341.8 M117.8,339.5
		L117.8,340.7 M117.8,338.4 L117.8,339.5 M117.8,337.2 L117.8,338.4 M117.8,336.1 L117.8,337.2 M117.8,334.9
		L117.8,336.1 M117.8,333.7 L117.8,334.9 M117.8,332.6 L117.8,333.7 M117.8,331.4 L117.8,332.6 M117.8,330.2
		L117.8,331.4 M117.8,329.0 L117.8,330.2 M117.8,327.8 L117.8,329.0 M117.8,326.6 L117.8,327.8 M117.8,325.4
		L117.8,326.6 M117.8,324.2 L117.8,325.4 M117.8,323.0 L117.8,324.2 M117.8,321.8 L117.8,323.0 M117.8,320.6
		L117.8,321.8 M117.8,319.4 L117.8,320.6 M117.8,318.1 L117.8,319.4 M117.8,316.9 L117.8,318.1 M117.8,315.7
		L117.8,316.9 M117.8,314.4 L117.8,315.7 M117.8,313.2 L117.8,314.4 M117.8,311.9 L117.8,313.2 M117.8,310.7
		L117.8,311.9 M117.8,309.4 L117.8,310.7 M117.8,308.2 L117.8,309.4 M117.8,306.9 L117.8,308.2 M117.8,305.6
		L117.8,306.9 M117.8,304.4 L117.8,305.6 M117.8,303.1 L117.8,304.4 M117.8,301.8 L117.8,303.1 M117.8,300.5
		L117.8,301.8 M117.8,299.2 L117.8,300.5 M117.8,297.9 L117.8,299.2 M117.8,296.7 L117.8,297.9 M117.8,295.4
		L117.8,296.7 M117.8,294.1 L117.8,295.4 M117.8,292.8 L117.8,294.1 M117.8,291.5 L117.8,292.8 M117.8,290.2
		L117.8,291.5 M117.8,288.8 L117.8,290.2 M117.8,287.5 L117.8,288.8 M117.8,286.2 L117.8,287.5 M117.8,284.9
		L117.8,286.2 M117.8,283.6 L117.8,284.9 M117.8,282.2 L117.8,283.6 M117.8,280.9 L117.8,282.2 M117.8,279.6
		L117.8,280.9 M117.8,278.3 L117.8,279.6 M117.8,276.9 L117.8,278.3 M117.8,275.6 L117.8,276.9 M117.8,274.3
		L117.8,275.6 M117.8,272.9 L117.8,274.3 M117.8,271.6 L117.8,272.9 M117.8,270.2 L117.8,271.6 M117.8,268.9
		L117.8,270.2 M117.8,267.5 L117.8,268.9 M117.8,266.2 L117.8,267.5 M117.8,264.8 L117.8,266.2 M117.8,263.5
		L117.8,264.8 M117.8,262.1 L117.8,263.5 M117.8,260.8 L117.8,262.1 M117.8,259.4 L117.8,260.8 M117.8,258.0
		L117.8,259.4 M117.8,256.7 L117.8,258.0 M117.8,255.3 L117.8,256.7 M117.8,253.9 L117.8,255.3 M117.8,252.6
		L117.8,253.9 M117.8,251.2 L117.8,252.6 M117.8,249.8 L117.8,251.2 M117.8,248.5 L117.8,249.8 M117.8,247.1
		L117.8,248.5 M117.8,245.7 L117.8,247.1 M117.8,244.3 L117.8,245.7 M117.8,243.0 L117.8,244.3 M117.8,241.6
		L117.8,243.0 M117.8,240.2 L117.8,241.6 M117.8,238.9 L117.8,240.2 M117.8,237.5 L117.8,238.9 M117.8,236.1
		L117.8,237.5 M117.8,234.7 L117.8,236.1 M117.8,233.3 L117.8,234.7 M117.8,232.0 L117.8,233.3 M117.8,230.6
		L117.8,232.0 M117.8,229.2 L117.8,230.6 M117.8,227.8 L117.8,229.2 M117.8,226.4 L117.8,227.8 M117.8,225.1
		L117.8,226.4 M117.8,223.7 L117.8,225.1 M117.8,222.3 L117.8,223.7 M117.8,220.9 L117.8,222.3 M117.8,219.6
		L117.8,220.9 M117.8,218.2 L117.8,219.6 M117.8,216.8 L117.8,218.2 M117.8,215.4 L117.8,216.8 M117.8,214.0
		L117.8,215.4 M117.8,212.7 L117.8,214.0 M117.8,211.3 L117.8,212.7 M117.8,209.9 L117.8,211.3 M117.8,208.6
		L117.8,209.9 M117.8,207.2 L117.8,208.6 M117.8,205.8 L117.8,207.2 M117.8,204.4 L117.8,205.8 M117.8,203.1
		L117.8,204.4 M117.8,201.7 L117.8,203.1 M117.8,200.3 L117.8,201.7 M117.8,199.0 L117.8,200.3 M117.8,197.6
		L117.8,199.0 M117.8,196.2 L117.8,197.6 M117.8,194.9 L117.8,196.2 M117.8,193.5 L117.8,194.9 M117.8,192.1
		L117.8,193.5 M117.8,190.8 L117.8,192.1 M117.8,189.4 L117.8,190.8 M117.8,188.1 L117.8,189.4 M117.8,186.7
		L117.8,188.1  '/>	<path stroke='gray'  d='M117.8,185.4 L117.8,186.7 M117.8,184.0 L117.8,185.4 M117.8,182.7 L117.8,184.0 M117.8,181.3 L117.8,182.7
		M117.8,180.0 L117.8,181.3 M117.8,178.6 L117.8,180.0 M117.8,177.3 L117.8,178.6 M117.8,176.0 L117.8,177.3
		M117.8,174.6 L117.8,176.0 M117.8,173.3 L117.8,174.6 M117.8,172.0 L117.8,173.3 M117.8,170.7 L117.8,172.0
		M117.8,169.3 L117.8,170.7 M117.8,168.0 L117.8,169.3 M117.8,166.7 L117.8,168.0 M117.8,165.4 L117.8,166.7
		M117.8,164.1 L117.8,165.4 M117.8,162.7 L117.8,164.1 M117.8,161.4 L117.8,162.7 M117.8,160.1 L117.8,161.4
		M117.8,158.8 L117.8,160.1 M117.8,157.5 L117.8,158.8 M117.8,156.2 L117.8,157.5 M117.8,155.0 L117.8,156.2
		M117.8,153.7 L117.8,155.0 M117.8,152.4 L117.8,153.7 M117.8,151.1 L117.8,152.4 M117.8,149.8 L117.8,151.1
		M117.8,148.5 L117.8,149.8 M117.8,147.3 L117.8,148.5 M117.8,146.0 L117.8,147.3 M117.8,144.7 L117.8,146.0
		M117.8,143.5 L117.8,144.7 M117.8,142.2 L117.8,143.5 M117.8,141.0 L117.8,142.2 M117.8,139.7 L117.8,141.0
		M117.8,138.5 L117.8,139.7 M117.8,137.2 L117.8,138.5 M117.8,136.0 L117.8,137.2 M117.8,134.8 L117.8,136.0
		M117.8,133.5 L117.8,134.8 M117.8,132.3 L117.8,133.5 M117.8,131.1 L117.8,132.3 M117.8,129.9 L117.8,131.1
		M117.8,128.7 L117.8,129.9 M117.8,127.5 L117.8,128.7 M117.8,126.3 L117.8,127.5 M117.8,125.1 L117.8,126.3
		M117.8,123.9 L117.8,125.1 M117.8,122.7 L117.8,123.9 M117.8,121.5 L117.8,122.7 M117.8,120.3 L117.8,121.5
		M117.8,119.2 L117.8,120.3 M117.8,118.0 L117.8,119.2 M117.8,116.8 L117.8,118.0 M117.8,115.7 L117.8,116.8
		M117.8,114.5 L117.8,115.7 M117.8,113.4 L117.8,114.5 M117.8,112.2 L117.8,113.4 M117.8,111.1 L117.8,112.2
		M117.8,110.0 L117.8,111.1 M117.8,108.8 L117.8,110.0 M117.8,107.7 L117.8,108.8 M117.8,106.6 L117.8,107.7
		M117.8,105.5 L117.8,106.6 M117.8,104.4 L117.8,105.5 M117.8,103.3 L117.8,104.4 M117.8,102.2 L117.8,103.3
		M117.8,101.1 L117.8,102.2 M117.8,100.0 L117.8,101.1 M117.8,99.0 L117.8,100.0 M117.8,97.9 L117.8,99.0
		M117.8,96.8 L117.8,97.9 M117.8,95.8 L117.8,96.8 M117.8,94.7 L117.8,95.8 M117.8,93.7 L117.8,94.7
		M117.8,92.6 L117.8,93.7 M117.8,91.6 L117.8,92.6 M117.8,90.6 L117.8,91.6 M117.8,89.6 L117.8,90.6
		M117.8,88.5 L117.8,89.6 M117.8,87.5 L117.8,88.5 M117.8,86.5 L117.8,87.5 M117.8,85.5 L117.8,86.5
		M117.8,84.6 L117.8,85.5 M117.8,83.6 L117.8,84.6 M117.8,82.6 L117.8,83.6 M117.8,81.6 L117.8,82.6
		M117.8,80.7 L117.8,81.6 M117.8,79.7 L117.8,80.7 M117.8,78.8 L117.8,79.7 M117.8,77.8 L117.8,78.8
		M117.8,76.9 L117.8,77.8 M117.8,76.0 L117.8,76.9 M117.8,75.0 L117.8,76.0 M117.8,74.1 L117.8,75.0
		M117.8,73.2 L117.8,74.1 M117.8,72.3 L117.8,73.2 M117.8,71.4 L117.8,72.3 M117.8,70.5 L117.8,71.4
		M117.8,69.7 L117.8,70.5 M117.8,68.8 L117.8,69.7 M117.8,67.9 L117.8,68.8 M117.8,67.1 L117.8,67.9
		M117.8,66.2 L117.8,67.1 M117.8,65.4 L117.8,66.2 M117.8,64.6 L117.8,65.4 M117.8,63.7 L117.8,64.6
		M117.8,62.9 L117.8,63.7 M117.8,62.1 L117.8,62.9 M117.8,61.3 L117.8,62.1 M117.8,60.5 L117.8,61.3
		M117.8,59.7 L117.8,60.5 M117.8,58.9 L117.8,59.7 M117.8,58.2 L117.8,58.9 M117.8,57.4 L117.8,58.2
		M117.8,56.6 L117.8,57.4 M117.8,55.9 L117.8,56.6 M117.8,55.1 L117.8,55.9 M117.8,54.4 L117.8,55.1
		M117.8,53.7 L117.8,54.4 M117.8,53.0 L117.8,53.7 M117.8,52.3 L117.8,53.0 M117.8,51.6 L117.8,52.3
		M117.8,50.9 L117.8,51.6 M117.8,50.2 L117.8,50.9 M117.8,49.5 L117.8,50.2 M117.8,48.8 L117.8,49.5
		M117.8,48.2 L117.8,48.8 M117.8,47.5 L117.8,48.2 M117.8,46.9 L117.8,47.5 M117.8,46.2 L117.8,46.9
		M117.8,45.6 L117.8,46.2 M117.8,45.0 L117.8,45.6 M117.8,44.4 L117.8,45.0 M117.8,43.8 L117.8,44.4
		M117.8,43.2 L117.8,43.8 M117.8,42.6 L117.8,43.2 M117.8,42.0 L117.8,42.6 M117.8,41.5 L117.8,42.0
		M117.8,40.9 L117.8,41.5 M117.8,40.3 L117.8,40.9 M117.8,39.8 L117.8,40.3 M117.8,39.3 L117.8,39.8
		M117.8,38.7 L117.8,39.3 M117.8,38.2 L117.8,38.7 M117.8,37.7 L117.8,38.2 M117.8,37.2 L117.8,37.7
		M117.8,36.7 L117.8,37.2 M117.8,36.2 L117.8,36.7 M117.8,35.8 L117.8,36.2 M117.8,35.3 L117.8,35.8
		M117.8,34.9 L117.8,35.3 M117.8,34.4 L117.8,34.9 M117.8,34.0 L117.8,34.4 M117.8,33.5 L117.8,34.0
		M117.8,33.1 L117.8,33.5 M117.8,32.7 L117.8,33.1 M117.8,32.3 L117.8,32.7 M117.8,31.9 L117.8,32.3
		M117.8,31.5 L117.8,31.9 M117.8,31.2 L117.8,31.5 M117.8,30.8 L117.8,31.2 M117.8,30.4 L117.8,30.8
		M117.8,30.1 L117.8,30.4 M117.8,29.7 L117.8,30.1 M117.8,29.4 L117.8,29.7 M117.8,29.1 L117.8,29.4
		M117.8,28.8 L117.8,29.1 M117.8,28.5 L117.8,28.8 M117.8,28.2 L117.8,28.5 M117.8,27.9 L117.8,28.2
		M117.8,27.6 L117.8,27.9 M117.8,27.4 L117.8,27.6 M117.8,27.1 L117.8,27.4 M117.8,26.9 L117.8,27.1
		M117.8,26.6 L117.8,26.9 M117.8,26.4 L117.8,26.6 M117.8,26.2 L117.8,26.4 M117.8,26.0 L117.8,26.2
		M117.8,25.8 L117.8,26.0 M117.8,25.6 L117.8,25.8 M117.8,25.4 L117.8,25.6 M117.8,25.2 L117.8,25.4
		M117.8,25.1 L117.8,25.2 M117.8,24.9 L117.8,25.1 M117.8,24.8 L117.8,24.9 M117.8,24.6 L117.8,24.8
		M117.8,24.5 L117.8,24.6 M117.8,24.4 L117.8,24.5 M117.8,24.3 L117.8,24.4 M117.8,24.2 L117.8,24.3
		M117.8,24.1 L117.8,24.2 M117.8,24.0 L117.8,24.1 M117.8,23.9 L117.8,24.0 M117.8,23.9 M117.8,23.8
		L117.8,23.9 M117.8,23.8 M117.8,23.7 L117.8,23.8 M117.8,23.7 M117.9,23.7 L117.8,23.7 M117.9,23.7
		M118.0,23.7 L117.9,23.7 M118.0,23.7 M118.1,23.7 L118.0,23.7 M118.2,23.7 L118.1,23.7 M118.3,23.7
		L118.2,23.7 M118.4,23.7 L118.3,23.7 M118.5,23.7 L118.4,23.7 M118.6,23.7 L118.5,23.7 M118.7,23.7
		L118.6,23.7 M118.9,23.7 L118.7,23.7 M119.0,23.7 L118.9,23.7 M119.2,23.7 L119.0,23.7 M119.3,23.7
		L119.2,23.7 M119.5,23.7 L119.3,23.7 M119.7,23.7 L119.5,23.7 M119.9,23.7 L119.7,23.7 M120.1,23.7
		L119.9,23.7 M120.3,23.7 L120.1,23.7 M120.5,23.7 L120.3,23.7 M120.7,23.7 L120.5,23.7 M121.0,23.7
		L120.7,23.7 M121.2,23.7 L121.0,23.7 M121.5,23.7 L121.2,23.7 M121.7,23.7 L121.5,23.7 M122.0,23.7
		L121.7,23.7 M122.3,23.7 L122.0,23.7 M122.6,23.7 L122.3,23.7 M122.9,23.7 L122.6,23.7 M123.2,23.7
		L122.9,23.7 M123.5,23.7 L123.2,23.7 M123.8,23.7 L123.5,23.7 M124.2,23.7 L123.8,23.7 M124.5,23.7
		L124.2,23.7 M124.9,23.7 L124.5,23.7 M125.3,23.7 L124.9,23.7 M125.6,23.7 L125.3,23.7 M126.0,23.7
		L125.6,23.7 M126.4,23.7 L126.0,23.7 M126.8,23.7 L126.4,23.7 M127.2,23.7 L126.8,23.7 M127.6,23.7
		L127.2,23.7 M128.1,23.7 L127.6,23.7 M128.5,23.7 L128.1,23.7 M129.0,23.7 L128.5,23.7 M129.4,23.7
		L129.0,23.7 M129.9,23.7 L129.4,23.7 M130.3,23.7 L129.9,23.7 M130.8,23.7 L130.3,23.7 M131.3,23.7
		L130.8,23.7 M131.8,23.7 L131.3,23.7 M132.3,23.7 L131.8,23.7 M132.8,23.7 L132.3,23.7 M133.4,23.7
		L132.8,23.7 M133.9,23.7 L133.4,23.7 M134.4,23.7 L133.9,23.7 M135.0,23.7 L134.4,23.7 M135.6,23.7
		L135.0,23.7  '/>	<path stroke='gray'  d='M136.1,23.7 L135.6,23.7 M136.7,23.7 L136.1,23.7 M137.3,23.7 L136.7,23.7 M137.9,23.7 L137.3,23.7
		M138.5,23.7 L137.9,23.7 M139.1,23.7 L138.5,23.7 M139.7,23.7 L139.1,23.7 M140.3,23.7 L139.7,23.7
		M141.0,23.7 L140.3,23.7 M141.6,23.7 L141.0,23.7 M142.3,23.7 L141.6,23.7 M142.9,23.7 L142.3,23.7
		M143.6,23.7 L142.9,23.7 M144.3,23.7 L143.6,23.7 M145.0,23.7 L144.3,23.7 M145.7,23.7 L145.0,23.7
		M146.4,23.7 L145.7,23.7 M147.1,23.7 L146.4,23.7 M147.8,23.7 L147.1,23.7 M148.5,23.7 L147.8,23.7
		M149.3,23.7 L148.5,23.7 M150.0,23.7 L149.3,23.7 M150.7,23.7 L150.0,23.7 M151.5,23.7 L150.7,23.7
		M152.3,23.7 L151.5,23.7 M153.0,23.7 L152.3,23.7 M153.8,23.7 L153.0,23.7 M154.6,23.7 L153.8,23.7
		M155.4,23.7 L154.6,23.7 M156.2,23.7 L155.4,23.7 M157.0,23.7 L156.2,23.7 M157.8,23.7 L157.0,23.7
		M158.7,23.7 L157.8,23.7 M159.5,23.7 L158.7,23.7 M160.3,23.7 L159.5,23.7 M161.2,23.7 L160.3,23.7
		M162.0,23.7 L161.2,23.7 M162.9,23.7 L162.0,23.7 M163.8,23.7 L162.9,23.7 M164.7,23.7 L163.8,23.7
		M165.5,23.7 L164.7,23.7 M166.4,23.7 L165.5,23.7 M167.3,23.7 L166.4,23.7 M168.2,23.7 L167.3,23.7
		M169.2,23.7 L168.2,23.7 M170.1,23.7 L169.2,23.7 M171.0,23.7 L170.1,23.7 M171.9,23.7 L171.0,23.7
		M172.9,23.7 L171.9,23.7 M173.8,23.7 L172.9,23.7 M174.8,23.7 L173.8,23.7 M175.7,23.7 L174.8,23.7
		M176.7,23.7 L175.7,23.7 M177.7,23.7 L176.7,23.7 M178.7,23.7 L177.7,23.7 M179.7,23.7 L178.7,23.7
		M180.7,23.7 L179.7,23.7 M181.7,23.7 L180.7,23.7 M182.7,23.7 L181.7,23.7 M183.7,23.7 L182.7,23.7
		M184.7,23.7 L183.7,23.7 M185.7,23.7 L184.7,23.7 M186.8,23.7 L185.7,23.7 M187.8,23.7 L186.8,23.7
		M188.8,23.7 L187.8,23.7 M189.9,23.7 L188.8,23.7 M190.9,23.7 L189.9,23.7 M192.0,23.7 L190.9,23.7
		M193.1,23.7 L192.0,23.7 M194.2,23.7 L193.1,23.7 M195.2,23.7 L194.2,23.7 M196.3,23.7 L195.2,23.7
		M197.4,23.7 L196.3,23.7 M198.5,23.7 L197.4,23.7 M199.6,23.7 L198.5,23.7 M200.7,23.7 L199.6,23.7
		M201.8,23.7 L200.7,23.7 M203.0,23.7 L201.8,23.7 M204.1,23.7 L203.0,23.7 M205.2,23.7 L204.1,23.7
		M206.4,23.7 L205.2,23.7 M207.5,23.7 L206.4,23.7 M208.6,23.7 L207.5,23.7 M209.8,23.7 L208.6,23.7
		M211.0,23.7 L209.8,23.7 M212.1,23.7 L211.0,23.7 M213.3,23.7 L212.1,23.7 M214.5,23.7 L213.3,23.7
		M215.6,23.7 L214.5,23.7 M216.8,23.7 L215.6,23.7 M218.0,23.7 L216.8,23.7 M219.2,23.7 L218.0,23.7
		M220.4,23.7 L219.2,23.7 M221.6,23.7 L220.4,23.7 M222.8,23.7 L221.6,23.7 M224.0,23.7 L222.8,23.7
		M225.2,23.7 L224.0,23.7 M226.4,23.7 L225.2,23.7 M227.7,23.7 L226.4,23.7 M228.9,23.7 L227.7,23.7
		M230.1,23.7 L228.9,23.7 M231.4,23.7 L230.1,23.7 M232.6,23.7 L231.4,23.7 M233.9,23.7 L232.6,23.7
		M235.1,23.7 L233.9,23.7 M236.4,23.7 L235.1,23.7 M237.6,23.7 L236.4,23.7 M238.9,23.7 L237.6,23.7
		M240.1,23.7 L238.9,23.7 M241.4,23.7 L240.1,23.7 M242.7,23.7 L241.4,23.7 M243.9,23.7 L242.7,23.7
		M245.2,23.7 L243.9,23.7 M246.5,23.7 L245.2,23.7 M247.8,23.7 L246.5,23.7 M249.1,23.7 L247.8,23.7
		M250.4,23.7 L249.1,23.7 M251.7,23.7 L250.4,23.7 M253.0,23.7 L251.7,23.7 M254.3,23.7 L253.0,23.7
		M255.6,23.7 L254.3,23.7 M256.9,23.7 L255.6,23.7 M258.2,23.7 L256.9,23.7 M259.5,23.7 L258.2,23.7
		M260.8,23.7 L259.5,23.7 M262.1,23.7 L260.8,23.7 M263.5,23.7 L262.1,23.7 M264.8,23.7 L263.5,23.7
		M266.1,23.7 L264.8,23.7 M267.4,23.7 L266.1,23.7 M268.8,23.7 L267.4,23.7 M270.1,23.7 L268.8,23.7
		M271.4,23.7 L270.1,23.7 M272.8,23.7 L271.4,23.7 M274.1,23.7 L272.8,23.7 M275.5,23.7 L274.1,23.7
		M276.8,23.7 L275.5,23.7 M278.2,23.7 L276.8,23.7 M279.5,23.7 L278.2,23.7 M280.9,23.7 L279.5,23.7
		M282.2,23.7 L280.9,23.7 M283.6,23.7 L282.2,23.7 M284.9,23.7 L283.6,23.7 M286.3,23.7 L284.9,23.7
		M287.6,23.7 L286.3,23.7 M289.0,23.7 L287.6,23.7 M290.4,23.7 L289.0,23.7 M291.7,23.7 L290.4,23.7
		M293.1,23.7 L291.7,23.7 M294.5,23.7 L293.1,23.7 M295.8,23.7 L294.5,23.7 M297.2,23.7 L295.8,23.7
		M298.6,23.7 L297.2,23.7 M300.0,23.7 L298.6,23.7 M301.3,23.7 L300.0,23.7 M302.7,23.7 L301.3,23.7
		M304.1,23.7 L302.7,23.7 M305.4,23.7 L304.1,23.7 M306.8,23.7 L305.4,23.7 M308.2,23.7 L306.8,23.7
		M309.6,23.7 L308.2,23.7 M311.0,23.7 L309.6,23.7 M312.3,23.7 L311.0,23.7 M313.7,23.7 L312.3,23.7
		M315.1,23.7 L313.7,23.7 M316.5,23.7 L315.1,23.7 M317.8,23.7 L316.5,23.7 M319.2,23.7 L317.8,23.7
		M320.6,23.7 L319.2,23.7 M322.0,23.7 L320.6,23.7 M323.4,23.7 L322.0,23.7 M324.7,23.7 L323.4,23.7
		M326.1,23.7 L324.7,23.7 M327.5,23.7 L326.1,23.7 M328.9,23.7 L327.5,23.7 M330.2,23.7 L328.9,23.7
		M331.6,23.7 L330.2,23.7 M333.0,23.7 L331.6,23.7 M334.4,23.7 L333.0,23.7 M335.8,23.7 L334.4,23.7
		M337.1,23.7 L335.8,23.7 M338.5,23.7 L337.1,23.7 M339.9,23.7 L338.5,23.7 M341.2,23.7 L339.9,23.7
		M342.6,23.7 L341.2,23.7 M344.0,23.7 L342.6,23.7 M345.4,23.7 L344.0,23.7 M346.7,23.7 L345.4,23.7
		M348.1,23.7 L346.7,23.7 M349.5,23.7 L348.1,23.7 M350.8,23.7 L349.5,23.7 M352.2,23.7 L350.8,23.7
		M353.6,23.7 L352.2,23.7 M354.9,23.7 L353.6,23.7 M356.3,23.7 L354.9,23.7 M357.6,23.7 L356.3,23.7
		M359.0,23.7 L357.6,23.7 M360.3,23.7 L359.0,23.7 M361.7,23.7 L360.3,23.7 M363.0,23.7 L361.7,23.7
		M364.4,23.7 L363.0,23.7 M365.7,23.7 L364.4,23.7 M367.1,23.7 L365.7,23.7 M368.4,23.7 L367.1,23.7
		M369.8,23.7 L368.4,23.7 M371.1,23.7 L369.8,23.7 M372.4,23.7 L371.1,23.7 M373.8,23.7 L372.4,23.7
		M375.1,23.7 L373.8,23.7 M376.4,23.7 L375.1,23.7 M377.7,23.7 L376.4,23.7 M379.1,23.7 L377.7,23.7
		M380.4,23.7 L379.1,23.7 M381.7,23.7 L380.4,23.7 M383.0,23.7 L381.7,23.7 M384.3,23.7 L383.0,23.7
		M385.6,23.7 L384.3,23.7 M386.9,23.7 L385.6,23.7 M388.2,23.7 L386.9,23.7 M389.5,23.7 L388.2,23.7
		M390.8,23.7 L389.5,23.7 M392.1,23.7 L390.8,23.7 M393.4,23.7 L392.1,23.7 M394.7,23.7 L393.4,23.7
		M396.0,23.7 L394.7,23.7 M397.3,23.7 L396.0,23.7 M398.5,23.7 L397.3,23.7 M399.8,23.7 L398.5,23.7
		M401.1,23.7 L399.8,23.7 M402.3,23.7 L401.1,23.7 M403.6,23.7 L402.3,23.7 M404.8,23.7 L403.6,23.7
		M406.1,23.7 L404.8,23.7 M407.3,23.7 L406.1,23.7 M408.6,23.7 L407.3,23.7 M409.8,23.7 L408.6,23.7
		M411.1,23.7 L409.8,23.7 M412.3,23.7 L411.1,23.7 M413.5,23.7 L412.3,23.7 M414.8,23.7 L413.5,23.7
		M416.0,23.7 L414.8,23.7 M417.2,23.7 L416.0,23.7 M418.4,23.7 L417.2,23.7 M419.6,23.7 L418.4,23.7
		M420.8,23.7 L419.6,23.7 M422.0,23.7 L420.8,23.7 M423.2,23.7 L422.0,23.7 M424.4,23.7 L423.2,23.7
		M425.6,23.7 L424.4,23.7 M426.7,23.7 L425.6,23.7 M427.9,23.7 L426.7,23.7 M429.1,23.7 L427.9,23.7
		M430.2,23.7 L429.1,23.7 M431.4,23.7 L430.2,23.7 M432.6,23.7 L431.4,23.7 M433.7,23.7 L432.6,23.7
		M434.8,23.7 L433.7,23.7  '/>	<path stroke='gray'  d='M436.0,23.7 L434.8,23.7 M437.1,23.7 L436.0,23.7 M438.2,23.7 L437.1,23.7 M439.4,23.7 L438.2,23.7
		M440.5,23.7 L439.4,23.7 M441.6,23.7 L440.5,23.7 M442.7,23.7 L441.6,23.7 M443.8,23.7 L442.7,23.7
		M444.9,23.7 L443.8,23.7 M446.0,23.7 L444.9,23.7 M447.0,23.7 L446.0,23.7 M448.1,23.7 L447.0,23.7
		M449.2,23.7 L448.1,23.7 M450.3,23.7 L449.2,23.7 M451.3,23.7 L450.3,23.7 M452.4,23.7 L451.3,23.7
		M453.4,23.7 L452.4,23.7 M454.4,23.7 L453.4,23.7 M455.5,23.7 L454.4,23.7 M456.5,23.7 L455.5,23.7
		M457.5,23.7 L456.5,23.7 M458.5,23.7 L457.5,23.7 M459.5,23.7 L458.5,23.7 M460.5,23.7 L459.5,23.7
		M461.5,23.7 L460.5,23.7 M462.5,23.7 L461.5,23.7 M463.5,23.7 L462.5,23.7 M464.5,23.7 L463.5,23.7
		M465.5,23.7 L464.5,23.7 M466.4,23.7 L465.5,23.7 M467.4,23.7 L466.4,23.7 M468.3,23.7 L467.4,23.7
		M469.3,23.7 L468.3,23.7 M470.2,23.7 L469.3,23.7 M471.1,23.7 L470.2,23.7 M472.0,23.7 L471.1,23.7
		M473.0,23.7 L472.0,23.7 M473.9,23.7 L473.0,23.7 M474.8,23.7 L473.9,23.7 M475.7,23.7 L474.8,23.7
		M476.5,23.7 L475.7,23.7 M477.4,23.7 L476.5,23.7 M478.3,23.7 L477.4,23.7 M479.2,23.7 L478.3,23.7
		M480.0,23.7 L479.2,23.7 M480.9,23.7 L480.0,23.7 M481.7,23.7 L480.9,23.7 M482.5,23.7 L481.7,23.7
		M483.4,23.7 L482.5,23.7 M484.2,23.7 L483.4,23.7 M485.0,23.7 L484.2,23.7 M485.8,23.7 L485.0,23.7
		M486.6,23.7 L485.8,23.7 M487.4,23.7 L486.6,23.7 M488.2,23.7 L487.4,23.7 M488.9,23.7 L488.2,23.7
		M489.7,23.7 L488.9,23.7 M490.5,23.7 L489.7,23.7 M491.2,23.7 L490.5,23.7 M491.9,23.7 L491.2,23.7
		M492.7,23.7 L491.9,23.7 M493.4,23.7 L492.7,23.7 M494.1,23.7 L493.4,23.7 M494.8,23.7 L494.1,23.7
		M495.5,23.7 L494.8,23.7 M496.2,23.7 L495.5,23.7 M496.9,23.7 L496.2,23.7 M497.6,23.7 L496.9,23.7
		M498.3,23.7 L497.6,23.7 M498.9,23.7 L498.3,23.7 M499.6,23.7 L498.9,23.7 M500.2,23.7 L499.6,23.7
		M500.9,23.7 L500.2,23.7 M501.5,23.7 L500.9,23.7 M502.1,23.7 L501.5,23.7 M502.7,23.7 L502.1,23.7
		M503.3,23.7 L502.7,23.7 M503.9,23.7 L503.3,23.7 M504.5,23.7 L503.9,23.7 M505.1,23.7 L504.5,23.7
		M505.6,23.7 L505.1,23.7 M506.2,23.7 L505.6,23.7 M506.8,23.7 L506.2,23.7 M507.3,23.7 L506.8,23.7
		M507.8,23.7 L507.3,23.7 M508.4,23.7 L507.8,23.7 M508.9,23.7 L508.4,23.7 M509.4,23.7 L508.9,23.7
		M509.9,23.7 L509.4,23.7 M510.4,23.7 L509.9,23.7 M510.9,23.7 L510.4,23.7 M511.3,23.7 L510.9,23.7
		M511.8,23.7 L511.3,23.7 M512.2,23.7 L511.8,23.7 M512.7,23.7 L512.2,23.7 M513.1,23.7 L512.7,23.7
		M513.6,23.7 L513.1,23.7 M514.0,23.7 L513.6,23.7 M514.4,23.7 L514.0,23.7 M514.8,23.7 L514.4,23.7
		M515.2,23.7 L514.8,23.7 M515.6,23.7 L515.2,23.7 M515.9,23.7 L515.6,23.7 M516.3,23.7 L515.9,23.7
		M516.7,23.7 L516.3,23.7 M517.0,23.7 L516.7,23.7 M517.4,23.7 L517.0,23.7 M517.7,23.7 L517.4,23.7
		M518.0,23.7 L517.7,23.7 M518.3,23.7 L518.0,23.7 M518.6,23.7 L518.3,23.7 M518.9,23.7 L518.6,23.7
		M519.2,23.7 L518.9,23.7 M519.5,23.7 L519.2,23.7 M519.7,23.7 L519.5,23.7 M520.0,23.7 L519.7,23.7
		M520.2,23.7 L520.0,23.7 M520.5,23.7 L520.2,23.7 M520.7,23.7 L520.5,23.7 M520.9,23.7 L520.7,23.7
		M521.1,23.7 L520.9,23.7 M521.3,23.7 L521.1,23.7 M521.5,23.7 L521.3,23.7 M521.7,23.7 L521.5,23.7
		M521.9,23.7 L521.7,23.7 M522.0,23.7 L521.9,23.7 M522.2,23.7 L522.0,23.7 M522.3,23.7 L522.2,23.7
		M522.5,23.7 L522.3,23.7 M522.6,23.7 L522.5,23.7 M522.7,23.7 L522.6,23.7 M522.8,23.7 L522.7,23.7
		M522.9,23.7 L522.8,23.7 M523.0,23.7 L522.9,23.7 M523.1,23.7 L523.0,23.7 M523.2,23.7 L523.1,23.7
		M523.2,23.7 M523.3,23.7 L523.2,23.7 M523.3,23.7 M523.4,23.7 L523.3,23.7 M523.4,23.7 M523.4,429.2
		L523.4,429.1 L523.4,429.0 L523.4,428.9 L523.4,428.8 L523.4,428.7 L523.4,428.6 L523.4,428.5 L523.4,428.4
		L523.4,428.3 L523.4,428.1 L523.4,428.0 L523.4,427.8 L523.4,427.7 L523.4,427.5 L523.4,427.3 L523.4,427.1
		L523.4,426.9 L523.4,426.7 L523.4,426.5 L523.4,426.3 L523.4,426.0 L523.4,425.8 L523.4,425.5 L523.4,425.3
		L523.4,425.0 L523.4,424.7 L523.4,424.4 L523.4,424.1 L523.4,423.8 L523.4,423.5 L523.4,423.2 L523.4,422.8
		L523.4,422.5 L523.4,422.1 L523.4,421.7 L523.4,421.4 L523.4,421.0 L523.4,420.6 L523.4,420.2 L523.4,419.8
		L523.4,419.4 L523.4,418.9 L523.4,418.5 L523.4,418.0 L523.4,417.6 L523.4,417.1 L523.4,416.7 L523.4,416.2
		L523.4,415.7 L523.4,415.2 L523.4,414.7 L523.4,414.2 L523.4,413.6 L523.4,413.1 L523.4,412.6 L523.4,412.0
		L523.4,411.4 L523.4,410.9 L523.4,410.3 L523.4,409.7 L523.4,409.1 L523.4,408.5 L523.4,407.9 L523.4,407.3
		L523.4,406.7 L523.4,406.0 L523.4,405.4 L523.4,404.7 L523.4,404.1 L523.4,403.4 L523.4,402.7 L523.4,402.0
		L523.4,401.3 L523.4,400.6 L523.4,399.9 L523.4,399.2 L523.4,398.5 L523.4,397.8 L523.4,397.0 L523.4,396.3
		L523.4,395.5 L523.4,394.7 L523.4,394.0 L523.4,393.2 L523.4,392.4 L523.4,391.6 L523.4,390.8 L523.4,390.0
		L523.4,389.2 L523.4,388.3 L523.4,387.5 L523.4,386.7 L523.4,385.8 L523.4,385.0 L523.4,384.1 L523.4,383.2
		L523.4,382.4 L523.4,381.5 L523.4,380.6 L523.4,379.7 L523.4,378.8 L523.4,377.9 L523.4,376.9 L523.4,376.0
		L523.4,375.1 L523.4,374.1 L523.4,373.2 L523.4,372.2 L523.4,371.3 L523.4,370.3 L523.4,369.3 L523.4,368.3
		L523.4,367.4 L523.4,366.4 L523.4,365.4 L523.4,364.4 L523.4,363.3 L523.4,362.3 L523.4,361.3 L523.4,360.3
		L523.4,359.2 L523.4,358.2 L523.4,357.1 L523.4,356.1 L523.4,355.0 L523.4,353.9 L523.4,352.9 L523.4,351.8
		L523.4,350.7 L523.4,349.6 L523.4,348.5 L523.4,347.4 L523.4,346.3 L523.4,345.2 L523.4,344.1 L523.4,342.9
		L523.4,341.8 L523.4,340.7 L523.4,339.5 L523.4,338.4 L523.4,337.2 L523.4,336.1 L523.4,334.9 L523.4,333.7
		L523.4,332.6 L523.4,331.4 L523.4,330.2 L523.4,329.0 L523.4,327.8 L523.4,326.6 L523.4,325.4 L523.4,324.2
		L523.4,323.0 L523.4,321.8 L523.4,320.6 L523.4,319.4 L523.4,318.1 L523.4,316.9 L523.4,315.7 L523.4,314.4
		L523.4,313.2 L523.4,311.9 L523.4,310.7 L523.4,309.4 L523.4,308.2 L523.4,306.9 L523.4,305.6 L523.4,304.4
		L523.4,303.1 L523.4,301.8 L523.4,300.5 L523.4,299.2 L523.4,297.9 L523.4,296.7 L523.4,295.4 L523.4,294.1
		L523.4,292.8 L523.4,291.5 L523.4,290.2 L523.4,288.8 L523.4,287.5 L523.4,286.2 L523.4,284.9 L523.4,283.6
		L523.4,282.2 L523.4,280.9 L523.4,279.6 L523.4,278.3 L523.4,276.9 L523.4,275.6 L523.4,274.3 L523.4,272.9
		L523.4,271.6 L523.4,270.2 L523.4,268.9 L523.4,267.5 L523.4,266.2 L523.4,264.8 L523.4,263.5 L523.4,262.1
		L523.4,260.8 L523.4,259.4 L523.4,258.0 L523.4,256.7 L523.4,255.3 L523.4,253.9 L523.4,252.6 L523.4,251.2
		L523.4,249.8 L523.4,248.5 L523.4,247.1 L523.4,245.7 L523.4,244.3 L523.4,243.0 L523.4,241.6 L523.4,240.2
		L523.4,238.9 L523.4,237.5 L523.4,236.1 L523.4,234.7 L523.4,233.3 L523.4,232.0 L523.4,230.6 L523.4,229.2
		L523.4,227.8 L523.4,226.4 L523.4,225.1 L523.4,223.7 L523.4,222.3 L523.4,220.9 L523.4,219.6 L523.4,218.2
		L523.4,216.8 L523.4,215.4 L523.4,214.0 L523.4,212.7 L523.4,211.3 L523.4,209.9 L523.4,208.6 L523.4,207.2
		L523.4,205.8 L523.4,204.4 L523.4,203.1 L523.4,201.7 L523.4,200.3 L523.4,199.0 L523.4,197.6 L523.4,196.2
		L523.4,194.9 L523.4,193.5 L523.4,192.1 L523.4,190.8 L523.4,189.4 L523.4,188.1 L523.4,186.7 L523.4,185.4
		L523.4,184.0 L523.4,182.7 L523.4,181.3 L523.4,180.0 L523.4,178.6 L523.4,177.3 L523.4,176.0 L523.4,174.6
		L523.4,173.3 L523.4,172.0 L523.4,170.7 L523.4,169.3 L523.4,168.0 L523.4,166.7 L523.4,165.4 L523.4,164.1
		L523.4,162.7 L523.4,161.4 L523.4,160.1 L523.4,158.8 L523.4,157.5 L523.4,156.2 L523.4,155.0 L523.4,153.7
		L523.4,152.4 L523.4,151.1 L523.4,149.8 L523.4,148.5 L523.4,147.3 L523.4,146.0 L523.4,144.7 L523.4,143.5
		L523.4,142.2 L523.4,141.0 L523.4,139.7 L523.4,138.5 L523.4,137.2 L523.4,136.0 L523.4,134.8 L523.4,133.5
		L523.4,132.3 L523.4,131.1 L523.4,129.9 L523.4,128.7 L523.4,127.5 L523.4,126.3 L523.4,125.1 L523.4,123.9
		L523.4,122.7 L523.4,121.5 L523.4,120.3 L523.4,119.2 L523.4,118.0 L523.4,116.8 L523.4,115.7 L523.4,114.5
		L523.4,113.4 L523.4,112.2 L523.4,111.1 L523.4,110.0 L523.4,108.8 L523.4,107.7 L523.4,106.6 L523.4,105.5
		L523.4,104.4 L523.4,103.3 L523.4,102.2 L523.4,101.1 L523.4,100.0 L523.4,99.0 L523.4,97.9 L523.4,96.8
		L523.4,95.8 L523.4,94.7 L523.4,93.7 L523.4,92.6 L523.4,91.6 L523.4,90.6 L523.4,89.6 L523.4,88.5
		L523.4,87.5 L523.4,86.5 L523.4,85.5 L523.4,84.6 L523.4,83.6 L523.4,82.6 L523.4,81.6 L523.4,80.7
		L523.4,79.7 L523.4,78.8 L523.4,77.8 L523.4,76.9 L523.4,76.0 L523.4,75.0 L523.4,74.1 L523.4,73.2
		L523.4,72.3 L523.4,71.4 L523.4,70.5 L523.4,69.7 L523.4,68.8 L523.4,67.9 L523.4,67.1 L523.4,66.2
		L523.4,65.4 L523.4,64.6 L523.4,63.7 L523.4,62.9 L523.4,62.1 L523.4,61.3 L523.4,60.5 L523.4,59.7
		L523.4,58.9 L523.4,58.2 L523.4,57.4 L523.4,56.6 L523.4,55.9 L523.4,55.1 L523.4,54.4 L523.4,53.7
		L523.4,53.0 L523.4,52.3 L523.4,51.6 L523.4,50.9 L523.4,50.2 L523.4,49.5 L523.4,48.8 L523.4,48.2
		L523.4,47.5 L523.4,46.9 L523.4,46.2 L523.4,45.6 L523.4,45.0 L523.4,44.4 L523.4,43.8 L523.4,43.2
		L523.4,42.6 L523.4,42.0 L523.4,41.5 L523.4,40.9 L523.4,40.3 L523.4,39.8 L523.4,39.3 L523.4,38.7
		L523.4,38.2 L523.4,37.7 L523.4,37.2 L523.4,36.7 L523.4,36.2 L523.4,35.8 L523.4,35.3 L523.4,34.9
		L523.4,34.4 L523.4,34.0 L523.4,33.5 L523.4,33.1 L523.4,32.7 L523.4,32.3 L523.4,31.9 L523.4,31.5
		L523.4,31.2 L523.4,30.8 L523.4,30.4 L523.4,30.1 L523.4,29.7 L523.4,29.4 L523.4,29.1 L523.4,28.8
		L523.4,28.5 L523.4,28.2 L523.4,27.9 L523.4,27.6 L523.4,27.4 L523.4,27.1 L523.4,26.9 L523.4,26.6
		L523.4,26.4 L523.4,26.2 L523.4,26.0 L523.4,25.8 L523.4,25.6 L523.4,25.4 L523.4,25.2 L523.4,25.1
		L523.4,24.9 L523.4,24.8 L523.4,24.6 L523.4,24.5 L523.4,24.4 L523.4,24.3 L523.4,24.2 L523.4,24.1
		L523.4,24.0 L523.4,23.9 L523.4,23.8 L523.4,23.7  '/></g>
	</g>
<g fill="none" color="white" stroke="gray" stroke-width="2.00" stroke-linecap="butt" stroke-linejoin="miter">
</g>
<g fill="none" color="black" stroke="currentColor" stroke-width="2.00" stroke-linecap="butt" stroke-linejoin="miter">
</g>
<g fill="none" color="black" stroke="black" stroke-width="1.00" stroke-linecap="butt" stroke-linejoin="miter">
</g>
<g fill="none" color="black" stroke="currentColor" stroke-width="1.00" stroke-linecap="butt" stroke-linejoin="miter">
	<path stroke='black'  d='M117.8,23.7 L117.8,429.2 L523.4,429.2 L523.4,23.7 L117.8,23.7 Z  '/></g>
<g fill="none" color="black" stroke="currentColor" stroke-width="1.00" stroke-linecap="butt" stroke-linejoin="miter">
</g>
</g>
</svg>

