<?xml version="1.0" encoding="UTF-8" standalone="no"?>
<svg
   xmlns:ns0="http://www.iki.fi/pav/software/textext/"
   xmlns:dc="http://purl.org/dc/elements/1.1/"
   xmlns:cc="http://creativecommons.org/ns#"
   xmlns:rdf="http://www.w3.org/1999/02/22-rdf-syntax-ns#"
   xmlns:svg="http://www.w3.org/2000/svg"
   xmlns="http://www.w3.org/2000/svg"
   xmlns:xlink="http://www.w3.org/1999/xlink"
   xmlns:sodipodi="http://sodipodi.sourceforge.net/DTD/sodipodi-0.dtd"
   xmlns:inkscape="http://www.inkscape.org/namespaces/inkscape"
   width="386.05258"
   height="434.00482"
   viewBox="0 0 386.05258 434.00482"
   id="svg10777"
   version="1.1"
   inkscape:version="0.91 r13725"
   sodipodi:docname="step68band_prop.svg">
  <metadata
     id="metadata11390">
    <rdf:RDF>
      <cc:Work
         rdf:about="">
        <dc:format>image/svg+xml</dc:format>
        <dc:type
           rdf:resource="http://purl.org/dc/dcmitype/StillImage" />
        <dc:title>Gnuplot</dc:title>
      </cc:Work>
    </rdf:RDF>
  </metadata>
  <defs
     id="defs11388" />
  <sodipodi:namedview
     pagecolor="#ffffff"
     bordercolor="#666666"
     borderopacity="1"
     objecttolerance="10"
     gridtolerance="10"
     guidetolerance="10"
     inkscape:pageopacity="0"
     inkscape:pageshadow="2"
     inkscape:window-width="1920"
     inkscape:window-height="1867"
     id="namedview11386"
     showgrid="false"
     fit-margin-top="0"
     fit-margin-left="0"
     fit-margin-right="0"
     fit-margin-bottom="0"
     inkscape:zoom="1.6866667"
     inkscape:cx="322.9934"
     inkscape:cy="97.804877"
     inkscape:window-x="0"
     inkscape:window-y="0"
     inkscape:window-maximized="1"
     inkscape:current-layer="gnuplot_canvas" />
  <title
     id="title10779">Gnuplot</title>
  <desc
     id="desc10781">Produced by GNUPLOT 5.0 patchlevel 3 </desc>
  <g
     id="gnuplot_canvas"
     transform="translate(-92.247431,-18.229883)">
    <rect
       x="0"
       y="0"
       width="600"
       height="480"
       id="rect10784"
       style="fill:none" />
    <defs
       id="defs10786">
      <circle
         id="gpDot"
         r="0.5"
         cx="0"
         cy="0"
         style="stroke-width:0.5" />
      <path
         id="gpPt0"
         d="M -1,0 1,0 M 0,-1 0,1"
         inkscape:connector-curvature="0"
         style="stroke:currentColor;stroke-width:0.15700001" />
      <path
         id="gpPt1"
         d="M -1,-1 1,1 M 1,-1 -1,1"
         inkscape:connector-curvature="0"
         style="stroke:currentColor;stroke-width:0.15700001" />
      <path
         id="gpPt2"
         d="M -1,0 1,0 M 0,-1 0,1 m -1,-2 2,2 m -2,0 2,-2"
         inkscape:connector-curvature="0"
         style="stroke:currentColor;stroke-width:0.15700001" />
      <rect
         id="gpPt3"
         x="-1"
         y="-1"
         width="2"
         height="2"
         style="stroke:currentColor;stroke-width:0.15700001" />
      <rect
         id="gpPt4"
         x="-1"
         y="-1"
         width="2"
         height="2"
         style="fill:currentColor;stroke:currentColor;stroke-width:0.15700001" />
      <circle
         id="gpPt5"
         cx="0"
         cy="0"
         r="1"
         style="stroke:currentColor;stroke-width:0.15700001" />
      <use
         xlink:href="#gpPt5"
         id="gpPt6"
         style="fill:currentColor;stroke:none"
         x="0"
         y="0"
         width="100%"
         height="100%" />
      <path
         id="gpPt7"
         d="m 0,-1.33 -1.33,2 2.66,0 z"
         inkscape:connector-curvature="0"
         style="stroke:currentColor;stroke-width:0.15700001" />
      <use
         xlink:href="#gpPt7"
         id="gpPt8"
         style="fill:currentColor;stroke:none"
         x="0"
         y="0"
         width="100%"
         height="100%" />
      <use
         xlink:href="#gpPt7"
         id="gpPt9"
         transform="scale(-1,-1)"
         style="stroke:currentColor"
         x="0"
         y="0"
         width="100%"
         height="100%" />
      <use
         xlink:href="#gpPt9"
         id="gpPt10"
         style="fill:currentColor;stroke:none"
         x="0"
         y="0"
         width="100%"
         height="100%" />
      <use
         xlink:href="#gpPt3"
         id="gpPt11"
         transform="matrix(0.70710678,0.70710678,-0.70710678,0.70710678,0,0)"
         style="stroke:currentColor"
         x="0"
         y="0"
         width="100%"
         height="100%" />
      <use
         xlink:href="#gpPt11"
         id="gpPt12"
         style="fill:currentColor;stroke:none"
         x="0"
         y="0"
         width="100%"
         height="100%" />
      <path
         id="gpPt13"
         d="M 0,1.33 1.265,0.411 0.782,-1.067 -0.782,-1.076 -1.265,0.411 Z"
         inkscape:connector-curvature="0"
         style="stroke:currentColor;stroke-width:0.15700001" />
      <use
         xlink:href="#gpPt13"
         id="gpPt14"
         style="fill:currentColor;stroke:none"
         x="0"
         y="0"
         width="100%"
         height="100%" />
      <filter
         id="textbox"
         filterUnits="objectBoundingBox"
         x="0"
         y="0"
         height="1"
         width="1">
        <feFlood
           flood-color="white"
           flood-opacity="1"
           result="bgnd"
           id="feFlood10805" />
        <feComposite
           in="SourceGraphic"
           in2="bgnd"
           operator="atop"
           id="feComposite10807" />
      </filter>
      <filter
         id="greybox"
         filterUnits="objectBoundingBox"
         x="0"
         y="0"
         height="1"
         width="1">
        <feFlood
           flood-color="lightgrey"
           flood-opacity="1"
           result="grey"
           id="feFlood10810" />
        <feComposite
           in="SourceGraphic"
           in2="grey"
           operator="atop"
           id="feComposite10812" />
      </filter>
    </defs>
    <g
       id="g10814"
       style="color:#ffffff;fill:none;stroke:currentColor;stroke-width:1;stroke-linecap:butt;stroke-linejoin:miter" />
    <g
       id="g10816"
       style="color:#000000;fill:none;stroke:currentColor;stroke-width:1;stroke-linecap:butt;stroke-linejoin:miter">
      <path
         d="m 139.8,429.2 12.7,0 m 325.3,0 -12.7,0"
         id="path10818"
         inkscape:connector-curvature="0"
         style="stroke:#000000" />
      <g
         transform="translate(128,435.6)"
         font-size="17.00"
         id="g10820"
         style="font-size:17px;font-family:Arial;text-anchor:end;fill:#000000;stroke:none">
        <text
           id="text10822">
          <tspan
             id="tspan10824"
             style="font-family:Arial">0</tspan>
        </text>
      </g>
    </g>
    <g
       id="g10826"
       style="color:#000000;fill:none;stroke:currentColor;stroke-width:1;stroke-linecap:butt;stroke-linejoin:miter">
      <path
         d="m 139.8,384.1 12.7,0 m 325.3,0 -12.7,0"
         id="path10828"
         inkscape:connector-curvature="0"
         style="stroke:#000000" />
      <g
         transform="translate(128,390.5)"
         font-size="17.00"
         id="g10830"
         style="font-size:17px;font-family:Arial;text-anchor:end;fill:#000000;stroke:none">
        <text
           id="text10832">
          <tspan
             id="tspan10834"
             style="font-family:Arial">1</tspan>
        </text>
      </g>
    </g>
    <g
       id="g10836"
       style="color:#000000;fill:none;stroke:currentColor;stroke-width:1;stroke-linecap:butt;stroke-linejoin:miter">
      <path
         d="m 139.8,339.1 12.7,0 m 325.3,0 -12.7,0"
         id="path10838"
         inkscape:connector-curvature="0"
         style="stroke:#000000" />
      <g
         transform="translate(128,345.5)"
         font-size="17.00"
         id="g10840"
         style="font-size:17px;font-family:Arial;text-anchor:end;fill:#000000;stroke:none">
        <text
           id="text10842">
          <tspan
             id="tspan10844"
             style="font-family:Arial">2</tspan>
        </text>
      </g>
    </g>
    <g
       id="g10846"
       style="color:#000000;fill:none;stroke:currentColor;stroke-width:1;stroke-linecap:butt;stroke-linejoin:miter">
      <path
         d="m 139.8,294 12.7,0 m 325.3,0 -12.7,0"
         id="path10848"
         inkscape:connector-curvature="0"
         style="stroke:#000000" />
      <g
         transform="translate(128,300.4)"
         font-size="17.00"
         id="g10850"
         style="font-size:17px;font-family:Arial;text-anchor:end;fill:#000000;stroke:none">
        <text
           id="text10852">
          <tspan
             id="tspan10854"
             style="font-family:Arial">3</tspan>
        </text>
      </g>
    </g>
    <g
       id="g10856"
       style="color:#000000;fill:none;stroke:currentColor;stroke-width:1;stroke-linecap:butt;stroke-linejoin:miter">
      <path
         d="m 139.8,249 12.7,0 m 325.3,0 -12.7,0"
         id="path10858"
         inkscape:connector-curvature="0"
         style="stroke:#000000" />
      <g
         transform="translate(128,255.4)"
         font-size="17.00"
         id="g10860"
         style="font-size:17px;font-family:Arial;text-anchor:end;fill:#000000;stroke:none">
        <text
           id="text10862">
          <tspan
             id="tspan10864"
             style="font-family:Arial">4</tspan>
        </text>
      </g>
    </g>
    <g
       id="g10866"
       style="color:#000000;fill:none;stroke:currentColor;stroke-width:1;stroke-linecap:butt;stroke-linejoin:miter">
      <path
         d="m 139.8,203.9 12.7,0 m 325.3,0 -12.7,0"
         id="path10868"
         inkscape:connector-curvature="0"
         style="stroke:#000000" />
      <g
         transform="translate(128,210.3)"
         font-size="17.00"
         id="g10870"
         style="font-size:17px;font-family:Arial;text-anchor:end;fill:#000000;stroke:none">
        <text
           id="text10872">
          <tspan
             id="tspan10874"
             style="font-family:Arial">5</tspan>
        </text>
      </g>
    </g>
    <g
       id="g10876"
       style="color:#000000;fill:none;stroke:currentColor;stroke-width:1;stroke-linecap:butt;stroke-linejoin:miter">
      <path
         d="m 139.8,158.9 12.7,0 m 325.3,0 -12.7,0"
         id="path10878"
         inkscape:connector-curvature="0"
         style="stroke:#000000" />
      <g
         transform="translate(128,165.3)"
         font-size="17.00"
         id="g10880"
         style="font-size:17px;font-family:Arial;text-anchor:end;fill:#000000;stroke:none">
        <text
           id="text10882">
          <tspan
             id="tspan10884"
             style="font-family:Arial">6</tspan>
        </text>
      </g>
    </g>
    <g
       id="g10886"
       style="color:#000000;fill:none;stroke:currentColor;stroke-width:1;stroke-linecap:butt;stroke-linejoin:miter">
      <path
         d="m 139.8,113.8 12.7,0 m 325.3,0 -12.7,0"
         id="path10888"
         inkscape:connector-curvature="0"
         style="stroke:#000000" />
      <g
         transform="translate(128,120.2)"
         font-size="17.00"
         id="g10890"
         style="font-size:17px;font-family:Arial;text-anchor:end;fill:#000000;stroke:none">
        <text
           id="text10892">
          <tspan
             id="tspan10894"
             style="font-family:Arial">7</tspan>
        </text>
      </g>
    </g>
    <g
       id="g10896"
       style="color:#000000;fill:none;stroke:currentColor;stroke-width:1;stroke-linecap:butt;stroke-linejoin:miter">
      <path
         d="m 139.8,68.8 12.7,0 m 325.3,0 -12.7,0"
         id="path10898"
         inkscape:connector-curvature="0"
         style="stroke:#000000" />
      <g
         transform="translate(128,75.2)"
         font-size="17.00"
         id="g10900"
         style="font-size:17px;font-family:Arial;text-anchor:end;fill:#000000;stroke:none">
        <text
           id="text10902">
          <tspan
             id="tspan10904"
             style="font-family:Arial">8</tspan>
        </text>
      </g>
    </g>
    <g
       id="g10906"
       style="color:#000000;fill:none;stroke:currentColor;stroke-width:1;stroke-linecap:butt;stroke-linejoin:miter">
      <path
         d="m 139.8,23.7 12.7,0 m 325.3,0 -12.7,0"
         id="path10908"
         inkscape:connector-curvature="0"
         style="stroke:#000000" />
      <g
         transform="translate(128,30.1)"
         font-size="17.00"
         id="g10910"
         style="font-size:17px;font-family:Arial;text-anchor:end;fill:#000000;stroke:none">
        <text
           id="text10912">
          <tspan
             id="tspan10914"
             style="font-family:Arial">9</tspan>
        </text>
      </g>
    </g>
    <g
       id="g10916"
       style="color:#000000;fill:none;stroke:currentColor;stroke-width:1;stroke-linecap:butt;stroke-linejoin:miter">
      <path
         d="m 139.8,429.2 0,-12.7 m 0,-392.8 0,12.7"
         id="path10918"
         inkscape:connector-curvature="0"
         style="stroke:#000000" />
      <g
         transform="translate(139.8,461)"
         font-size="17.00"
         id="g10920"
         style="font-size:17px;font-family:Arial;text-anchor:middle;fill:#000000;stroke:none" />
    </g>
    <g
       id="g10926"
       style="color:#000000;fill:none;stroke:currentColor;stroke-width:1;stroke-linecap:butt;stroke-linejoin:miter">
      <path
         d="m 188.1,429.2 0,-12.7 m 0,-392.8 0,12.7"
         id="path10928"
         inkscape:connector-curvature="0"
         style="stroke:#000000" />
      <g
         transform="translate(188.1,461)"
         font-size="17.00"
         id="g10930"
         style="font-size:17px;font-family:Arial;text-anchor:middle;fill:#000000;stroke:none" />
    </g>
    <g
       id="g10936"
       style="color:#000000;fill:none;stroke:currentColor;stroke-width:1;stroke-linecap:butt;stroke-linejoin:miter">
      <path
         d="m 236.4,429.2 0,-12.7 m 0,-392.8 0,12.7"
         id="path10938"
         inkscape:connector-curvature="0"
         style="stroke:#000000" />
      <g
         transform="translate(236.4,461)"
         font-size="17.00"
         id="g10940"
         style="font-size:17px;font-family:Arial;text-anchor:middle;fill:#000000;stroke:none" />
    </g>
    <g
       id="g10946"
       style="color:#000000;fill:none;stroke:currentColor;stroke-width:1;stroke-linecap:butt;stroke-linejoin:miter">
      <path
         d="m 284.7,429.2 0,-12.7 m 0,-392.8 0,12.7"
         id="path10948"
         inkscape:connector-curvature="0"
         style="stroke:#000000" />
      <g
         transform="translate(284.7,461)"
         font-size="17.00"
         id="g10950"
         style="font-size:17px;font-family:Arial;text-anchor:middle;fill:#000000;stroke:none" />
    </g>
    <g
       id="g10956"
       style="color:#000000;fill:none;stroke:currentColor;stroke-width:1;stroke-linecap:butt;stroke-linejoin:miter">
      <path
         d="m 332.9,429.2 0,-12.7 m 0,-392.8 0,12.7"
         id="path10958"
         inkscape:connector-curvature="0"
         style="stroke:#000000" />
      <g
         transform="translate(332.9,461)"
         font-size="17.00"
         id="g10960"
         style="font-size:17px;font-family:Arial;text-anchor:middle;fill:#000000;stroke:none" />
    </g>
    <g
       id="g10966"
       style="color:#000000;fill:none;stroke:currentColor;stroke-width:1;stroke-linecap:butt;stroke-linejoin:miter">
      <path
         d="m 381.2,429.2 0,-12.7 m 0,-392.8 0,12.7"
         id="path10968"
         inkscape:connector-curvature="0"
         style="stroke:#000000" />
      <g
         transform="translate(381.2,461)"
         font-size="17.00"
         id="g10970"
         style="font-size:17px;font-family:Arial;text-anchor:middle;fill:#000000;stroke:none" />
    </g>
    <g
       id="g10976"
       style="color:#000000;fill:none;stroke:currentColor;stroke-width:1;stroke-linecap:butt;stroke-linejoin:miter">
      <path
         d="m 429.5,429.2 0,-12.7 m 0,-392.8 0,12.7"
         id="path10978"
         inkscape:connector-curvature="0"
         style="stroke:#000000" />
      <g
         transform="translate(429.5,461)"
         font-size="17.00"
         id="g10980"
         style="font-size:17px;font-family:Arial;text-anchor:middle;fill:#000000;stroke:none" />
    </g>
    <g
       id="g10986"
       style="color:#000000;fill:none;stroke:currentColor;stroke-width:1;stroke-linecap:butt;stroke-linejoin:miter">
      <path
         d="m 477.8,429.2 0,-12.7 m 0,-392.8 0,12.7"
         id="path10988"
         inkscape:connector-curvature="0"
         style="stroke:#000000" />
      <g
         transform="translate(477.8,461)"
         font-size="17.00"
         id="g10990"
         style="font-size:17px;font-family:Arial;text-anchor:middle;fill:#000000;stroke:none" />
    </g>
    <g
       id="g10996"
       style="color:#000000;fill:none;stroke:currentColor;stroke-width:1;stroke-linecap:butt;stroke-linejoin:miter" />
    <g
       id="g10998"
       style="color:#000000;fill:none;stroke:currentColor;stroke-width:1;stroke-linecap:butt;stroke-linejoin:miter">
      <path
         d="m 139.8,23.7 0,405.5 338,0 0,-405.5 -338,0 z"
         id="path11000"
         inkscape:connector-curvature="0"
         style="stroke:#000000" />
    </g>
    <g
       id="g11002"
       style="color:#000000;fill:none;stroke:currentColor;stroke-width:1;stroke-linecap:butt;stroke-linejoin:miter" />
    <g
       id="gnuplot_plot_1">
      <title
         id="title11005">gnuplot_plot_1</title>
      <g
         id="g11007"
         style="color:#000000;fill:none;stroke:currentColor;stroke-width:1;stroke-linecap:butt;stroke-linejoin:miter">
        <use
           xlink:href="#gpPt0"
           transform="matrix(6.35,0,0,6.35,186.3,376.6)"
           id="use11009"
           style="color:#9400d3"
           x="0"
           y="0"
           width="100%"
           height="100%" />
        <use
           xlink:href="#gpPt0"
           transform="matrix(6.35,0,0,6.35,186.3,376)"
           id="use11011"
           style="color:#9400d3"
           x="0"
           y="0"
           width="100%"
           height="100%" />
        <use
           xlink:href="#gpPt0"
           transform="matrix(6.35,0,0,6.35,186.3,200.5)"
           id="use11013"
           style="color:#9400d3"
           x="0"
           y="0"
           width="100%"
           height="100%" />
        <use
           xlink:href="#gpPt0"
           transform="matrix(6.35,0,0,6.35,186.3,184.8)"
           id="use11015"
           style="color:#9400d3"
           x="0"
           y="0"
           width="100%"
           height="100%" />
        <use
           xlink:href="#gpPt0"
           transform="matrix(6.35,0,0,6.35,186.3,184.8)"
           id="use11017"
           style="color:#9400d3"
           x="0"
           y="0"
           width="100%"
           height="100%" />
        <use
           xlink:href="#gpPt0"
           transform="matrix(6.35,0,0,6.35,186.3,169.2)"
           id="use11019"
           style="color:#9400d3"
           x="0"
           y="0"
           width="100%"
           height="100%" />
        <use
           xlink:href="#gpPt0"
           transform="matrix(6.35,0,0,6.35,186.3,30.8)"
           id="use11021"
           style="color:#9400d3"
           x="0"
           y="0"
           width="100%"
           height="100%" />
        <use
           xlink:href="#gpPt0"
           transform="matrix(6.35,0,0,6.35,186.3,28.7)"
           id="use11023"
           style="color:#9400d3"
           x="0"
           y="0"
           width="100%"
           height="100%" />
        <use
           xlink:href="#gpPt0"
           transform="matrix(6.35,0,0,6.35,204.2,380.6)"
           id="use11025"
           style="color:#9400d3"
           x="0"
           y="0"
           width="100%"
           height="100%" />
        <use
           xlink:href="#gpPt0"
           transform="matrix(6.35,0,0,6.35,204.2,375.8)"
           id="use11027"
           style="color:#9400d3"
           x="0"
           y="0"
           width="100%"
           height="100%" />
        <use
           xlink:href="#gpPt0"
           transform="matrix(6.35,0,0,6.35,204.2,197)"
           id="use11029"
           style="color:#9400d3"
           x="0"
           y="0"
           width="100%"
           height="100%" />
        <use
           xlink:href="#gpPt0"
           transform="matrix(6.35,0,0,6.35,204.2,184.8)"
           id="use11031"
           style="color:#9400d3"
           x="0"
           y="0"
           width="100%"
           height="100%" />
        <use
           xlink:href="#gpPt0"
           transform="matrix(6.35,0,0,6.35,204.2,184.8)"
           id="use11033"
           style="color:#9400d3"
           x="0"
           y="0"
           width="100%"
           height="100%" />
        <use
           xlink:href="#gpPt0"
           transform="matrix(6.35,0,0,6.35,204.2,169.4)"
           id="use11035"
           style="color:#9400d3"
           x="0"
           y="0"
           width="100%"
           height="100%" />
        <use
           xlink:href="#gpPt0"
           transform="matrix(6.35,0,0,6.35,204.2,42)"
           id="use11037"
           style="color:#9400d3"
           x="0"
           y="0"
           width="100%"
           height="100%" />
        <use
           xlink:href="#gpPt0"
           transform="matrix(6.35,0,0,6.35,204.2,28.5)"
           id="use11039"
           style="color:#9400d3"
           x="0"
           y="0"
           width="100%"
           height="100%" />
        <use
           xlink:href="#gpPt0"
           transform="matrix(6.35,0,0,6.35,222.1,388)"
           id="use11041"
           style="color:#9400d3"
           x="0"
           y="0"
           width="100%"
           height="100%" />
        <use
           xlink:href="#gpPt0"
           transform="matrix(6.35,0,0,6.35,222.1,375.5)"
           id="use11043"
           style="color:#9400d3"
           x="0"
           y="0"
           width="100%"
           height="100%" />
        <use
           xlink:href="#gpPt0"
           transform="matrix(6.35,0,0,6.35,222.1,190.9)"
           id="use11045"
           style="color:#9400d3"
           x="0"
           y="0"
           width="100%"
           height="100%" />
        <use
           xlink:href="#gpPt0"
           transform="matrix(6.35,0,0,6.35,222.1,184.8)"
           id="use11047"
           style="color:#9400d3"
           x="0"
           y="0"
           width="100%"
           height="100%" />
        <use
           xlink:href="#gpPt0"
           transform="matrix(6.35,0,0,6.35,222.1,184.8)"
           id="use11049"
           style="color:#9400d3"
           x="0"
           y="0"
           width="100%"
           height="100%" />
        <use
           xlink:href="#gpPt0"
           transform="matrix(6.35,0,0,6.35,222.1,169.7)"
           id="use11051"
           style="color:#9400d3"
           x="0"
           y="0"
           width="100%"
           height="100%" />
        <use
           xlink:href="#gpPt0"
           transform="matrix(6.35,0,0,6.35,222.1,55.5)"
           id="use11053"
           style="color:#9400d3"
           x="0"
           y="0"
           width="100%"
           height="100%" />
        <use
           xlink:href="#gpPt0"
           transform="matrix(6.35,0,0,6.35,222.1,28)"
           id="use11055"
           style="color:#9400d3"
           x="0"
           y="0"
           width="100%"
           height="100%" />
        <use
           xlink:href="#gpPt0"
           transform="matrix(6.35,0,0,6.35,240,398.1)"
           id="use11057"
           style="color:#9400d3"
           x="0"
           y="0"
           width="100%"
           height="100%" />
        <use
           xlink:href="#gpPt0"
           transform="matrix(6.35,0,0,6.35,240,375.1)"
           id="use11059"
           style="color:#9400d3"
           x="0"
           y="0"
           width="100%"
           height="100%" />
        <use
           xlink:href="#gpPt0"
           transform="matrix(6.35,0,0,6.35,240,184.8)"
           id="use11061"
           style="color:#9400d3"
           x="0"
           y="0"
           width="100%"
           height="100%" />
        <use
           xlink:href="#gpPt0"
           transform="matrix(6.35,0,0,6.35,240,184.8)"
           id="use11063"
           style="color:#9400d3"
           x="0"
           y="0"
           width="100%"
           height="100%" />
        <use
           xlink:href="#gpPt0"
           transform="matrix(6.35,0,0,6.35,240,183.2)"
           id="use11065"
           style="color:#9400d3"
           x="0"
           y="0"
           width="100%"
           height="100%" />
        <use
           xlink:href="#gpPt0"
           transform="matrix(6.35,0,0,6.35,240,170.1)"
           id="use11067"
           style="color:#9400d3"
           x="0"
           y="0"
           width="100%"
           height="100%" />
        <use
           xlink:href="#gpPt0"
           transform="matrix(6.35,0,0,6.35,240,68.4)"
           id="use11069"
           style="color:#9400d3"
           x="0"
           y="0"
           width="100%"
           height="100%" />
        <use
           xlink:href="#gpPt0"
           transform="matrix(6.35,0,0,6.35,240,27.5)"
           id="use11071"
           style="color:#9400d3"
           x="0"
           y="0"
           width="100%"
           height="100%" />
        <use
           xlink:href="#gpPt0"
           transform="matrix(6.35,0,0,6.35,257.8,409.9)"
           id="use11073"
           style="color:#9400d3"
           x="0"
           y="0"
           width="100%"
           height="100%" />
        <use
           xlink:href="#gpPt0"
           transform="matrix(6.35,0,0,6.35,257.8,374.7)"
           id="use11075"
           style="color:#9400d3"
           x="0"
           y="0"
           width="100%"
           height="100%" />
        <use
           xlink:href="#gpPt0"
           transform="matrix(6.35,0,0,6.35,257.8,184.8)"
           id="use11077"
           style="color:#9400d3"
           x="0"
           y="0"
           width="100%"
           height="100%" />
        <use
           xlink:href="#gpPt0"
           transform="matrix(6.35,0,0,6.35,257.8,184.8)"
           id="use11079"
           style="color:#9400d3"
           x="0"
           y="0"
           width="100%"
           height="100%" />
        <use
           xlink:href="#gpPt0"
           transform="matrix(6.35,0,0,6.35,257.8,176)"
           id="use11081"
           style="color:#9400d3"
           x="0"
           y="0"
           width="100%"
           height="100%" />
        <use
           xlink:href="#gpPt0"
           transform="matrix(6.35,0,0,6.35,257.8,170.4)"
           id="use11083"
           style="color:#9400d3"
           x="0"
           y="0"
           width="100%"
           height="100%" />
        <use
           xlink:href="#gpPt0"
           transform="matrix(6.35,0,0,6.35,257.8,79)"
           id="use11085"
           style="color:#9400d3"
           x="0"
           y="0"
           width="100%"
           height="100%" />
        <use
           xlink:href="#gpPt0"
           transform="matrix(6.35,0,0,6.35,257.8,27)"
           id="use11087"
           style="color:#9400d3"
           x="0"
           y="0"
           width="100%"
           height="100%" />
        <use
           xlink:href="#gpPt0"
           transform="matrix(6.35,0,0,6.35,275.7,422.6)"
           id="use11089"
           style="color:#9400d3"
           x="0"
           y="0"
           width="100%"
           height="100%" />
        <use
           xlink:href="#gpPt0"
           transform="matrix(6.35,0,0,6.35,275.7,374.5)"
           id="use11091"
           style="color:#9400d3"
           x="0"
           y="0"
           width="100%"
           height="100%" />
        <use
           xlink:href="#gpPt0"
           transform="matrix(6.35,0,0,6.35,275.7,184.8)"
           id="use11093"
           style="color:#9400d3"
           x="0"
           y="0"
           width="100%"
           height="100%" />
        <use
           xlink:href="#gpPt0"
           transform="matrix(6.35,0,0,6.35,275.7,184.8)"
           id="use11095"
           style="color:#9400d3"
           x="0"
           y="0"
           width="100%"
           height="100%" />
        <use
           xlink:href="#gpPt0"
           transform="matrix(6.35,0,0,6.35,275.7,171.3)"
           id="use11097"
           style="color:#9400d3"
           x="0"
           y="0"
           width="100%"
           height="100%" />
        <use
           xlink:href="#gpPt0"
           transform="matrix(6.35,0,0,6.35,275.7,170.6)"
           id="use11099"
           style="color:#9400d3"
           x="0"
           y="0"
           width="100%"
           height="100%" />
        <use
           xlink:href="#gpPt0"
           transform="matrix(6.35,0,0,6.35,275.7,85.2)"
           id="use11101"
           style="color:#9400d3"
           x="0"
           y="0"
           width="100%"
           height="100%" />
        <use
           xlink:href="#gpPt0"
           transform="matrix(6.35,0,0,6.35,275.7,26.8)"
           id="use11103"
           style="color:#9400d3"
           x="0"
           y="0"
           width="100%"
           height="100%" />
        <use
           xlink:href="#gpPt0"
           transform="matrix(6.35,0,0,6.35,291,424.6)"
           id="use11105"
           style="color:#9400d3"
           x="0"
           y="0"
           width="100%"
           height="100%" />
        <use
           xlink:href="#gpPt0"
           transform="matrix(6.35,0,0,6.35,291,374.5)"
           id="use11107"
           style="color:#9400d3"
           x="0"
           y="0"
           width="100%"
           height="100%" />
        <use
           xlink:href="#gpPt0"
           transform="matrix(6.35,0,0,6.35,291,184.8)"
           id="use11109"
           style="color:#9400d3"
           x="0"
           y="0"
           width="100%"
           height="100%" />
        <use
           xlink:href="#gpPt0"
           transform="matrix(6.35,0,0,6.35,291,184.8)"
           id="use11111"
           style="color:#9400d3"
           x="0"
           y="0"
           width="100%"
           height="100%" />
        <use
           xlink:href="#gpPt0"
           transform="matrix(6.35,0,0,6.35,291,171)"
           id="use11113"
           style="color:#9400d3"
           x="0"
           y="0"
           width="100%"
           height="100%" />
        <use
           xlink:href="#gpPt0"
           transform="matrix(6.35,0,0,6.35,291,170.6)"
           id="use11115"
           style="color:#9400d3"
           x="0"
           y="0"
           width="100%"
           height="100%" />
        <use
           xlink:href="#gpPt0"
           transform="matrix(6.35,0,0,6.35,291,85.7)"
           id="use11117"
           style="color:#9400d3"
           x="0"
           y="0"
           width="100%"
           height="100%" />
        <use
           xlink:href="#gpPt0"
           transform="matrix(6.35,0,0,6.35,291,26.7)"
           id="use11119"
           style="color:#9400d3"
           x="0"
           y="0"
           width="100%"
           height="100%" />
        <use
           xlink:href="#gpPt0"
           transform="matrix(6.35,0,0,6.35,303.6,415.6)"
           id="use11121"
           style="color:#9400d3"
           x="0"
           y="0"
           width="100%"
           height="100%" />
        <use
           xlink:href="#gpPt0"
           transform="matrix(6.35,0,0,6.35,303.6,374.6)"
           id="use11123"
           style="color:#9400d3"
           x="0"
           y="0"
           width="100%"
           height="100%" />
        <use
           xlink:href="#gpPt0"
           transform="matrix(6.35,0,0,6.35,303.6,184.8)"
           id="use11125"
           style="color:#9400d3"
           x="0"
           y="0"
           width="100%"
           height="100%" />
        <use
           xlink:href="#gpPt0"
           transform="matrix(6.35,0,0,6.35,303.6,184.8)"
           id="use11127"
           style="color:#9400d3"
           x="0"
           y="0"
           width="100%"
           height="100%" />
        <use
           xlink:href="#gpPt0"
           transform="matrix(6.35,0,0,6.35,303.6,173.3)"
           id="use11129"
           style="color:#9400d3"
           x="0"
           y="0"
           width="100%"
           height="100%" />
        <use
           xlink:href="#gpPt0"
           transform="matrix(6.35,0,0,6.35,303.6,170.6)"
           id="use11131"
           style="color:#9400d3"
           x="0"
           y="0"
           width="100%"
           height="100%" />
        <use
           xlink:href="#gpPt0"
           transform="matrix(6.35,0,0,6.35,303.6,82.5)"
           id="use11133"
           style="color:#9400d3"
           x="0"
           y="0"
           width="100%"
           height="100%" />
        <use
           xlink:href="#gpPt0"
           transform="matrix(6.35,0,0,6.35,303.6,26.9)"
           id="use11135"
           style="color:#9400d3"
           x="0"
           y="0"
           width="100%"
           height="100%" />
        <use
           xlink:href="#gpPt0"
           transform="matrix(6.35,0,0,6.35,316.3,407.3)"
           id="use11137"
           style="color:#9400d3"
           x="0"
           y="0"
           width="100%"
           height="100%" />
        <use
           xlink:href="#gpPt0"
           transform="matrix(6.35,0,0,6.35,316.3,374.9)"
           id="use11139"
           style="color:#9400d3"
           x="0"
           y="0"
           width="100%"
           height="100%" />
        <use
           xlink:href="#gpPt0"
           transform="matrix(6.35,0,0,6.35,316.3,184.8)"
           id="use11141"
           style="color:#9400d3"
           x="0"
           y="0"
           width="100%"
           height="100%" />
        <use
           xlink:href="#gpPt0"
           transform="matrix(6.35,0,0,6.35,316.3,184.8)"
           id="use11143"
           style="color:#9400d3"
           x="0"
           y="0"
           width="100%"
           height="100%" />
        <use
           xlink:href="#gpPt0"
           transform="matrix(6.35,0,0,6.35,316.3,177)"
           id="use11145"
           style="color:#9400d3"
           x="0"
           y="0"
           width="100%"
           height="100%" />
        <use
           xlink:href="#gpPt0"
           transform="matrix(6.35,0,0,6.35,316.3,170.6)"
           id="use11147"
           style="color:#9400d3"
           x="0"
           y="0"
           width="100%"
           height="100%" />
        <use
           xlink:href="#gpPt0"
           transform="matrix(6.35,0,0,6.35,316.3,77.1)"
           id="use11149"
           style="color:#9400d3"
           x="0"
           y="0"
           width="100%"
           height="100%" />
        <use
           xlink:href="#gpPt0"
           transform="matrix(6.35,0,0,6.35,316.3,27.2)"
           id="use11151"
           style="color:#9400d3"
           x="0"
           y="0"
           width="100%"
           height="100%" />
        <use
           xlink:href="#gpPt0"
           transform="matrix(6.35,0,0,6.35,328.9,400.3)"
           id="use11153"
           style="color:#9400d3"
           x="0"
           y="0"
           width="100%"
           height="100%" />
        <use
           xlink:href="#gpPt0"
           transform="matrix(6.35,0,0,6.35,328.9,375.2)"
           id="use11155"
           style="color:#9400d3"
           x="0"
           y="0"
           width="100%"
           height="100%" />
        <use
           xlink:href="#gpPt0"
           transform="matrix(6.35,0,0,6.35,328.9,184.8)"
           id="use11157"
           style="color:#9400d3"
           x="0"
           y="0"
           width="100%"
           height="100%" />
        <use
           xlink:href="#gpPt0"
           transform="matrix(6.35,0,0,6.35,328.9,184.8)"
           id="use11159"
           style="color:#9400d3"
           x="0"
           y="0"
           width="100%"
           height="100%" />
        <use
           xlink:href="#gpPt0"
           transform="matrix(6.35,0,0,6.35,328.9,181.1)"
           id="use11161"
           style="color:#9400d3"
           x="0"
           y="0"
           width="100%"
           height="100%" />
        <use
           xlink:href="#gpPt0"
           transform="matrix(6.35,0,0,6.35,328.9,170.6)"
           id="use11163"
           style="color:#9400d3"
           x="0"
           y="0"
           width="100%"
           height="100%" />
        <use
           xlink:href="#gpPt0"
           transform="matrix(6.35,0,0,6.35,328.9,70.8)"
           id="use11165"
           style="color:#9400d3"
           x="0"
           y="0"
           width="100%"
           height="100%" />
        <use
           xlink:href="#gpPt0"
           transform="matrix(6.35,0,0,6.35,328.9,27.7)"
           id="use11167"
           style="color:#9400d3"
           x="0"
           y="0"
           width="100%"
           height="100%" />
        <use
           xlink:href="#gpPt0"
           transform="matrix(6.35,0,0,6.35,341.5,395)"
           id="use11169"
           style="color:#9400d3"
           x="0"
           y="0"
           width="100%"
           height="100%" />
        <use
           xlink:href="#gpPt0"
           transform="matrix(6.35,0,0,6.35,341.5,375.7)"
           id="use11171"
           style="color:#9400d3"
           x="0"
           y="0"
           width="100%"
           height="100%" />
        <use
           xlink:href="#gpPt0"
           transform="matrix(6.35,0,0,6.35,341.5,184.8)"
           id="use11173"
           style="color:#9400d3"
           x="0"
           y="0"
           width="100%"
           height="100%" />
        <use
           xlink:href="#gpPt0"
           transform="matrix(6.35,0,0,6.35,341.5,184.8)"
           id="use11175"
           style="color:#9400d3"
           x="0"
           y="0"
           width="100%"
           height="100%" />
        <use
           xlink:href="#gpPt0"
           transform="matrix(6.35,0,0,6.35,341.5,184.4)"
           id="use11177"
           style="color:#9400d3"
           x="0"
           y="0"
           width="100%"
           height="100%" />
        <use
           xlink:href="#gpPt0"
           transform="matrix(6.35,0,0,6.35,341.5,170.6)"
           id="use11179"
           style="color:#9400d3"
           x="0"
           y="0"
           width="100%"
           height="100%" />
        <use
           xlink:href="#gpPt0"
           transform="matrix(6.35,0,0,6.35,341.5,65.2)"
           id="use11181"
           style="color:#9400d3"
           x="0"
           y="0"
           width="100%"
           height="100%" />
        <use
           xlink:href="#gpPt0"
           transform="matrix(6.35,0,0,6.35,341.5,28.2)"
           id="use11183"
           style="color:#9400d3"
           x="0"
           y="0"
           width="100%"
           height="100%" />
        <use
           xlink:href="#gpPt0"
           transform="matrix(6.35,0,0,6.35,354.2,392.1)"
           id="use11185"
           style="color:#9400d3"
           x="0"
           y="0"
           width="100%"
           height="100%" />
        <use
           xlink:href="#gpPt0"
           transform="matrix(6.35,0,0,6.35,354.2,376)"
           id="use11187"
           style="color:#9400d3"
           x="0"
           y="0"
           width="100%"
           height="100%" />
        <use
           xlink:href="#gpPt0"
           transform="matrix(6.35,0,0,6.35,354.2,186.3)"
           id="use11189"
           style="color:#9400d3"
           x="0"
           y="0"
           width="100%"
           height="100%" />
        <use
           xlink:href="#gpPt0"
           transform="matrix(6.35,0,0,6.35,354.2,184.8)"
           id="use11191"
           style="color:#9400d3"
           x="0"
           y="0"
           width="100%"
           height="100%" />
        <use
           xlink:href="#gpPt0"
           transform="matrix(6.35,0,0,6.35,354.2,184.8)"
           id="use11193"
           style="color:#9400d3"
           x="0"
           y="0"
           width="100%"
           height="100%" />
        <use
           xlink:href="#gpPt0"
           transform="matrix(6.35,0,0,6.35,354.2,170.6)"
           id="use11195"
           style="color:#9400d3"
           x="0"
           y="0"
           width="100%"
           height="100%" />
        <use
           xlink:href="#gpPt0"
           transform="matrix(6.35,0,0,6.35,354.2,61.8)"
           id="use11197"
           style="color:#9400d3"
           x="0"
           y="0"
           width="100%"
           height="100%" />
        <use
           xlink:href="#gpPt0"
           transform="matrix(6.35,0,0,6.35,354.2,28.7)"
           id="use11199"
           style="color:#9400d3"
           x="0"
           y="0"
           width="100%"
           height="100%" />
        <use
           xlink:href="#gpPt0"
           transform="matrix(6.35,0,0,6.35,366.8,391.5)"
           id="use11201"
           style="color:#9400d3"
           x="0"
           y="0"
           width="100%"
           height="100%" />
        <use
           xlink:href="#gpPt0"
           transform="matrix(6.35,0,0,6.35,366.8,376.1)"
           id="use11203"
           style="color:#9400d3"
           x="0"
           y="0"
           width="100%"
           height="100%" />
        <use
           xlink:href="#gpPt0"
           transform="matrix(6.35,0,0,6.35,366.8,186.8)"
           id="use11205"
           style="color:#9400d3"
           x="0"
           y="0"
           width="100%"
           height="100%" />
        <use
           xlink:href="#gpPt0"
           transform="matrix(6.35,0,0,6.35,366.8,184.8)"
           id="use11207"
           style="color:#9400d3"
           x="0"
           y="0"
           width="100%"
           height="100%" />
        <use
           xlink:href="#gpPt0"
           transform="matrix(6.35,0,0,6.35,366.8,184.8)"
           id="use11209"
           style="color:#9400d3"
           x="0"
           y="0"
           width="100%"
           height="100%" />
        <use
           xlink:href="#gpPt0"
           transform="matrix(6.35,0,0,6.35,366.8,170.6)"
           id="use11211"
           style="color:#9400d3"
           x="0"
           y="0"
           width="100%"
           height="100%" />
        <use
           xlink:href="#gpPt0"
           transform="matrix(6.35,0,0,6.35,366.8,61)"
           id="use11213"
           style="color:#9400d3"
           x="0"
           y="0"
           width="100%"
           height="100%" />
        <use
           xlink:href="#gpPt0"
           transform="matrix(6.35,0,0,6.35,366.8,28.8)"
           id="use11215"
           style="color:#9400d3"
           x="0"
           y="0"
           width="100%"
           height="100%" />
        <use
           xlink:href="#gpPt0"
           transform="matrix(6.35,0,0,6.35,379.5,389.2)"
           id="use11217"
           style="color:#9400d3"
           x="0"
           y="0"
           width="100%"
           height="100%" />
        <use
           xlink:href="#gpPt0"
           transform="matrix(6.35,0,0,6.35,379.5,376.1)"
           id="use11219"
           style="color:#9400d3"
           x="0"
           y="0"
           width="100%"
           height="100%" />
        <use
           xlink:href="#gpPt0"
           transform="matrix(6.35,0,0,6.35,379.5,188.9)"
           id="use11221"
           style="color:#9400d3"
           x="0"
           y="0"
           width="100%"
           height="100%" />
        <use
           xlink:href="#gpPt0"
           transform="matrix(6.35,0,0,6.35,379.5,184.8)"
           id="use11223"
           style="color:#9400d3"
           x="0"
           y="0"
           width="100%"
           height="100%" />
        <use
           xlink:href="#gpPt0"
           transform="matrix(6.35,0,0,6.35,379.5,184.8)"
           id="use11225"
           style="color:#9400d3"
           x="0"
           y="0"
           width="100%"
           height="100%" />
        <use
           xlink:href="#gpPt0"
           transform="matrix(6.35,0,0,6.35,379.5,170.3)"
           id="use11227"
           style="color:#9400d3"
           x="0"
           y="0"
           width="100%"
           height="100%" />
        <use
           xlink:href="#gpPt0"
           transform="matrix(6.35,0,0,6.35,379.5,57.8)"
           id="use11229"
           style="color:#9400d3"
           x="0"
           y="0"
           width="100%"
           height="100%" />
        <use
           xlink:href="#gpPt0"
           transform="matrix(6.35,0,0,6.35,379.5,28.8)"
           id="use11231"
           style="color:#9400d3"
           x="0"
           y="0"
           width="100%"
           height="100%" />
        <use
           xlink:href="#gpPt0"
           transform="matrix(6.35,0,0,6.35,392.1,385.5)"
           id="use11233"
           style="color:#9400d3"
           x="0"
           y="0"
           width="100%"
           height="100%" />
        <use
           xlink:href="#gpPt0"
           transform="matrix(6.35,0,0,6.35,392.1,376.1)"
           id="use11235"
           style="color:#9400d3"
           x="0"
           y="0"
           width="100%"
           height="100%" />
        <use
           xlink:href="#gpPt0"
           transform="matrix(6.35,0,0,6.35,392.1,192.3)"
           id="use11237"
           style="color:#9400d3"
           x="0"
           y="0"
           width="100%"
           height="100%" />
        <use
           xlink:href="#gpPt0"
           transform="matrix(6.35,0,0,6.35,392.1,184.8)"
           id="use11239"
           style="color:#9400d3"
           x="0"
           y="0"
           width="100%"
           height="100%" />
        <use
           xlink:href="#gpPt0"
           transform="matrix(6.35,0,0,6.35,392.1,184.8)"
           id="use11241"
           style="color:#9400d3"
           x="0"
           y="0"
           width="100%"
           height="100%" />
        <use
           xlink:href="#gpPt0"
           transform="matrix(6.35,0,0,6.35,392.1,169.9)"
           id="use11243"
           style="color:#9400d3"
           x="0"
           y="0"
           width="100%"
           height="100%" />
        <use
           xlink:href="#gpPt0"
           transform="matrix(6.35,0,0,6.35,392.1,52)"
           id="use11245"
           style="color:#9400d3"
           x="0"
           y="0"
           width="100%"
           height="100%" />
        <use
           xlink:href="#gpPt0"
           transform="matrix(6.35,0,0,6.35,392.1,28.8)"
           id="use11247"
           style="color:#9400d3"
           x="0"
           y="0"
           width="100%"
           height="100%" />
        <use
           xlink:href="#gpPt0"
           transform="matrix(6.35,0,0,6.35,404.7,381.5)"
           id="use11249"
           style="color:#9400d3"
           x="0"
           y="0"
           width="100%"
           height="100%" />
        <use
           xlink:href="#gpPt0"
           transform="matrix(6.35,0,0,6.35,404.7,376.1)"
           id="use11251"
           style="color:#9400d3"
           x="0"
           y="0"
           width="100%"
           height="100%" />
        <use
           xlink:href="#gpPt0"
           transform="matrix(6.35,0,0,6.35,404.7,195.9)"
           id="use11253"
           style="color:#9400d3"
           x="0"
           y="0"
           width="100%"
           height="100%" />
        <use
           xlink:href="#gpPt0"
           transform="matrix(6.35,0,0,6.35,404.7,184.8)"
           id="use11255"
           style="color:#9400d3"
           x="0"
           y="0"
           width="100%"
           height="100%" />
        <use
           xlink:href="#gpPt0"
           transform="matrix(6.35,0,0,6.35,404.7,184.8)"
           id="use11257"
           style="color:#9400d3"
           x="0"
           y="0"
           width="100%"
           height="100%" />
        <use
           xlink:href="#gpPt0"
           transform="matrix(6.35,0,0,6.35,404.7,169.5)"
           id="use11259"
           style="color:#9400d3"
           x="0"
           y="0"
           width="100%"
           height="100%" />
        <use
           xlink:href="#gpPt0"
           transform="matrix(6.35,0,0,6.35,404.7,44.4)"
           id="use11261"
           style="color:#9400d3"
           x="0"
           y="0"
           width="100%"
           height="100%" />
        <use
           xlink:href="#gpPt0"
           transform="matrix(6.35,0,0,6.35,404.7,28.8)"
           id="use11263"
           style="color:#9400d3"
           x="0"
           y="0"
           width="100%"
           height="100%" />
        <use
           xlink:href="#gpPt0"
           transform="matrix(6.35,0,0,6.35,417.4,378.2)"
           id="use11265"
           style="color:#9400d3"
           x="0"
           y="0"
           width="100%"
           height="100%" />
        <use
           xlink:href="#gpPt0"
           transform="matrix(6.35,0,0,6.35,417.4,376.1)"
           id="use11267"
           style="color:#9400d3"
           x="0"
           y="0"
           width="100%"
           height="100%" />
        <use
           xlink:href="#gpPt0"
           transform="matrix(6.35,0,0,6.35,417.4,199)"
           id="use11269"
           style="color:#9400d3"
           x="0"
           y="0"
           width="100%"
           height="100%" />
        <use
           xlink:href="#gpPt0"
           transform="matrix(6.35,0,0,6.35,417.4,184.8)"
           id="use11271"
           style="color:#9400d3"
           x="0"
           y="0"
           width="100%"
           height="100%" />
        <use
           xlink:href="#gpPt0"
           transform="matrix(6.35,0,0,6.35,417.4,184.8)"
           id="use11273"
           style="color:#9400d3"
           x="0"
           y="0"
           width="100%"
           height="100%" />
        <use
           xlink:href="#gpPt0"
           transform="matrix(6.35,0,0,6.35,417.4,169.3)"
           id="use11275"
           style="color:#9400d3"
           x="0"
           y="0"
           width="100%"
           height="100%" />
        <use
           xlink:href="#gpPt0"
           transform="matrix(6.35,0,0,6.35,417.4,36.2)"
           id="use11277"
           style="color:#9400d3"
           x="0"
           y="0"
           width="100%"
           height="100%" />
        <use
           xlink:href="#gpPt0"
           transform="matrix(6.35,0,0,6.35,417.4,28.8)"
           id="use11279"
           style="color:#9400d3"
           x="0"
           y="0"
           width="100%"
           height="100%" />
        <use
           xlink:href="#gpPt0"
           transform="matrix(6.35,0,0,6.35,430,376.3)"
           id="use11281"
           style="color:#9400d3"
           x="0"
           y="0"
           width="100%"
           height="100%" />
        <use
           xlink:href="#gpPt0"
           transform="matrix(6.35,0,0,6.35,430,376.1)"
           id="use11283"
           style="color:#9400d3"
           x="0"
           y="0"
           width="100%"
           height="100%" />
        <use
           xlink:href="#gpPt0"
           transform="matrix(6.35,0,0,6.35,430,200.7)"
           id="use11285"
           style="color:#9400d3"
           x="0"
           y="0"
           width="100%"
           height="100%" />
        <use
           xlink:href="#gpPt0"
           transform="matrix(6.35,0,0,6.35,430,184.8)"
           id="use11287"
           style="color:#9400d3"
           x="0"
           y="0"
           width="100%"
           height="100%" />
        <use
           xlink:href="#gpPt0"
           transform="matrix(6.35,0,0,6.35,430,184.8)"
           id="use11289"
           style="color:#9400d3"
           x="0"
           y="0"
           width="100%"
           height="100%" />
        <use
           xlink:href="#gpPt0"
           transform="matrix(6.35,0,0,6.35,430,169.2)"
           id="use11291"
           style="color:#9400d3"
           x="0"
           y="0"
           width="100%"
           height="100%" />
        <use
           xlink:href="#gpPt0"
           transform="matrix(6.35,0,0,6.35,430,29.8)"
           id="use11293"
           style="color:#9400d3"
           x="0"
           y="0"
           width="100%"
           height="100%" />
        <use
           xlink:href="#gpPt0"
           transform="matrix(6.35,0,0,6.35,430,28.8)"
           id="use11295"
           style="color:#9400d3"
           x="0"
           y="0"
           width="100%"
           height="100%" />
      </g>
    </g>
    <g
       id="gnuplot_plot_2">
      <title
         id="title11298">gnuplot_plot_2</title>
      <g
         id="g11300"
         style="color:#000000;fill:none;stroke:currentColor;stroke-width:1;stroke-linecap:butt;stroke-linejoin:miter">
        <use
           xlink:href="#gpPt3"
           transform="matrix(6.35,0,0,6.35,186.3,376)"
           id="use11302"
           style="color:#009e73"
           x="0"
           y="0"
           width="100%"
           height="100%" />
        <use
           xlink:href="#gpPt3"
           transform="matrix(6.35,0,0,6.35,186.3,200.5)"
           id="use11304"
           style="color:#009e73"
           x="0"
           y="0"
           width="100%"
           height="100%" />
        <use
           xlink:href="#gpPt3"
           transform="matrix(6.35,0,0,6.35,204.2,375.8)"
           id="use11306"
           style="color:#009e73"
           x="0"
           y="0"
           width="100%"
           height="100%" />
        <use
           xlink:href="#gpPt3"
           transform="matrix(6.35,0,0,6.35,204.2,197)"
           id="use11308"
           style="color:#009e73"
           x="0"
           y="0"
           width="100%"
           height="100%" />
        <use
           xlink:href="#gpPt3"
           transform="matrix(6.35,0,0,6.35,222.1,375.5)"
           id="use11310"
           style="color:#009e73"
           x="0"
           y="0"
           width="100%"
           height="100%" />
        <use
           xlink:href="#gpPt3"
           transform="matrix(6.35,0,0,6.35,222.1,190.9)"
           id="use11312"
           style="color:#009e73"
           x="0"
           y="0"
           width="100%"
           height="100%" />
        <use
           xlink:href="#gpPt3"
           transform="matrix(6.35,0,0,6.35,240,375.1)"
           id="use11314"
           style="color:#009e73"
           x="0"
           y="0"
           width="100%"
           height="100%" />
        <use
           xlink:href="#gpPt3"
           transform="matrix(6.35,0,0,6.35,240,184.8)"
           id="use11316"
           style="color:#009e73"
           x="0"
           y="0"
           width="100%"
           height="100%" />
        <use
           xlink:href="#gpPt3"
           transform="matrix(6.35,0,0,6.35,257.8,374.7)"
           id="use11318"
           style="color:#009e73"
           x="0"
           y="0"
           width="100%"
           height="100%" />
        <use
           xlink:href="#gpPt3"
           transform="matrix(6.35,0,0,6.35,257.8,184.8)"
           id="use11320"
           style="color:#009e73"
           x="0"
           y="0"
           width="100%"
           height="100%" />
        <use
           xlink:href="#gpPt3"
           transform="matrix(6.35,0,0,6.35,275.7,374.5)"
           id="use11322"
           style="color:#009e73"
           x="0"
           y="0"
           width="100%"
           height="100%" />
        <use
           xlink:href="#gpPt3"
           transform="matrix(6.35,0,0,6.35,275.7,184.8)"
           id="use11324"
           style="color:#009e73"
           x="0"
           y="0"
           width="100%"
           height="100%" />
        <use
           xlink:href="#gpPt3"
           transform="matrix(6.35,0,0,6.35,291,374.5)"
           id="use11326"
           style="color:#009e73"
           x="0"
           y="0"
           width="100%"
           height="100%" />
        <use
           xlink:href="#gpPt3"
           transform="matrix(6.35,0,0,6.35,291,184.8)"
           id="use11328"
           style="color:#009e73"
           x="0"
           y="0"
           width="100%"
           height="100%" />
        <use
           xlink:href="#gpPt3"
           transform="matrix(6.35,0,0,6.35,303.6,374.6)"
           id="use11330"
           style="color:#009e73"
           x="0"
           y="0"
           width="100%"
           height="100%" />
        <use
           xlink:href="#gpPt3"
           transform="matrix(6.35,0,0,6.35,303.6,184.8)"
           id="use11332"
           style="color:#009e73"
           x="0"
           y="0"
           width="100%"
           height="100%" />
        <use
           xlink:href="#gpPt3"
           transform="matrix(6.35,0,0,6.35,316.3,374.9)"
           id="use11334"
           style="color:#009e73"
           x="0"
           y="0"
           width="100%"
           height="100%" />
        <use
           xlink:href="#gpPt3"
           transform="matrix(6.35,0,0,6.35,316.3,184.8)"
           id="use11336"
           style="color:#009e73"
           x="0"
           y="0"
           width="100%"
           height="100%" />
        <use
           xlink:href="#gpPt3"
           transform="matrix(6.35,0,0,6.35,328.9,375.2)"
           id="use11338"
           style="color:#009e73"
           x="0"
           y="0"
           width="100%"
           height="100%" />
        <use
           xlink:href="#gpPt3"
           transform="matrix(6.35,0,0,6.35,328.9,184.8)"
           id="use11340"
           style="color:#009e73"
           x="0"
           y="0"
           width="100%"
           height="100%" />
        <use
           xlink:href="#gpPt3"
           transform="matrix(6.35,0,0,6.35,341.5,375.7)"
           id="use11342"
           style="color:#009e73"
           x="0"
           y="0"
           width="100%"
           height="100%" />
        <use
           xlink:href="#gpPt3"
           transform="matrix(6.35,0,0,6.35,341.5,184.8)"
           id="use11344"
           style="color:#009e73"
           x="0"
           y="0"
           width="100%"
           height="100%" />
        <use
           xlink:href="#gpPt3"
           transform="matrix(6.35,0,0,6.35,354.2,376)"
           id="use11346"
           style="color:#009e73"
           x="0"
           y="0"
           width="100%"
           height="100%" />
        <use
           xlink:href="#gpPt3"
           transform="matrix(6.35,0,0,6.35,354.2,186.3)"
           id="use11348"
           style="color:#009e73"
           x="0"
           y="0"
           width="100%"
           height="100%" />
        <use
           xlink:href="#gpPt3"
           transform="matrix(6.35,0,0,6.35,366.8,376.1)"
           id="use11350"
           style="color:#009e73"
           x="0"
           y="0"
           width="100%"
           height="100%" />
        <use
           xlink:href="#gpPt3"
           transform="matrix(6.35,0,0,6.35,366.8,186.8)"
           id="use11352"
           style="color:#009e73"
           x="0"
           y="0"
           width="100%"
           height="100%" />
        <use
           xlink:href="#gpPt3"
           transform="matrix(6.35,0,0,6.35,379.5,376.1)"
           id="use11354"
           style="color:#009e73"
           x="0"
           y="0"
           width="100%"
           height="100%" />
        <use
           xlink:href="#gpPt3"
           transform="matrix(6.35,0,0,6.35,379.5,188.9)"
           id="use11356"
           style="color:#009e73"
           x="0"
           y="0"
           width="100%"
           height="100%" />
        <use
           xlink:href="#gpPt3"
           transform="matrix(6.35,0,0,6.35,392.1,376.1)"
           id="use11358"
           style="color:#009e73"
           x="0"
           y="0"
           width="100%"
           height="100%" />
        <use
           xlink:href="#gpPt3"
           transform="matrix(6.35,0,0,6.35,392.1,192.3)"
           id="use11360"
           style="color:#009e73"
           x="0"
           y="0"
           width="100%"
           height="100%" />
        <use
           xlink:href="#gpPt3"
           transform="matrix(6.35,0,0,6.35,404.7,376.1)"
           id="use11362"
           style="color:#009e73"
           x="0"
           y="0"
           width="100%"
           height="100%" />
        <use
           xlink:href="#gpPt3"
           transform="matrix(6.35,0,0,6.35,404.7,195.9)"
           id="use11364"
           style="color:#009e73"
           x="0"
           y="0"
           width="100%"
           height="100%" />
        <use
           xlink:href="#gpPt3"
           transform="matrix(6.35,0,0,6.35,417.4,376.1)"
           id="use11366"
           style="color:#009e73"
           x="0"
           y="0"
           width="100%"
           height="100%" />
        <use
           xlink:href="#gpPt3"
           transform="matrix(6.35,0,0,6.35,417.4,199)"
           id="use11368"
           style="color:#009e73"
           x="0"
           y="0"
           width="100%"
           height="100%" />
        <use
           xlink:href="#gpPt3"
           transform="matrix(6.35,0,0,6.35,430,376.1)"
           id="use11370"
           style="color:#009e73"
           x="0"
           y="0"
           width="100%"
           height="100%" />
        <use
           xlink:href="#gpPt3"
           transform="matrix(6.35,0,0,6.35,430,200.7)"
           id="use11372"
           style="color:#009e73"
           x="0"
           y="0"
           width="100%"
           height="100%" />
      </g>
    </g>
    <g
       id="g11374"
       style="color:#ffffff;fill:none;stroke:#009e73;stroke-width:2;stroke-linecap:butt;stroke-linejoin:miter" />
    <g
       id="g11376"
       style="color:#000000;fill:none;stroke:currentColor;stroke-width:2;stroke-linecap:butt;stroke-linejoin:miter" />
    <g
       id="g11378"
       style="color:#000000;fill:none;stroke:#000000;stroke-width:1;stroke-linecap:butt;stroke-linejoin:miter" />
    <g
       id="g11380"
       style="color:#000000;fill:none;stroke:currentColor;stroke-width:1;stroke-linecap:butt;stroke-linejoin:miter">
      <path
         d="m 139.8,23.7 0,405.5 338,0 0,-405.5 -338,0 z"
         id="path11382"
         inkscape:connector-curvature="0"
         style="stroke:#000000" />
    </g>
    <g
       id="g11384"
       style="color:#000000;fill:none;stroke:currentColor;stroke-width:1;stroke-linecap:butt;stroke-linejoin:miter" />
  </g>
  <g
     transform="translate(-6.7415766e-7,-0.11633681)"
     id="g7005">
    <g
       id="g15231"
       transform="matrix(2.4915595,0,0,-2.4915595,-371.81901,2195.9527)"
       xml:space="preserve"
       stroke-miterlimit="10.433"
       font-style="normal"
       font-variant="normal"
       font-weight="normal"
       font-stretch="normal"
       font-size-adjust="none"
       letter-spacing="normal"
       word-spacing="normal"
       ns0:text="$\\Gamma$"
       ns0:preamble=""
       style="color:#000000;font-style:normal;font-variant:normal;font-weight:normal;font-stretch:normal;font-size:21.25px;font-family:Arial;letter-spacing:normal;word-spacing:normal;text-anchor:start;fill:none;stroke:#000000;stroke-width:1;stroke-linecap:butt;stroke-linejoin:miter;stroke-miterlimit:10.43299961;stroke-dasharray:none;stroke-dashoffset:0;stroke-opacity:1"><path
         d="m 228.94,713.88 -5.18,0 0,-0.31 0.24,0 c 0.76,0 0.79,-0.11 0.79,-0.47 l 0,-5.2 c 0,-0.36 -0.03,-0.47 -0.79,-0.47 l -0.24,0 0,-0.31 c 0.35,0.04 1.12,0.04 1.51,0.04 0.41,0 1.32,0 1.67,-0.04 l 0,0.31 -0.32,0 c -0.95,0 -0.95,0.13 -0.95,0.48 l 0,5.26 c 0,0.33 0.02,0.4 0.49,0.4 l 1.02,0 c 1.43,0 1.64,-0.58 1.79,-1.92 l 0.25,0 z"
         id="path15233"
         inkscape:connector-curvature="0"
         style="fill:#000000;stroke-width:0" /></g>    <g
       ns0:preamble=""
       ns0:text="$\\mathrm{M}$"
       word-spacing="normal"
       letter-spacing="normal"
       font-size-adjust="none"
       font-stretch="normal"
       font-weight="normal"
       font-variant="normal"
       font-style="normal"
       stroke-miterlimit="10.433"
       xml:space="preserve"
       transform="matrix(2.4915595,0,0,-2.4915595,-299.45514,2195.1478)"
       id="g15259"
       style="color:#000000;font-style:normal;font-variant:normal;font-weight:normal;font-stretch:normal;font-size:21.25px;font-family:Arial;letter-spacing:normal;word-spacing:normal;text-anchor:start;fill:none;stroke:#000000;stroke-width:1;stroke-linecap:butt;stroke-linejoin:miter;stroke-miterlimit:10.43299961;stroke-dasharray:none;stroke-dashoffset:0;stroke-opacity:1"><path
         id="path15261"
         d="m 225.83,713.69 0,0.01 -0.01,0.01 0,0.01 -0.01,0.01 0,0.02 -0.01,0.01 -0.01,0.02 -0.01,0.01 0,0.02 -0.01,0.01 -0.01,0.01 0,0.01 -0.01,0.01 -0.01,0.01 -0.01,0 -0.01,0.01 0,0.01 -0.01,0 -0.01,0.01 -0.01,0 -0.01,0.01 -0.01,0 -0.01,0 -0.01,0 -0.02,0.01 -0.01,0 -0.01,0 -0.02,0 -0.01,0 -0.02,0 -0.02,0 -0.02,0 -0.02,0 -0.02,0 -1.68,0 0,-0.31 0.24,0 c 0.76,0 0.78,-0.11 0.78,-0.46 l 0,-4.97 c 0,-0.27 0,-0.74 -1.02,-0.74 l 0,-0.31 c 0.35,0.02 0.84,0.04 1.16,0.04 0.33,0 0.82,-0.02 1.17,-0.04 l 0,0.31 c -1.03,0 -1.03,0.47 -1.03,0.74 l 0,5.35 0.01,0 2.4,-6.18 c 0.05,-0.13 0.1,-0.22 0.2,-0.22 0.11,0 0.14,0.08 0.18,0.19 l 2.45,6.29 0.01,0 0,-5.7 c 0,-0.36 -0.02,-0.47 -0.79,-0.47 l -0.24,0 0,-0.31 c 0.37,0.04 1.05,0.04 1.44,0.04 0.38,0 1.05,0 1.42,-0.04 l 0,0.31 -0.24,0 c -0.77,0 -0.79,0.11 -0.79,0.47 l 0,5.24 c 0,0.35 0.02,0.46 0.79,0.46 l 0.24,0 0,0.31 -1.68,0 c -0.26,0 -0.26,-0.01 -0.33,-0.19 l -2.18,-5.59 z"
         inkscape:connector-curvature="0"
         style="fill:#000000;stroke-width:0" /></g>    <path
       d="m 93.601479,422.90136 4.45989,-4.28549 c 0.19933,-0.19932 1.51985,-1.4451 3.538021,-1.47001 l 0,-0.77239 c -0.64781,0.0747 -1.44511,0.0747 -2.117831,0.0747 -0.89696,0 -2.31714,0 -3.13936,-0.0747 l 0,0.77239 c 0.9717,0.0249 1.1212,0.59796 1.1212,0.82221 0,0.39865 -0.24915,0.62289 -0.42357,0.7973 l -7.77366,7.39993 0,-7.87333 c 0,-0.87204 0.0498,-1.14611 1.96833,-1.14611 l 0.59798,0 0,-0.77239 c -0.87205,0.0747 -2.7158,0.0747 -3.6626,0.0747 -0.94679,0 -2.79054,0 -3.66259,-0.0747 l 0,0.77239 0.59798,0 c 1.89358,0 1.96833,0.27407 1.96833,1.14611 l 0,13.05577 c 0,0.89696 -0.0747,1.17104 -1.96833,1.17104 l -0.59798,0 0,0.77238 c 0.87205,-0.0997 2.7158,-0.0997 3.63768,-0.0997 0.94679,0 2.81546,0 3.68751,0.0997 l 0,-0.77238 -0.59798,0 c -1.9185,0 -1.96833,-0.27408 -1.96833,-1.17104 l 0,-4.33531 2.8653,-2.7158 4.50972,6.62755 c 0.12457,0.22424 0.34881,0.54814 0.34881,0.84713 0,0.74747 -0.94679,0.74747 -1.4451,0.74747 l 0,0.77238 c 0.87205,-0.0997 2.59122,-0.0997 3.53802,-0.0997 0.87204,0 1.818831,0.0249 2.865281,0.0997 l 0,-0.77238 c -1.34544,0 -1.86867,-0.0997 -2.616121,-1.19595 z"
       id="path15293"
       inkscape:connector-curvature="0"
       style="color:#000000;font-style:normal;font-variant:normal;font-weight:normal;font-stretch:normal;font-size:21.25px;font-family:Arial;letter-spacing:normal;word-spacing:normal;text-anchor:start;fill:#000000;stroke:#000000;stroke-width:0;stroke-linecap:butt;stroke-linejoin:miter;stroke-miterlimit:10.43299961;stroke-dasharray:none;stroke-dashoffset:0;stroke-opacity:1" />
    <g
       id="g15291-7"
       transform="matrix(2.4915595,0,0,-2.4915595,-55.237931,2196.7834)"
       xml:space="preserve"
       stroke-miterlimit="10.433"
       font-style="normal"
       font-variant="normal"
       font-weight="normal"
       font-stretch="normal"
       font-size-adjust="none"
       letter-spacing="normal"
       word-spacing="normal"
       ns0:text="$\\mathrm{K}$"
       ns0:preamble=""
       style="color:#000000;font-style:normal;font-variant:normal;font-weight:normal;font-stretch:normal;font-size:21.25px;font-family:Arial;letter-spacing:normal;word-spacing:normal;text-anchor:start;fill:none;stroke:#000000;stroke-width:1;stroke-linecap:butt;stroke-linejoin:miter;stroke-miterlimit:10.43299961;stroke-dasharray:none;stroke-dashoffset:0;stroke-opacity:1"><path
         d="m 158.88944,712.04001 1.79,1.72 c 0.08,0.08 0.61,0.58 1.42,0.59 l 0,0.31 c -0.26,-0.03 -0.58,-0.03 -0.85,-0.03 -0.36,0 -0.93,0 -1.26,0.03 l 0,-0.31 c 0.39,-0.01 0.45,-0.24 0.45,-0.33 0,-0.16 -0.1,-0.25 -0.17,-0.32 l -3.12,-2.97 0,3.16 c 0,0.35 0.02,0.46 0.79,0.46 l 0.24,0 0,0.31 c -0.35,-0.03 -1.09,-0.03 -1.47,-0.03 -0.38,0 -1.12,0 -1.47,0.03 l 0,-0.31 0.24,0 c 0.76,0 0.79,-0.11 0.79,-0.46 l 0,-5.24 c 0,-0.36 -0.03,-0.47 -0.79,-0.47 l -0.24,0 0,-0.31 c 0.35,0.04 1.09,0.04 1.46,0.04 0.38,0 1.13,0 1.48,-0.04 l 0,0.31 -0.24,0 c -0.77,0 -0.79,0.11 -0.79,0.47 l 0,1.74 1.15,1.09 1.81,-2.66 c 0.05,-0.09 0.14,-0.22 0.14,-0.34 0,-0.3 -0.38,-0.3 -0.58,-0.3 l 0,-0.31 c 0.35,0.04 1.04,0.04 1.42,0.04 0.35,0 0.73,-0.01 1.15,-0.04 l 0,0.31 c -0.54,0 -0.75,0.04 -1.05,0.48 z"
         id="path15293-1"
         inkscape:connector-curvature="0"
         style="fill:#000000;stroke-width:0" /></g>    <g
       ns0:text="$\\omega$"
       ns0:preamble=""
       transform="matrix(2.6536313,0,0,2.6536313,-593.23787,-345.37903)"
       style="color:#000000;font-style:normal;font-variant:normal;font-weight:normal;font-stretch:normal;font-size:21.25px;font-family:Arial;letter-spacing:normal;word-spacing:normal;text-anchor:start;fill:none;stroke:#000000;stroke-width:1;stroke-linecap:butt;stroke-linejoin:miter;stroke-miterlimit:10.43299961;stroke-dasharray:none;stroke-dashoffset:0;stroke-opacity:1"
       id="g6597">
      <defs
         id="defs6599">
        <g
           id="g6601">
          <symbol
             style="overflow:visible"
             overflow="visible"
             id="textext-e72aae5e-0">
            <path
               inkscape:connector-curvature="0"
               style="stroke:none"
               d=""
               id="path6604" />
          </symbol>
          <symbol
             style="overflow:visible"
             overflow="visible"
             id="textext-e72aae5e-1">
            <path
               inkscape:connector-curvature="0"
               style="stroke:none"
               d="m 6.03125,-3.703125 c 0,-0.453125 -0.171875,-0.703125 -0.40625,-0.703125 -0.25,0 -0.515625,0.234375 -0.515625,0.46875 0,0.09375 0.046875,0.203125 0.140625,0.296875 0.171875,0.15625 0.359375,0.421875 0.359375,0.84375 0,0.390625 -0.203125,0.96875 -0.5,1.421875 C 4.8125,-0.953125 4.4375,-0.609375 3.96875,-0.609375 3.40625,-0.609375 3.09375,-0.96875 3,-1.5 c 0.109375,-0.265625 0.34375,-0.90625 0.34375,-1.1875 0,-0.109375 -0.046875,-0.21875 -0.1875,-0.21875 -0.078125,0 -0.1875,0.03125 -0.265625,0.171875 C 2.78125,-2.53125 2.65625,-1.890625 2.65625,-1.53125 2.328125,-1.0625 1.9375,-0.609375 1.3125,-0.609375 c -0.671875,0 -0.875,-0.59375 -0.875,-1.140625 0,-1.25 1.015625,-2.296875 1.015625,-2.421875 0,-0.109375 -0.078125,-0.1875 -0.1875,-0.1875 -0.125,0 -0.203125,0.125 -0.265625,0.21875 -0.5,0.734375 -0.875,1.921875 -0.875,2.828125 0,0.6875 0.21875,1.421875 1.046875,1.421875 0.703125,0 1.171875,-0.5 1.53125,-1.046875 0.09375,0.578125 0.484375,1.046875 1.09375,1.046875 0.78125,0 1.25,-0.609375 1.609375,-1.359375 0.25,-0.484375 0.625,-1.84375 0.625,-2.453125 z m 0,0"
               id="path6607" />
          </symbol>
        </g>
      </defs>
      <g
         id="textext-e72aae5e-2">
        <g
           style="fill:#000000;fill-opacity:1"
           id="g6610">
          <use
             height="100%"
             width="100%"
             xlink:href="#textext-e72aae5e-1"
             x="223.43201"
             y="134.765"
             id="use6612" />
        </g>
      </g>
    </g>
  </g>
</svg>
