%!PS-Adobe-3.0 EPSF-3.0
%%Creator: cairo 1.14.0 (http://cairographics.org)
%%CreationDate: Sun Jun 25 21:34:11 2017
%%Pages: 1
%%DocumentData: Clean7Bit
%%LanguageLevel: 2
%%BoundingBox: 0 -1 153 97
%%EndComments
%%BeginProlog
save
50 dict begin
/q { gsave } bind def
/Q { grestore } bind def
/cm { 6 array astore concat } bind def
/w { setlinewidth } bind def
/J { setlinecap } bind def
/j { setlinejoin } bind def
/M { setmiterlimit } bind def
/d { setdash } bind def
/m { moveto } bind def
/l { lineto } bind def
/c { curveto } bind def
/h { closepath } bind def
/re { exch dup neg 3 1 roll 5 3 roll moveto 0 rlineto
      0 exch rlineto 0 rlineto closepath } bind def
/S { stroke } bind def
/f { fill } bind def
/f* { eofill } bind def
/n { newpath } bind def
/W { clip } bind def
/W* { eoclip } bind def
/BT { } bind def
/ET { } bind def
/pdfmark where { pop globaldict /?pdfmark /exec load put }
    { globaldict begin /?pdfmark /pop load def /pdfmark
    /cleartomark load def end } ifelse
/BDC { mark 3 1 roll /BDC pdfmark } bind def
/EMC { mark /EMC pdfmark } bind def
/cairo_store_point { /cairo_point_y exch def /cairo_point_x exch def } def
/Tj { show currentpoint cairo_store_point } bind def
/TJ {
  {
    dup
    type /stringtype eq
    { show } { -0.001 mul 0 cairo_font_matrix dtransform rmoveto } ifelse
  } forall
  currentpoint cairo_store_point
} bind def
/cairo_selectfont { cairo_font_matrix aload pop pop pop 0 0 6 array astore
    cairo_font exch selectfont cairo_point_x cairo_point_y moveto } bind def
/Tf { pop /cairo_font exch def /cairo_font_matrix where
      { pop cairo_selectfont } if } bind def
/Td { matrix translate cairo_font_matrix matrix concatmatrix dup
      /cairo_font_matrix exch def dup 4 get exch 5 get cairo_store_point
      /cairo_font where { pop cairo_selectfont } if } bind def
/Tm { 2 copy 8 2 roll 6 array astore /cairo_font_matrix exch def
      cairo_store_point /cairo_font where { pop cairo_selectfont } if } bind def
/g { setgray } bind def
/rg { setrgbcolor } bind def
/d1 { setcachedevice } bind def
%%EndProlog
%%BeginSetup
%%EndSetup
%%Page: 1 1
%%BeginPageSetup
%%PageBoundingBox: 0 -1 153 97
%%EndPageSetup
q 0 -1 153 98 rectclip q
0.8 g
129.328 42.808 m 98.359 21.288 75.781 39.374 64.477 11.898 c 52.336 -17.614
 27.168 17.421 26.695 48.261 c 26.328 72.409 46.508 96.261 82.66 96.347 
c 110.328 96.409 158.016 62.741 129.328 42.808 c h
129.328 42.808 m f
0 g
0.8 w
1 J
0 j
[] 0.0 d
4 M q 1 0 0 -1 0 96.799995 cm
129.328 53.992 m 98.359 75.512 75.781 57.426 64.477 84.902 c 52.336 114.414
 27.168 79.379 26.695 48.539 c 26.328 24.391 46.508 0.539 82.66 0.453 c 
110.328 0.391 158.016 34.059 129.328 53.992 c h
129.328 53.992 m S Q
[ 1.6 3.2] 0 d
q 1 0 0 -1 0 96.799995 cm
26.328 0.391 112 96 re S Q
0 J
[ 1.6 3.2] 0 d
q 1 0 0 -1 0 96.799995 cm
82.328 0.391 m 82.328 96.391 l S Q
[ 1.6 3.2] 0 d
q 1 0 0 -1 0 96.799995 cm
26.328 48.391 m 81.961 48.391 l S Q
[ 1.6 3.2] 0 d
q 1 0 0 -1 0 96.799995 cm
54.348 68.391 m 138.328 68.391 l S Q
[ 1.6 3.2] 0 d
q 1 0 0 -1 0 96.799995 cm
82.242 34.461 m 138.242 34.461 l S Q
[ 1.6 3.2] 0 d
q 1 0 0 -1 0 96.799995 cm
54.344 0.461 m 54.344 96.531 l S Q
[ 1.6 3.2] 0 d
q 1 0 0 -1 0 96.799995 cm
26.238 6.605 m 82.273 6.605 l S Q
[ 1.6 3.2] 0 d
q 1 0 0 -1 0 96.799995 cm
110.328 0.391 m 110.328 68.41 l S Q
[ 1.6 3.2] 0 d
q 1 0 0 -1 0 96.799995 cm
82.328 8.457 m 138.328 8.457 l S Q
[ 1.6 3.2] 0 d
q 1 0 0 -1 0 96.799995 cm
82.344 63.168 m 138.344 63.168 l S Q
[ 1.6 3.2] 0 d
q 1 0 0 -1 0 96.799995 cm
26.523 72.391 m 54.379 72.391 l S Q
[ 1.6 3.2] 0 d
q 1 0 0 -1 0 96.799995 cm
31.555 48.445 m 31.555 96.531 l S Q
1 J
[] 0.0 d
q 1 0 0 -1 0 96.799995 cm
31.535 72.391 22.793 24 re S Q
q 1 0 0 -1 0 96.799995 cm
26.293 6.602 28.035 41.789 re S Q
q 1 0 0 -1 0 96.799995 cm
54.328 0.391 28 6.184 re S Q
q 1 0 0 -1 0 96.799995 cm
82.328 0.391 27.898 8 re S Q
q 1 0 0 -1 0 96.799995 cm
110.328 34.438 28 28.707 re S Q
q 1 0 0 -1 0 96.799995 cm
82.277 63.195 28.051 5.195 re S Q
q 1 0 0 -1 0 96.799995 cm
54.328 68.391 28 28 re S Q
1 0 0 rg
q 1 0 0 -1 0 96.799995 cm
26.328 48.391 5.223 24.023 re S Q
q 1 0 0 -1 0 96.799995 cm
110.277 8.492 28 25.902 re S Q
0 J
q 1 0 0 -1 0 96.799995 cm
32.27 48.348 m 109.09 34.609 l S Q
35.418 49.015 m 36.715 50.87 l 31.48 48.312 l 37.277 47.722 l h
35.418 49.015 m f*
0.393753 w
q 1 0.17884 0.17884 -1 0 96.799995 cm
26.039 52.442 m 27.617 50.869 l 22.102 52.441 l 27.617 54.017 l h
26.039 52.442 m S Q
105.941 61.628 m 104.648 59.773 l 109.879 62.331 l 104.086 62.921 l h
105.941 61.628 m f*
q -1 -0.17884 -0.17884 1 0 96.799995 cm
-96.563 -52.441 m -94.988 -54.015 l -100.5 -52.442 l -94.989 -50.867 l 
h
-96.563 -52.441 m S Q
0.8 w
q 1 0 0 -1 0 96.799995 cm
111.508 9.621 m 137.313 33.449 l S Q
113.859 85.007 m 116.121 85.097 l 110.918 87.722 l 113.949 82.745 l h
113.859 85.007 m f*
0.293875 w
q 1 -0.923396 -0.923396 -1 0 96.799995 cm
67.335 -50.384 m 68.511 -51.56 l 64.394 -50.383 l 68.511 -49.208 l h
67.335 -50.384 m S Q
134.961 65.523 m 132.699 65.433 l 137.898 62.808 l 134.871 67.784 l h
134.961 65.523 m f*
q -1 0.923396 0.923396 1 0 96.799995 cm
-88.436 50.384 m -87.26 49.209 l -91.375 50.383 l -87.26 51.56 l h
-88.436 50.384 m S Q
0.8 w
q 1 0 0 -1 0 96.799995 cm
26.625 49.797 m 31.027 71.52 l S Q
27.258 43.866 m 29.145 42.616 l 26.465 47.788 l 26.008 41.98 l h
27.258 43.866 m f*
0.392033 w
q 0.202629 -1 -1 -0.202629 0 96.799995 cm
56.151 -15.88 m 57.719 -17.449 l 52.23 -15.882 l 57.72 -14.312 l h
56.151 -15.88 m S Q
30.391 28.417 m 28.504 29.667 l 31.184 24.495 l 31.641 30.3 l h
30.391 28.417 m f*
q -0.202629 1 1 0.202629 0 96.799995 cm
-71.601 15.882 m -70.033 14.313 l -75.523 15.881 l -70.036 17.449 l h
-71.601 15.882 m S Q
38.582 46.698 m 38.582 46.722 38.57 46.784 38.496 46.784 c 38.469 46.784
 38.457 46.773 38.371 46.687 c 37.82 46.073 l 37.746 46.187 37.383 46.784
 36.496 46.784 c 34.707 46.784 32.918 45.023 32.918 43.175 c 32.918 41.862
 33.855 40.987 35.082 40.987 c 35.77 40.987 36.383 41.3 36.809 41.675 c 
37.543 42.323 37.684 43.05 37.684 43.073 c 37.684 43.159 37.594 43.159 37.582
 43.159 c 37.531 43.159 37.496 43.136 37.48 43.073 c 37.406 42.847 37.219
 42.273 36.668 41.812 c 36.121 41.374 35.621 41.237 35.207 41.237 c 34.496
 41.237 33.645 41.648 33.645 42.886 c 33.645 43.347 33.809 44.636 34.605
 45.573 c 35.094 46.136 35.844 46.534 36.559 46.534 c 37.371 46.534 37.844
 45.925 37.844 44.999 c 37.844 44.675 37.82 44.675 37.82 44.585 c 37.82 
44.511 37.906 44.511 37.934 44.511 c 38.031 44.511 38.031 44.523 38.082 
44.675 c h
38.582 46.698 m f
40.027 43.452 m 40.027 43.542 39.953 43.667 39.805 43.667 c 39.652 43.667
 39.492 43.515 39.492 43.355 c 39.492 43.265 39.555 43.14 39.715 43.14 c
 39.867 43.14 40.027 43.304 40.027 43.452 c h
38.891 40.616 m 38.867 40.542 38.84 40.48 38.84 40.378 c 38.84 40.116 39.055
 39.917 39.367 39.917 c 39.918 39.917 40.168 40.679 40.168 40.765 c 40.168
 40.839 40.09 40.839 40.078 40.839 c 40.004 40.839 39.992 40.804 39.965 
40.741 c 39.84 40.292 39.605 40.066 39.379 40.066 c 39.266 40.066 39.242
 40.14 39.242 40.265 c 39.242 40.39 39.277 40.491 39.328 40.616 c 39.391
 40.765 39.453 40.917 39.504 41.066 c 39.555 41.202 39.766 41.702 39.777
 41.777 c 39.805 41.827 39.816 41.89 39.816 41.952 c 39.816 42.214 39.59
 42.429 39.293 42.429 c 38.73 42.429 38.48 41.667 38.48 41.566 c 38.48 41.503
 38.555 41.503 38.578 41.503 c 38.652 41.503 38.652 41.527 38.68 41.589 
c 38.816 42.066 39.066 42.265 39.266 42.265 c 39.355 42.265 39.402 42.23
 39.402 42.077 c 39.402 41.941 39.379 41.866 39.242 41.515 c h
38.891 40.616 m f
107.07 71.952 m 107.07 71.976 107.059 72.038 106.984 72.038 c 106.957 72.038
 106.945 72.027 106.859 71.941 c 106.309 71.327 l 106.234 71.441 105.871
 72.038 104.984 72.038 c 103.195 72.038 101.406 70.277 101.406 68.429 c 
101.406 67.116 102.344 66.241 103.57 66.241 c 104.258 66.241 104.871 66.554
 105.297 66.929 c 106.031 67.577 106.172 68.304 106.172 68.327 c 106.172
 68.413 106.082 68.413 106.07 68.413 c 106.02 68.413 105.984 68.39 105.969
 68.327 c 105.895 68.101 105.707 67.527 105.156 67.066 c 104.609 66.628 
104.109 66.491 103.695 66.491 c 102.984 66.491 102.133 66.902 102.133 68.14
 c 102.133 68.601 102.297 69.89 103.094 70.827 c 103.582 71.39 104.332 71.788
 105.047 71.788 c 105.859 71.788 106.332 71.179 106.332 70.253 c 106.332
 69.929 106.309 69.929 106.309 69.839 c 106.309 69.765 106.395 69.765 106.422
 69.765 c 106.52 69.765 106.52 69.777 106.57 69.929 c h
107.07 71.952 m f
109.156 68.706 m 109.156 68.796 109.078 68.921 108.93 68.921 c 108.766 
68.921 108.617 68.757 108.617 68.609 c 108.617 68.519 108.68 68.394 108.844
 68.394 c 108.992 68.394 109.156 68.546 109.156 68.706 c h
107.969 64.945 m 107.879 64.558 107.578 64.245 107.254 64.245 c 107.18 
64.245 107.117 64.245 107.055 64.269 c 107.191 64.343 107.242 64.468 107.242
 64.558 c 107.242 64.695 107.129 64.757 107.016 64.757 c 106.855 64.757 
106.703 64.609 106.703 64.433 c 106.703 64.218 106.918 64.081 107.254 64.081
 c 107.594 64.081 108.242 64.28 108.418 64.956 c 108.918 66.956 l 108.93
 67.019 108.941 67.07 108.941 67.155 c 108.941 67.456 108.68 67.683 108.355
 67.683 c 107.73 67.683 107.379 66.905 107.379 66.82 c 107.379 66.757 107.453
 66.757 107.469 66.757 c 107.531 66.757 107.543 66.769 107.578 66.859 c 
107.719 67.183 108.004 67.519 108.328 67.519 c 108.469 67.519 108.516 67.433
 108.516 67.245 c 108.516 67.183 108.516 67.109 108.504 67.081 c h
107.969 64.945 m f
1 g
48.012 68.464 43.438 -8.18 re f
1 0 0 rg
50.797 62.812 m 50.797 62.288 l 51.973 62.374 l 51.973 62.624 l 51.422 
62.624 51.348 62.675 51.348 63.073 c 51.348 67.913 l 50.211 67.823 l 50.211
 67.573 l 50.762 67.573 50.824 67.523 50.824 67.124 c 50.824 65.398 l 50.598
 65.687 50.246 65.898 49.824 65.898 c 48.887 65.898 48.047 65.112 48.047
 64.085 c 48.047 63.073 48.824 62.288 49.734 62.288 c 50.246 62.288 50.598
 62.562 50.797 62.812 c h
50.797 64.948 m 50.797 63.312 l 50.797 63.175 50.797 63.163 50.711 63.023
 c 50.473 62.636 50.121 62.46 49.773 62.46 c 49.41 62.46 49.121 62.675 48.934
 62.976 c 48.734 63.3 48.711 63.749 48.711 64.085 c 48.711 64.374 48.723
 64.851 48.949 65.21 c 49.121 65.46 49.422 65.726 49.859 65.726 c 50.137
 65.726 50.473 65.601 50.711 65.249 c 50.797 65.112 50.797 65.101 50.797
 64.948 c h
50.797 64.948 m f
53.613 65.898 m 52.5 65.812 l 52.5 65.562 l 53.012 65.562 53.09 65.511 
53.09 65.124 c 53.09 62.976 l 53.09 62.624 53 62.624 52.465 62.624 c 52.465
 62.374 l 52.715 62.386 53.152 62.398 53.34 62.398 c 53.625 62.398 53.902
 62.386 54.176 62.374 c 54.176 62.624 l 53.637 62.624 53.613 62.663 53.613
 62.976 c h
53.637 67.288 m 53.637 67.538 53.449 67.71 53.227 67.71 c 52.977 67.71 
52.801 67.499 52.801 67.288 c 52.801 67.073 52.977 66.862 53.227 66.862 
c 53.449 66.862 53.637 67.038 53.637 67.288 c h
53.637 67.288 m f
56.078 63.925 m 56.254 63.886 56.902 63.761 56.902 63.187 c 56.902 62.788
 56.629 62.46 56.004 62.46 c 55.328 62.46 55.039 62.913 54.891 63.601 c 
54.863 63.698 54.863 63.726 54.777 63.726 c 54.676 63.726 54.676 63.675 
54.676 63.538 c 54.676 62.476 l 54.676 62.335 54.676 62.288 54.766 62.288
 c 54.801 62.288 54.816 62.3 54.965 62.448 c 54.977 62.46 54.977 62.476 
55.129 62.624 c 55.477 62.3 55.84 62.288 56.004 62.288 c 56.914 62.288 57.289
 62.823 57.289 63.398 c 57.289 63.812 57.051 64.062 56.953 64.148 c 56.691
 64.413 56.379 64.476 56.039 64.538 c 55.59 64.624 55.066 64.726 55.066 
65.187 c 55.066 65.476 55.266 65.8 55.953 65.8 c 56.828 65.8 56.879 65.073
 56.891 64.835 c 56.891 64.761 56.965 64.761 56.977 64.761 c 57.09 64.761
 57.09 64.8 57.09 64.948 c 57.09 65.761 l 57.09 65.886 57.09 65.948 57.004
 65.948 c 56.965 65.948 56.941 65.948 56.84 65.851 c 56.816 65.823 56.738
 65.749 56.703 65.726 c 56.402 65.948 56.078 65.948 55.953 65.948 c 54.977
 65.948 54.676 65.413 54.676 64.96 c 54.676 64.687 54.801 64.46 55.016 64.288
 c 55.277 64.085 55.504 64.038 56.078 63.925 c h
56.078 63.925 m f
58.934 65.562 m 60.082 65.562 l 60.082 65.812 l 58.934 65.812 l 58.934 
67.273 l 58.734 67.273 l 58.734 66.624 58.496 65.773 57.707 65.737 c 57.707
 65.562 l 58.383 65.562 l 58.383 63.362 l 58.383 62.386 59.133 62.288 59.422
 62.288 c 59.984 62.288 60.207 62.851 60.207 63.362 c 60.207 63.812 l 60.008
 63.812 l 60.008 63.374 l 60.008 62.788 59.77 62.487 59.473 62.487 c 58.934
 62.487 58.934 63.21 58.934 63.351 c h
58.934 65.562 m f
62.922 67.3 m 62.922 67.612 63.121 68.124 63.996 68.175 c 64.031 68.187
 64.059 68.226 64.059 68.261 c 64.059 68.362 63.996 68.362 63.906 68.362
 c 63.121 68.362 62.383 67.948 62.383 67.362 c 62.383 65.538 l 62.383 65.226
 62.383 64.976 62.059 64.71 c 61.781 64.476 61.484 64.46 61.309 64.46 c 
61.258 64.448 61.234 64.413 61.234 64.374 c 61.234 64.288 61.281 64.288 
61.359 64.273 c 61.883 64.249 62.27 63.96 62.359 63.573 c 62.383 63.487 
62.383 63.46 62.383 63.175 c 62.383 61.601 l 62.383 61.261 62.383 61.011
 62.758 60.71 c 63.07 60.476 63.594 60.374 63.906 60.374 c 63.996 60.374
 64.059 60.374 64.059 60.476 c 64.059 60.55 64.02 60.55 63.934 60.562 c 
63.434 60.585 63.047 60.851 62.934 61.249 c 62.922 61.323 62.922 61.335 
62.922 61.624 c 62.922 63.3 l 62.922 63.663 62.844 63.8 62.594 64.062 c 
62.434 64.226 62.195 64.3 61.969 64.374 c 62.633 64.55 62.922 64.925 62.922
 65.386 c h
62.922 67.3 m f
70.707 67.913 m 70.707 67.937 70.691 67.999 70.617 67.999 c 70.594 67.999
 70.582 67.987 70.492 67.898 c 69.941 67.288 l 69.867 67.398 69.504 67.999
 68.617 67.999 c 66.832 67.999 65.043 66.237 65.043 64.386 c 65.043 63.073
 65.98 62.198 67.207 62.198 c 67.895 62.198 68.504 62.511 68.93 62.886 c
 69.668 63.538 69.805 64.261 69.805 64.288 c 69.805 64.374 69.719 64.374
 69.707 64.374 c 69.656 64.374 69.617 64.351 69.605 64.288 c 69.531 64.062
 69.344 63.487 68.793 63.023 c 68.242 62.585 67.742 62.448 67.332 62.448
 c 66.617 62.448 65.77 62.862 65.77 64.101 c 65.77 64.562 65.93 65.851 66.73
 66.788 c 67.219 67.351 67.969 67.749 68.68 67.749 c 69.492 67.749 69.969
 67.136 69.969 66.21 c 69.969 65.886 69.941 65.886 69.941 65.8 c 69.941 
65.726 70.031 65.726 70.055 65.726 c 70.156 65.726 70.156 65.737 70.207 
65.886 c h
70.707 67.913 m f
72.152 64.667 m 72.152 64.753 72.078 64.878 71.926 64.878 c 71.777 64.878
 71.613 64.73 71.613 64.566 c 71.613 64.48 71.676 64.355 71.84 64.355 c 
71.988 64.355 72.152 64.515 72.152 64.667 c h
71.016 61.827 m 70.988 61.753 70.965 61.691 70.965 61.593 c 70.965 61.327
 71.176 61.128 71.488 61.128 c 72.039 61.128 72.289 61.89 72.289 61.98 c
 72.289 62.054 72.215 62.054 72.203 62.054 c 72.125 62.054 72.113 62.015
 72.09 61.952 c 71.965 61.503 71.727 61.28 71.5 61.28 c 71.391 61.28 71.363
 61.355 71.363 61.48 c 71.363 61.605 71.402 61.702 71.453 61.827 c 71.516
 61.98 71.578 62.128 71.625 62.28 c 71.676 62.417 71.891 62.917 71.902 62.991
 c 71.926 63.042 71.938 63.105 71.938 63.167 c 71.938 63.429 71.715 63.64
 71.414 63.64 c 70.852 63.64 70.602 62.878 70.602 62.78 c 70.602 62.718 
70.676 62.718 70.703 62.718 c 70.777 62.718 70.777 62.741 70.801 62.804 
c 70.938 63.28 71.188 63.48 71.391 63.48 c 71.477 63.48 71.527 63.441 71.527
 63.292 c 71.527 63.155 71.5 63.077 71.363 62.73 c h
71.016 61.827 m f
74.617 62.386 m 74.617 62.913 74.418 63.226 74.105 63.226 c 73.844 63.226
 73.68 63.023 73.68 62.8 c 73.68 62.585 73.844 62.374 74.105 62.374 c 74.191
 62.374 74.305 62.413 74.379 62.476 c 74.406 62.499 74.418 62.499 74.418
 62.499 c 74.43 62.499 74.43 62.499 74.43 62.386 c 74.43 61.788 74.156 61.312
 73.895 61.05 c 73.805 60.96 73.805 60.948 73.805 60.925 c 73.805 60.862
 73.844 60.835 73.879 60.835 c 73.969 60.835 74.617 61.448 74.617 62.386
 c h
74.617 62.386 m f
85.254 67.913 m 85.254 67.937 85.242 67.999 85.168 67.999 c 85.141 67.999
 85.129 67.987 85.043 67.898 c 84.492 67.288 l 84.418 67.398 84.055 67.999
 83.168 67.999 c 81.379 67.999 79.594 66.237 79.594 64.386 c 79.594 63.073
 80.531 62.198 81.754 62.198 c 82.441 62.198 83.055 62.511 83.48 62.886 
c 84.219 63.538 84.355 64.261 84.355 64.288 c 84.355 64.374 84.266 64.374
 84.254 64.374 c 84.203 64.374 84.168 64.351 84.156 64.288 c 84.078 64.062
 83.891 63.487 83.344 63.023 c 82.793 62.585 82.293 62.448 81.879 62.448
 c 81.168 62.448 80.316 62.862 80.316 64.101 c 80.316 64.562 80.48 65.851
 81.281 66.788 c 81.766 67.351 82.516 67.749 83.23 67.749 c 84.043 67.749
 84.516 67.136 84.516 66.21 c 84.516 65.886 84.492 65.886 84.492 65.8 c 
84.492 65.726 84.578 65.726 84.605 65.726 c 84.703 65.726 84.703 65.737 
84.754 65.886 c h
85.254 67.913 m f
87.34 64.667 m 87.34 64.753 87.262 64.878 87.113 64.878 c 86.949 64.878
 86.801 64.718 86.801 64.566 c 86.801 64.48 86.863 64.355 87.027 64.355 
c 87.176 64.355 87.34 64.503 87.34 64.667 c h
86.152 60.905 m 86.062 60.515 85.762 60.202 85.438 60.202 c 85.363 60.202
 85.301 60.202 85.238 60.23 c 85.375 60.304 85.426 60.429 85.426 60.515 
c 85.426 60.655 85.312 60.718 85.199 60.718 c 85.039 60.718 84.887 60.566
 84.887 60.39 c 84.887 60.179 85.102 60.042 85.438 60.042 c 85.777 60.042
 86.426 60.241 86.602 60.917 c 87.102 62.917 l 87.113 62.98 87.125 63.03
 87.125 63.116 c 87.125 63.417 86.863 63.64 86.539 63.64 c 85.914 63.64 
85.562 62.866 85.562 62.78 c 85.562 62.718 85.637 62.718 85.652 62.718 c
 85.715 62.718 85.727 62.73 85.762 62.816 c 85.902 63.14 86.188 63.48 86.512
 63.48 c 86.652 63.48 86.699 63.39 86.699 63.202 c 86.699 63.14 86.699 63.066
 86.688 63.042 c h
86.152 60.905 m f
89.973 61.437 m 89.973 61.124 89.758 60.612 88.895 60.562 c 88.848 60.55
 88.82 60.511 88.82 60.476 c 88.82 60.374 88.91 60.374 88.984 60.374 c 89.758
 60.374 90.496 60.773 90.508 61.374 c 90.508 63.198 l 90.508 63.511 90.508
 63.761 90.82 64.023 c 91.098 64.261 91.41 64.273 91.582 64.273 c 91.621
 64.288 91.645 64.323 91.645 64.374 c 91.645 64.448 91.609 64.448 91.52 
64.46 c 90.996 64.487 90.609 64.773 90.52 65.163 c 90.508 65.249 90.508 
65.273 90.508 65.562 c 90.508 67.136 l 90.508 67.476 90.508 67.726 90.121
 68.023 c 89.797 68.273 89.246 68.362 88.984 68.362 c 88.91 68.362 88.82
 68.362 88.82 68.261 c 88.82 68.187 88.871 68.187 88.945 68.175 c 89.445
 68.148 89.848 67.886 89.945 67.487 c 89.973 67.413 89.973 67.398 89.973
 67.112 c 89.973 65.437 l 89.973 65.073 90.035 64.937 90.285 64.675 c 90.457
 64.511 90.684 64.437 90.91 64.374 c 90.258 64.187 89.973 63.812 89.973 
63.351 c h
89.973 61.437 m f
1 g
127.711 86.042 25.254 -8.285 re f
1 0 0 rg
130.297 80.589 m 130.297 80.066 l 131.473 80.152 l 131.473 80.402 l 130.922
 80.402 130.848 80.452 130.848 80.855 c 130.848 85.691 l 129.711 85.605 
l 129.711 85.355 l 130.258 85.355 130.32 85.304 130.32 84.902 c 130.32 83.179
 l 130.098 83.464 129.746 83.679 129.32 83.679 c 128.383 83.679 127.547 
82.89 127.547 81.866 c 127.547 80.855 128.32 80.066 129.234 80.066 c 129.746
 80.066 130.098 80.339 130.297 80.589 c h
130.297 82.73 m 130.297 81.089 l 130.297 80.952 130.297 80.941 130.211 
80.804 c 129.973 80.417 129.621 80.241 129.273 80.241 c 128.91 80.241 128.621
 80.452 128.434 80.753 c 128.234 81.077 128.211 81.527 128.211 81.866 c 
128.211 82.152 128.223 82.628 128.445 82.991 c 128.621 83.241 128.922 83.503
 129.359 83.503 c 129.633 83.503 129.973 83.378 130.211 83.027 c 130.297
 82.89 130.297 82.878 130.297 82.73 c h
130.297 82.73 m f
133.113 83.679 m 132 83.589 l 132 83.339 l 132.512 83.339 132.586 83.292
 132.586 82.902 c 132.586 80.753 l 132.586 80.402 132.5 80.402 131.961 80.402
 c 131.961 80.152 l 132.211 80.167 132.648 80.179 132.836 80.179 c 133.125
 80.179 133.398 80.167 133.676 80.152 c 133.676 80.402 l 133.137 80.402 
133.113 80.441 133.113 80.753 c h
133.137 85.066 m 133.137 85.316 132.949 85.491 132.727 85.491 c 132.477
 85.491 132.301 85.277 132.301 85.066 c 132.301 84.855 132.477 84.64 132.727
 84.64 c 132.949 84.64 133.137 84.816 133.137 85.066 c h
133.137 85.066 m f
136.562 80.753 m 136.602 80.441 136.812 80.105 137.188 80.105 c 137.363
 80.105 137.852 80.214 137.852 80.866 c 137.852 81.316 l 137.652 81.316 
l 137.652 80.866 l 137.652 80.402 137.453 80.355 137.363 80.355 c 137.102
 80.355 137.062 80.714 137.062 80.753 c 137.062 82.339 l 137.062 82.679 
137.062 82.991 136.777 83.292 c 136.465 83.605 136.062 83.73 135.688 83.73
 c 135.027 83.73 134.477 83.355 134.477 82.827 c 134.477 82.589 134.641 
82.452 134.852 82.452 c 135.078 82.452 135.215 82.616 135.215 82.816 c 135.215
 82.917 135.176 83.179 134.801 83.179 c 135.027 83.464 135.414 83.554 135.664
 83.554 c 136.062 83.554 136.516 83.241 136.516 82.527 c 136.516 82.241 
l 136.102 82.214 135.551 82.191 135.051 81.952 c 134.453 81.679 134.25 81.265
 134.25 80.917 c 134.25 80.265 135.027 80.066 135.527 80.066 c 136.051 80.066
 136.414 80.39 136.562 80.753 c h
136.516 82.066 m 136.516 81.265 l 136.516 80.515 135.938 80.241 135.578
 80.241 c 135.188 80.241 134.863 80.515 134.863 80.917 c 134.863 81.355 
135.203 82.015 136.516 82.066 c h
136.516 82.066 m f
138.773 82.89 m 138.773 80.753 l 138.773 80.402 138.688 80.402 138.148 
80.402 c 138.148 80.152 l 138.438 80.167 138.836 80.179 139.062 80.179 c
 139.262 80.179 139.676 80.167 139.949 80.152 c 139.949 80.402 l 139.41 
80.402 139.324 80.402 139.324 80.753 c 139.324 82.23 l 139.324 83.054 139.898
 83.503 140.398 83.503 c 140.91 83.503 141 83.077 141 82.616 c 141 80.753
 l 141 80.402 140.91 80.402 140.375 80.402 c 140.375 80.152 l 140.648 80.167
 141.062 80.179 141.273 80.179 c 141.473 80.179 141.898 80.167 142.16 80.152
 c 142.16 80.402 l 141.637 80.402 141.551 80.402 141.551 80.753 c 141.551
 82.23 l 141.551 83.054 142.113 83.503 142.625 83.503 c 143.125 83.503 143.211
 83.077 143.211 82.616 c 143.211 80.753 l 143.211 80.402 143.125 80.402 
142.586 80.402 c 142.586 80.152 l 142.863 80.167 143.273 80.179 143.488 
80.179 c 143.699 80.179 144.113 80.167 144.387 80.152 c 144.387 80.402 l
 143.973 80.402 143.773 80.402 143.762 80.64 c 143.762 82.167 l 143.762 
82.855 143.762 83.089 143.512 83.378 c 143.398 83.515 143.137 83.679 142.676
 83.679 c 142.012 83.679 141.648 83.202 141.523 82.89 c 141.41 83.589 140.824
 83.679 140.461 83.679 c 139.875 83.679 139.5 83.339 139.273 82.839 c 139.273
 83.679 l 138.148 83.589 l 138.148 83.339 l 138.711 83.339 138.773 83.292
 138.773 82.89 c h
138.773 82.89 m f
150.602 85.691 m 150.602 85.714 150.59 85.777 150.516 85.777 c 150.492 
85.777 150.477 85.765 150.391 85.679 c 149.84 85.066 l 149.766 85.179 149.402
 85.777 148.516 85.777 c 146.727 85.777 144.941 84.015 144.941 82.167 c 
144.941 80.855 145.879 79.98 147.102 79.98 c 147.789 79.98 148.402 80.292
 148.828 80.667 c 149.566 81.316 149.703 82.042 149.703 82.066 c 149.703
 82.152 149.617 82.152 149.602 82.152 c 149.555 82.152 149.516 82.128 149.504
 82.066 c 149.43 81.839 149.242 81.265 148.691 80.804 c 148.141 80.366 147.641
 80.23 147.227 80.23 c 146.516 80.23 145.664 80.64 145.664 81.878 c 145.664
 82.339 145.828 83.628 146.629 84.566 c 147.117 85.128 147.867 85.527 148.578
 85.527 c 149.391 85.527 149.867 84.917 149.867 83.991 c 149.867 83.667 
149.84 83.667 149.84 83.577 c 149.84 83.503 149.93 83.503 149.953 83.503
 c 150.055 83.503 150.055 83.515 150.102 83.667 c h
150.602 85.691 m f
152.688 82.445 m 152.688 82.534 152.613 82.659 152.461 82.659 c 152.301
 82.659 152.148 82.495 152.148 82.347 c 152.148 82.257 152.211 82.132 152.375
 82.132 c 152.523 82.132 152.688 82.284 152.688 82.445 c h
151.5 78.683 m 151.41 78.296 151.113 77.984 150.785 77.984 c 150.711 77.984
 150.648 77.984 150.586 78.007 c 150.723 78.081 150.773 78.206 150.773 78.296
 c 150.773 78.433 150.66 78.495 150.551 78.495 c 150.387 78.495 150.238 
78.347 150.238 78.171 c 150.238 77.956 150.449 77.82 150.785 77.82 c 151.125
 77.82 151.773 78.019 151.949 78.695 c 152.449 80.695 l 152.461 80.757 152.473
 80.808 152.473 80.894 c 152.473 81.195 152.211 81.421 151.887 81.421 c 
151.262 81.421 150.91 80.644 150.91 80.558 c 150.91 80.495 150.988 80.495
 151 80.495 c 151.062 80.495 151.074 80.507 151.113 80.597 c 151.25 80.921
 151.535 81.257 151.863 81.257 c 152 81.257 152.051 81.171 152.051 80.984
 c 152.051 80.921 152.051 80.847 152.035 80.82 c h
151.5 78.683 m f
2.75 34.597 m 2.75 34.073 l 3.926 34.159 l 3.926 34.409 l 3.375 34.409 
3.301 34.46 3.301 34.862 c 3.301 39.698 l 2.164 39.612 l 2.164 39.362 l 
2.711 39.362 2.773 39.312 2.773 38.909 c 2.773 37.187 l 2.551 37.472 2.199
 37.687 1.773 37.687 c 0.836 37.687 0 36.898 0 35.874 c 0 34.862 0.773 34.073
 1.688 34.073 c 2.199 34.073 2.551 34.347 2.75 34.597 c h
2.75 36.737 m 2.75 35.097 l 2.75 34.96 2.75 34.948 2.664 34.812 c 2.426
 34.425 2.074 34.249 1.727 34.249 c 1.363 34.249 1.074 34.46 0.887 34.761
 c 0.688 35.085 0.664 35.534 0.664 35.874 c 0.664 36.159 0.676 36.636 0.898
 36.999 c 1.074 37.249 1.375 37.511 1.812 37.511 c 2.086 37.511 2.426 37.386
 2.664 37.034 c 2.75 36.898 2.75 36.886 2.75 36.737 c h
2.75 36.737 m f
5.566 37.687 m 4.453 37.597 l 4.453 37.347 l 4.965 37.347 5.039 37.3 5.039
 36.909 c 5.039 34.761 l 5.039 34.409 4.953 34.409 4.414 34.409 c 4.414 
34.159 l 4.664 34.175 5.102 34.187 5.289 34.187 c 5.578 34.187 5.852 34.175
 6.129 34.159 c 6.129 34.409 l 5.59 34.409 5.566 34.448 5.566 34.761 c h
5.59 39.073 m 5.59 39.323 5.402 39.499 5.18 39.499 c 4.93 39.499 4.754 
39.284 4.754 39.073 c 4.754 38.862 4.93 38.648 5.18 38.648 c 5.402 38.648
 5.59 38.823 5.59 39.073 c h
5.59 39.073 m f
9.016 34.761 m 9.055 34.448 9.266 34.112 9.641 34.112 c 9.816 34.112 10.305
 34.222 10.305 34.874 c 10.305 35.323 l 10.105 35.323 l 10.105 34.874 l 
10.105 34.409 9.906 34.362 9.816 34.362 c 9.555 34.362 9.516 34.722 9.516
 34.761 c 9.516 36.347 l 9.516 36.687 9.516 36.999 9.23 37.3 c 8.918 37.612
 8.516 37.737 8.141 37.737 c 7.48 37.737 6.93 37.362 6.93 36.835 c 6.93 
36.597 7.094 36.46 7.305 36.46 c 7.531 36.46 7.668 36.624 7.668 36.823 c
 7.668 36.925 7.629 37.187 7.254 37.187 c 7.48 37.472 7.867 37.562 8.117
 37.562 c 8.516 37.562 8.969 37.249 8.969 36.534 c 8.969 36.249 l 8.555 
36.222 8.004 36.198 7.504 35.96 c 6.906 35.687 6.703 35.273 6.703 34.925
 c 6.703 34.273 7.48 34.073 7.98 34.073 c 8.504 34.073 8.867 34.398 9.016
 34.761 c h
8.969 36.073 m 8.969 35.273 l 8.969 34.523 8.391 34.249 8.031 34.249 c 
7.641 34.249 7.316 34.523 7.316 34.925 c 7.316 35.362 7.656 36.023 8.969
 36.073 c h
8.969 36.073 m f
11.227 36.898 m 11.227 34.761 l 11.227 34.409 11.141 34.409 10.602 34.409
 c 10.602 34.159 l 10.891 34.175 11.289 34.187 11.516 34.187 c 11.715 34.187
 12.129 34.175 12.402 34.159 c 12.402 34.409 l 11.863 34.409 11.777 34.409
 11.777 34.761 c 11.777 36.237 l 11.777 37.062 12.352 37.511 12.852 37.511
 c 13.363 37.511 13.453 37.085 13.453 36.624 c 13.453 34.761 l 13.453 34.409
 13.363 34.409 12.828 34.409 c 12.828 34.159 l 13.102 34.175 13.516 34.187
 13.727 34.187 c 13.926 34.187 14.352 34.175 14.613 34.159 c 14.613 34.409
 l 14.09 34.409 14.004 34.409 14.004 34.761 c 14.004 36.237 l 14.004 37.062
 14.566 37.511 15.078 37.511 c 15.578 37.511 15.664 37.085 15.664 36.624
 c 15.664 34.761 l 15.664 34.409 15.578 34.409 15.039 34.409 c 15.039 34.159
 l 15.316 34.175 15.727 34.187 15.941 34.187 c 16.152 34.187 16.566 34.175
 16.84 34.159 c 16.84 34.409 l 16.426 34.409 16.227 34.409 16.215 34.648
 c 16.215 36.175 l 16.215 36.862 16.215 37.097 15.965 37.386 c 15.852 37.523
 15.59 37.687 15.129 37.687 c 14.465 37.687 14.102 37.21 13.977 36.898 c
 13.863 37.597 13.277 37.687 12.914 37.687 c 12.328 37.687 11.953 37.347
 11.727 36.847 c 11.727 37.687 l 10.602 37.597 l 10.602 37.347 l 11.164 
37.347 11.227 37.3 11.227 36.898 c h
11.227 36.898 m f
23.055 39.698 m 23.055 39.722 23.043 39.784 22.969 39.784 c 22.945 39.784
 22.93 39.773 22.844 39.687 c 22.293 39.073 l 22.219 39.187 21.855 39.784
 20.969 39.784 c 19.18 39.784 17.395 38.023 17.395 36.175 c 17.395 34.862
 18.332 33.987 19.555 33.987 c 20.242 33.987 20.855 34.3 21.281 34.675 c
 22.02 35.323 22.156 36.05 22.156 36.073 c 22.156 36.159 22.07 36.159 22.055
 36.159 c 22.008 36.159 21.969 36.136 21.957 36.073 c 21.883 35.847 21.695
 35.273 21.145 34.812 c 20.594 34.374 20.094 34.237 19.68 34.237 c 18.969
 34.237 18.117 34.648 18.117 35.886 c 18.117 36.347 18.281 37.636 19.082
 38.573 c 19.57 39.136 20.32 39.534 21.031 39.534 c 21.844 39.534 22.32 
38.925 22.32 37.999 c 22.32 37.675 22.293 37.675 22.293 37.585 c 22.293 
37.511 22.383 37.511 22.406 37.511 c 22.508 37.511 22.508 37.523 22.555 
37.675 c h
23.055 39.698 m f
24.504 36.452 m 24.504 36.542 24.426 36.667 24.277 36.667 c 24.129 36.667
 23.965 36.515 23.965 36.355 c 23.965 36.265 24.027 36.14 24.191 36.14 c
 24.34 36.14 24.504 36.304 24.504 36.452 c h
23.363 33.616 m 23.34 33.542 23.316 33.48 23.316 33.378 c 23.316 33.116
 23.527 32.917 23.84 32.917 c 24.391 32.917 24.641 33.679 24.641 33.765 
c 24.641 33.843 24.566 33.843 24.551 33.843 c 24.477 33.843 24.465 33.804
 24.441 33.741 c 24.316 33.292 24.078 33.066 23.852 33.066 c 23.738 33.066
 23.715 33.14 23.715 33.265 c 23.715 33.39 23.754 33.491 23.801 33.616 c
 23.863 33.765 23.926 33.917 23.977 34.066 c 24.027 34.202 24.238 34.702
 24.254 34.78 c 24.277 34.827 24.289 34.89 24.289 34.952 c 24.289 35.218
 24.066 35.429 23.766 35.429 c 23.203 35.429 22.953 34.667 22.953 34.566
 c 22.953 34.503 23.027 34.503 23.051 34.503 c 23.129 34.503 23.129 34.53
 23.152 34.593 c 23.289 35.066 23.539 35.265 23.738 35.265 c 23.828 35.265
 23.879 35.23 23.879 35.077 c 23.879 34.941 23.852 34.866 23.715 34.515 
c h
23.363 33.616 m f
Q Q
showpage
%%Trailer
end restore
%%EOF
