%!PS-Adobe-3.0 EPSF-3.0
%%Creator: cairo 1.14.0 (http://cairographics.org)
%%CreationDate: Sun Jun 25 22:30:29 2017
%%Pages: 1
%%DocumentData: Clean7Bit
%%LanguageLevel: 2
%%BoundingBox: 0 -1 170 98
%%EndComments
%%BeginProlog
save
50 dict begin
/q { gsave } bind def
/Q { grestore } bind def
/cm { 6 array astore concat } bind def
/w { setlinewidth } bind def
/J { setlinecap } bind def
/j { setlinejoin } bind def
/M { setmiterlimit } bind def
/d { setdash } bind def
/m { moveto } bind def
/l { lineto } bind def
/c { curveto } bind def
/h { closepath } bind def
/re { exch dup neg 3 1 roll 5 3 roll moveto 0 rlineto
      0 exch rlineto 0 rlineto closepath } bind def
/S { stroke } bind def
/f { fill } bind def
/f* { eofill } bind def
/n { newpath } bind def
/W { clip } bind def
/W* { eoclip } bind def
/BT { } bind def
/ET { } bind def
/pdfmark where { pop globaldict /?pdfmark /exec load put }
    { globaldict begin /?pdfmark /pop load def /pdfmark
    /cleartomark load def end } ifelse
/BDC { mark 3 1 roll /BDC pdfmark } bind def
/EMC { mark /EMC pdfmark } bind def
/cairo_store_point { /cairo_point_y exch def /cairo_point_x exch def } def
/Tj { show currentpoint cairo_store_point } bind def
/TJ {
  {
    dup
    type /stringtype eq
    { show } { -0.001 mul 0 cairo_font_matrix dtransform rmoveto } ifelse
  } forall
  currentpoint cairo_store_point
} bind def
/cairo_selectfont { cairo_font_matrix aload pop pop pop 0 0 6 array astore
    cairo_font exch selectfont cairo_point_x cairo_point_y moveto } bind def
/Tf { pop /cairo_font exch def /cairo_font_matrix where
      { pop cairo_selectfont } if } bind def
/Td { matrix translate cairo_font_matrix matrix concatmatrix dup
      /cairo_font_matrix exch def dup 4 get exch 5 get cairo_store_point
      /cairo_font where { pop cairo_selectfont } if } bind def
/Tm { 2 copy 8 2 roll 6 array astore /cairo_font_matrix exch def
      cairo_store_point /cairo_font where { pop cairo_selectfont } if } bind def
/g { setgray } bind def
/rg { setrgbcolor } bind def
/d1 { setcachedevice } bind def
%%EndProlog
%%BeginSetup
%%EndSetup
%%Page: 1 1
%%BeginPageSetup
%%PageBoundingBox: 0 -1 170 98
%%EndPageSetup
q 0 -1 170 99 rectclip q
0.8 g
112.699 0.462 m 0.699 0.462 l 56.699 96.462 l 168.699 96.462 l h
112.699 0.462 m f
0 g
0.8 w
0 J
0 j
[] 0.0 d
4 M q 1 0 0 -1 0 97.078957 cm
112.699 96.617 m 0.699 96.617 l 56.699 0.617 l 168.699 0.617 l h
112.699 96.617 m S Q
1 J
[ 1.6 3.2] 0 d
q 1 0 0 -1 0 97.078957 cm
0.699 0.617 56 96 re S Q
[ 1.6 3.2] 0 d
q 1 0 0 -1 0 97.078957 cm
113.215 0.676 56 96 re S Q
1 g
96.699 48.462 m 96.699 41.833 91.328 36.462 84.699 36.462 c 78.074 36.462
 72.699 41.833 72.699 48.462 c 72.699 55.087 78.074 60.462 84.699 60.462
 c 91.328 60.462 96.699 55.087 96.699 48.462 c h
96.699 48.462 m f
0 g
[] 0.0 d
q 1 0 0 -1 0 97.078957 cm
96.699 48.617 m 96.699 55.246 91.328 60.617 84.699 60.617 c 78.074 60.617
 72.699 55.246 72.699 48.617 c 72.699 41.992 78.074 36.617 84.699 36.617
 c 91.328 36.617 96.699 41.992 96.699 48.617 c h
96.699 48.617 m S Q
q 1 0 0 -1 0 97.078957 cm
72.699 36.617 24 24 re S Q
0 J
q 1 0 0 -1 0 97.078957 cm
72.699 48.617 m 96.699 48.617 l S Q
[ 1.6 3.2] 0 d
q 1 0 0 -1 0 97.078957 cm
0.777 48.82 m 56.699 48.617 l S Q
[ 1.6 3.2] 0 d
q 1 0 0 -1 0 97.078957 cm
112.781 49.09 m 168.902 48.887 l S Q
[ 1.6 3.2] 0 d
q 1 0 0 -1 0 97.078957 cm
28.609 0.484 m 28.809 95.801 l S Q
[ 1.6 3.2] 0 d
q 1 0 0 -1 0 97.078957 cm
140.66 1.082 m 140.863 96.398 l S Q
[] 0.0 d
q 1 0 0 -1 0 97.078957 cm
84.605 36.641 m 84.809 60.641 l S Q
[ 1.6 3.2] 0 d
q 1 0 0 -1 0 97.078957 cm
28.598 24.629 m 56.613 24.629 l S Q
[ 1.6 3.2] 0 d
q 1 0 0 -1 0 97.078957 cm
42.613 0.594 m 42.812 48.586 l S Q
[ 1.6 3.2] 0 d
q 1 0 0 -1 0 97.078957 cm
14.613 48.652 m 14.812 96.645 l S Q
[ 1.6 3.2] 0 d
q 1 0 0 -1 0 97.078957 cm
0.758 72.629 m 28.77 72.629 l S Q
[ 1.6 3.2] 0 d
q 1 0 0 -1 0 97.078957 cm
140.629 24.629 m 168.645 24.629 l S Q
[ 1.6 3.2] 0 d
q 1 0 0 -1 0 97.078957 cm
154.641 0.594 m 154.844 48.586 l S Q
[ 1.6 3.2] 0 d
q 1 0 0 -1 0 97.078957 cm
126.641 48.652 m 126.844 96.645 l S Q
[ 1.6 3.2] 0 d
q 1 0 0 -1 0 97.078957 cm
112.785 72.629 m 140.801 72.629 l S Q
1 J
[] 0.0 d
q 1 0 0 -1 0 97.078957 cm
0.699 72.617 14.055 23.551 re S Q
q 1 0 0 -1 0 97.078957 cm
14.621 48.789 14.125 23.766 re S Q
q 1 0 0 -1 0 97.078957 cm
28.637 24.594 14.199 24.051 re S Q
1 0 0 rg
q 1 0 0 -1 0 97.078957 cm
42.637 0.664 13.984 23.91 re S Q
0 g
q 1 0 0 -1 0 97.078957 cm
113.238 72.605 13.629 24.051 re S Q
q 1 0 0 -1 0 97.078957 cm
126.66 48.992 14.055 23.621 re S Q
q 1 0 0 -1 0 97.078957 cm
140.75 24.582 13.98 24.406 re S Q
0 0 1 rg
q 1 0 0 -1 0 97.078957 cm
154.676 0.723 14.238 23.895 re S Q
1 0 0 rg
q 1 0 0 -1 0 97.078957 cm
72.699 36.617 12 12 re S Q
1 g
65.465 73.692 44.141 -8.57 re f
1 0 0 rg
68.785 67.977 m 68.785 67.45 l 69.957 67.54 l 69.957 67.79 l 69.41 67.79
 69.332 67.837 69.332 68.239 c 69.332 73.075 l 68.195 72.989 l 68.195 72.739
 l 68.746 72.739 68.809 72.688 68.809 72.29 c 68.809 70.563 l 68.582 70.852
 68.234 71.063 67.809 71.063 c 66.871 71.063 66.035 70.274 66.035 69.251
 c 66.035 68.239 66.809 67.45 67.723 67.45 c 68.234 67.45 68.582 67.727 
68.785 67.977 c h
68.785 70.114 m 68.785 68.477 l 68.785 68.337 68.785 68.325 68.695 68.188
 c 68.457 67.802 68.109 67.626 67.758 67.626 c 67.395 67.626 67.109 67.837
 66.922 68.138 c 66.723 68.462 66.695 68.915 66.695 69.251 c 66.695 69.54
 66.707 70.013 66.934 70.376 c 67.109 70.626 67.41 70.888 67.848 70.888 
c 68.121 70.888 68.457 70.763 68.695 70.415 c 68.785 70.274 68.785 70.263
 68.785 70.114 c h
68.785 70.114 m f
71.598 71.063 m 70.488 70.977 l 70.488 70.727 l 71 70.727 71.074 70.677
 71.074 70.29 c 71.074 68.138 l 71.074 67.79 70.988 67.79 70.449 67.79 c
 70.449 67.54 l 70.699 67.552 71.137 67.563 71.324 67.563 c 71.613 67.563
 71.887 67.552 72.16 67.54 c 72.16 67.79 l 71.625 67.79 71.598 67.825 71.598
 68.138 c h
71.625 72.45 m 71.625 72.7 71.438 72.876 71.211 72.876 c 70.961 72.876 
70.785 72.665 70.785 72.45 c 70.785 72.239 70.961 72.024 71.211 72.024 c
 71.438 72.024 71.625 72.2 71.625 72.45 c h
71.625 72.45 m f
74.062 69.087 m 74.238 69.052 74.887 68.927 74.887 68.352 c 74.887 67.95
 74.613 67.626 73.988 67.626 c 73.312 67.626 73.027 68.075 72.875 68.763
 c 72.852 68.864 72.852 68.888 72.762 68.888 c 72.664 68.888 72.664 68.837
 72.664 68.7 c 72.664 67.638 l 72.664 67.501 72.664 67.45 72.75 67.45 c 
72.789 67.45 72.801 67.462 72.949 67.614 c 72.965 67.626 72.965 67.638 73.113
 67.79 c 73.465 67.462 73.824 67.45 73.988 67.45 c 74.902 67.45 75.277 67.989
 75.277 68.563 c 75.277 68.977 75.039 69.227 74.938 69.313 c 74.676 69.575
 74.363 69.638 74.027 69.7 c 73.574 69.79 73.051 69.888 73.051 70.352 c 
73.051 70.638 73.25 70.962 73.938 70.962 c 74.812 70.962 74.863 70.239 74.875
 70.001 c 74.875 69.927 74.949 69.927 74.965 69.927 c 75.074 69.927 75.074
 69.962 75.074 70.114 c 75.074 70.927 l 75.074 71.052 75.074 71.114 74.988
 71.114 c 74.949 71.114 74.926 71.114 74.824 71.013 c 74.801 70.989 74.727
 70.915 74.688 70.888 c 74.387 71.114 74.062 71.114 73.938 71.114 c 72.965
 71.114 72.664 70.575 72.664 70.126 c 72.664 69.852 72.789 69.626 73 69.45
 c 73.262 69.251 73.488 69.2 74.062 69.087 c h
74.062 69.087 m f
76.918 70.727 m 78.07 70.727 l 78.07 70.977 l 76.918 70.977 l 76.918 72.438
 l 76.719 72.438 l 76.719 71.79 76.48 70.938 75.695 70.899 c 75.695 70.727
 l 76.371 70.727 l 76.371 68.524 l 76.371 67.552 77.121 67.45 77.406 67.45
 c 77.969 67.45 78.195 68.013 78.195 68.524 c 78.195 68.977 l 77.996 68.977
 l 77.996 68.54 l 77.996 67.95 77.758 67.649 77.457 67.649 c 76.918 67.649
 76.918 68.376 76.918 68.513 c h
76.918 70.727 m f
80.906 72.462 m 80.906 72.774 81.105 73.29 81.98 73.337 c 82.02 73.352 
82.043 73.388 82.043 73.427 c 82.043 73.524 81.98 73.524 81.895 73.524 c
 81.105 73.524 80.367 73.114 80.367 72.524 c 80.367 70.7 l 80.367 70.388
 80.367 70.138 80.043 69.876 c 79.77 69.638 79.469 69.626 79.293 69.626 
c 79.242 69.614 79.219 69.575 79.219 69.54 c 79.219 69.45 79.27 69.45 79.344
 69.438 c 79.867 69.415 80.254 69.126 80.344 68.739 c 80.367 68.649 80.367
 68.626 80.367 68.337 c 80.367 66.763 l 80.367 66.427 80.367 66.177 80.742
 65.876 c 81.055 65.638 81.582 65.54 81.895 65.54 c 81.98 65.54 82.043 65.54
 82.043 65.638 c 82.043 65.712 82.004 65.712 81.918 65.727 c 81.418 65.751
 81.031 66.013 80.918 66.415 c 80.906 66.489 80.906 66.501 80.906 66.79 
c 80.906 68.462 l 80.906 68.825 80.832 68.962 80.582 69.227 c 80.418 69.388
 80.18 69.462 79.957 69.54 c 80.617 69.712 80.906 70.087 80.906 70.552 c
 h
80.906 72.462 m f
88.691 73.075 m 88.691 73.102 88.68 73.165 88.605 73.165 c 88.578 73.165
 88.566 73.149 88.48 73.063 c 87.93 72.45 l 87.855 72.563 87.492 73.165 
86.605 73.165 c 84.816 73.165 83.027 71.399 83.027 69.552 c 83.027 68.239
 83.965 67.364 85.191 67.364 c 85.879 67.364 86.492 67.677 86.918 68.052
 c 87.652 68.7 87.793 69.427 87.793 69.45 c 87.793 69.54 87.703 69.54 87.691
 69.54 c 87.641 69.54 87.605 69.513 87.59 69.45 c 87.516 69.227 87.328 68.649
 86.777 68.188 c 86.23 67.751 85.73 67.614 85.316 67.614 c 84.605 67.614
 83.754 68.024 83.754 69.263 c 83.754 69.727 83.918 71.013 84.715 71.95 
c 85.203 72.513 85.953 72.915 86.668 72.915 c 87.48 72.915 87.953 72.302
 87.953 71.376 c 87.953 71.052 87.93 71.052 87.93 70.962 c 87.93 70.888 
88.016 70.888 88.043 70.888 c 88.141 70.888 88.141 70.899 88.191 71.052 
c h
88.691 73.075 m f
90.137 69.829 m 90.137 69.919 90.062 70.044 89.914 70.044 c 89.762 70.044
 89.602 69.891 89.602 69.731 c 89.602 69.641 89.664 69.516 89.824 69.516
 c 89.977 69.516 90.137 69.681 90.137 69.829 c h
89 66.993 m 88.977 66.919 88.949 66.856 88.949 66.755 c 88.949 66.493 89.164
 66.294 89.477 66.294 c 90.023 66.294 90.273 67.056 90.273 67.141 c 90.273
 67.22 90.199 67.22 90.188 67.22 c 90.113 67.22 90.102 67.181 90.074 67.118
 c 89.949 66.669 89.711 66.442 89.488 66.442 c 89.375 66.442 89.352 66.516
 89.352 66.641 c 89.352 66.766 89.387 66.868 89.438 66.993 c 89.5 67.141
 89.562 67.294 89.613 67.442 c 89.664 67.579 89.875 68.079 89.887 68.157
 c 89.914 68.204 89.926 68.266 89.926 68.329 c 89.926 68.595 89.699 68.806
 89.398 68.806 c 88.836 68.806 88.586 68.044 88.586 67.942 c 88.586 67.88
 88.664 67.88 88.688 67.88 c 88.762 67.88 88.762 67.907 88.789 67.97 c 88.926
 68.442 89.176 68.641 89.375 68.641 c 89.461 68.641 89.512 68.606 89.512
 68.454 c 89.512 68.317 89.488 68.243 89.352 67.891 c h
89 66.993 m f
92.605 67.552 m 92.605 68.075 92.402 68.388 92.09 68.388 c 91.828 68.388
 91.668 68.188 91.668 67.962 c 91.668 67.751 91.828 67.54 92.09 67.54 c 
92.18 67.54 92.293 67.575 92.367 67.638 c 92.391 67.665 92.402 67.665 92.402
 67.665 c 92.418 67.665 92.418 67.665 92.418 67.552 c 92.418 66.95 92.141
 66.477 91.879 66.212 c 91.793 66.126 91.793 66.114 91.793 66.087 c 91.793
 66.024 91.828 66.001 91.867 66.001 c 91.953 66.001 92.605 66.614 92.605
 67.552 c h
92.605 67.552 m f
103.238 73.075 m 103.238 73.102 103.227 73.165 103.152 73.165 c 103.129
 73.165 103.113 73.149 103.027 73.063 c 102.477 72.45 l 102.402 72.563 102.039
 73.165 101.152 73.165 c 99.363 73.165 97.578 71.399 97.578 69.552 c 97.578
 68.239 98.516 67.364 99.738 67.364 c 100.426 67.364 101.039 67.677 101.465
 68.052 c 102.203 68.7 102.34 69.427 102.34 69.45 c 102.34 69.54 102.254
 69.54 102.238 69.54 c 102.191 69.54 102.152 69.513 102.141 69.45 c 102.066
 69.227 101.879 68.649 101.328 68.188 c 100.777 67.751 100.277 67.614 99.863
 67.614 c 99.152 67.614 98.301 68.024 98.301 69.263 c 98.301 69.727 98.465
 71.013 99.266 71.95 c 99.754 72.513 100.504 72.915 101.215 72.915 c 102.027
 72.915 102.504 72.302 102.504 71.376 c 102.504 71.052 102.477 71.052 102.477
 70.962 c 102.477 70.888 102.566 70.888 102.59 70.888 c 102.691 70.888 102.691
 70.899 102.738 71.052 c h
103.238 73.075 m f
105.324 69.829 m 105.324 69.919 105.25 70.044 105.098 70.044 c 104.938 
70.044 104.785 69.88 104.785 69.731 c 104.785 69.641 104.848 69.516 105.012
 69.516 c 105.16 69.516 105.324 69.669 105.324 69.829 c h
104.137 66.067 m 104.047 65.681 103.75 65.368 103.422 65.368 c 103.348 
65.368 103.285 65.368 103.223 65.391 c 103.359 65.47 103.41 65.595 103.41
 65.681 c 103.41 65.817 103.297 65.88 103.188 65.88 c 103.023 65.88 102.875
 65.731 102.875 65.556 c 102.875 65.345 103.086 65.204 103.422 65.204 c 
103.762 65.204 104.41 65.407 104.586 66.079 c 105.086 68.079 l 105.098 68.141
 105.109 68.192 105.109 68.282 c 105.109 68.579 104.848 68.806 104.523 68.806
 c 103.898 68.806 103.547 68.032 103.547 67.942 c 103.547 67.88 103.625 
67.88 103.637 67.88 c 103.699 67.88 103.711 67.891 103.75 67.981 c 103.887
 68.306 104.172 68.641 104.5 68.641 c 104.637 68.641 104.688 68.556 104.688
 68.368 c 104.688 68.306 104.688 68.231 104.672 68.204 c h
104.137 66.067 m f
107.957 66.602 m 107.957 66.29 107.746 65.774 106.883 65.727 c 106.832 
65.712 106.809 65.677 106.809 65.638 c 106.809 65.54 106.895 65.54 106.969
 65.54 c 107.746 65.54 108.48 65.938 108.496 66.54 c 108.496 68.364 l 108.496
 68.677 108.496 68.927 108.809 69.188 c 109.082 69.427 109.395 69.438 109.57
 69.438 c 109.605 69.45 109.633 69.489 109.633 69.54 c 109.633 69.614 109.594
 69.614 109.508 69.626 c 108.98 69.649 108.594 69.938 108.508 70.325 c 108.496
 70.415 108.496 70.438 108.496 70.727 c 108.496 72.302 l 108.496 72.638 
108.496 72.888 108.105 73.188 c 107.781 73.438 107.23 73.524 106.969 73.524
 c 106.895 73.524 106.809 73.524 106.809 73.427 c 106.809 73.352 106.855
 73.352 106.934 73.337 c 107.434 73.313 107.832 73.052 107.934 72.649 c 
107.957 72.575 107.957 72.563 107.957 72.274 c 107.957 70.602 l 107.957 
70.239 108.02 70.102 108.27 69.837 c 108.445 69.677 108.668 69.602 108.895
 69.54 c 108.246 69.352 107.957 68.977 107.957 68.513 c h
107.957 66.602 m f
0 J
q 1 0 0 -1 0 97.078957 cm
57.324 25.77 m 71.727 35.637 l S Q
59.965 69.501 m 62.188 69.919 l 56.664 71.763 l 60.379 67.278 l h
59.965 69.501 m f*
0.329994 w
q 1 -0.685045 -0.685045 -1 0 97.078957 cm
53.67 -9.188 m 54.988 -10.509 l 50.369 -9.189 l 54.988 -7.869 l h
53.67 -9.188 m S Q
69.086 63.251 m 66.863 62.837 l 72.387 60.993 l 68.672 65.477 l h
69.086 63.251 m f*
q -1 0.685045 0.685045 1 0 97.078957 cm
-62.792 9.187 m -61.472 7.869 l -66.091 9.19 l -61.472 10.51 l h
-62.792 9.187 m S Q
0 0 1 rg
0.8 w
q 1 0 0 -1 0 97.078957 cm
153.039 25.199 m 86.156 36.348 l S Q
149.883 71.356 m 148.566 69.513 l 153.828 72.013 l 148.039 72.669 l h
149.883 71.356 m f*
0.394554 w
q -1 -0.166729 -0.166729 1 0 97.078957 cm
-141.656 -49.341 m -140.076 -50.921 l -145.601 -49.342 l -140.075 -47.765
 l h
-141.656 -49.341 m S Q
89.312 61.255 m 90.625 63.098 l 85.367 60.598 l 91.152 59.942 l h
89.312 61.255 m f*
q 1 0.166729 0.166729 -1 0 97.078957 cm
81.085 49.344 m 82.662 47.763 l 77.14 49.342 l 82.663 50.919 l h
81.085 49.344 m S Q
1 0 0 rg
0.8 w
q 1 0 0 -1 0 97.078957 cm
43.754 1.34 m 56.012 23.637 l S Q
45.293 92.934 m 47.469 92.302 l 43.367 96.438 l 44.664 90.763 l h
45.293 92.934 m f*
0.350507 w
q 0.549862 -1 -1 -0.549862 0 97.078957 cm
22.305 -33.028 m 23.71 -34.432 l 18.802 -33.029 l 23.708 -31.628 l h
22.305 -33.028 m S Q
54.469 76.247 m 52.297 76.88 l 56.398 72.743 l 55.102 78.423 l h
54.469 76.247 m f*
q -0.549862 1 1 0.549862 0 97.078957 cm
-38.993 33.028 m -37.59 31.628 l -42.498 33.03 l -37.589 34.433 l h
-38.993 33.028 m S Q
0.8 w
q 1 0 0 -1 0 97.078957 cm
73.609 37.625 m 83.727 47.637 l S Q
75.883 57.2 m 78.148 57.216 l 73.043 60.016 l 75.898 54.938 l h
75.883 57.2 m f*
0.284347 w
q 1 -0.989391 -0.989391 -1 0 97.078957 cm
58.284 -17.787 m 59.421 -18.928 l 55.441 -17.791 l 59.423 -16.652 l h
58.284 -17.787 m S Q
81.449 51.696 m 79.188 51.681 l 84.293 48.88 l 81.438 53.958 l h
81.449 51.696 m f*
q -1 0.989391 0.989391 1 0 97.078957 cm
-63.849 17.789 m -62.714 16.65 l -66.694 17.787 l -62.712 18.926 l h
-63.849 17.789 m S Q
0 g
70.281 60.579 m 70.281 60.602 70.27 60.665 70.195 60.665 c 70.168 60.665
 70.156 60.653 70.07 60.563 c 69.52 59.954 l 69.445 60.063 69.082 60.665
 68.195 60.665 c 66.406 60.665 64.621 58.903 64.621 57.052 c 64.621 55.739
 65.559 54.864 66.781 54.864 c 67.469 54.864 68.082 55.177 68.508 55.552
 c 69.246 56.204 69.383 56.927 69.383 56.954 c 69.383 57.04 69.293 57.04
 69.281 57.04 c 69.23 57.04 69.195 57.016 69.184 56.954 c 69.105 56.727 
68.918 56.153 68.371 55.688 c 67.82 55.251 67.32 55.114 66.906 55.114 c 
66.195 55.114 65.344 55.528 65.344 56.766 c 65.344 57.227 65.508 58.516 
66.309 59.454 c 66.793 60.016 67.543 60.415 68.258 60.415 c 69.07 60.415
 69.543 59.802 69.543 58.876 c 69.543 58.552 69.52 58.552 69.52 58.466 c
 69.52 58.391 69.605 58.391 69.633 58.391 c 69.73 58.391 69.73 58.403 69.781
 58.552 c h
70.281 60.579 m f
71.73 57.333 m 71.73 57.419 71.652 57.544 71.504 57.544 c 71.355 57.544
 71.191 57.395 71.191 57.231 c 71.191 57.145 71.254 57.02 71.418 57.02 c
 71.566 57.02 71.73 57.181 71.73 57.333 c h
70.59 54.493 m 70.566 54.419 70.543 54.356 70.543 54.259 c 70.543 53.993
 70.754 53.794 71.066 53.794 c 71.617 53.794 71.867 54.556 71.867 54.645
 c 71.867 54.72 71.793 54.72 71.777 54.72 c 71.703 54.72 71.691 54.681 71.668
 54.618 c 71.543 54.169 71.305 53.946 71.078 53.946 c 70.965 53.946 70.941
 54.02 70.941 54.145 c 70.941 54.27 70.98 54.368 71.027 54.493 c 71.09 54.645
 71.152 54.794 71.203 54.946 c 71.254 55.083 71.465 55.583 71.48 55.657 
c 71.504 55.708 71.516 55.77 71.516 55.833 c 71.516 56.095 71.293 56.306
 70.992 56.306 c 70.43 56.306 70.18 55.544 70.18 55.446 c 70.18 55.384 70.254
 55.384 70.277 55.384 c 70.355 55.384 70.355 55.407 70.379 55.47 c 70.516
 55.946 70.766 56.145 70.965 56.145 c 71.055 56.145 71.105 56.106 71.105
 55.958 c 71.105 55.821 71.078 55.743 70.941 55.395 c h
70.59 54.493 m f
63.344 79.688 m 63.344 79.712 63.328 79.774 63.254 79.774 c 63.23 79.774
 63.219 79.763 63.129 79.677 c 62.578 79.063 l 62.504 79.177 62.141 79.774
 61.254 79.774 c 59.469 79.774 57.68 78.013 57.68 76.165 c 57.68 74.852 
58.617 73.977 59.844 73.977 c 60.531 73.977 61.141 74.29 61.566 74.665 c
 62.305 75.313 62.441 76.04 62.441 76.063 c 62.441 76.149 62.355 76.149 
62.344 76.149 c 62.293 76.149 62.254 76.126 62.242 76.063 c 62.168 75.837
 61.98 75.263 61.43 74.802 c 60.879 74.364 60.379 74.227 59.969 74.227 c
 59.254 74.227 58.406 74.638 58.406 75.876 c 58.406 76.337 58.566 77.626
 59.367 78.563 c 59.855 79.126 60.605 79.524 61.316 79.524 c 62.129 79.524
 62.605 78.915 62.605 77.989 c 62.605 77.665 62.578 77.665 62.578 77.575
 c 62.578 77.501 62.668 77.501 62.691 77.501 c 62.793 77.501 62.793 77.513
 62.844 77.665 c h
63.344 79.688 m f
65.426 76.442 m 65.426 76.532 65.352 76.657 65.199 76.657 c 65.039 76.657
 64.887 76.493 64.887 76.345 c 64.887 76.255 64.949 76.13 65.113 76.13 c
 65.262 76.13 65.426 76.282 65.426 76.442 c h
64.238 72.681 m 64.152 72.294 63.852 71.981 63.527 71.981 c 63.449 71.981
 63.387 71.981 63.324 72.005 c 63.465 72.079 63.512 72.204 63.512 72.294
 c 63.512 72.431 63.402 72.493 63.289 72.493 c 63.125 72.493 62.977 72.345
 62.977 72.169 c 62.977 71.954 63.188 71.817 63.527 71.817 c 63.863 71.817
 64.512 72.016 64.688 72.692 c 65.188 74.692 l 65.199 74.755 65.215 74.806
 65.215 74.891 c 65.215 75.192 64.949 75.419 64.625 75.419 c 64 75.419 63.652
 74.641 63.652 74.556 c 63.652 74.493 63.727 74.493 63.738 74.493 c 63.801
 74.493 63.812 74.505 63.852 74.595 c 63.988 74.919 64.277 75.255 64.602
 75.255 c 64.738 75.255 64.789 75.169 64.789 74.981 c 64.789 74.919 64.789
 74.845 64.777 74.817 c h
64.238 72.681 m f
1 g
20.555 87.493 25.254 -8.285 re f
1 0 0 rg
23.141 82.04 m 23.141 81.516 l 24.316 81.602 l 24.316 81.852 l 23.766 81.852
 23.691 81.903 23.691 82.302 c 23.691 87.141 l 22.551 87.052 l 22.551 86.802
 l 23.102 86.802 23.164 86.755 23.164 86.352 c 23.164 84.63 l 22.941 84.915
 22.59 85.13 22.164 85.13 c 21.227 85.13 20.391 84.341 20.391 83.317 c 20.391
 82.302 21.164 81.516 22.078 81.516 c 22.59 81.516 22.941 81.79 23.141 82.04
 c h
23.141 84.177 m 23.141 82.54 l 23.141 82.403 23.141 82.391 23.051 82.255
 c 22.816 81.864 22.465 81.692 22.113 81.692 c 21.754 81.692 21.465 81.903
 21.277 82.204 c 21.078 82.528 21.051 82.977 21.051 83.317 c 21.051 83.602
 21.066 84.079 21.289 84.442 c 21.465 84.692 21.766 84.954 22.203 84.954
 c 22.477 84.954 22.816 84.829 23.051 84.477 c 23.141 84.341 23.141 84.329
 23.141 84.177 c h
23.141 84.177 m f
25.957 85.13 m 24.844 85.04 l 24.844 84.79 l 25.355 84.79 25.43 84.739 
25.43 84.352 c 25.43 82.204 l 25.43 81.852 25.344 81.852 24.805 81.852 c
 24.805 81.602 l 25.055 81.614 25.492 81.63 25.68 81.63 c 25.969 81.63 26.242
 81.614 26.52 81.602 c 26.52 81.852 l 25.98 81.852 25.957 81.891 25.957 
82.204 c h
25.98 86.516 m 25.98 86.766 25.793 86.942 25.566 86.942 c 25.316 86.942
 25.145 86.727 25.145 86.516 c 25.145 86.302 25.316 86.091 25.566 86.091
 c 25.793 86.091 25.98 86.266 25.98 86.516 c h
25.98 86.516 m f
29.406 82.204 m 29.445 81.891 29.656 81.552 30.031 81.552 c 30.207 81.552
 30.695 81.665 30.695 82.317 c 30.695 82.766 l 30.496 82.766 l 30.496 82.317
 l 30.496 81.852 30.293 81.802 30.207 81.802 c 29.945 81.802 29.906 82.165
 29.906 82.204 c 29.906 83.79 l 29.906 84.13 29.906 84.442 29.621 84.739
 c 29.309 85.052 28.906 85.177 28.531 85.177 c 27.871 85.177 27.32 84.802
 27.32 84.278 c 27.32 84.04 27.48 83.903 27.695 83.903 c 27.918 83.903 28.059
 84.067 28.059 84.266 c 28.059 84.364 28.02 84.63 27.645 84.63 c 27.871 
84.915 28.258 85.005 28.508 85.005 c 28.906 85.005 29.355 84.692 29.355 
83.977 c 29.355 83.692 l 28.945 83.665 28.395 83.641 27.895 83.403 c 27.293
 83.13 27.094 82.716 27.094 82.364 c 27.094 81.716 27.871 81.516 28.371 
81.516 c 28.895 81.516 29.258 81.841 29.406 82.204 c h
29.355 83.516 m 29.355 82.716 l 29.355 81.966 28.781 81.692 28.418 81.692
 c 28.031 81.692 27.707 81.966 27.707 82.364 c 27.707 82.802 28.043 83.466
 29.355 83.516 c h
29.355 83.516 m f
31.617 84.341 m 31.617 82.204 l 31.617 81.852 31.531 81.852 30.992 81.852
 c 30.992 81.602 l 31.281 81.614 31.68 81.63 31.906 81.63 c 32.105 81.63
 32.516 81.614 32.793 81.602 c 32.793 81.852 l 32.254 81.852 32.168 81.852
 32.168 82.204 c 32.168 83.677 l 32.168 84.505 32.742 84.954 33.242 84.954
 c 33.754 84.954 33.844 84.528 33.844 84.067 c 33.844 82.204 l 33.844 81.852
 33.754 81.852 33.219 81.852 c 33.219 81.602 l 33.492 81.614 33.906 81.63
 34.117 81.63 c 34.316 81.63 34.742 81.614 35.004 81.602 c 35.004 81.852
 l 34.48 81.852 34.391 81.852 34.391 82.204 c 34.391 83.677 l 34.391 84.505
 34.953 84.954 35.469 84.954 c 35.969 84.954 36.055 84.528 36.055 84.067
 c 36.055 82.204 l 36.055 81.852 35.969 81.852 35.43 81.852 c 35.43 81.602
 l 35.703 81.614 36.117 81.63 36.328 81.63 c 36.543 81.63 36.953 81.614 
37.23 81.602 c 37.23 81.852 l 36.816 81.852 36.617 81.852 36.605 82.091 
c 36.605 83.614 l 36.605 84.302 36.605 84.54 36.355 84.829 c 36.242 84.966
 35.98 85.13 35.516 85.13 c 34.855 85.13 34.492 84.653 34.367 84.341 c 34.254
 85.04 33.668 85.13 33.305 85.13 c 32.719 85.13 32.344 84.79 32.117 84.29
 c 32.117 85.13 l 30.992 85.04 l 30.992 84.79 l 31.555 84.79 31.617 84.739
 31.617 84.341 c h
31.617 84.341 m f
43.445 87.141 m 43.445 87.165 43.434 87.227 43.359 87.227 c 43.332 87.227
 43.32 87.216 43.234 87.13 c 42.684 86.516 l 42.609 86.63 42.246 87.227 
41.359 87.227 c 39.57 87.227 37.785 85.466 37.785 83.614 c 37.785 82.302
 38.723 81.427 39.945 81.427 c 40.633 81.427 41.246 81.739 41.672 82.114
 c 42.41 82.766 42.547 83.489 42.547 83.516 c 42.547 83.602 42.457 83.602
 42.445 83.602 c 42.395 83.602 42.359 83.579 42.348 83.516 c 42.27 83.29
 42.082 82.716 41.535 82.255 c 40.984 81.817 40.484 81.677 40.07 81.677 
c 39.359 81.677 38.508 82.091 38.508 83.329 c 38.508 83.79 38.672 85.079
 39.473 86.016 c 39.957 86.579 40.707 86.977 41.422 86.977 c 42.234 86.977
 42.707 86.364 42.707 85.442 c 42.707 85.114 42.684 85.114 42.684 85.028
 c 42.684 84.954 42.77 84.954 42.797 84.954 c 42.895 84.954 42.895 84.966
 42.945 85.114 c h
43.445 87.141 m f
45.531 83.895 m 45.531 83.981 45.453 84.106 45.305 84.106 c 45.141 84.106
 44.992 83.946 44.992 83.794 c 44.992 83.708 45.055 83.583 45.219 83.583
 c 45.367 83.583 45.531 83.731 45.531 83.895 c h
44.344 80.134 m 44.254 79.747 43.953 79.434 43.629 79.434 c 43.555 79.434
 43.492 79.434 43.43 79.458 c 43.566 79.532 43.617 79.657 43.617 79.747 
c 43.617 79.884 43.504 79.946 43.391 79.946 c 43.23 79.946 43.078 79.794
 43.078 79.622 c 43.078 79.407 43.293 79.27 43.629 79.27 c 43.969 79.27 
44.617 79.47 44.793 80.145 c 45.293 82.145 l 45.305 82.208 45.316 82.259
 45.316 82.345 c 45.316 82.645 45.055 82.872 44.73 82.872 c 44.105 82.872
 43.754 82.095 43.754 82.009 c 43.754 81.946 43.828 81.946 43.844 81.946
 c 43.906 81.946 43.918 81.958 43.953 82.044 c 44.094 82.372 44.379 82.708
 44.703 82.708 c 44.844 82.708 44.891 82.622 44.891 82.434 c 44.891 82.372
 44.891 82.294 44.879 82.27 c h
44.344 80.134 m f
1 g
58.129 47.032 24.43 -7.145 re f
1 0 0 rg
60.879 41.907 m 60.879 41.38 l 62.055 41.47 l 62.055 41.72 l 61.504 41.72
 61.43 41.766 61.43 42.169 c 61.43 47.005 l 60.293 46.919 l 60.293 46.669
 l 60.84 46.669 60.902 46.618 60.902 46.22 c 60.902 44.493 l 60.68 44.782
 60.328 44.993 59.902 44.993 c 58.965 44.993 58.129 44.204 58.129 43.181
 c 58.129 42.169 58.902 41.38 59.816 41.38 c 60.328 41.38 60.68 41.657 60.879
 41.907 c h
60.879 44.044 m 60.879 42.407 l 60.879 42.266 60.879 42.255 60.793 42.118
 c 60.555 41.731 60.203 41.556 59.855 41.556 c 59.492 41.556 59.203 41.766
 59.016 42.067 c 58.816 42.391 58.793 42.845 58.793 43.181 c 58.793 43.47
 58.805 43.942 59.027 44.306 c 59.203 44.556 59.504 44.817 59.941 44.817
 c 60.215 44.817 60.555 44.692 60.793 44.345 c 60.879 44.204 60.879 44.192
 60.879 44.044 c h
60.879 44.044 m f
63.695 44.993 m 62.582 44.907 l 62.582 44.657 l 63.094 44.657 63.168 44.606
 63.168 44.22 c 63.168 42.067 l 63.168 41.72 63.082 41.72 62.543 41.72 c
 62.543 41.47 l 62.793 41.481 63.23 41.493 63.418 41.493 c 63.707 41.493
 63.98 41.481 64.258 41.47 c 64.258 41.72 l 63.719 41.72 63.695 41.755 63.695
 42.067 c h
63.719 46.38 m 63.719 46.63 63.531 46.806 63.309 46.806 c 63.059 46.806
 62.883 46.595 62.883 46.38 c 62.883 46.169 63.059 45.954 63.309 45.954 
c 63.531 45.954 63.719 46.13 63.719 46.38 c h
63.719 46.38 m f
67.145 42.067 m 67.184 41.755 67.395 41.419 67.77 41.419 c 67.945 41.419
 68.434 41.532 68.434 42.181 c 68.434 42.63 l 68.234 42.63 l 68.234 42.181
 l 68.234 41.72 68.035 41.669 67.945 41.669 c 67.684 41.669 67.645 42.032
 67.645 42.067 c 67.645 43.657 l 67.645 43.993 67.645 44.306 67.359 44.606
 c 67.047 44.919 66.645 45.044 66.27 45.044 c 65.609 45.044 65.059 44.669
 65.059 44.141 c 65.059 43.907 65.223 43.766 65.434 43.766 c 65.66 43.766
 65.797 43.931 65.797 44.13 c 65.797 44.231 65.758 44.493 65.383 44.493 
c 65.609 44.782 65.996 44.868 66.246 44.868 c 66.645 44.868 67.098 44.556
 67.098 43.845 c 67.098 43.556 l 66.684 43.532 66.133 43.505 65.633 43.266
 c 65.035 42.993 64.832 42.579 64.832 42.231 c 64.832 41.579 65.609 41.38
 66.109 41.38 c 66.633 41.38 66.996 41.704 67.145 42.067 c h
67.098 43.38 m 67.098 42.579 l 67.098 41.829 66.52 41.556 66.16 41.556 
c 65.77 41.556 65.445 41.829 65.445 42.231 c 65.445 42.669 65.785 43.329
 67.098 43.38 c h
67.098 43.38 m f
69.355 44.204 m 69.355 42.067 l 69.355 41.72 69.27 41.72 68.73 41.72 c 
68.73 41.47 l 69.02 41.481 69.418 41.493 69.645 41.493 c 69.844 41.493 70.258
 41.481 70.531 41.47 c 70.531 41.72 l 69.992 41.72 69.906 41.72 69.906 42.067
 c 69.906 43.544 l 69.906 44.368 70.48 44.817 70.98 44.817 c 71.492 44.817
 71.582 44.391 71.582 43.931 c 71.582 42.067 l 71.582 41.72 71.492 41.72
 70.957 41.72 c 70.957 41.47 l 71.23 41.481 71.645 41.493 71.855 41.493 
c 72.055 41.493 72.48 41.481 72.742 41.47 c 72.742 41.72 l 72.219 41.72 
72.133 41.72 72.133 42.067 c 72.133 43.544 l 72.133 44.368 72.695 44.817
 73.207 44.817 c 73.707 44.817 73.793 44.391 73.793 43.931 c 73.793 42.067
 l 73.793 41.72 73.707 41.72 73.168 41.72 c 73.168 41.47 l 73.445 41.481
 73.855 41.493 74.07 41.493 c 74.281 41.493 74.695 41.481 74.969 41.47 c
 74.969 41.72 l 74.555 41.72 74.355 41.72 74.344 41.954 c 74.344 43.481 
l 74.344 44.169 74.344 44.407 74.094 44.692 c 73.98 44.829 73.719 44.993
 73.258 44.993 c 72.594 44.993 72.23 44.516 72.105 44.204 c 71.992 44.907
 71.406 44.993 71.043 44.993 c 70.457 44.993 70.082 44.657 69.855 44.157
 c 69.855 44.993 l 68.73 44.907 l 68.73 44.657 l 69.293 44.657 69.355 44.606
 69.355 44.204 c h
69.355 44.204 m f
81.184 47.005 m 81.184 47.032 81.172 47.095 81.098 47.095 c 81.074 47.095
 81.059 47.079 80.973 46.993 c 80.422 46.38 l 80.348 46.493 79.984 47.095
 79.098 47.095 c 77.309 47.095 75.523 45.329 75.523 43.481 c 75.523 42.169
 76.461 41.294 77.684 41.294 c 78.371 41.294 78.984 41.606 79.41 41.981 
c 80.148 42.63 80.285 43.356 80.285 43.38 c 80.285 43.47 80.199 43.47 80.184
 43.47 c 80.137 43.47 80.098 43.442 80.086 43.38 c 80.012 43.157 79.824 
42.579 79.273 42.118 c 78.723 41.681 78.223 41.544 77.809 41.544 c 77.098
 41.544 76.246 41.954 76.246 43.192 c 76.246 43.657 76.41 44.942 77.211 
45.88 c 77.699 46.442 78.449 46.845 79.16 46.845 c 79.973 46.845 80.449 
46.231 80.449 45.306 c 80.449 44.981 80.422 44.981 80.422 44.891 c 80.422
 44.817 80.512 44.817 80.535 44.817 c 80.637 44.817 80.637 44.829 80.684
 44.981 c h
81.184 47.005 m f
82.633 43.763 m 82.633 43.848 82.555 43.973 82.406 43.973 c 82.258 43.973
 82.094 43.825 82.094 43.661 c 82.094 43.575 82.156 43.45 82.32 43.45 c 
82.469 43.45 82.633 43.61 82.633 43.763 c h
81.492 40.923 m 81.469 40.848 81.445 40.786 81.445 40.684 c 81.445 40.423
 81.656 40.223 81.969 40.223 c 82.52 40.223 82.77 40.985 82.77 41.075 c 
82.77 41.149 82.695 41.149 82.68 41.149 c 82.605 41.149 82.594 41.11 82.57
 41.048 c 82.445 40.598 82.207 40.372 81.98 40.372 c 81.867 40.372 81.844
 40.45 81.844 40.575 c 81.844 40.7 81.883 40.798 81.93 40.923 c 81.992 41.075
 82.055 41.223 82.105 41.372 c 82.156 41.513 82.367 42.013 82.383 42.087
 c 82.406 42.138 82.418 42.2 82.418 42.263 c 82.418 42.524 82.195 42.735
 81.895 42.735 c 81.332 42.735 81.082 41.973 81.082 41.872 c 81.082 41.809
 81.156 41.809 81.18 41.809 c 81.258 41.809 81.258 41.837 81.281 41.899 
c 81.418 42.372 81.668 42.575 81.867 42.575 c 81.957 42.575 82.008 42.536
 82.008 42.388 c 82.008 42.247 81.98 42.173 81.844 41.825 c h
81.492 40.923 m f
0 g
150.855 80.251 m 150.855 80.274 150.84 80.337 150.766 80.337 c 150.742 
80.337 150.73 80.325 150.641 80.235 c 150.09 79.626 l 150.016 79.735 149.652
 80.337 148.766 80.337 c 146.98 80.337 145.191 78.575 145.191 76.723 c 145.191
 75.411 146.129 74.536 147.355 74.536 c 148.043 74.536 148.652 74.848 149.078
 75.223 c 149.816 75.876 149.953 76.598 149.953 76.626 c 149.953 76.712 
149.867 76.712 149.855 76.712 c 149.805 76.712 149.766 76.688 149.754 76.626
 c 149.68 76.399 149.492 75.825 148.941 75.36 c 148.391 74.923 147.891 74.786
 147.48 74.786 c 146.766 74.786 145.918 75.2 145.918 76.438 c 145.918 76.899
 146.078 78.188 146.879 79.126 c 147.367 79.688 148.117 80.087 148.828 80.087
 c 149.641 80.087 150.117 79.473 150.117 78.548 c 150.117 78.223 150.09 
78.223 150.09 78.138 c 150.09 78.063 150.18 78.063 150.203 78.063 c 150.305
 78.063 150.305 78.075 150.355 78.223 c h
150.855 80.251 m f
152.238 77.216 m 152.238 77.227 152.25 77.306 152.25 77.306 c 152.25 77.341
 152.238 77.391 152.164 77.391 c 152.051 77.391 151.59 77.341 151.449 77.329
 c 151.414 77.329 151.324 77.317 151.324 77.204 c 151.324 77.13 151.414 
77.13 151.477 77.13 c 151.738 77.13 151.738 77.079 151.738 77.04 c 151.738
 77.005 151.727 76.966 151.727 76.915 c 150.938 73.766 l 150.902 73.665 
150.902 73.653 150.902 73.641 c 150.902 73.556 150.977 73.466 151.102 73.466
 c 151.25 73.466 151.312 73.567 151.352 73.692 c 151.363 73.716 151.602 
74.704 151.625 74.778 c 152.027 74.743 152.34 74.602 152.34 74.317 c 152.34
 74.29 152.34 74.266 152.324 74.204 c 152.301 74.13 152.301 74.091 152.301
 74.028 c 152.301 73.641 152.625 73.466 152.902 73.466 c 153.438 73.466 
153.602 74.306 153.602 74.317 c 153.602 74.391 153.539 74.391 153.512 74.391
 c 153.438 74.391 153.426 74.352 153.402 74.255 c 153.34 74.016 153.188 
73.618 152.914 73.618 c 152.762 73.618 152.715 73.755 152.715 73.903 c 152.715
 74.005 152.715 74.016 152.75 74.153 c 152.762 74.181 152.777 74.266 152.777
 74.329 c 152.777 74.829 152.113 74.903 151.875 74.915 c 152.039 75.016 
152.238 75.204 152.34 75.29 c 152.625 75.556 152.902 75.817 153.215 75.817
 c 153.277 75.817 153.352 75.806 153.402 75.743 c 153.164 75.704 153.113
 75.516 153.113 75.431 c 153.113 75.317 153.199 75.227 153.324 75.227 c 
153.488 75.227 153.652 75.352 153.652 75.579 c 153.652 75.766 153.512 75.977
 153.227 75.977 c 152.902 75.977 152.613 75.743 152.324 75.477 c 152.09 
75.266 151.914 75.091 151.676 74.993 c h
152.238 77.216 m f
1 g
99.129 62.141 44.141 -8.574 re f
0 0 1 rg
101.797 56.266 m 101.797 55.739 l 102.973 55.829 l 102.973 56.079 l 102.422
 56.079 102.348 56.13 102.348 56.528 c 102.348 61.364 l 101.211 61.278 l
 101.211 61.028 l 101.758 61.028 101.82 60.977 101.82 60.579 c 101.82 58.852
 l 101.598 59.141 101.246 59.352 100.82 59.352 c 99.883 59.352 99.047 58.567
 99.047 57.54 c 99.047 56.528 99.82 55.739 100.734 55.739 c 101.246 55.739
 101.598 56.016 101.797 56.266 c h
101.797 58.403 m 101.797 56.766 l 101.797 56.63 101.797 56.614 101.711 
56.477 c 101.473 56.091 101.121 55.915 100.773 55.915 c 100.41 55.915 100.121
 56.13 99.934 56.427 c 99.734 56.755 99.711 57.204 99.711 57.54 c 99.711
 57.829 99.723 58.302 99.945 58.665 c 100.121 58.915 100.422 59.177 100.859
 59.177 c 101.133 59.177 101.473 59.052 101.711 58.704 c 101.797 58.567 
101.797 58.552 101.797 58.403 c h
101.797 58.403 m f
104.613 59.352 m 103.5 59.266 l 103.5 59.016 l 104.012 59.016 104.086 58.966
 104.086 58.579 c 104.086 56.427 l 104.086 56.079 104 56.079 103.461 56.079
 c 103.461 55.829 l 103.711 55.841 104.148 55.852 104.336 55.852 c 104.625
 55.852 104.898 55.841 105.176 55.829 c 105.176 56.079 l 104.637 56.079 
104.613 56.114 104.613 56.427 c h
104.637 60.739 m 104.637 60.989 104.449 61.165 104.227 61.165 c 103.977
 61.165 103.801 60.954 103.801 60.739 c 103.801 60.528 103.977 60.317 104.227
 60.317 c 104.449 60.317 104.637 60.489 104.637 60.739 c h
104.637 60.739 m f
107.078 57.38 m 107.25 57.341 107.902 57.216 107.902 56.641 c 107.902 56.239
 107.625 55.915 107 55.915 c 106.328 55.915 106.039 56.364 105.891 57.052
 c 105.863 57.153 105.863 57.177 105.777 57.177 c 105.676 57.177 105.676
 57.13 105.676 56.989 c 105.676 55.927 l 105.676 55.79 105.676 55.739 105.766
 55.739 c 105.801 55.739 105.812 55.755 105.965 55.903 c 105.977 55.915 
105.977 55.927 106.125 56.079 c 106.477 55.755 106.84 55.739 107 55.739 
c 107.914 55.739 108.289 56.278 108.289 56.852 c 108.289 57.266 108.051 
57.516 107.953 57.602 c 107.688 57.864 107.375 57.927 107.039 57.989 c 106.59
 58.079 106.062 58.177 106.062 58.641 c 106.062 58.927 106.266 59.255 106.953
 59.255 c 107.828 59.255 107.875 58.528 107.891 58.29 c 107.891 58.216 107.965
 58.216 107.977 58.216 c 108.09 58.216 108.09 58.255 108.09 58.403 c 108.09
 59.216 l 108.09 59.341 108.09 59.403 108 59.403 c 107.965 59.403 107.938
 59.403 107.84 59.302 c 107.812 59.278 107.738 59.204 107.703 59.177 c 107.402
 59.403 107.078 59.403 106.953 59.403 c 105.977 59.403 105.676 58.864 105.676
 58.415 c 105.676 58.141 105.801 57.915 106.016 57.739 c 106.277 57.54 106.5
 57.489 107.078 57.38 c h
107.078 57.38 m f
109.934 59.016 m 111.082 59.016 l 111.082 59.266 l 109.934 59.266 l 109.934
 60.727 l 109.734 60.727 l 109.734 60.079 109.496 59.227 108.707 59.192 
c 108.707 59.016 l 109.383 59.016 l 109.383 56.817 l 109.383 55.841 110.133
 55.739 110.422 55.739 c 110.984 55.739 111.207 56.302 111.207 56.817 c 
111.207 57.266 l 111.008 57.266 l 111.008 56.829 l 111.008 56.239 110.77
 55.942 110.469 55.942 c 109.934 55.942 109.934 56.665 109.934 56.802 c 
h
109.934 59.016 m f
113.918 60.755 m 113.918 61.067 114.121 61.579 114.996 61.63 c 115.031 
61.641 115.059 61.677 115.059 61.716 c 115.059 61.817 114.996 61.817 114.906
 61.817 c 114.121 61.817 113.383 61.403 113.383 60.817 c 113.383 58.989 
l 113.383 58.677 113.383 58.427 113.059 58.165 c 112.781 57.927 112.48 57.915
 112.309 57.915 c 112.258 57.903 112.23 57.864 112.23 57.829 c 112.23 57.739
 112.281 57.739 112.355 57.727 c 112.883 57.704 113.27 57.415 113.355 57.028
 c 113.383 56.942 113.383 56.915 113.383 56.63 c 113.383 55.052 l 113.383
 54.716 113.383 54.466 113.758 54.165 c 114.07 53.927 114.594 53.829 114.906
 53.829 c 114.996 53.829 115.059 53.829 115.059 53.927 c 115.059 54.005 
115.02 54.005 114.934 54.016 c 114.434 54.04 114.043 54.302 113.934 54.704
 c 113.918 54.778 113.918 54.79 113.918 55.079 c 113.918 56.755 l 113.918
 57.114 113.844 57.255 113.594 57.516 c 113.434 57.677 113.195 57.755 112.969
 57.829 c 113.633 58.005 113.918 58.38 113.918 58.841 c h
113.918 60.755 m f
121.703 61.364 m 121.703 61.391 121.691 61.454 121.617 61.454 c 121.594
 61.454 121.578 61.442 121.492 61.352 c 120.941 60.739 l 120.867 60.852 
120.504 61.454 119.617 61.454 c 117.828 61.454 116.043 59.692 116.043 57.841
 c 116.043 56.528 116.98 55.653 118.203 55.653 c 118.891 55.653 119.504 
55.966 119.93 56.341 c 120.668 56.989 120.805 57.716 120.805 57.739 c 120.805
 57.829 120.719 57.829 120.703 57.829 c 120.656 57.829 120.617 57.802 120.605
 57.739 c 120.531 57.516 120.344 56.942 119.793 56.477 c 119.242 56.04 118.742
 55.903 118.328 55.903 c 117.617 55.903 116.766 56.317 116.766 57.552 c 
116.766 58.016 116.93 59.302 117.73 60.239 c 118.219 60.802 118.969 61.204
 119.68 61.204 c 120.492 61.204 120.969 60.591 120.969 59.665 c 120.969 
59.341 120.941 59.341 120.941 59.255 c 120.941 59.177 121.031 59.177 121.055
 59.177 c 121.156 59.177 121.156 59.192 121.203 59.341 c h
121.703 61.364 m f
123.152 58.122 m 123.152 58.208 123.074 58.333 122.926 58.333 c 122.777
 58.333 122.613 58.184 122.613 58.02 c 122.613 57.934 122.676 57.809 122.84
 57.809 c 122.988 57.809 123.152 57.97 123.152 58.122 c h
122.012 55.282 m 121.988 55.208 121.965 55.145 121.965 55.044 c 121.965
 54.782 122.176 54.583 122.488 54.583 c 123.039 54.583 123.289 55.345 123.289
 55.434 c 123.289 55.509 123.215 55.509 123.199 55.509 c 123.125 55.509 
123.113 55.47 123.09 55.407 c 122.965 54.958 122.727 54.731 122.5 54.731
 c 122.387 54.731 122.363 54.809 122.363 54.934 c 122.363 55.059 122.402
 55.157 122.449 55.282 c 122.512 55.434 122.574 55.583 122.625 55.731 c 
122.676 55.872 122.887 56.372 122.902 56.446 c 122.926 56.497 122.938 56.559
 122.938 56.622 c 122.938 56.884 122.715 57.095 122.414 57.095 c 121.852
 57.095 121.602 56.333 121.602 56.231 c 121.602 56.169 121.676 56.169 121.699
 56.169 c 121.777 56.169 121.777 56.196 121.801 56.259 c 121.938 56.731 
122.188 56.934 122.387 56.934 c 122.477 56.934 122.527 56.895 122.527 56.747
 c 122.527 56.606 122.5 56.532 122.363 56.184 c h
122.012 55.282 m f
125.617 55.841 m 125.617 56.364 125.418 56.677 125.105 56.677 c 124.844
 56.677 124.68 56.477 124.68 56.255 c 124.68 56.04 124.844 55.829 125.105
 55.829 c 125.191 55.829 125.305 55.864 125.379 55.927 c 125.406 55.954 
125.418 55.954 125.418 55.954 c 125.43 55.954 125.43 55.954 125.43 55.841
 c 125.43 55.239 125.156 54.766 124.891 54.505 c 124.805 54.415 124.805 
54.403 124.805 54.38 c 124.805 54.317 124.844 54.29 124.879 54.29 c 124.969
 54.29 125.617 54.903 125.617 55.841 c h
125.617 55.841 m f
136.254 61.364 m 136.254 61.391 136.242 61.454 136.164 61.454 c 136.141
 61.454 136.129 61.442 136.039 61.352 c 135.492 60.739 l 135.414 60.852 
135.055 61.454 134.164 61.454 c 132.379 61.454 130.59 59.692 130.59 57.841
 c 130.59 56.528 131.527 55.653 132.754 55.653 c 133.441 55.653 134.055 
55.966 134.477 56.341 c 135.215 56.989 135.352 57.716 135.352 57.739 c 135.352
 57.829 135.266 57.829 135.254 57.829 c 135.203 57.829 135.164 57.802 135.152
 57.739 c 135.078 57.516 134.891 56.942 134.34 56.477 c 133.789 56.04 133.289
 55.903 132.879 55.903 c 132.164 55.903 131.316 56.317 131.316 57.552 c 
131.316 58.016 131.477 59.302 132.277 60.239 c 132.766 60.802 133.516 61.204
 134.227 61.204 c 135.039 61.204 135.516 60.591 135.516 59.665 c 135.516
 59.341 135.492 59.341 135.492 59.255 c 135.492 59.177 135.578 59.177 135.602
 59.177 c 135.703 59.177 135.703 59.192 135.754 59.341 c h
136.254 61.364 m f
137.637 58.333 m 137.637 58.345 137.648 58.419 137.648 58.419 c 137.648
 58.458 137.637 58.509 137.562 58.509 c 137.449 58.509 136.988 58.458 136.848
 58.446 c 136.812 58.446 136.723 58.434 136.723 58.321 c 136.723 58.247 
136.812 58.247 136.875 58.247 c 137.137 58.247 137.137 58.196 137.137 58.157
 c 137.137 58.122 137.125 58.083 137.125 58.032 c 136.336 54.884 l 136.301
 54.782 136.301 54.77 136.301 54.759 c 136.301 54.669 136.375 54.583 136.5
 54.583 c 136.648 54.583 136.711 54.684 136.75 54.809 c 136.762 54.833 137
 55.821 137.023 55.895 c 137.426 55.856 137.738 55.72 137.738 55.434 c 137.738
 55.407 137.738 55.384 137.723 55.321 c 137.699 55.247 137.699 55.208 137.699
 55.145 c 137.699 54.759 138.023 54.583 138.301 54.583 c 138.836 54.583 
139 55.419 139 55.434 c 139 55.509 138.938 55.509 138.91 55.509 c 138.836
 55.509 138.824 55.47 138.801 55.372 c 138.738 55.134 138.586 54.731 138.312
 54.731 c 138.16 54.731 138.113 54.872 138.113 55.02 c 138.113 55.122 138.113
 55.134 138.148 55.27 c 138.16 55.294 138.176 55.384 138.176 55.446 c 138.176
 55.946 137.512 56.02 137.273 56.032 c 137.438 56.134 137.637 56.321 137.738
 56.407 c 138.023 56.669 138.301 56.934 138.613 56.934 c 138.676 56.934 
138.75 56.919 138.801 56.856 c 138.562 56.821 138.512 56.634 138.512 56.544
 c 138.512 56.434 138.598 56.345 138.723 56.345 c 138.887 56.345 139.051
 56.47 139.051 56.696 c 139.051 56.884 138.91 57.095 138.625 57.095 c 138.301
 57.095 138.012 56.856 137.723 56.595 c 137.488 56.384 137.312 56.208 137.074
 56.106 c h
137.637 58.333 m f
141.535 54.891 m 141.535 54.579 141.32 54.067 140.457 54.016 c 140.41 54.005
 140.383 53.966 140.383 53.927 c 140.383 53.829 140.473 53.829 140.547 53.829
 c 141.32 53.829 142.059 54.227 142.07 54.829 c 142.07 56.653 l 142.07 56.966
 142.07 57.216 142.383 57.477 c 142.66 57.716 142.973 57.727 143.145 57.727
 c 143.184 57.739 143.207 57.778 143.207 57.829 c 143.207 57.903 143.172
 57.903 143.082 57.915 c 142.559 57.942 142.172 58.227 142.082 58.614 c 
142.07 58.704 142.07 58.727 142.07 59.016 c 142.07 60.591 l 142.07 60.927
 142.07 61.177 141.684 61.477 c 141.359 61.727 140.809 61.817 140.547 61.817
 c 140.473 61.817 140.383 61.817 140.383 61.716 c 140.383 61.641 140.434
 61.641 140.508 61.63 c 141.008 61.602 141.41 61.341 141.508 60.942 c 141.535
 60.864 141.535 60.852 141.535 60.567 c 141.535 58.891 l 141.535 58.528 
141.598 58.391 141.848 58.13 c 142.02 57.966 142.246 57.891 142.473 57.829
 c 141.82 57.641 141.535 57.266 141.535 56.802 c h
141.535 54.891 m f
Q Q
showpage
%%Trailer
end restore
%%EOF
