<?xml version="1.0" encoding="UTF-8" standalone="no"?>
<!-- Created with Inkscape (http://www.inkscape.org/) -->

<svg
   xmlns:ns0="http://www.iki.fi/pav/software/textext/"
   xmlns:dc="http://purl.org/dc/elements/1.1/"
   xmlns:cc="http://creativecommons.org/ns#"
   xmlns:rdf="http://www.w3.org/1999/02/22-rdf-syntax-ns#"
   xmlns:svg="http://www.w3.org/2000/svg"
   xmlns="http://www.w3.org/2000/svg"
   xmlns:xlink="http://www.w3.org/1999/xlink"
   xmlns:sodipodi="http://sodipodi.sourceforge.net/DTD/sodipodi-0.dtd"
   xmlns:inkscape="http://www.inkscape.org/namespaces/inkscape"
   sodipodi:docname="block_size.svg"
   inkscape:version="0.48.5 r10040"
   version="1.1"
   id="svg2"
   viewBox="0 0 84.114396 59.063983"
   height="59.06398"
   width="84.114403">
  <sodipodi:namedview
     id="base"
     pagecolor="#ffffff"
     bordercolor="#666666"
     borderopacity="1.0"
     inkscape:pageopacity="0.0"
     inkscape:pageshadow="2"
     inkscape:zoom="5.6"
     inkscape:cx="23.100565"
     inkscape:cy="29.091608"
     inkscape:document-units="px"
     inkscape:current-layer="svg2"
     showgrid="true"
     inkscape:window-width="1366"
     inkscape:window-height="704"
     inkscape:window-x="0"
     inkscape:window-y="27"
     inkscape:window-maximized="1"
     fit-margin-top="0"
     fit-margin-left="0"
     fit-margin-right="0"
     fit-margin-bottom="0">
    <inkscape:grid
       id="grid3336"
       type="xygrid"
       originx="8.5437478px"
       originy="-489.37852px"
       empspacing="5"
       visible="true"
       enabled="true"
       snapvisiblegridlinesonly="true" />
  </sodipodi:namedview>
  <defs
     id="defs4">
    <defs
       id="defs4288-4">
      <g
         id="g4290-7">
        <symbol
           style="overflow:visible"
           id="textext-ee8938ff-0-4"
           overflow="visible">
          <path
             inkscape:connector-curvature="0"
             id="path4293-4"
             d=""
             style="stroke:none" />
        </symbol>
        <symbol
           style="overflow:visible"
           id="textext-ee8938ff-1-3"
           overflow="visible">
          <path
             inkscape:connector-curvature="0"
             id="path4296-07"
             d="M 4.6875,-3.765625 C 4.703125,-3.8125 4.71875,-3.875 4.71875,-3.9375 c 0,-0.171875 -0.109375,-0.265625 -0.28125,-0.265625 -0.09375,0 -0.375,0.0625 -0.40625,0.421875 -0.1875,-0.359375 -0.53125,-0.625 -0.9375,-0.625 -1.125,0 -2.359375,1.390625 -2.359375,2.828125 0,0.984375 0.59375,1.578125 1.3125,1.578125 0.59375,0 1.0625,-0.46875 1.15625,-0.578125 L 3.21875,-0.5625 C 3.015625,0.3125 2.890625,0.734375 2.890625,0.75 2.84375,0.84375 2.515625,1.828125 1.453125,1.828125 1.265625,1.828125 0.9375,1.8125 0.65625,1.71875 0.953125,1.640625 1.0625,1.375 1.0625,1.203125 c 0,-0.15625 -0.109375,-0.34375 -0.375,-0.34375 -0.21875,0 -0.53125,0.171875 -0.53125,0.578125 0,0.40625 0.359375,0.609375 1.3125,0.609375 1.25,0 1.96875,-0.78125 2.125,-1.375 z M 3.40625,-1.28125 C 3.34375,-1.015625 3.109375,-0.765625 2.890625,-0.578125 2.6875,-0.40625 2.375,-0.21875 2.078125,-0.21875 c -0.5,0 -0.640625,-0.515625 -0.640625,-0.921875 0,-0.46875 0.28125,-1.65625 0.5625,-2.15625 C 2.265625,-3.78125 2.6875,-4.1875 3.109375,-4.1875 c 0.65625,0 0.796875,0.8125 0.796875,0.859375 0,0.046875 -0.015625,0.109375 -0.03125,0.140625 z m 0,0"
             style="stroke:none" />
        </symbol>
      </g>
    </defs>
    <defs
       id="defs4328">
      <g
         id="g4330">
        <symbol
           style="overflow:visible"
           id="textext-c27a9a0f-0"
           overflow="visible">
          <path
             inkscape:connector-curvature="0"
             id="path4333"
             d=""
             style="stroke:none" />
        </symbol>
        <symbol
           style="overflow:visible"
           id="textext-c27a9a0f-1"
           overflow="visible">
          <path
             inkscape:connector-curvature="0"
             id="path4336"
             d="m 0.96875,-6.921875 0,6.921875 2.625,0 c 1.4375,0 2.484375,-0.890625 2.484375,-1.875 0,-0.859375 -0.859375,-1.578125 -1.921875,-1.75 0.90625,-0.21875 1.65625,-0.796875 1.65625,-1.5625 0,-0.90625 -1.0625,-1.734375 -2.484375,-1.734375 z m 0.828125,3.03125 0,-2.46875 1.25,0 c 1.109375,0 1.984375,0.53125 1.984375,1.1875 0,0.59375 -0.703125,1.28125 -2.078125,1.28125 z m 0,3.328125 0,-2.734375 1.4375,0 c 1.0625,0 2.046875,0.609375 2.046875,1.40625 0,0.75 -0.890625,1.328125 -1.96875,1.328125 z m 0,0"
             style="stroke:none" />
        </symbol>
      </g>
    </defs>
  </defs>
  <metadata
     id="metadata7">
    <rdf:RDF>
      <cc:Work
         rdf:about="">
        <dc:format>image/svg+xml</dc:format>
        <dc:type
           rdf:resource="http://purl.org/dc/dcmitype/StillImage" />
        <dc:title />
      </cc:Work>
    </rdf:RDF>
  </metadata>
  <g
     id="layer1"
     inkscape:groupmode="layer"
     inkscape:label="Layer 1"
     transform="translate(8.5437481,-503.91972)">
    <g
       id="g6929"
       transform="matrix(0.24574219,0,0,0.24574219,1.5177831,364.30611)">
      <rect
         y="757.90527"
         x="2.4798585e-09"
         height="50"
         width="150"
         id="rect6722"
         style="fill:#181818;fill-opacity:0.3372549;stroke:#181818;stroke-width:1;stroke-linecap:round;stroke-linejoin:miter;stroke-miterlimit:4;stroke-opacity:0.3372549;stroke-dasharray:none;stroke-dashoffset:0" />
      <g
         id="g4752"
         transform="matrix(3.9761722,0,0,3.9761722,-829.41881,260.45796)"
         ns0:preamble=""
         ns0:text="$\\mathsf{C}$">
        <defs
           id="defs4754">
          <g
             id="g4756">
            <symbol
               style="overflow:visible"
               id="textext-c5b87459-0"
               overflow="visible">
              <path
                 inkscape:connector-curvature="0"
                 id="path4759"
                 d=""
                 style="stroke:none" />
            </symbol>
            <symbol
               style="overflow:visible"
               id="textext-c5b87459-1"
               overflow="visible">
              <path
                 inkscape:connector-curvature="0"
                 id="path4762"
                 d="M 5.796875,-1.140625 C 5.21875,-0.75 4.875,-0.53125 3.890625,-0.53125 c -1.4375,0 -2.328125,-1.5 -2.328125,-2.9375 0,-1.359375 0.8125,-2.921875 2.34375,-2.921875 0.703125,0 1.15625,0.171875 1.703125,0.515625 L 5.75,-6.6875 C 5.328125,-6.890625 4.5625,-7.03125 3.921875,-7.03125 c -1.84375,0 -3.265625,1.5625 -3.265625,3.65625 0,1.578125 1.1875,3.484375 3.265625,3.484375 0.90625,0 1.296875,-0.15625 1.9375,-0.5625 z m 0,0"
                 style="stroke:none" />
            </symbol>
          </g>
        </defs>
        <g
           id="textext-c5b87459-2">
          <g
             id="g4765"
             style="fill:#000000;fill-opacity:1">
            <use
               height="50.794598"
               width="74.175735"
               id="use4767"
               y="134.765"
               x="223.43201"
               xlink:href="#textext-c5b87459-1" />
          </g>
        </g>
      </g>
    </g>
    <g
       id="g6942"
       transform="matrix(0.24574219,0,0,0.24574219,2.7979566,363.06447)">
      <rect
         y="607.90527"
         x="150"
         height="150"
         width="50"
         id="rect6724"
         style="fill:#181818;fill-opacity:0.3372549;stroke:#181818;stroke-width:1;stroke-linecap:round;stroke-linejoin:miter;stroke-miterlimit:4;stroke-opacity:0.3372549;stroke-dasharray:none;stroke-dashoffset:0" />
      <g
         ns0:text="$\\mathsf{D}$"
         ns0:preamble=""
         transform="matrix(3.9761722,0,0,3.9761722,-730.27596,160.45798)"
         id="g4965">
        <defs
           id="defs4967">
          <g
             id="g4969">
            <symbol
               style="overflow:visible"
               overflow="visible"
               id="textext-bfe319f6-0">
              <path
                 inkscape:connector-curvature="0"
                 style="stroke:none"
                 d=""
                 id="path4972" />
            </symbol>
            <symbol
               style="overflow:visible"
               overflow="visible"
               id="textext-bfe319f6-1">
              <path
                 inkscape:connector-curvature="0"
                 style="stroke:none"
                 d="m 0.953125,-6.921875 0,6.921875 2.625,0 C 5.28125,0 6.625,-1.515625 6.625,-3.40625 6.625,-5.328125 5.28125,-6.921875 3.5625,-6.921875 z M 1.8125,-0.5625 l 0,-5.796875 1.53125,0 c 1.390625,0 2.421875,1.203125 2.421875,2.953125 0,1.703125 -1.03125,2.84375 -2.421875,2.84375 z m 0,0"
                 id="path4975" />
            </symbol>
          </g>
        </defs>
        <g
           id="textext-bfe319f6-2">
          <g
             style="fill:#000000;fill-opacity:1"
             id="g4978">
            <use
               height="50.794598"
               width="74.175735"
               xlink:href="#textext-bfe319f6-1"
               x="223.43201"
               y="134.765"
               id="use4980" />
          </g>
        </g>
      </g>
    </g>
    <g
       id="g7626"
       transform="matrix(0.24574219,0,0,0.24574219,-4.488274,304.07377)">
      <rect
         style="fill:#181818;fill-opacity:0.3372549;stroke:#181818;stroke-width:1;stroke-linecap:round;stroke-linejoin:miter;stroke-miterlimit:4;stroke-opacity:0.3372549;stroke-dasharray:none;stroke-dashoffset:0"
         id="rect6730-8"
         width="25"
         height="50"
         x="235.35715"
         y="1002.9053" />
      <g
         id="g5048-6"
         ns0:preamble=""
         ns0:text="$y$"
         transform="matrix(3.9761722,0,0,3.9761722,-651.34738,496.12916)">
        <defs
           id="defs5050-6">
          <g
             id="g5052-4">
            <symbol
               style="overflow:visible"
               id="textext-08baac82-0-9"
               overflow="visible">
              <path
                 inkscape:connector-curvature="0"
                 id="path5055-5"
                 d=""
                 style="stroke:none" />
            </symbol>
            <symbol
               style="overflow:visible"
               id="textext-08baac82-1-0"
               overflow="visible">
              <path
                 inkscape:connector-curvature="0"
                 id="path5058-4"
                 d="m 4.84375,-3.796875 c 0.046875,-0.140625 0.046875,-0.15625 0.046875,-0.234375 0,-0.171875 -0.140625,-0.265625 -0.296875,-0.265625 -0.09375,0 -0.25,0.0625 -0.34375,0.203125 -0.015625,0.0625 -0.109375,0.359375 -0.140625,0.546875 -0.078125,0.25 -0.140625,0.53125 -0.203125,0.796875 l -0.453125,1.796875 c -0.03125,0.140625 -0.46875,0.84375 -1.125,0.84375 -0.5,0 -0.609375,-0.4375 -0.609375,-0.8125 C 1.71875,-1.375 1.890625,-2 2.21875,-2.875 2.375,-3.28125 2.421875,-3.390625 2.421875,-3.59375 c 0,-0.4375 -0.3125,-0.8125 -0.8125,-0.8125 -0.953125,0 -1.3125,1.453125 -1.3125,1.53125 0,0.109375 0.09375,0.109375 0.109375,0.109375 0.109375,0 0.109375,-0.03125 0.15625,-0.1875 0.28125,-0.9375 0.671875,-1.234375 1.015625,-1.234375 0.078125,0 0.25,0 0.25,0.3125 0,0.25 -0.109375,0.515625 -0.171875,0.703125 -0.40625,1.0625 -0.578125,1.625 -0.578125,2.09375 0,0.890625 0.625,1.1875 1.21875,1.1875 0.390625,0 0.71875,-0.171875 1,-0.453125 -0.125,0.515625 -0.25,1.015625 -0.640625,1.546875 -0.265625,0.328125 -0.640625,0.625 -1.09375,0.625 -0.140625,0 -0.59375,-0.03125 -0.765625,-0.421875 0.15625,0 0.296875,0 0.421875,-0.125 C 1.328125,1.203125 1.421875,1.0625 1.421875,0.875 1.421875,0.5625 1.15625,0.53125 1.0625,0.53125 0.828125,0.53125 0.5,0.6875 0.5,1.171875 c 0,0.5 0.4375,0.875 1.0625,0.875 1.015625,0 2.046875,-0.90625 2.328125,-2.03125 z m 0,0"
                 style="stroke:none" />
            </symbol>
          </g>
        </defs>
        <g
           id="textext-08baac82-2-8">
          <g
             id="g5061-7"
             style="fill:#000000;fill-opacity:1">
            <use
               height="50.794598"
               width="74.175735"
               id="use5063-1"
               y="134.765"
               x="223.43201"
               xlink:href="#textext-08baac82-1-0" />
          </g>
        </g>
      </g>
    </g>
    <g
       transform="matrix(0.97711326,0,0,0.97711326,-148.24542,426.17415)"
       ns0:text="$g$"
       ns0:preamble=""
       id="g4286-7">
      <defs
         id="defs4288-2">
        <g
           id="g4290-72">
          <symbol
             overflow="visible"
             id="textext-ee8938ff-0-2"
             style="overflow:visible">
            <path
               style="stroke:none"
               d=""
               id="path4293-6"
               inkscape:connector-curvature="0" />
          </symbol>
          <symbol
             overflow="visible"
             id="textext-ee8938ff-1-1"
             style="overflow:visible">
            <path
               style="stroke:none"
               d="M 4.6875,-3.765625 C 4.703125,-3.8125 4.71875,-3.875 4.71875,-3.9375 c 0,-0.171875 -0.109375,-0.265625 -0.28125,-0.265625 -0.09375,0 -0.375,0.0625 -0.40625,0.421875 -0.1875,-0.359375 -0.53125,-0.625 -0.9375,-0.625 -1.125,0 -2.359375,1.390625 -2.359375,2.828125 0,0.984375 0.59375,1.578125 1.3125,1.578125 0.59375,0 1.0625,-0.46875 1.15625,-0.578125 L 3.21875,-0.5625 C 3.015625,0.3125 2.890625,0.734375 2.890625,0.75 2.84375,0.84375 2.515625,1.828125 1.453125,1.828125 1.265625,1.828125 0.9375,1.8125 0.65625,1.71875 0.953125,1.640625 1.0625,1.375 1.0625,1.203125 c 0,-0.15625 -0.109375,-0.34375 -0.375,-0.34375 -0.21875,0 -0.53125,0.171875 -0.53125,0.578125 0,0.40625 0.359375,0.609375 1.3125,0.609375 1.25,0 1.96875,-0.78125 2.125,-1.375 z M 3.40625,-1.28125 C 3.34375,-1.015625 3.109375,-0.765625 2.890625,-0.578125 2.6875,-0.40625 2.375,-0.21875 2.078125,-0.21875 c -0.5,0 -0.640625,-0.515625 -0.640625,-0.921875 0,-0.46875 0.28125,-1.65625 0.5625,-2.15625 C 2.265625,-3.78125 2.6875,-4.1875 3.109375,-4.1875 c 0.65625,0 0.796875,0.8125 0.796875,0.859375 0,0.046875 -0.015625,0.109375 -0.03125,0.140625 z m 0,0"
               id="path4296-0"
               inkscape:connector-curvature="0" />
          </symbol>
        </g>
      </defs>
      <g
         id="textext-ee8938ff-2-6">
        <g
           style="fill:#000000;fill-opacity:1"
           id="g4299-1">
          <g
             id="g6982-5">
            <rect
               y="757.90527"
               x="265"
               height="50"
               width="25"
               id="rect6730-9"
               style="fill:#181818;fill-opacity:0.3372549;stroke:#181818;stroke-width:1;stroke-linecap:round;stroke-linejoin:miter;stroke-miterlimit:4;stroke-opacity:0.3372549;stroke-dasharray:none;stroke-dashoffset:0"
               transform="matrix(0.25149816,0,0,0.25149816,155.99826,-63.313068)" />
            <use
               height="50.794598"
               width="74.175735"
               id="use4301-4"
               y="134.765"
               x="223.43201"
               xlink:href="#textext-ee8938ff-1-1" />
          </g>
        </g>
      </g>
    </g>
    <g
       transform="matrix(0.24574219,0,0,0.24574219,2.7930094,364.32418)"
       id="g6955-5">
      <rect
         y="757.90527"
         x="150"
         height="50"
         width="50"
         id="rect6726-0"
         style="fill:#181818;fill-opacity:0.3372549;stroke:#181818;stroke-width:1;stroke-linecap:round;stroke-linejoin:miter;stroke-miterlimit:4;stroke-opacity:0.3372549;stroke-dasharray:none;stroke-dashoffset:0" />
      <g
         ns0:text="$\\mathsf{E}$"
         ns0:preamble=""
         transform="matrix(3.9761722,0,0,3.9761722,-729.91881,260.45797)"
         id="g4539-9">
        <defs
           id="defs4541-6">
          <g
             id="g4543-3">
            <symbol
               style="overflow:visible"
               overflow="visible"
               id="textext-7c280f98-0-8">
              <path
                 inkscape:connector-curvature="0"
                 style="stroke:none"
                 d=""
                 id="path4546-5" />
            </symbol>
            <symbol
               style="overflow:visible"
               overflow="visible"
               id="textext-7c280f98-1-6">
              <path
                 inkscape:connector-curvature="0"
                 style="stroke:none"
                 d="m 5.109375,-3.28125 0,-0.609375 -3.28125,0 0,-2.359375 1.375,0 c 0.109375,0 0.234375,0.015625 0.359375,0.015625 l 1.828125,0 0,-0.65625 -4.453125,0 0,6.890625 4.578125,0 0,-0.703125 -1.25,0 c -0.125,0 -0.234375,0 -0.359375,0 l -2.078125,0 0,-2.578125 z m 0,0"
                 id="path4549-1" />
            </symbol>
          </g>
        </defs>
        <g
           id="textext-7c280f98-2-1">
          <g
             style="fill:#000000;fill-opacity:1"
             id="g4552-5">
            <use
               height="50.794598"
               width="74.175735"
               xlink:href="#textext-7c280f98-1-6"
               x="223.43201"
               y="134.765"
               id="use4554-9" />
          </g>
        </g>
      </g>
    </g>
    <g
       id="g7613-7"
       transform="matrix(0.24574219,0,0,0.24574219,-4.4793307,302.71693)">
      <rect
         y="852.90527"
         x="235.35715"
         height="150"
         width="25"
         id="rect6728-5-6"
         style="fill:#181818;fill-opacity:0.3372549;stroke:#181818;stroke-width:1;stroke-linecap:round;stroke-linejoin:miter;stroke-miterlimit:4;stroke-opacity:0.3372549;stroke-dasharray:none;stroke-dashoffset:0" />
      <g
         transform="matrix(3.9761722,0,0,3.9761722,-652.20452,400.12916)"
         ns0:text="$x$"
         ns0:preamble=""
         id="g4871-3-3">
        <defs
           id="defs4873-1-1">
          <g
             id="g4875-4-7">
            <symbol
               style="overflow:visible"
               overflow="visible"
               id="textext-a9a45495-0-9-5">
              <path
                 inkscape:connector-curvature="0"
                 style="stroke:none"
                 d=""
                 id="path4878-2-9" />
            </symbol>
            <symbol
               style="overflow:visible"
               overflow="visible"
               id="textext-a9a45495-1-0-6">
              <path
                 inkscape:connector-curvature="0"
                 style="stroke:none"
                 d="M 3.328125,-3.015625 C 3.390625,-3.265625 3.625,-4.1875 4.3125,-4.1875 c 0.046875,0 0.296875,0 0.5,0.125 C 4.53125,-4 4.34375,-3.765625 4.34375,-3.515625 c 0,0.15625 0.109375,0.34375 0.375,0.34375 0.21875,0 0.53125,-0.171875 0.53125,-0.578125 0,-0.515625 -0.578125,-0.65625 -0.921875,-0.65625 -0.578125,0 -0.921875,0.53125 -1.046875,0.75 -0.25,-0.65625 -0.78125,-0.75 -1.078125,-0.75 -1.03125,0 -1.609375,1.28125 -1.609375,1.53125 0,0.109375 0.109375,0.109375 0.125,0.109375 0.078125,0 0.109375,-0.03125 0.125,-0.109375 0.34375,-1.0625 1,-1.3125 1.34375,-1.3125 0.1875,0 0.53125,0.09375 0.53125,0.671875 0,0.3125 -0.171875,0.96875 -0.53125,2.375 -0.15625,0.609375 -0.515625,1.03125 -0.953125,1.03125 -0.0625,0 -0.28125,0 -0.5,-0.125 0.25,-0.0625 0.46875,-0.265625 0.46875,-0.546875 0,-0.265625 -0.21875,-0.34375 -0.359375,-0.34375 -0.3125,0 -0.546875,0.25 -0.546875,0.578125 0,0.453125 0.484375,0.65625 0.921875,0.65625 0.671875,0 1.03125,-0.703125 1.046875,-0.75 0.125,0.359375 0.484375,0.75 1.078125,0.75 1.03125,0 1.59375,-1.28125 1.59375,-1.53125 0,-0.109375 -0.078125,-0.109375 -0.109375,-0.109375 -0.09375,0 -0.109375,0.046875 -0.140625,0.109375 -0.328125,1.078125 -1,1.3125 -1.3125,1.3125 -0.390625,0 -0.546875,-0.3125 -0.546875,-0.65625 0,-0.21875 0.046875,-0.4375 0.15625,-0.875 z m 0,0"
                 id="path4881-6-2" />
            </symbol>
          </g>
        </defs>
        <g
           id="textext-a9a45495-2-8-1">
          <g
             style="fill:#000000;fill-opacity:1"
             id="g4884-9-7">
            <use
               height="50.794598"
               width="74.175735"
               xlink:href="#textext-a9a45495-1-0-6"
               x="223.43201"
               y="134.765"
               id="use4886-2-8" />
          </g>
        </g>
      </g>
    </g>
    <g
       id="g5245-5"
       ns0:preamble=""
       ns0:text="$=$"
       transform="matrix(0.97711326,0,0,0.97711326,-157.60694,410.09351)">
      <defs
         id="defs5247-7">
        <g
           id="g5249-4">
          <symbol
             id="textext-8e71e03d-0-1"
             overflow="visible"
             style="overflow:visible">
            <path
               id="path5252-8"
               d=""
               style="stroke:none"
               inkscape:connector-curvature="0" />
          </symbol>
          <symbol
             id="textext-8e71e03d-1-5"
             overflow="visible"
             style="overflow:visible">
            <path
               id="path5255-9"
               d="m 6.84375,-3.265625 c 0.15625,0 0.34375,0 0.34375,-0.1875 C 7.1875,-3.65625 7,-3.65625 6.859375,-3.65625 l -5.96875,0 c -0.140625,0 -0.328125,0 -0.328125,0.203125 0,0.1875 0.1875,0.1875 0.328125,0.1875 z m 0.015625,1.9375 c 0.140625,0 0.328125,0 0.328125,-0.203125 0,-0.1875 -0.1875,-0.1875 -0.34375,-0.1875 l -5.953125,0 c -0.140625,0 -0.328125,0 -0.328125,0.1875 0,0.203125 0.1875,0.203125 0.328125,0.203125 z m 0,0"
               style="stroke:none"
               inkscape:connector-curvature="0" />
          </symbol>
        </g>
      </defs>
      <g
         id="textext-8e71e03d-2-7">
        <g
           id="g5258-5"
           style="fill:#000000;fill-opacity:1">
          <use
             id="use5260-3"
             y="134.765"
             x="223.43201"
             xlink:href="#textext-8e71e03d-1-5"
             width="74.175735"
             height="50.794598" />
        </g>
      </g>
    </g>
    <g
       id="g6968-9"
       transform="matrix(0.24574219,0,0,0.24574219,4.1825474,362.99803)">
      <rect
         y="607.90527"
         x="265"
         height="150"
         width="25"
         id="rect6728-9"
         style="fill:#181818;fill-opacity:0.3372549;stroke:#181818;stroke-width:1;stroke-linecap:round;stroke-linejoin:miter;stroke-miterlimit:4;stroke-opacity:0.3372549;stroke-dasharray:none;stroke-dashoffset:0" />
      <g
         transform="matrix(3.9761722,0,0,3.9761722,-623.06167,156.95796)"
         ns0:text="$f$"
         ns0:preamble=""
         id="g4229-6">
        <defs
           id="defs4231-0">
          <g
             id="g4233-2">
            <symbol
               style="overflow:visible"
               overflow="visible"
               id="textext-75ac2183-0-7">
              <path
                 inkscape:connector-curvature="0"
                 style="stroke:none"
                 d=""
                 id="path4236-6" />
            </symbol>
            <symbol
               style="overflow:visible"
               overflow="visible"
               id="textext-75ac2183-1-1">
              <path
                 inkscape:connector-curvature="0"
                 style="stroke:none"
                 d="m 3.65625,-3.984375 0.859375,0 c 0.203125,0 0.296875,0 0.296875,-0.203125 0,-0.109375 -0.09375,-0.109375 -0.265625,-0.109375 l -0.828125,0 0.203125,-1.140625 c 0.046875,-0.203125 0.1875,-0.90625 0.25,-1.03125 0.078125,-0.1875 0.25,-0.34375 0.46875,-0.34375 0.03125,0 0.296875,0 0.484375,0.1875 -0.4375,0.03125 -0.546875,0.390625 -0.546875,0.53125 0,0.234375 0.1875,0.359375 0.375,0.359375 C 5.21875,-5.734375 5.5,-5.96875 5.5,-6.34375 c 0,-0.453125 -0.453125,-0.6875 -0.859375,-0.6875 -0.34375,0 -0.96875,0.1875 -1.265625,1.171875 -0.0625,0.203125 -0.09375,0.3125 -0.328125,1.5625 l -0.6875,0 c -0.203125,0 -0.3125,0 -0.3125,0.1875 0,0.125 0.09375,0.125 0.28125,0.125 l 0.65625,0 -0.734375,3.9375 c -0.1875,0.96875 -0.359375,1.875 -0.875,1.875 -0.046875,0 -0.28125,0 -0.484375,-0.1875 C 1.359375,1.609375 1.453125,1.25 1.453125,1.109375 1.453125,0.875 1.265625,0.75 1.078125,0.75 0.8125,0.75 0.53125,0.984375 0.53125,1.359375 c 0,0.4375 0.4375,0.6875 0.84375,0.6875 0.546875,0 0.953125,-0.59375 1.125,-0.96875 0.328125,-0.625 0.546875,-1.828125 0.5625,-1.90625 z m 0,0"
                 id="path4239-3" />
            </symbol>
          </g>
        </defs>
        <g
           id="textext-75ac2183-2-2">
          <g
             style="fill:#000000;fill-opacity:1"
             id="g4242-1">
            <use
               height="50.794598"
               width="74.175735"
               xlink:href="#textext-75ac2183-1-1"
               x="223.43201"
               y="134.765"
               id="use4244-5" />
          </g>
        </g>
      </g>
    </g>
    <g
       id="g4897"
       transform="translate(-0.04106029,0)">
      <rect
         style="fill:#181818;fill-opacity:0.3372549;stroke:#181818;stroke-width:0.24574219;stroke-linecap:round;stroke-linejoin:miter;stroke-miterlimit:4;stroke-opacity:0.3372549;stroke-dasharray:none;stroke-dashoffset:0"
         id="rect6720"
         width="36.861328"
         height="36.861328"
         x="1.5999041"
         y="512.46198" />
      <g
         ns0:text="$\\mathsf{B}$"
         ns0:preamble=""
         transform="matrix(0.99637758,0,0,0.99637758,-205.97913,400.03585)"
         id="g4757">
        <defs
           id="defs4759">
          <g
             id="g4761">
            <symbol
               style="overflow:visible"
               overflow="visible"
               id="symbol4763">
              <path
                 inkscape:connector-curvature="0"
                 style="stroke:none"
                 d=""
                 id="path4765" />
            </symbol>
            <symbol
               style="overflow:visible"
               overflow="visible"
               id="symbol4767">
              <path
                 inkscape:connector-curvature="0"
                 style="stroke:none"
                 d="m 0.96875,-6.921875 0,6.921875 2.625,0 c 1.4375,0 2.484375,-0.890625 2.484375,-1.875 0,-0.859375 -0.859375,-1.578125 -1.921875,-1.75 0.90625,-0.21875 1.65625,-0.796875 1.65625,-1.5625 0,-0.90625 -1.0625,-1.734375 -2.484375,-1.734375 z m 0.828125,3.03125 0,-2.46875 1.25,0 c 1.109375,0 1.984375,0.53125 1.984375,1.1875 0,0.59375 -0.703125,1.28125 -2.078125,1.28125 z m 0,3.328125 0,-2.734375 1.4375,0 c 1.0625,0 2.046875,0.609375 2.046875,1.40625 0,0.75 -0.890625,1.328125 -1.96875,1.328125 z m 0,0"
                 id="path4769" />
            </symbol>
          </g>
        </defs>
        <g
           id="textext-c27a9a0f-2">
          <g
             style="fill:#000000;fill-opacity:1"
             id="g4772">
            <use
               height="50.794598"
               width="74.175735"
               xlink:href="#textext-c27a9a0f-1"
               x="223.43201"
               y="134.765"
               id="use4774" />
          </g>
        </g>
      </g>
    </g>
  </g>
  <g
     style="font-style:normal;font-variant:normal;font-weight:normal;font-stretch:normal;letter-spacing:normal;word-spacing:normal;text-anchor:start;fill:none;stroke:#000000;stroke-linecap:butt;stroke-linejoin:miter;stroke-miterlimit:10.43299961;stroke-opacity:1;stroke-dasharray:none;stroke-dashoffset:0"
     id="content"
     transform="matrix(1,0,0,-1,-196.40174,714.0625)"
     xml:space="preserve"
     stroke-miterlimit="10.433"
     font-style="normal"
     font-variant="normal"
     font-weight="normal"
     font-stretch="normal"
     font-size-adjust="none"
     letter-spacing="normal"
     word-spacing="normal"
     ns0:text="$l$"
     ns0:preamble=""><path
       style="fill:#000000;stroke-width:0"
       inkscape:connector-curvature="0"
       d="m 226,713.91 0,0 0,0 0,0 0,0 0,0.01 0,0 0,0 0,0.01 0,0 0,0.01 0,0 -0.01,0 0,0.01 0,0 0,0.01 0,0 -0.01,0.01 0,0 0,0.01 -0.01,0 0,0.01 0,0 -0.01,0 0,0 0,0.01 -0.01,0 0,0 0,0 -0.01,0 0,0.01 0,0 -0.01,0 0,0 0,0 -0.01,0 0,0 -0.01,0 0,0.01 -0.01,0 0,0 -0.01,0 0,0 -0.01,0 0,0 -0.01,0 c -0.23,0 -0.96,-0.08 -1.21,-0.1 -0.08,-0.01 -0.19,-0.02 -0.19,-0.21 0,-0.11 0.1,-0.11 0.24,-0.11 0.48,0 0.49,-0.09 0.49,-0.17 l -0.03,-0.2 -1.25,-4.96 c -0.03,-0.11 -0.05,-0.18 -0.05,-0.34 0,-0.57 0.44,-0.91 0.9,-0.91 0.33,0 0.58,0.19 0.75,0.55 0.18,0.38 0.3,0.96 0.3,0.98 0,0.1 -0.09,0.1 -0.12,0.1 -0.1,0 -0.11,-0.05 -0.14,-0.18 -0.17,-0.65 -0.36,-1.24 -0.76,-1.24 -0.29,0 -0.29,0.32 -0.29,0.46 0,0.24 0.01,0.29 0.06,0.48 z"
       id="path4741" /></g>  <g
     ns0:preamble=""
     ns0:text="$m$"
     word-spacing="normal"
     letter-spacing="normal"
     font-size-adjust="none"
     font-stretch="normal"
     font-weight="normal"
     font-variant="normal"
     font-style="normal"
     stroke-miterlimit="10.433"
     xml:space="preserve"
     transform="matrix(1,0,0,-1,-173.44841,714.0625)"
     id="g4993"
     style="font-style:normal;font-variant:normal;font-weight:normal;font-stretch:normal;letter-spacing:normal;word-spacing:normal;text-anchor:start;fill:none;stroke:#000000;stroke-linecap:butt;stroke-linejoin:miter;stroke-miterlimit:10.43299961;stroke-opacity:1;stroke-dasharray:none;stroke-dashoffset:0"><path
       id="path4995"
       d="m 224.31,707.71 0,-0.01 -0.01,-0.02 0,-0.01 0,-0.02 -0.01,-0.03 -0.01,-0.03 -0.01,-0.03 0,-0.04 -0.01,-0.03 -0.01,-0.03 0,-0.01 -0.01,-0.02 0,-0.01 0,-0.02 0,-0.01 -0.01,-0.01 0,-0.02 0,-0.01 0,-0.01 -0.01,-0.01 0,-0.01 0,-0.01 0,-0.01 0,0 0,-0.01 0,-0.01 c 0,-0.18 0.14,-0.26 0.29,-0.26 0.12,0 0.29,0.07 0.37,0.27 0,0.02 0.12,0.49 0.18,0.74 l 0.22,0.89 c 0.06,0.22 0.12,0.44 0.17,0.67 0.04,0.17 0.12,0.46 0.13,0.5 0.15,0.3 0.68,1.21 1.62,1.21 0.45,0 0.54,-0.37 0.54,-0.7 0,-0.25 -0.07,-0.52 -0.15,-0.82 l -0.28,-1.16 -0.2,-0.75 c -0.04,-0.2 -0.13,-0.54 -0.13,-0.59 0,-0.18 0.14,-0.26 0.29,-0.26 0.31,0 0.37,0.24 0.45,0.56 0.14,0.56 0.51,2.01 0.6,2.4 0.03,0.12 0.55,1.32 1.64,1.32 0.43,0 0.54,-0.34 0.54,-0.7 0,-0.56 -0.42,-1.7 -0.62,-2.22 -0.09,-0.24 -0.13,-0.35 -0.13,-0.55 0,-0.47 0.35,-0.81 0.82,-0.81 0.93,0 1.3,1.45 1.3,1.53 0,0.1 -0.09,0.1 -0.12,0.1 -0.1,0 -0.1,-0.04 -0.15,-0.18 -0.15,-0.53 -0.47,-1.24 -1.01,-1.24 -0.17,0 -0.24,0.1 -0.24,0.33 0,0.25 0.09,0.49 0.18,0.71 0.18,0.51 0.6,1.62 0.6,2.18 0,0.65 -0.39,1.07 -1.14,1.07 -0.75,0 -1.25,-0.44 -1.62,-0.97 -0.01,0.13 -0.04,0.47 -0.32,0.71 -0.25,0.21 -0.57,0.26 -0.82,0.26 -0.89,0 -1.38,-0.64 -1.55,-0.87 -0.05,0.57 -0.47,0.87 -0.92,0.87 -0.45,0 -0.64,-0.39 -0.73,-0.57 -0.18,-0.35 -0.31,-0.93 -0.31,-0.96 0,-0.1 0.1,-0.1 0.12,-0.1 0.1,0 0.11,0.01 0.17,0.22 0.17,0.71 0.37,1.19 0.73,1.19 0.16,0 0.3,-0.08 0.3,-0.46 0,-0.21 -0.03,-0.32 -0.16,-0.83 z"
       inkscape:connector-curvature="0"
       style="fill:#000000;stroke-width:0" /></g>  <g
     style="font-style:normal;font-variant:normal;font-weight:normal;font-stretch:normal;letter-spacing:normal;word-spacing:normal;text-anchor:start;fill:none;stroke:#000000;stroke-linecap:butt;stroke-linejoin:miter;stroke-miterlimit:10.43299961;stroke-opacity:1;stroke-dasharray:none;stroke-dashoffset:0"
     id="content-6"
     transform="matrix(1,0,0,-1,-220.79625,737.49292)"
     xml:space="preserve"
     stroke-miterlimit="10.433"
     font-style="normal"
     font-variant="normal"
     font-weight="normal"
     font-stretch="normal"
     font-size-adjust="none"
     letter-spacing="normal"
     word-spacing="normal"
     ns0:text="$l$"
     ns0:preamble=""><path
       style="fill:#000000;stroke-width:0"
       inkscape:connector-curvature="0"
       d="m 226,713.91 0,0 0,0 0,0 0,0 0,0.01 0,0 0,0 0,0.01 0,0 0,0.01 0,0 -0.01,0 0,0.01 0,0 0,0.01 0,0 -0.01,0.01 0,0 0,0.01 -0.01,0 0,0.01 0,0 -0.01,0 0,0 0,0.01 -0.01,0 0,0 0,0 -0.01,0 0,0.01 0,0 -0.01,0 0,0 0,0 -0.01,0 0,0 -0.01,0 0,0.01 -0.01,0 0,0 -0.01,0 0,0 -0.01,0 0,0 -0.01,0 c -0.23,0 -0.96,-0.08 -1.21,-0.1 -0.08,-0.01 -0.19,-0.02 -0.19,-0.21 0,-0.11 0.1,-0.11 0.24,-0.11 0.48,0 0.49,-0.09 0.49,-0.17 l -0.03,-0.2 -1.25,-4.96 c -0.03,-0.11 -0.05,-0.18 -0.05,-0.34 0,-0.57 0.44,-0.91 0.9,-0.91 0.33,0 0.58,0.19 0.75,0.55 0.18,0.38 0.3,0.96 0.3,0.98 0,0.1 -0.09,0.1 -0.12,0.1 -0.1,0 -0.11,-0.05 -0.14,-0.18 -0.17,-0.65 -0.36,-1.24 -0.76,-1.24 -0.29,0 -0.29,0.32 -0.29,0.46 0,0.24 0.01,0.29 0.06,0.48 z"
       id="path4741-7" /></g>  <g
     ns0:preamble=""
     ns0:text="$m$"
     word-spacing="normal"
     letter-spacing="normal"
     font-size-adjust="none"
     font-stretch="normal"
     font-weight="normal"
     font-variant="normal"
     font-style="normal"
     stroke-miterlimit="10.433"
     xml:space="preserve"
     transform="matrix(1,0,0,-1,-223.65625,762.04925)"
     id="g4993-5"
     style="font-style:normal;font-variant:normal;font-weight:normal;font-stretch:normal;letter-spacing:normal;word-spacing:normal;text-anchor:start;fill:none;stroke:#000000;stroke-linecap:butt;stroke-linejoin:miter;stroke-miterlimit:10.43299961;stroke-opacity:1;stroke-dasharray:none;stroke-dashoffset:0"><path
       id="path4995-3"
       d="m 224.31,707.71 0,-0.01 -0.01,-0.02 0,-0.01 0,-0.02 -0.01,-0.03 -0.01,-0.03 -0.01,-0.03 0,-0.04 -0.01,-0.03 -0.01,-0.03 0,-0.01 -0.01,-0.02 0,-0.01 0,-0.02 0,-0.01 -0.01,-0.01 0,-0.02 0,-0.01 0,-0.01 -0.01,-0.01 0,-0.01 0,-0.01 0,-0.01 0,0 0,-0.01 0,-0.01 c 0,-0.18 0.14,-0.26 0.29,-0.26 0.12,0 0.29,0.07 0.37,0.27 0,0.02 0.12,0.49 0.18,0.74 l 0.22,0.89 c 0.06,0.22 0.12,0.44 0.17,0.67 0.04,0.17 0.12,0.46 0.13,0.5 0.15,0.3 0.68,1.21 1.62,1.21 0.45,0 0.54,-0.37 0.54,-0.7 0,-0.25 -0.07,-0.52 -0.15,-0.82 l -0.28,-1.16 -0.2,-0.75 c -0.04,-0.2 -0.13,-0.54 -0.13,-0.59 0,-0.18 0.14,-0.26 0.29,-0.26 0.31,0 0.37,0.24 0.45,0.56 0.14,0.56 0.51,2.01 0.6,2.4 0.03,0.12 0.55,1.32 1.64,1.32 0.43,0 0.54,-0.34 0.54,-0.7 0,-0.56 -0.42,-1.7 -0.62,-2.22 -0.09,-0.24 -0.13,-0.35 -0.13,-0.55 0,-0.47 0.35,-0.81 0.82,-0.81 0.93,0 1.3,1.45 1.3,1.53 0,0.1 -0.09,0.1 -0.12,0.1 -0.1,0 -0.1,-0.04 -0.15,-0.18 -0.15,-0.53 -0.47,-1.24 -1.01,-1.24 -0.17,0 -0.24,0.1 -0.24,0.33 0,0.25 0.09,0.49 0.18,0.71 0.18,0.51 0.6,1.62 0.6,2.18 0,0.65 -0.39,1.07 -1.14,1.07 -0.75,0 -1.25,-0.44 -1.62,-0.97 -0.01,0.13 -0.04,0.47 -0.32,0.71 -0.25,0.21 -0.57,0.26 -0.82,0.26 -0.89,0 -1.38,-0.64 -1.55,-0.87 -0.05,0.57 -0.47,0.87 -0.92,0.87 -0.45,0 -0.64,-0.39 -0.73,-0.57 -0.18,-0.35 -0.31,-0.93 -0.31,-0.96 0,-0.1 0.1,-0.1 0.12,-0.1 0.1,0 0.11,0.01 0.17,0.22 0.17,0.71 0.37,1.19 0.73,1.19 0.16,0 0.3,-0.08 0.3,-0.46 0,-0.21 -0.03,-0.32 -0.16,-0.83 z"
       inkscape:connector-curvature="0"
       style="fill:#000000;stroke-width:0" /></g></svg>
