<?xml version="1.0" encoding="UTF-8" standalone="no"?>
<!-- Created with Inkscape (http://www.inkscape.org/) -->

<svg
   xmlns:ns0="http://www.iki.fi/pav/software/textext/"
   xmlns:dc="http://purl.org/dc/elements/1.1/"
   xmlns:cc="http://creativecommons.org/ns#"
   xmlns:rdf="http://www.w3.org/1999/02/22-rdf-syntax-ns#"
   xmlns:svg="http://www.w3.org/2000/svg"
   xmlns="http://www.w3.org/2000/svg"
   xmlns:xlink="http://www.w3.org/1999/xlink"
   xmlns:sodipodi="http://sodipodi.sourceforge.net/DTD/sodipodi-0.dtd"
   xmlns:inkscape="http://www.inkscape.org/namespaces/inkscape"
   width="109.57426mm"
   height="22.143351mm"
   viewBox="0 0 388.25523 78.460693"
   id="svg2"
   version="1.1"
   inkscape:version="0.91 r13725"
   sodipodi:docname="block1.1a.svg">
  <sodipodi:namedview
     id="base"
     pagecolor="#ffffff"
     bordercolor="#666666"
     borderopacity="1.0"
     inkscape:pageopacity="0.0"
     inkscape:pageshadow="2"
     inkscape:zoom="2.8"
     inkscape:cx="190.19042"
     inkscape:cy="81.914473"
     inkscape:document-units="px"
     inkscape:current-layer="layer1"
     showgrid="true"
     inkscape:window-width="1920"
     inkscape:window-height="1867"
     inkscape:window-x="0"
     inkscape:window-y="0"
     inkscape:window-maximized="1"
     fit-margin-top="0"
     fit-margin-left="0"
     fit-margin-right="0"
     fit-margin-bottom="0">
    <inkscape:grid
       originy="-464.05889"
       originx="0.69359228"
       type="xygrid"
       id="grid3336" />
  </sodipodi:namedview>
  <defs
     id="defs4">
    <defs
       id="defs4288-4">
      <g
         id="g4290-7">
        <symbol
           overflow="visible"
           id="textext-ee8938ff-0-4"
           style="overflow:visible">
          <path
             style="stroke:none"
             d=""
             id="path4293-4"
             inkscape:connector-curvature="0" />
        </symbol>
        <symbol
           overflow="visible"
           id="textext-ee8938ff-1-3"
           style="overflow:visible">
          <path
             style="stroke:none"
             d="M 4.6875,-3.765625 C 4.703125,-3.8125 4.71875,-3.875 4.71875,-3.9375 c 0,-0.171875 -0.109375,-0.265625 -0.28125,-0.265625 -0.09375,0 -0.375,0.0625 -0.40625,0.421875 -0.1875,-0.359375 -0.53125,-0.625 -0.9375,-0.625 -1.125,0 -2.359375,1.390625 -2.359375,2.828125 0,0.984375 0.59375,1.578125 1.3125,1.578125 0.59375,0 1.0625,-0.46875 1.15625,-0.578125 L 3.21875,-0.5625 C 3.015625,0.3125 2.890625,0.734375 2.890625,0.75 2.84375,0.84375 2.515625,1.828125 1.453125,1.828125 1.265625,1.828125 0.9375,1.8125 0.65625,1.71875 0.953125,1.640625 1.0625,1.375 1.0625,1.203125 c 0,-0.15625 -0.109375,-0.34375 -0.375,-0.34375 -0.21875,0 -0.53125,0.171875 -0.53125,0.578125 0,0.40625 0.359375,0.609375 1.3125,0.609375 1.25,0 1.96875,-0.78125 2.125,-1.375 z M 3.40625,-1.28125 C 3.34375,-1.015625 3.109375,-0.765625 2.890625,-0.578125 2.6875,-0.40625 2.375,-0.21875 2.078125,-0.21875 c -0.5,0 -0.640625,-0.515625 -0.640625,-0.921875 0,-0.46875 0.28125,-1.65625 0.5625,-2.15625 C 2.265625,-3.78125 2.6875,-4.1875 3.109375,-4.1875 c 0.65625,0 0.796875,0.8125 0.796875,0.859375 0,0.046875 -0.015625,0.109375 -0.03125,0.140625 z m 0,0"
             id="path4296-07"
             inkscape:connector-curvature="0" />
        </symbol>
      </g>
    </defs>
    <defs
       id="defs4328">
      <g
         id="g4330">
        <symbol
           overflow="visible"
           id="textext-c27a9a0f-0"
           style="overflow:visible">
          <path
             style="stroke:none"
             d=""
             id="path4333"
             inkscape:connector-curvature="0" />
        </symbol>
        <symbol
           overflow="visible"
           id="textext-c27a9a0f-1"
           style="overflow:visible">
          <path
             style="stroke:none"
             d="m 0.96875,-6.921875 0,6.921875 2.625,0 c 1.4375,0 2.484375,-0.890625 2.484375,-1.875 0,-0.859375 -0.859375,-1.578125 -1.921875,-1.75 0.90625,-0.21875 1.65625,-0.796875 1.65625,-1.5625 0,-0.90625 -1.0625,-1.734375 -2.484375,-1.734375 z m 0.828125,3.03125 0,-2.46875 1.25,0 c 1.109375,0 1.984375,0.53125 1.984375,1.1875 0,0.59375 -0.703125,1.28125 -2.078125,1.28125 z m 0,3.328125 0,-2.734375 1.4375,0 c 1.0625,0 2.046875,0.609375 2.046875,1.40625 0,0.75 -0.890625,1.328125 -1.96875,1.328125 z m 0,0"
             id="path4336"
             inkscape:connector-curvature="0" />
        </symbol>
      </g>
    </defs>
  </defs>
  <metadata
     id="metadata7">
    <rdf:RDF>
      <cc:Work
         rdf:about="">
        <dc:format>image/svg+xml</dc:format>
        <dc:type
           rdf:resource="http://purl.org/dc/dcmitype/StillImage" />
        <dc:title></dc:title>
      </cc:Work>
    </rdf:RDF>
  </metadata>
  <g
     transform="translate(0.69359231,-509.84262)"
     inkscape:label="Layer 1"
     inkscape:groupmode="layer"
     id="layer1">
    <g
       id="g4286"
       ns0:preamble=""
       ns0:text="$g$"
       transform="matrix(0.97711326,0,0,0.97711326,159.85886,410.75039)">
      <defs
         id="defs4288">
        <g
           id="g4290">
          <symbol
             style="overflow:visible"
             id="textext-ee8938ff-0"
             overflow="visible">
            <path
               inkscape:connector-curvature="0"
               id="path4293"
               d=""
               style="stroke:none" />
          </symbol>
          <symbol
             style="overflow:visible"
             id="textext-ee8938ff-1"
             overflow="visible">
            <path
               inkscape:connector-curvature="0"
               id="path4296"
               d="M 4.6875,-3.765625 C 4.703125,-3.8125 4.71875,-3.875 4.71875,-3.9375 c 0,-0.171875 -0.109375,-0.265625 -0.28125,-0.265625 -0.09375,0 -0.375,0.0625 -0.40625,0.421875 -0.1875,-0.359375 -0.53125,-0.625 -0.9375,-0.625 -1.125,0 -2.359375,1.390625 -2.359375,2.828125 0,0.984375 0.59375,1.578125 1.3125,1.578125 0.59375,0 1.0625,-0.46875 1.15625,-0.578125 L 3.21875,-0.5625 C 3.015625,0.3125 2.890625,0.734375 2.890625,0.75 2.84375,0.84375 2.515625,1.828125 1.453125,1.828125 1.265625,1.828125 0.9375,1.8125 0.65625,1.71875 0.953125,1.640625 1.0625,1.375 1.0625,1.203125 c 0,-0.15625 -0.109375,-0.34375 -0.375,-0.34375 -0.21875,0 -0.53125,0.171875 -0.53125,0.578125 0,0.40625 0.359375,0.609375 1.3125,0.609375 1.25,0 1.96875,-0.78125 2.125,-1.375 z M 3.40625,-1.28125 C 3.34375,-1.015625 3.109375,-0.765625 2.890625,-0.578125 2.6875,-0.40625 2.375,-0.21875 2.078125,-0.21875 c -0.5,0 -0.640625,-0.515625 -0.640625,-0.921875 0,-0.46875 0.28125,-1.65625 0.5625,-2.15625 C 2.265625,-3.78125 2.6875,-4.1875 3.109375,-4.1875 c 0.65625,0 0.796875,0.8125 0.796875,0.859375 0,0.046875 -0.015625,0.109375 -0.03125,0.140625 z m 0,0"
               style="stroke:none" />
          </symbol>
        </g>
      </defs>
      <g
         id="textext-ee8938ff-2">
        <g
           id="g4299"
           style="fill:#000000;fill-opacity:1">
          <g
             id="g6982">
            <rect
               transform="matrix(0.25149816,0,0,0.25149816,155.99826,-63.313068)"
               style="opacity:1;fill:#181818;fill-opacity:0.3372549;stroke:#181818;stroke-width:1;stroke-linecap:round;stroke-linejoin:miter;stroke-miterlimit:4;stroke-dasharray:none;stroke-dashoffset:0;stroke-opacity:0.3372549"
               id="rect6730"
               width="25"
               height="50"
               x="265"
               y="757.90527" />
            <use
               xlink:href="#textext-ee8938ff-1"
               x="223.43201"
               y="134.765"
               id="use4301"
               width="100%"
               height="100%" />
          </g>
        </g>
      </g>
    </g>
    <g
       transform="matrix(0.97711326,0,0,0.97711326,-212.03199,452.60434)"
       ns0:text="$=$"
       ns0:preamble=""
       id="g5245">
      <defs
         id="defs5247">
        <g
           id="g5249">
          <symbol
             style="overflow:visible"
             overflow="visible"
             id="textext-8e71e03d-0">
            <path
               inkscape:connector-curvature="0"
               style="stroke:none"
               d=""
               id="path5252" />
          </symbol>
          <symbol
             style="overflow:visible"
             overflow="visible"
             id="textext-8e71e03d-1">
            <path
               inkscape:connector-curvature="0"
               style="stroke:none"
               d="m 6.84375,-3.265625 c 0.15625,0 0.34375,0 0.34375,-0.1875 C 7.1875,-3.65625 7,-3.65625 6.859375,-3.65625 l -5.96875,0 c -0.140625,0 -0.328125,0 -0.328125,0.203125 0,0.1875 0.1875,0.1875 0.328125,0.1875 z m 0.015625,1.9375 c 0.140625,0 0.328125,0 0.328125,-0.203125 0,-0.1875 -0.1875,-0.1875 -0.34375,-0.1875 l -5.953125,0 c -0.140625,0 -0.328125,0 -0.328125,0.1875 0,0.203125 0.1875,0.203125 0.328125,0.203125 z m 0,0"
               id="path5255" />
          </symbol>
        </g>
      </defs>
      <g
         id="textext-8e71e03d-2">
        <g
           style="fill:#000000;fill-opacity:1"
           id="g5258">
          <use
             height="100%"
             width="100%"
             xlink:href="#textext-8e71e03d-1"
             x="223.43201"
             y="134.765"
             id="use5260" />
        </g>
      </g>
    </g>
    <rect
       y="575.82324"
       x="14.369198"
       height="12.287109"
       width="12.287109"
       id="rect6726"
       style="opacity:1;fill:#181818;fill-opacity:0.3372549;stroke:#181818;stroke-width:0.24574219;stroke-linecap:round;stroke-linejoin:miter;stroke-miterlimit:4;stroke-dasharray:none;stroke-dashoffset:0;stroke-opacity:0.3372549" />
    <g
       transform="matrix(0.24574219,0,0,0.24574219,46.517783,389.57396)"
       id="g6929"
       style="fill:#ff0000">
      <rect
         style="opacity:1;fill:#ff0000;fill-opacity:0.3372549;stroke:#181818;stroke-width:1;stroke-linecap:round;stroke-linejoin:miter;stroke-miterlimit:4;stroke-dasharray:none;stroke-dashoffset:0;stroke-opacity:0.3372549"
         id="rect6722"
         width="150"
         height="50"
         x="2.4798585e-09"
         y="757.90527" />
      <g
         ns0:text="$\\mathsf{C}$"
         ns0:preamble=""
         transform="matrix(3.9761722,0,0,3.9761722,-829.41881,260.45796)"
         id="g4752"
         style="fill:#ff0000">
        <defs
           id="defs4754">
          <g
             id="g4756">
            <symbol
               overflow="visible"
               id="textext-c5b87459-0"
               style="overflow:visible">
              <path
                 style="stroke:none"
                 d=""
                 id="path4759"
                 inkscape:connector-curvature="0" />
            </symbol>
            <symbol
               overflow="visible"
               id="textext-c5b87459-1"
               style="overflow:visible">
              <path
                 style="stroke:none"
                 d="M 5.796875,-1.140625 C 5.21875,-0.75 4.875,-0.53125 3.890625,-0.53125 c -1.4375,0 -2.328125,-1.5 -2.328125,-2.9375 0,-1.359375 0.8125,-2.921875 2.34375,-2.921875 0.703125,0 1.15625,0.171875 1.703125,0.515625 L 5.75,-6.6875 C 5.328125,-6.890625 4.5625,-7.03125 3.921875,-7.03125 c -1.84375,0 -3.265625,1.5625 -3.265625,3.65625 0,1.578125 1.1875,3.484375 3.265625,3.484375 0.90625,0 1.296875,-0.15625 1.9375,-0.5625 z m 0,0"
                 id="path4762"
                 inkscape:connector-curvature="0" />
            </symbol>
          </g>
        </defs>
        <g
           id="textext-c5b87459-2"
           style="fill:#ff0000">
          <g
             style="fill:#ff0000;fill-opacity:1"
             id="g4765">
            <use
               xlink:href="#textext-c5b87459-1"
               x="223.43201"
               y="134.765"
               id="use4767"
               width="100%"
               height="100%"
               style="fill:#ff0000" />
          </g>
        </g>
      </g>
    </g>
    <g
       transform="matrix(0.24574219,0,0,0.24574219,69.231476,361.53707)"
       id="g6942">
      <rect
         style="opacity:1;fill:#181818;fill-opacity:0.3372549;stroke:#181818;stroke-width:1;stroke-linecap:round;stroke-linejoin:miter;stroke-miterlimit:4;stroke-dasharray:none;stroke-dashoffset:0;stroke-opacity:0.3372549"
         id="rect6724"
         width="50"
         height="150"
         x="150"
         y="607.90527" />
      <g
         id="g4965"
         transform="matrix(3.9761722,0,0,3.9761722,-730.27596,160.45798)"
         ns0:preamble=""
         ns0:text="$\\mathsf{D}$">
        <defs
           id="defs4967">
          <g
             id="g4969">
            <symbol
               id="textext-bfe319f6-0"
               overflow="visible"
               style="overflow:visible">
              <path
                 id="path4972"
                 d=""
                 style="stroke:none"
                 inkscape:connector-curvature="0" />
            </symbol>
            <symbol
               id="textext-bfe319f6-1"
               overflow="visible"
               style="overflow:visible">
              <path
                 id="path4975"
                 d="m 0.953125,-6.921875 0,6.921875 2.625,0 C 5.28125,0 6.625,-1.515625 6.625,-3.40625 6.625,-5.328125 5.28125,-6.921875 3.5625,-6.921875 Z M 1.8125,-0.5625 l 0,-5.796875 1.53125,0 c 1.390625,0 2.421875,1.203125 2.421875,2.953125 0,1.703125 -1.03125,2.84375 -2.421875,2.84375 z m 0,0"
                 style="stroke:none"
                 inkscape:connector-curvature="0" />
            </symbol>
          </g>
        </defs>
        <g
           id="textext-bfe319f6-2">
          <g
             id="g4978"
             style="fill:#000000;fill-opacity:1">
            <use
               id="use4980"
               y="134.765"
               x="223.43201"
               xlink:href="#textext-bfe319f6-1"
               width="100%"
               height="100%" />
          </g>
        </g>
      </g>
    </g>
    <g
       transform="matrix(0.24574219,0,0,0.24574219,26.658814,341.41596)"
       id="g7613">
      <rect
         style="opacity:1;fill:#181818;fill-opacity:0.3372549;stroke:#181818;stroke-width:1;stroke-linecap:round;stroke-linejoin:miter;stroke-miterlimit:4;stroke-dasharray:none;stroke-dashoffset:0;stroke-opacity:0.3372549"
         id="rect6728-5"
         width="25"
         height="150"
         x="235.35715"
         y="852.90527" />
      <g
         id="g4871-3"
         ns0:preamble=""
         ns0:text="$x$"
         transform="matrix(3.9761722,0,0,3.9761722,-652.20452,400.12916)">
        <defs
           id="defs4873-1">
          <g
             id="g4875-4">
            <symbol
               id="textext-a9a45495-0-9"
               overflow="visible"
               style="overflow:visible">
              <path
                 id="path4878-2"
                 d=""
                 style="stroke:none"
                 inkscape:connector-curvature="0" />
            </symbol>
            <symbol
               id="textext-a9a45495-1-0"
               overflow="visible"
               style="overflow:visible">
              <path
                 id="path4881-6"
                 d="M 3.328125,-3.015625 C 3.390625,-3.265625 3.625,-4.1875 4.3125,-4.1875 c 0.046875,0 0.296875,0 0.5,0.125 C 4.53125,-4 4.34375,-3.765625 4.34375,-3.515625 c 0,0.15625 0.109375,0.34375 0.375,0.34375 0.21875,0 0.53125,-0.171875 0.53125,-0.578125 0,-0.515625 -0.578125,-0.65625 -0.921875,-0.65625 -0.578125,0 -0.921875,0.53125 -1.046875,0.75 -0.25,-0.65625 -0.78125,-0.75 -1.078125,-0.75 -1.03125,0 -1.609375,1.28125 -1.609375,1.53125 0,0.109375 0.109375,0.109375 0.125,0.109375 0.078125,0 0.109375,-0.03125 0.125,-0.109375 0.34375,-1.0625 1,-1.3125 1.34375,-1.3125 0.1875,0 0.53125,0.09375 0.53125,0.671875 0,0.3125 -0.171875,0.96875 -0.53125,2.375 -0.15625,0.609375 -0.515625,1.03125 -0.953125,1.03125 -0.0625,0 -0.28125,0 -0.5,-0.125 0.25,-0.0625 0.46875,-0.265625 0.46875,-0.546875 0,-0.265625 -0.21875,-0.34375 -0.359375,-0.34375 -0.3125,0 -0.546875,0.25 -0.546875,0.578125 0,0.453125 0.484375,0.65625 0.921875,0.65625 0.671875,0 1.03125,-0.703125 1.046875,-0.75 0.125,0.359375 0.484375,0.75 1.078125,0.75 1.03125,0 1.59375,-1.28125 1.59375,-1.53125 0,-0.109375 -0.078125,-0.109375 -0.109375,-0.109375 -0.09375,0 -0.109375,0.046875 -0.140625,0.109375 -0.328125,1.078125 -1,1.3125 -1.3125,1.3125 -0.390625,0 -0.546875,-0.3125 -0.546875,-0.65625 0,-0.21875 0.046875,-0.4375 0.15625,-0.875 z m 0,0"
                 style="stroke:none"
                 inkscape:connector-curvature="0" />
            </symbol>
          </g>
        </defs>
        <g
           id="textext-a9a45495-2-8">
          <g
             id="g4884-9"
             style="fill:#000000;fill-opacity:1">
            <use
               id="use4886-2"
               y="134.765"
               x="223.43201"
               xlink:href="#textext-a9a45495-1-0"
               width="100%"
               height="100%" />
          </g>
        </g>
      </g>
    </g>
    <g
       transform="matrix(0.24574219,0,0,0.24574219,-58.238274,329.25234)"
       id="g7626">
      <rect
         y="1002.9053"
         x="235.35715"
         height="50"
         width="25"
         id="rect6730-8"
         style="opacity:1;fill:#181818;fill-opacity:0.3372549;stroke:#181818;stroke-width:1;stroke-linecap:round;stroke-linejoin:miter;stroke-miterlimit:4;stroke-dasharray:none;stroke-dashoffset:0;stroke-opacity:0.3372549" />
      <g
         transform="matrix(3.9761722,0,0,3.9761722,-651.34738,496.12916)"
         ns0:text="$y$"
         ns0:preamble=""
         id="g5048-6">
        <defs
           id="defs5050-6">
          <g
             id="g5052-4">
            <symbol
               overflow="visible"
               id="textext-08baac82-0-9"
               style="overflow:visible">
              <path
                 style="stroke:none"
                 d=""
                 id="path5055-5"
                 inkscape:connector-curvature="0" />
            </symbol>
            <symbol
               overflow="visible"
               id="textext-08baac82-1-0"
               style="overflow:visible">
              <path
                 style="stroke:none"
                 d="m 4.84375,-3.796875 c 0.046875,-0.140625 0.046875,-0.15625 0.046875,-0.234375 0,-0.171875 -0.140625,-0.265625 -0.296875,-0.265625 -0.09375,0 -0.25,0.0625 -0.34375,0.203125 -0.015625,0.0625 -0.109375,0.359375 -0.140625,0.546875 -0.078125,0.25 -0.140625,0.53125 -0.203125,0.796875 l -0.453125,1.796875 c -0.03125,0.140625 -0.46875,0.84375 -1.125,0.84375 -0.5,0 -0.609375,-0.4375 -0.609375,-0.8125 C 1.71875,-1.375 1.890625,-2 2.21875,-2.875 2.375,-3.28125 2.421875,-3.390625 2.421875,-3.59375 c 0,-0.4375 -0.3125,-0.8125 -0.8125,-0.8125 -0.953125,0 -1.3125,1.453125 -1.3125,1.53125 0,0.109375 0.09375,0.109375 0.109375,0.109375 0.109375,0 0.109375,-0.03125 0.15625,-0.1875 0.28125,-0.9375 0.671875,-1.234375 1.015625,-1.234375 0.078125,0 0.25,0 0.25,0.3125 0,0.25 -0.109375,0.515625 -0.171875,0.703125 -0.40625,1.0625 -0.578125,1.625 -0.578125,2.09375 0,0.890625 0.625,1.1875 1.21875,1.1875 0.390625,0 0.71875,-0.171875 1,-0.453125 -0.125,0.515625 -0.25,1.015625 -0.640625,1.546875 -0.265625,0.328125 -0.640625,0.625 -1.09375,0.625 -0.140625,0 -0.59375,-0.03125 -0.765625,-0.421875 0.15625,0 0.296875,0 0.421875,-0.125 C 1.328125,1.203125 1.421875,1.0625 1.421875,0.875 1.421875,0.5625 1.15625,0.53125 1.0625,0.53125 0.828125,0.53125 0.5,0.6875 0.5,1.171875 c 0,0.5 0.4375,0.875 1.0625,0.875 1.015625,0 2.046875,-0.90625 2.328125,-2.03125 z m 0,0"
                 id="path5058-4"
                 inkscape:connector-curvature="0" />
            </symbol>
          </g>
        </defs>
        <g
           id="textext-08baac82-2-8">
          <g
             style="fill:#000000;fill-opacity:1"
             id="g5061-7">
            <use
               xlink:href="#textext-08baac82-1-0"
               x="223.43201"
               y="134.765"
               id="use5063-1"
               width="100%"
               height="100%" />
          </g>
        </g>
      </g>
    </g>
    <g
       id="g4286-7"
       ns0:preamble=""
       ns0:text="$g$"
       transform="matrix(0.97711326,0,0,0.97711326,-186.1999,451.17415)">
      <defs
         id="defs4288-2">
        <g
           id="g4290-72">
          <symbol
             style="overflow:visible"
             id="textext-ee8938ff-0-2"
             overflow="visible">
            <path
               inkscape:connector-curvature="0"
               id="path4293-6"
               d=""
               style="stroke:none" />
          </symbol>
          <symbol
             style="overflow:visible"
             id="textext-ee8938ff-1-1"
             overflow="visible">
            <path
               inkscape:connector-curvature="0"
               id="path4296-0"
               d="M 4.6875,-3.765625 C 4.703125,-3.8125 4.71875,-3.875 4.71875,-3.9375 c 0,-0.171875 -0.109375,-0.265625 -0.28125,-0.265625 -0.09375,0 -0.375,0.0625 -0.40625,0.421875 -0.1875,-0.359375 -0.53125,-0.625 -0.9375,-0.625 -1.125,0 -2.359375,1.390625 -2.359375,2.828125 0,0.984375 0.59375,1.578125 1.3125,1.578125 0.59375,0 1.0625,-0.46875 1.15625,-0.578125 L 3.21875,-0.5625 C 3.015625,0.3125 2.890625,0.734375 2.890625,0.75 2.84375,0.84375 2.515625,1.828125 1.453125,1.828125 1.265625,1.828125 0.9375,1.8125 0.65625,1.71875 0.953125,1.640625 1.0625,1.375 1.0625,1.203125 c 0,-0.15625 -0.109375,-0.34375 -0.375,-0.34375 -0.21875,0 -0.53125,0.171875 -0.53125,0.578125 0,0.40625 0.359375,0.609375 1.3125,0.609375 1.25,0 1.96875,-0.78125 2.125,-1.375 z M 3.40625,-1.28125 C 3.34375,-1.015625 3.109375,-0.765625 2.890625,-0.578125 2.6875,-0.40625 2.375,-0.21875 2.078125,-0.21875 c -0.5,0 -0.640625,-0.515625 -0.640625,-0.921875 0,-0.46875 0.28125,-1.65625 0.5625,-2.15625 C 2.265625,-3.78125 2.6875,-4.1875 3.109375,-4.1875 c 0.65625,0 0.796875,0.8125 0.796875,0.859375 0,0.046875 -0.015625,0.109375 -0.03125,0.140625 z m 0,0"
               style="stroke:none" />
          </symbol>
        </g>
      </defs>
      <g
         id="textext-ee8938ff-2-6">
        <g
           id="g4299-1"
           style="fill:#000000;fill-opacity:1">
          <g
             id="g6982-5">
            <rect
               transform="matrix(0.25149816,0,0,0.25149816,155.99826,-63.313068)"
               style="opacity:1;fill:#181818;fill-opacity:0.3372549;stroke:#181818;stroke-width:1;stroke-linecap:round;stroke-linejoin:miter;stroke-miterlimit:4;stroke-dasharray:none;stroke-dashoffset:0;stroke-opacity:0.3372549"
               id="rect6730-9"
               width="25"
               height="50"
               x="265"
               y="757.90527" />
            <use
               xlink:href="#textext-ee8938ff-1-1"
               x="223.43201"
               y="134.765"
               id="use4301-4"
               width="100%"
               height="100%" />
          </g>
        </g>
      </g>
    </g>
    <g
       id="g6955-5"
       transform="matrix(0.24574219,0,0,0.24574219,87.168009,348.96704)">
      <rect
         style="opacity:1;fill:#181818;fill-opacity:0.3372549;stroke:#181818;stroke-width:1;stroke-linecap:round;stroke-linejoin:miter;stroke-miterlimit:4;stroke-dasharray:none;stroke-dashoffset:0;stroke-opacity:0.3372549"
         id="rect6726-0"
         width="50"
         height="50"
         x="150"
         y="757.90527" />
      <g
         id="g4539-9"
         transform="matrix(3.9761722,0,0,3.9761722,-729.91881,260.45797)"
         ns0:preamble=""
         ns0:text="$\\mathsf{E}$">
        <defs
           id="defs4541-6">
          <g
             id="g4543-3">
            <symbol
               id="textext-7c280f98-0-8"
               overflow="visible"
               style="overflow:visible">
              <path
                 id="path4546-5"
                 d=""
                 style="stroke:none"
                 inkscape:connector-curvature="0" />
            </symbol>
            <symbol
               id="textext-7c280f98-1-6"
               overflow="visible"
               style="overflow:visible">
              <path
                 id="path4549-1"
                 d="m 5.109375,-3.28125 0,-0.609375 -3.28125,0 0,-2.359375 1.375,0 c 0.109375,0 0.234375,0.015625 0.359375,0.015625 l 1.828125,0 0,-0.65625 -4.453125,0 0,6.890625 4.578125,0 0,-0.703125 -1.25,0 c -0.125,0 -0.234375,0 -0.359375,0 l -2.078125,0 0,-2.578125 z m 0,0"
                 style="stroke:none"
                 inkscape:connector-curvature="0" />
            </symbol>
          </g>
        </defs>
        <g
           id="textext-7c280f98-2-1">
          <g
             id="g4552-5"
             style="fill:#000000;fill-opacity:1">
            <use
               id="use4554-9"
               y="134.765"
               x="223.43201"
               xlink:href="#textext-7c280f98-1-6"
               width="100%"
               height="100%" />
          </g>
        </g>
      </g>
    </g>
    <g
       ns0:text="$\\mathsf{E}^{-1}$"
       ns0:preamble=""
       transform="matrix(0.69091778,0,0,0.69091778,-139.61637,491.65712)"
       id="g9046">
      <defs
         id="defs9048">
        <g
           id="g9050">
          <symbol
             style="overflow:visible"
             overflow="visible"
             id="textext-70291358-0">
            <path
               inkscape:connector-curvature="0"
               style="stroke:none"
               d=""
               id="path9053" />
          </symbol>
          <symbol
             style="overflow:visible"
             overflow="visible"
             id="textext-70291358-1">
            <path
               inkscape:connector-curvature="0"
               style="stroke:none"
               d="m 5.109375,-3.28125 0,-0.609375 -3.28125,0 0,-2.359375 1.375,0 c 0.109375,0 0.234375,0.015625 0.359375,0.015625 l 1.828125,0 0,-0.65625 -4.453125,0 0,6.890625 4.578125,0 0,-0.703125 -1.25,0 c -0.125,0 -0.234375,0 -0.359375,0 l -2.078125,0 0,-2.578125 z m 0,0"
               id="path9056" />
          </symbol>
          <symbol
             style="overflow:visible"
             overflow="visible"
             id="textext-70291358-2">
            <path
               inkscape:connector-curvature="0"
               style="stroke:none"
               d=""
               id="path9059" />
          </symbol>
          <symbol
             style="overflow:visible"
             overflow="visible"
             id="textext-70291358-3">
            <path
               inkscape:connector-curvature="0"
               style="stroke:none"
               d="m 5.1875,-1.578125 c 0.109375,0 0.28125,0 0.28125,-0.15625 0,-0.1875 -0.171875,-0.1875 -0.28125,-0.1875 l -4.15625,0 c -0.109375,0 -0.28125,0 -0.28125,0.171875 0,0.171875 0.15625,0.171875 0.28125,0.171875 z m 0,0"
               id="path9062" />
          </symbol>
          <symbol
             style="overflow:visible"
             overflow="visible"
             id="textext-70291358-4">
            <path
               inkscape:connector-curvature="0"
               style="stroke:none"
               d=""
               id="path9065" />
          </symbol>
          <symbol
             style="overflow:visible"
             overflow="visible"
             id="textext-70291358-5">
            <path
               inkscape:connector-curvature="0"
               style="stroke:none"
               d="m 2.328125,-4.4375 c 0,-0.1875 0,-0.1875 -0.203125,-0.1875 -0.453125,0.4375 -1.078125,0.4375 -1.359375,0.4375 l 0,0.25 c 0.15625,0 0.625,0 1,-0.1875 l 0,3.546875 c 0,0.234375 0,0.328125 -0.6875,0.328125 l -0.265625,0 0,0.25 c 0.125,0 0.984375,-0.03125 1.234375,-0.03125 0.21875,0 1.09375,0.03125 1.25,0.03125 l 0,-0.25 -0.265625,0 c -0.703125,0 -0.703125,-0.09375 -0.703125,-0.328125 z m 0,0"
               id="path9068" />
          </symbol>
        </g>
      </defs>
      <g
         id="textext-70291358-6">
        <g
           style="fill:#000000;fill-opacity:1"
           id="g9071">
          <use
             height="100%"
             width="100%"
             xlink:href="#textext-70291358-1"
             x="223.43201"
             y="134.765"
             id="use9073" />
        </g>
        <g
           style="fill:#000000;fill-opacity:1"
           id="g9075">
          <use
             height="100%"
             width="100%"
             xlink:href="#textext-70291358-3"
             x="229.382"
             y="131.14999"
             id="use9077" />
        </g>
        <g
           style="fill:#000000;fill-opacity:1"
           id="g9079">
          <use
             height="100%"
             width="100%"
             xlink:href="#textext-70291358-5"
             x="235.60899"
             y="131.14999"
             id="use9081" />
        </g>
      </g>
    </g>
    <g
       id="g9868"
       transform="matrix(0.97711326,0,0,0.97711326,-179.84849,452.78958)"
       ns0:preamble=""
       ns0:text="$-$">
      <defs
         id="defs9870">
        <g
           id="g9872">
          <symbol
             id="textext-4977d6f9-0"
             overflow="visible"
             style="overflow:visible">
            <path
               id="path9875"
               d=""
               style="stroke:none"
               inkscape:connector-curvature="0" />
          </symbol>
          <symbol
             id="textext-4977d6f9-1"
             overflow="visible"
             style="overflow:visible">
            <path
               id="path9878"
               d="m 6.5625,-2.296875 c 0.171875,0 0.359375,0 0.359375,-0.203125 0,-0.1875 -0.1875,-0.1875 -0.359375,-0.1875 l -5.390625,0 c -0.171875,0 -0.34375,0 -0.34375,0.1875 0,0.203125 0.171875,0.203125 0.34375,0.203125 z m 0,0"
               style="stroke:none"
               inkscape:connector-curvature="0" />
          </symbol>
        </g>
      </defs>
      <g
         id="textext-4977d6f9-2">
        <g
           id="g9881"
           style="fill:#000000;fill-opacity:1">
          <use
             id="use9883"
             y="134.765"
             x="223.43201"
             xlink:href="#textext-4977d6f9-1"
             width="100%"
             height="100%" />
        </g>
      </g>
    </g>
    <g
       transform="matrix(0.24574219,0,0,0.24574219,-58.407902,300.96909)"
       id="g7613-7">
      <rect
         style="opacity:1;fill:#181818;fill-opacity:0.3372549;stroke:#181818;stroke-width:1;stroke-linecap:round;stroke-linejoin:miter;stroke-miterlimit:4;stroke-dasharray:none;stroke-dashoffset:0;stroke-opacity:0.3372549"
         id="rect6728-5-6"
         width="25"
         height="150"
         x="235.35715"
         y="852.90527" />
      <g
         id="g4871-3-3"
         ns0:preamble=""
         ns0:text="$x$"
         transform="matrix(3.9761722,0,0,3.9761722,-652.20452,400.12916)">
        <defs
           id="defs4873-1-1">
          <g
             id="g4875-4-7">
            <symbol
               id="textext-a9a45495-0-9-5"
               overflow="visible"
               style="overflow:visible">
              <path
                 id="path4878-2-9"
                 d=""
                 style="stroke:none"
                 inkscape:connector-curvature="0" />
            </symbol>
            <symbol
               id="textext-a9a45495-1-0-6"
               overflow="visible"
               style="overflow:visible">
              <path
                 id="path4881-6-2"
                 d="M 3.328125,-3.015625 C 3.390625,-3.265625 3.625,-4.1875 4.3125,-4.1875 c 0.046875,0 0.296875,0 0.5,0.125 C 4.53125,-4 4.34375,-3.765625 4.34375,-3.515625 c 0,0.15625 0.109375,0.34375 0.375,0.34375 0.21875,0 0.53125,-0.171875 0.53125,-0.578125 0,-0.515625 -0.578125,-0.65625 -0.921875,-0.65625 -0.578125,0 -0.921875,0.53125 -1.046875,0.75 -0.25,-0.65625 -0.78125,-0.75 -1.078125,-0.75 -1.03125,0 -1.609375,1.28125 -1.609375,1.53125 0,0.109375 0.109375,0.109375 0.125,0.109375 0.078125,0 0.109375,-0.03125 0.125,-0.109375 0.34375,-1.0625 1,-1.3125 1.34375,-1.3125 0.1875,0 0.53125,0.09375 0.53125,0.671875 0,0.3125 -0.171875,0.96875 -0.53125,2.375 -0.15625,0.609375 -0.515625,1.03125 -0.953125,1.03125 -0.0625,0 -0.28125,0 -0.5,-0.125 0.25,-0.0625 0.46875,-0.265625 0.46875,-0.546875 0,-0.265625 -0.21875,-0.34375 -0.359375,-0.34375 -0.3125,0 -0.546875,0.25 -0.546875,0.578125 0,0.453125 0.484375,0.65625 0.921875,0.65625 0.671875,0 1.03125,-0.703125 1.046875,-0.75 0.125,0.359375 0.484375,0.75 1.078125,0.75 1.03125,0 1.59375,-1.28125 1.59375,-1.53125 0,-0.109375 -0.078125,-0.109375 -0.109375,-0.109375 -0.09375,0 -0.109375,0.046875 -0.140625,0.109375 -0.328125,1.078125 -1,1.3125 -1.3125,1.3125 -0.390625,0 -0.546875,-0.3125 -0.546875,-0.65625 0,-0.21875 0.046875,-0.4375 0.15625,-0.875 z m 0,0"
                 style="stroke:none"
                 inkscape:connector-curvature="0" />
            </symbol>
          </g>
        </defs>
        <g
           id="textext-a9a45495-2-8-1">
          <g
             id="g4884-9-7"
             style="fill:#000000;fill-opacity:1">
            <use
               id="use4886-2-8"
               y="134.765"
               x="223.43201"
               xlink:href="#textext-a9a45495-1-0-6"
               width="100%"
               height="100%" />
          </g>
        </g>
      </g>
    </g>
    <g
       transform="matrix(0.97711326,0,0,0.97711326,-211.53552,399.64708)"
       ns0:text="$=$"
       ns0:preamble=""
       id="g5245-5">
      <defs
         id="defs5247-7">
        <g
           id="g5249-4">
          <symbol
             style="overflow:visible"
             overflow="visible"
             id="textext-8e71e03d-0-1">
            <path
               inkscape:connector-curvature="0"
               style="stroke:none"
               d=""
               id="path5252-8" />
          </symbol>
          <symbol
             style="overflow:visible"
             overflow="visible"
             id="textext-8e71e03d-1-5">
            <path
               inkscape:connector-curvature="0"
               style="stroke:none"
               d="m 6.84375,-3.265625 c 0.15625,0 0.34375,0 0.34375,-0.1875 C 7.1875,-3.65625 7,-3.65625 6.859375,-3.65625 l -5.96875,0 c -0.140625,0 -0.328125,0 -0.328125,0.203125 0,0.1875 0.1875,0.1875 0.328125,0.1875 z m 0.015625,1.9375 c 0.140625,0 0.328125,0 0.328125,-0.203125 0,-0.1875 -0.1875,-0.1875 -0.34375,-0.1875 l -5.953125,0 c -0.140625,0 -0.328125,0 -0.328125,0.1875 0,0.203125 0.1875,0.203125 0.328125,0.203125 z m 0,0"
               id="path5255-9" />
          </symbol>
        </g>
      </defs>
      <g
         id="textext-8e71e03d-2-7">
        <g
           style="fill:#000000;fill-opacity:1"
           id="g5258-5">
          <use
             height="100%"
             width="100%"
             xlink:href="#textext-8e71e03d-1-5"
             x="223.43201"
             y="134.765"
             id="use5260-3" />
        </g>
      </g>
    </g>
    <g
       transform="matrix(0.24574219,0,0,0.24574219,-0.52314777,328.52153)"
       id="g11752"
       style="fill:#ff0000">
      <rect
         y="740.74036"
         x="68.690384"
         height="150"
         width="150"
         id="rect6720"
         style="opacity:1;fill:#ff0000;fill-opacity:0.3372549;stroke:#181818;stroke-width:1;stroke-linecap:round;stroke-linejoin:miter;stroke-miterlimit:4;stroke-dasharray:none;stroke-dashoffset:0;stroke-opacity:0.3372549" />
      <g
         transform="matrix(4.0545646,0,0,4.0545646,-795.65988,285.56373)"
         ns0:text="$\\mathsf{B}^{-1}$"
         ns0:preamble=""
         id="g10823"
         style="fill:#ff0000">
        <defs
           id="defs10825">
          <g
             id="g10827">
            <symbol
               style="overflow:visible"
               overflow="visible"
               id="textext-7c6442cc-0">
              <path
                 inkscape:connector-curvature="0"
                 style="stroke:none"
                 d=""
                 id="path10830" />
            </symbol>
            <symbol
               style="overflow:visible"
               overflow="visible"
               id="textext-7c6442cc-1">
              <path
                 inkscape:connector-curvature="0"
                 style="stroke:none"
                 d="m 0.96875,-6.921875 0,6.921875 2.625,0 c 1.4375,0 2.484375,-0.890625 2.484375,-1.875 0,-0.859375 -0.859375,-1.578125 -1.921875,-1.75 0.90625,-0.21875 1.65625,-0.796875 1.65625,-1.5625 0,-0.90625 -1.0625,-1.734375 -2.484375,-1.734375 z m 0.828125,3.03125 0,-2.46875 1.25,0 c 1.109375,0 1.984375,0.53125 1.984375,1.1875 0,0.59375 -0.703125,1.28125 -2.078125,1.28125 z m 0,3.328125 0,-2.734375 1.4375,0 c 1.0625,0 2.046875,0.609375 2.046875,1.40625 0,0.75 -0.890625,1.328125 -1.96875,1.328125 z m 0,0"
                 id="path10833" />
            </symbol>
            <symbol
               style="overflow:visible"
               overflow="visible"
               id="textext-7c6442cc-2">
              <path
                 inkscape:connector-curvature="0"
                 style="stroke:none"
                 d=""
                 id="path10836" />
            </symbol>
            <symbol
               style="overflow:visible"
               overflow="visible"
               id="textext-7c6442cc-3">
              <path
                 inkscape:connector-curvature="0"
                 style="stroke:none"
                 d="m 5.1875,-1.578125 c 0.109375,0 0.28125,0 0.28125,-0.15625 0,-0.1875 -0.171875,-0.1875 -0.28125,-0.1875 l -4.15625,0 c -0.109375,0 -0.28125,0 -0.28125,0.171875 0,0.171875 0.15625,0.171875 0.28125,0.171875 z m 0,0"
                 id="path10839" />
            </symbol>
            <symbol
               style="overflow:visible"
               overflow="visible"
               id="textext-7c6442cc-4">
              <path
                 inkscape:connector-curvature="0"
                 style="stroke:none"
                 d=""
                 id="path10842" />
            </symbol>
            <symbol
               style="overflow:visible"
               overflow="visible"
               id="textext-7c6442cc-5">
              <path
                 inkscape:connector-curvature="0"
                 style="stroke:none"
                 d="m 2.328125,-4.4375 c 0,-0.1875 0,-0.1875 -0.203125,-0.1875 -0.453125,0.4375 -1.078125,0.4375 -1.359375,0.4375 l 0,0.25 c 0.15625,0 0.625,0 1,-0.1875 l 0,3.546875 c 0,0.234375 0,0.328125 -0.6875,0.328125 l -0.265625,0 0,0.25 c 0.125,0 0.984375,-0.03125 1.234375,-0.03125 0.21875,0 1.09375,0.03125 1.25,0.03125 l 0,-0.25 -0.265625,0 c -0.703125,0 -0.703125,-0.09375 -0.703125,-0.328125 z m 0,0"
                 id="path10845" />
            </symbol>
          </g>
        </defs>
        <g
           id="textext-7c6442cc-6"
           style="fill:#ff0000">
          <g
             style="fill:#ff0000;fill-opacity:1"
             id="g10848">
            <use
               height="100%"
               width="100%"
               xlink:href="#textext-7c6442cc-1"
               x="223.43201"
               y="134.765"
               id="use10850"
               style="fill:#ff0000" />
          </g>
          <g
             style="fill:#ff0000;fill-opacity:1"
             id="g10852">
            <use
               height="100%"
               width="100%"
               xlink:href="#textext-7c6442cc-3"
               x="230.07401"
               y="131.14999"
               id="use10854"
               style="fill:#ff0000" />
          </g>
          <g
             style="fill:#ff0000;fill-opacity:1"
             id="g10856">
            <use
               height="100%"
               width="100%"
               xlink:href="#textext-7c6442cc-5"
               x="236.30099"
               y="131.14999"
               id="use10858"
               style="fill:#ff0000" />
          </g>
        </g>
      </g>
    </g>
    <path
       inkscape:connector-curvature="0"
       id="path10473-8"
       d="m 57.330304,547.32824 -2.121568,0 0,-36.86131 2.121568,0"
       style="fill:none;fill-rule:evenodd;stroke:#000000;stroke-width:0.79100001;stroke-linecap:butt;stroke-linejoin:miter;stroke-miterlimit:4;stroke-dasharray:none;stroke-opacity:1"
       sodipodi:nodetypes="cccc" />
    <g
       transform="matrix(0.24574219,0,0,0.24574219,-26.940433,326.23964)"
       id="g11592">
      <rect
         y="750.74036"
         x="348.69037"
         height="150"
         width="150"
         id="rect6720-8"
         style="opacity:1;fill:#181818;fill-opacity:0.3372549;stroke:#181818;stroke-width:1;stroke-linecap:round;stroke-linejoin:miter;stroke-miterlimit:4;stroke-dasharray:none;stroke-dashoffset:0;stroke-opacity:0.3372549" />
      <g
         id="g11340"
         ns0:preamble=""
         ns0:text="$\\mathsf{I}$"
         transform="matrix(4.3731757,0,0,4.3731757,-563.55206,256.72259)">
        <defs
           id="defs11342">
          <g
             id="g11344">
            <symbol
               id="textext-d5d438e5-0"
               overflow="visible"
               style="overflow:visible">
              <path
                 id="path11347"
                 d=""
                 style="stroke:none"
                 inkscape:connector-curvature="0" />
            </symbol>
            <symbol
               id="textext-d5d438e5-1"
               overflow="visible"
               style="overflow:visible">
              <path
                 id="path11350"
                 d="m 1.828125,-6.921875 -0.890625,0 0,6.921875 0.890625,0 z m 0,0"
                 style="stroke:none"
                 inkscape:connector-curvature="0" />
            </symbol>
          </g>
        </defs>
        <g
           id="textext-d5d438e5-2">
          <g
             id="g11353"
             style="fill:#000000;fill-opacity:1">
            <use
               id="use11355"
               y="134.765"
               x="223.43201"
               xlink:href="#textext-d5d438e5-1"
               width="100%"
               height="100%" />
          </g>
        </g>
      </g>
    </g>
    <g
       id="g7931-3"
       transform="matrix(0.97711326,0,0,0.97711326,-121.09491,400.37932)"
       ns0:preamble=""
       ns0:text="$+$">
      <defs
         id="defs7933-1">
        <g
           id="g7935-8">
          <symbol
             id="textext-c27c60d4-0-9"
             overflow="visible"
             style="overflow:visible">
            <path
               id="path7938-6"
               d=""
               style="stroke:none"
               inkscape:connector-curvature="0" />
          </symbol>
          <symbol
             id="textext-c27c60d4-1-4"
             overflow="visible"
             style="overflow:visible">
            <path
               id="path7941-3"
               d="m 4.078125,-2.296875 2.78125,0 C 7,-2.296875 7.1875,-2.296875 7.1875,-2.5 7.1875,-2.6875 7,-2.6875 6.859375,-2.6875 l -2.78125,0 0,-2.796875 c 0,-0.140625 0,-0.328125 -0.203125,-0.328125 -0.203125,0 -0.203125,0.1875 -0.203125,0.328125 l 0,2.796875 -2.78125,0 c -0.140625,0 -0.328125,0 -0.328125,0.1875 0,0.203125 0.1875,0.203125 0.328125,0.203125 l 2.78125,0 0,2.796875 c 0,0.140625 0,0.328125 0.203125,0.328125 0.203125,0 0.203125,-0.1875 0.203125,-0.328125 z m 0,0"
               style="stroke:none"
               inkscape:connector-curvature="0" />
          </symbol>
        </g>
      </defs>
      <g
         id="textext-c27c60d4-2-3">
        <g
           id="g7944-3"
           style="fill:#000000;fill-opacity:1">
          <use
             id="use7946-8"
             y="134.765"
             x="223.43201"
             xlink:href="#textext-c27c60d4-1-4"
             width="100%"
             height="100%" />
        </g>
      </g>
    </g>
    <g
       id="g9868-0"
       transform="matrix(0.97711326,0,0,0.97711326,-82.308477,400.32879)"
       ns0:preamble=""
       ns0:text="$-$">
      <defs
         id="defs9870-4">
        <g
           id="g9872-8">
          <symbol
             id="textext-4977d6f9-0-8"
             overflow="visible"
             style="overflow:visible">
            <path
               id="path9875-8"
               d=""
               style="stroke:none"
               inkscape:connector-curvature="0" />
          </symbol>
          <symbol
             id="textext-4977d6f9-1-9"
             overflow="visible"
             style="overflow:visible">
            <path
               id="path9878-7"
               d="m 6.5625,-2.296875 c 0.171875,0 0.359375,0 0.359375,-0.203125 0,-0.1875 -0.1875,-0.1875 -0.359375,-0.1875 l -5.390625,0 c -0.171875,0 -0.34375,0 -0.34375,0.1875 0,0.203125 0.171875,0.203125 0.34375,0.203125 z m 0,0"
               style="stroke:none"
               inkscape:connector-curvature="0" />
          </symbol>
        </g>
      </defs>
      <g
         id="textext-4977d6f9-2-7">
        <g
           id="g9881-6"
           style="fill:#000000;fill-opacity:1">
          <use
             id="use9883-4"
             y="134.765"
             x="223.43201"
             xlink:href="#textext-4977d6f9-1-9"
             width="100%"
             height="100%" />
        </g>
      </g>
    </g>
    <g
       transform="matrix(0.24574219,0,0,0.24574219,144.50408,348.97347)"
       id="g6929-3"
       style="fill:#ff0000">
      <rect
         style="opacity:1;fill:#ff0000;fill-opacity:0.3372549;stroke:#181818;stroke-width:1;stroke-linecap:round;stroke-linejoin:miter;stroke-miterlimit:4;stroke-dasharray:none;stroke-dashoffset:0;stroke-opacity:0.3372549"
         id="rect6722-0"
         width="150"
         height="50"
         x="2.4798585e-09"
         y="757.90527" />
      <g
         ns0:text="$\\mathsf{C}$"
         ns0:preamble=""
         transform="matrix(3.9761722,0,0,3.9761722,-829.41881,260.45796)"
         id="g4752-3"
         style="fill:#ff0000">
        <defs
           id="defs4754-0">
          <g
             id="g4756-9">
            <symbol
               overflow="visible"
               id="textext-c5b87459-0-2"
               style="overflow:visible">
              <path
                 style="stroke:none"
                 d=""
                 id="path4759-5"
                 inkscape:connector-curvature="0" />
            </symbol>
            <symbol
               overflow="visible"
               id="textext-c5b87459-1-4"
               style="overflow:visible">
              <path
                 style="stroke:none"
                 d="M 5.796875,-1.140625 C 5.21875,-0.75 4.875,-0.53125 3.890625,-0.53125 c -1.4375,0 -2.328125,-1.5 -2.328125,-2.9375 0,-1.359375 0.8125,-2.921875 2.34375,-2.921875 0.703125,0 1.15625,0.171875 1.703125,0.515625 L 5.75,-6.6875 C 5.328125,-6.890625 4.5625,-7.03125 3.921875,-7.03125 c -1.84375,0 -3.265625,1.5625 -3.265625,3.65625 0,1.578125 1.1875,3.484375 3.265625,3.484375 0.90625,0 1.296875,-0.15625 1.9375,-0.5625 z m 0,0"
                 id="path4762-0"
                 inkscape:connector-curvature="0" />
            </symbol>
          </g>
        </defs>
        <g
           id="textext-c5b87459-2-5"
           style="fill:#ff0000">
          <g
             style="fill:#ff0000;fill-opacity:1"
             id="g4765-9">
            <use
               xlink:href="#textext-c5b87459-1-4"
               x="223.43201"
               y="134.765"
               id="use4767-4"
               width="100%"
               height="100%"
               style="fill:#ff0000" />
          </g>
        </g>
      </g>
    </g>
    <g
       id="g11752-6"
       transform="matrix(0.24574219,0,0,0.24574219,169.01401,328.74482)"
       style="fill:#ff0000">
      <rect
         y="740.74036"
         x="68.690384"
         height="150"
         width="150"
         id="rect6720-9"
         style="opacity:1;fill:#ff0000;fill-opacity:0.3372549;stroke:#181818;stroke-width:1;stroke-linecap:round;stroke-linejoin:miter;stroke-miterlimit:4;stroke-dasharray:none;stroke-dashoffset:0;stroke-opacity:0.3372549" />
      <g
         transform="matrix(4.0545646,0,0,4.0545646,-795.65988,285.56373)"
         ns0:text="$\\mathsf{B}^{-1}$"
         ns0:preamble=""
         id="g10823-2"
         style="fill:#ff0000">
        <defs
           id="defs10825-2">
          <g
             id="g10827-4">
            <symbol
               style="overflow:visible"
               overflow="visible"
               id="textext-7c6442cc-0-7">
              <path
                 inkscape:connector-curvature="0"
                 style="stroke:none"
                 d=""
                 id="path10830-7" />
            </symbol>
            <symbol
               style="overflow:visible"
               overflow="visible"
               id="textext-7c6442cc-1-5">
              <path
                 inkscape:connector-curvature="0"
                 style="stroke:none"
                 d="m 0.96875,-6.921875 0,6.921875 2.625,0 c 1.4375,0 2.484375,-0.890625 2.484375,-1.875 0,-0.859375 -0.859375,-1.578125 -1.921875,-1.75 0.90625,-0.21875 1.65625,-0.796875 1.65625,-1.5625 0,-0.90625 -1.0625,-1.734375 -2.484375,-1.734375 z m 0.828125,3.03125 0,-2.46875 1.25,0 c 1.109375,0 1.984375,0.53125 1.984375,1.1875 0,0.59375 -0.703125,1.28125 -2.078125,1.28125 z m 0,3.328125 0,-2.734375 1.4375,0 c 1.0625,0 2.046875,0.609375 2.046875,1.40625 0,0.75 -0.890625,1.328125 -1.96875,1.328125 z m 0,0"
                 id="path10833-4" />
            </symbol>
            <symbol
               style="overflow:visible"
               overflow="visible"
               id="textext-7c6442cc-2-8">
              <path
                 inkscape:connector-curvature="0"
                 style="stroke:none"
                 d=""
                 id="path10836-1" />
            </symbol>
            <symbol
               style="overflow:visible"
               overflow="visible"
               id="textext-7c6442cc-3-2">
              <path
                 inkscape:connector-curvature="0"
                 style="stroke:none"
                 d="m 5.1875,-1.578125 c 0.109375,0 0.28125,0 0.28125,-0.15625 0,-0.1875 -0.171875,-0.1875 -0.28125,-0.1875 l -4.15625,0 c -0.109375,0 -0.28125,0 -0.28125,0.171875 0,0.171875 0.15625,0.171875 0.28125,0.171875 z m 0,0"
                 id="path10839-8" />
            </symbol>
            <symbol
               style="overflow:visible"
               overflow="visible"
               id="textext-7c6442cc-4-9">
              <path
                 inkscape:connector-curvature="0"
                 style="stroke:none"
                 d=""
                 id="path10842-3" />
            </symbol>
            <symbol
               style="overflow:visible"
               overflow="visible"
               id="textext-7c6442cc-5-6">
              <path
                 inkscape:connector-curvature="0"
                 style="stroke:none"
                 d="m 2.328125,-4.4375 c 0,-0.1875 0,-0.1875 -0.203125,-0.1875 -0.453125,0.4375 -1.078125,0.4375 -1.359375,0.4375 l 0,0.25 c 0.15625,0 0.625,0 1,-0.1875 l 0,3.546875 c 0,0.234375 0,0.328125 -0.6875,0.328125 l -0.265625,0 0,0.25 c 0.125,0 0.984375,-0.03125 1.234375,-0.03125 0.21875,0 1.09375,0.03125 1.25,0.03125 l 0,-0.25 -0.265625,0 c -0.703125,0 -0.703125,-0.09375 -0.703125,-0.328125 z m 0,0"
                 id="path10845-8" />
            </symbol>
          </g>
        </defs>
        <g
           id="textext-7c6442cc-6-0"
           style="fill:#ff0000">
          <g
             style="fill:#ff0000;fill-opacity:1"
             id="g10848-2">
            <use
               height="100%"
               width="100%"
               xlink:href="#textext-7c6442cc-1-5"
               x="223.43201"
               y="134.765"
               id="use10850-1"
               style="fill:#ff0000" />
          </g>
          <g
             style="fill:#ff0000;fill-opacity:1"
             id="g10852-0">
            <use
               height="100%"
               width="100%"
               xlink:href="#textext-7c6442cc-3-2"
               x="230.07401"
               y="131.14999"
               id="use10854-5"
               style="fill:#ff0000" />
          </g>
          <g
             style="fill:#ff0000;fill-opacity:1"
             id="g10856-1">
            <use
               height="100%"
               width="100%"
               xlink:href="#textext-7c6442cc-5-6"
               x="236.30099"
               y="131.14999"
               id="use10858-1"
               style="fill:#ff0000" />
          </g>
        </g>
      </g>
    </g>
    <g
       transform="matrix(0.24574219,0,0,0.24574219,187.18773,361.53707)"
       id="g6942-0">
      <rect
         style="opacity:1;fill:#181818;fill-opacity:0.3372549;stroke:#181818;stroke-width:1;stroke-linecap:round;stroke-linejoin:miter;stroke-miterlimit:4;stroke-dasharray:none;stroke-dashoffset:0;stroke-opacity:0.3372549"
         id="rect6724-8"
         width="50"
         height="150"
         x="150"
         y="607.90527" />
      <g
         id="g4965-5"
         transform="matrix(3.9761722,0,0,3.9761722,-730.27596,160.45798)"
         ns0:preamble=""
         ns0:text="$\\mathsf{D}$">
        <defs
           id="defs4967-0">
          <g
             id="g4969-6">
            <symbol
               id="textext-bfe319f6-0-4"
               overflow="visible"
               style="overflow:visible">
              <path
                 id="path4972-6"
                 d=""
                 style="stroke:none"
                 inkscape:connector-curvature="0" />
            </symbol>
            <symbol
               id="textext-bfe319f6-1-2"
               overflow="visible"
               style="overflow:visible">
              <path
                 id="path4975-5"
                 d="m 0.953125,-6.921875 0,6.921875 2.625,0 C 5.28125,0 6.625,-1.515625 6.625,-3.40625 6.625,-5.328125 5.28125,-6.921875 3.5625,-6.921875 Z M 1.8125,-0.5625 l 0,-5.796875 1.53125,0 c 1.390625,0 2.421875,1.203125 2.421875,2.953125 0,1.703125 -1.03125,2.84375 -2.421875,2.84375 z m 0,0"
                 style="stroke:none"
                 inkscape:connector-curvature="0" />
            </symbol>
          </g>
        </defs>
        <g
           id="textext-bfe319f6-2-8">
          <g
             id="g4978-6"
             style="fill:#000000;fill-opacity:1">
            <use
               id="use4980-2"
               y="134.765"
               x="223.43201"
               xlink:href="#textext-bfe319f6-1-2"
               width="100%"
               height="100%" />
          </g>
        </g>
      </g>
    </g>
    <g
       id="g12275"
       transform="matrix(0.97711326,0,0,0.97711326,21.678773,387.05322)"
       ns0:preamble=""
       ns0:text="$^{-1}$">
      <defs
         id="defs12277">
        <g
           id="g12279">
          <symbol
             id="textext-37974b05-0"
             overflow="visible"
             style="overflow:visible">
            <path
               id="path12282"
               d=""
               style="stroke:none"
               inkscape:connector-curvature="0" />
          </symbol>
          <symbol
             id="textext-37974b05-1"
             overflow="visible"
             style="overflow:visible">
            <path
               id="path12285"
               d="m 5.1875,-1.578125 c 0.109375,0 0.28125,0 0.28125,-0.15625 0,-0.1875 -0.171875,-0.1875 -0.28125,-0.1875 l -4.15625,0 c -0.109375,0 -0.28125,0 -0.28125,0.171875 0,0.171875 0.15625,0.171875 0.28125,0.171875 z m 0,0"
               style="stroke:none"
               inkscape:connector-curvature="0" />
          </symbol>
          <symbol
             id="textext-37974b05-2"
             overflow="visible"
             style="overflow:visible">
            <path
               id="path12288"
               d=""
               style="stroke:none"
               inkscape:connector-curvature="0" />
          </symbol>
          <symbol
             id="textext-37974b05-3"
             overflow="visible"
             style="overflow:visible">
            <path
               id="path12291"
               d="m 2.328125,-4.4375 c 0,-0.1875 0,-0.1875 -0.203125,-0.1875 -0.453125,0.4375 -1.078125,0.4375 -1.359375,0.4375 l 0,0.25 c 0.15625,0 0.625,0 1,-0.1875 l 0,3.546875 c 0,0.234375 0,0.328125 -0.6875,0.328125 l -0.265625,0 0,0.25 c 0.125,0 0.984375,-0.03125 1.234375,-0.03125 0.21875,0 1.09375,0.03125 1.25,0.03125 l 0,-0.25 -0.265625,0 c -0.703125,0 -0.703125,-0.09375 -0.703125,-0.328125 z m 0,0"
               style="stroke:none"
               inkscape:connector-curvature="0" />
          </symbol>
        </g>
      </defs>
      <g
         id="textext-37974b05-4">
        <g
           id="g12294"
           style="fill:#000000;fill-opacity:1">
          <use
             id="use12296"
             y="131.149"
             x="223.43201"
             xlink:href="#textext-37974b05-1"
             width="100%"
             height="100%" />
        </g>
        <g
           id="g12298"
           style="fill:#000000;fill-opacity:1">
          <use
             id="use12300"
             y="131.149"
             x="229.659"
             xlink:href="#textext-37974b05-3"
             width="100%"
             height="100%" />
        </g>
      </g>
    </g>
    <g
       transform="matrix(0.24574219,0,0,0.24574219,247.18265,348.79489)"
       id="g6929-3-8"
       style="fill:#ff0000">
      <rect
         style="opacity:1;fill:#ff0000;fill-opacity:0.3372549;stroke:#181818;stroke-width:1;stroke-linecap:round;stroke-linejoin:miter;stroke-miterlimit:4;stroke-dasharray:none;stroke-dashoffset:0;stroke-opacity:0.3372549"
         id="rect6722-0-1"
         width="150"
         height="50"
         x="2.4798585e-09"
         y="757.90527" />
      <g
         ns0:text="$\\mathsf{C}$"
         ns0:preamble=""
         transform="matrix(3.9761722,0,0,3.9761722,-829.41881,260.45796)"
         id="g4752-3-3"
         style="fill:#ff0000">
        <defs
           id="defs4754-0-1">
          <g
             id="g4756-9-1">
            <symbol
               overflow="visible"
               id="textext-c5b87459-0-2-0"
               style="overflow:visible">
              <path
                 style="stroke:none"
                 d=""
                 id="path4759-5-3"
                 inkscape:connector-curvature="0" />
            </symbol>
            <symbol
               overflow="visible"
               id="textext-c5b87459-1-4-4"
               style="overflow:visible">
              <path
                 style="stroke:none"
                 d="M 5.796875,-1.140625 C 5.21875,-0.75 4.875,-0.53125 3.890625,-0.53125 c -1.4375,0 -2.328125,-1.5 -2.328125,-2.9375 0,-1.359375 0.8125,-2.921875 2.34375,-2.921875 0.703125,0 1.15625,0.171875 1.703125,0.515625 L 5.75,-6.6875 C 5.328125,-6.890625 4.5625,-7.03125 3.921875,-7.03125 c -1.84375,0 -3.265625,1.5625 -3.265625,3.65625 0,1.578125 1.1875,3.484375 3.265625,3.484375 0.90625,0 1.296875,-0.15625 1.9375,-0.5625 z m 0,0"
                 id="path4762-0-0"
                 inkscape:connector-curvature="0" />
            </symbol>
          </g>
        </defs>
        <g
           id="textext-c5b87459-2-5-3"
           style="fill:#ff0000">
          <g
             style="fill:#ff0000;fill-opacity:1"
             id="g4765-9-9">
            <use
               xlink:href="#textext-c5b87459-1-4-4"
               x="223.43201"
               y="134.765"
               id="use4767-4-1"
               width="100%"
               height="100%"
               style="fill:#ff0000" />
          </g>
        </g>
      </g>
    </g>
    <g
       id="g11752-6-9"
       transform="matrix(0.24574219,0,0,0.24574219,269.37115,328.38767)"
       style="fill:#ff0000">
      <rect
         y="740.74036"
         x="68.690384"
         height="150"
         width="150"
         id="rect6720-9-6"
         style="opacity:1;fill:#ff0000;fill-opacity:0.3372549;stroke:#181818;stroke-width:1;stroke-linecap:round;stroke-linejoin:miter;stroke-miterlimit:4;stroke-dasharray:none;stroke-dashoffset:0;stroke-opacity:0.3372549" />
      <g
         transform="matrix(4.0545646,0,0,4.0545646,-795.65988,285.56373)"
         ns0:text="$\\mathsf{B}^{-1}$"
         ns0:preamble=""
         id="g10823-2-9"
         style="fill:#ff0000">
        <defs
           id="defs10825-2-3">
          <g
             id="g10827-4-3">
            <symbol
               style="overflow:visible"
               overflow="visible"
               id="textext-7c6442cc-0-7-8">
              <path
                 inkscape:connector-curvature="0"
                 style="stroke:none"
                 d=""
                 id="path10830-7-0" />
            </symbol>
            <symbol
               style="overflow:visible"
               overflow="visible"
               id="textext-7c6442cc-1-5-5">
              <path
                 inkscape:connector-curvature="0"
                 style="stroke:none"
                 d="m 0.96875,-6.921875 0,6.921875 2.625,0 c 1.4375,0 2.484375,-0.890625 2.484375,-1.875 0,-0.859375 -0.859375,-1.578125 -1.921875,-1.75 0.90625,-0.21875 1.65625,-0.796875 1.65625,-1.5625 0,-0.90625 -1.0625,-1.734375 -2.484375,-1.734375 z m 0.828125,3.03125 0,-2.46875 1.25,0 c 1.109375,0 1.984375,0.53125 1.984375,1.1875 0,0.59375 -0.703125,1.28125 -2.078125,1.28125 z m 0,3.328125 0,-2.734375 1.4375,0 c 1.0625,0 2.046875,0.609375 2.046875,1.40625 0,0.75 -0.890625,1.328125 -1.96875,1.328125 z m 0,0"
                 id="path10833-4-6" />
            </symbol>
            <symbol
               style="overflow:visible"
               overflow="visible"
               id="textext-7c6442cc-2-8-6">
              <path
                 inkscape:connector-curvature="0"
                 style="stroke:none"
                 d=""
                 id="path10836-1-4" />
            </symbol>
            <symbol
               style="overflow:visible"
               overflow="visible"
               id="textext-7c6442cc-3-2-0">
              <path
                 inkscape:connector-curvature="0"
                 style="stroke:none"
                 d="m 5.1875,-1.578125 c 0.109375,0 0.28125,0 0.28125,-0.15625 0,-0.1875 -0.171875,-0.1875 -0.28125,-0.1875 l -4.15625,0 c -0.109375,0 -0.28125,0 -0.28125,0.171875 0,0.171875 0.15625,0.171875 0.28125,0.171875 z m 0,0"
                 id="path10839-8-0" />
            </symbol>
            <symbol
               style="overflow:visible"
               overflow="visible"
               id="textext-7c6442cc-4-9-4">
              <path
                 inkscape:connector-curvature="0"
                 style="stroke:none"
                 d=""
                 id="path10842-3-6" />
            </symbol>
            <symbol
               style="overflow:visible"
               overflow="visible"
               id="textext-7c6442cc-5-6-2">
              <path
                 inkscape:connector-curvature="0"
                 style="stroke:none"
                 d="m 2.328125,-4.4375 c 0,-0.1875 0,-0.1875 -0.203125,-0.1875 -0.453125,0.4375 -1.078125,0.4375 -1.359375,0.4375 l 0,0.25 c 0.15625,0 0.625,0 1,-0.1875 l 0,3.546875 c 0,0.234375 0,0.328125 -0.6875,0.328125 l -0.265625,0 0,0.25 c 0.125,0 0.984375,-0.03125 1.234375,-0.03125 0.21875,0 1.09375,0.03125 1.25,0.03125 l 0,-0.25 -0.265625,0 c -0.703125,0 -0.703125,-0.09375 -0.703125,-0.328125 z m 0,0"
                 id="path10845-8-6" />
            </symbol>
          </g>
        </defs>
        <g
           id="textext-7c6442cc-6-0-7"
           style="fill:#ff0000">
          <g
             style="fill:#ff0000;fill-opacity:1"
             id="g10848-2-5">
            <use
               height="100%"
               width="100%"
               xlink:href="#textext-7c6442cc-1-5-5"
               x="223.43201"
               y="134.765"
               id="use10850-1-6"
               style="fill:#ff0000" />
          </g>
          <g
             style="fill:#ff0000;fill-opacity:1"
             id="g10852-0-9">
            <use
               height="100%"
               width="100%"
               xlink:href="#textext-7c6442cc-3-2-0"
               x="230.07401"
               y="131.14999"
               id="use10854-5-8"
               style="fill:#ff0000" />
          </g>
          <g
             style="fill:#ff0000;fill-opacity:1"
             id="g10856-1-7">
            <use
               height="100%"
               width="100%"
               xlink:href="#textext-7c6442cc-5-6-2"
               x="236.30099"
               y="131.14999"
               id="use10858-1-2"
               style="fill:#ff0000" />
          </g>
        </g>
      </g>
    </g>
    <g
       transform="matrix(0.24574219,0,0,0.24574219,266.41469,361.21231)"
       id="g6968-9">
      <rect
         style="opacity:1;fill:#181818;fill-opacity:0.3372549;stroke:#181818;stroke-width:1;stroke-linecap:round;stroke-linejoin:miter;stroke-miterlimit:4;stroke-dasharray:none;stroke-dashoffset:0;stroke-opacity:0.3372549"
         id="rect6728-9"
         width="25"
         height="150"
         x="265"
         y="607.90527" />
      <g
         id="g4229-6"
         ns0:preamble=""
         ns0:text="$f$"
         transform="matrix(3.9761722,0,0,3.9761722,-623.06167,156.95796)">
        <defs
           id="defs4231-0">
          <g
             id="g4233-2">
            <symbol
               id="textext-75ac2183-0-7"
               overflow="visible"
               style="overflow:visible">
              <path
                 id="path4236-6"
                 d=""
                 style="stroke:none"
                 inkscape:connector-curvature="0" />
            </symbol>
            <symbol
               id="textext-75ac2183-1-1"
               overflow="visible"
               style="overflow:visible">
              <path
                 id="path4239-3"
                 d="m 3.65625,-3.984375 0.859375,0 c 0.203125,0 0.296875,0 0.296875,-0.203125 0,-0.109375 -0.09375,-0.109375 -0.265625,-0.109375 l -0.828125,0 0.203125,-1.140625 c 0.046875,-0.203125 0.1875,-0.90625 0.25,-1.03125 0.078125,-0.1875 0.25,-0.34375 0.46875,-0.34375 0.03125,0 0.296875,0 0.484375,0.1875 -0.4375,0.03125 -0.546875,0.390625 -0.546875,0.53125 0,0.234375 0.1875,0.359375 0.375,0.359375 C 5.21875,-5.734375 5.5,-5.96875 5.5,-6.34375 c 0,-0.453125 -0.453125,-0.6875 -0.859375,-0.6875 -0.34375,0 -0.96875,0.1875 -1.265625,1.171875 -0.0625,0.203125 -0.09375,0.3125 -0.328125,1.5625 l -0.6875,0 c -0.203125,0 -0.3125,0 -0.3125,0.1875 0,0.125 0.09375,0.125 0.28125,0.125 l 0.65625,0 -0.734375,3.9375 c -0.1875,0.96875 -0.359375,1.875 -0.875,1.875 -0.046875,0 -0.28125,0 -0.484375,-0.1875 C 1.359375,1.609375 1.453125,1.25 1.453125,1.109375 1.453125,0.875 1.265625,0.75 1.078125,0.75 0.8125,0.75 0.53125,0.984375 0.53125,1.359375 c 0,0.4375 0.4375,0.6875 0.84375,0.6875 0.546875,0 0.953125,-0.59375 1.125,-0.96875 0.328125,-0.625 0.546875,-1.828125 0.5625,-1.90625 z m 0,0"
                 style="stroke:none"
                 inkscape:connector-curvature="0" />
            </symbol>
          </g>
        </defs>
        <g
           id="textext-75ac2183-2-2">
          <g
             id="g4242-1"
             style="fill:#000000;fill-opacity:1">
            <use
               id="use4244-5"
               y="134.765"
               x="223.43201"
               xlink:href="#textext-75ac2183-1-1"
               width="100%"
               height="100%" />
          </g>
        </g>
      </g>
    </g>
    <g
       id="g9868-0-9"
       transform="matrix(0.97711326,0,0,0.97711326,120.63795,400.68592)"
       ns0:preamble=""
       ns0:text="$-$">
      <defs
         id="defs9870-4-9">
        <g
           id="g9872-8-1">
          <symbol
             id="textext-4977d6f9-0-8-4"
             overflow="visible"
             style="overflow:visible">
            <path
               id="path9875-8-9"
               d=""
               style="stroke:none"
               inkscape:connector-curvature="0" />
          </symbol>
          <symbol
             id="textext-4977d6f9-1-9-1"
             overflow="visible"
             style="overflow:visible">
            <path
               id="path9878-7-0"
               d="m 6.5625,-2.296875 c 0.171875,0 0.359375,0 0.359375,-0.203125 0,-0.1875 -0.1875,-0.1875 -0.359375,-0.1875 l -5.390625,0 c -0.171875,0 -0.34375,0 -0.34375,0.1875 0,0.203125 0.171875,0.203125 0.34375,0.203125 z m 0,0"
               style="stroke:none"
               inkscape:connector-curvature="0" />
          </symbol>
        </g>
      </defs>
      <g
         id="textext-4977d6f9-2-7-7">
        <g
           id="g9881-6-5"
           style="fill:#000000;fill-opacity:1">
          <use
             id="use9883-4-8"
             y="134.765"
             x="223.43201"
             xlink:href="#textext-4977d6f9-1-9-1"
             width="100%"
             height="100%" />
        </g>
      </g>
    </g>
    <g
       transform="matrix(0.24574219,0,0,0.24574219,311.37433,361.17992)"
       id="g6942-7">
      <rect
         style="opacity:1;fill:#181818;fill-opacity:0.3372549;stroke:#181818;stroke-width:1;stroke-linecap:round;stroke-linejoin:miter;stroke-miterlimit:4;stroke-dasharray:none;stroke-dashoffset:0;stroke-opacity:0.3372549"
         id="rect6724-0"
         width="50"
         height="150"
         x="150"
         y="607.90527" />
      <g
         id="g4965-4"
         transform="matrix(3.9761722,0,0,3.9761722,-730.27596,160.45798)"
         ns0:preamble=""
         ns0:text="$\\mathsf{D}$">
        <defs
           id="defs4967-8">
          <g
             id="g4969-0">
            <symbol
               id="textext-bfe319f6-0-42"
               overflow="visible"
               style="overflow:visible">
              <path
                 id="path4972-9"
                 d=""
                 style="stroke:none"
                 inkscape:connector-curvature="0" />
            </symbol>
            <symbol
               id="textext-bfe319f6-1-6"
               overflow="visible"
               style="overflow:visible">
              <path
                 id="path4975-1"
                 d="m 0.953125,-6.921875 0,6.921875 2.625,0 C 5.28125,0 6.625,-1.515625 6.625,-3.40625 6.625,-5.328125 5.28125,-6.921875 3.5625,-6.921875 Z M 1.8125,-0.5625 l 0,-5.796875 1.53125,0 c 1.390625,0 2.421875,1.203125 2.421875,2.953125 0,1.703125 -1.03125,2.84375 -2.421875,2.84375 z m 0,0"
                 style="stroke:none"
                 inkscape:connector-curvature="0" />
            </symbol>
          </g>
        </defs>
        <g
           id="textext-bfe319f6-2-0">
          <g
             id="g4978-4"
             style="fill:#000000;fill-opacity:1">
            <use
               id="use4980-22"
               y="134.765"
               x="223.43201"
               xlink:href="#textext-bfe319f6-1-6"
               width="100%"
               height="100%" />
          </g>
        </g>
      </g>
    </g>
    <rect
       y="534.9682"
       x="362.94061"
       height="12.287109"
       width="12.287109"
       id="rect6726-9"
       style="opacity:1;fill:#181818;fill-opacity:0.3372549;stroke:#181818;stroke-width:0.24574219;stroke-linecap:round;stroke-linejoin:miter;stroke-miterlimit:4;stroke-dasharray:none;stroke-dashoffset:0;stroke-opacity:0.3372549" />
    <g
       ns0:text="$\\mathsf{E}^{-1}$"
       ns0:preamble=""
       transform="matrix(0.69091778,0,0,0.69091778,208.95505,450.80218)"
       id="g9046-9">
      <defs
         id="defs9048-3">
        <g
           id="g9050-6">
          <symbol
             style="overflow:visible"
             overflow="visible"
             id="textext-70291358-0-0">
            <path
               inkscape:connector-curvature="0"
               style="stroke:none"
               d=""
               id="path9053-5" />
          </symbol>
          <symbol
             style="overflow:visible"
             overflow="visible"
             id="textext-70291358-1-0">
            <path
               inkscape:connector-curvature="0"
               style="stroke:none"
               d="m 5.109375,-3.28125 0,-0.609375 -3.28125,0 0,-2.359375 1.375,0 c 0.109375,0 0.234375,0.015625 0.359375,0.015625 l 1.828125,0 0,-0.65625 -4.453125,0 0,6.890625 4.578125,0 0,-0.703125 -1.25,0 c -0.125,0 -0.234375,0 -0.359375,0 l -2.078125,0 0,-2.578125 z m 0,0"
               id="path9056-2" />
          </symbol>
          <symbol
             style="overflow:visible"
             overflow="visible"
             id="textext-70291358-2-9">
            <path
               inkscape:connector-curvature="0"
               style="stroke:none"
               d=""
               id="path9059-4" />
          </symbol>
          <symbol
             style="overflow:visible"
             overflow="visible"
             id="textext-70291358-3-3">
            <path
               inkscape:connector-curvature="0"
               style="stroke:none"
               d="m 5.1875,-1.578125 c 0.109375,0 0.28125,0 0.28125,-0.15625 0,-0.1875 -0.171875,-0.1875 -0.28125,-0.1875 l -4.15625,0 c -0.109375,0 -0.28125,0 -0.28125,0.171875 0,0.171875 0.15625,0.171875 0.28125,0.171875 z m 0,0"
               id="path9062-5" />
          </symbol>
          <symbol
             style="overflow:visible"
             overflow="visible"
             id="textext-70291358-4-1">
            <path
               inkscape:connector-curvature="0"
               style="stroke:none"
               d=""
               id="path9065-7" />
          </symbol>
          <symbol
             style="overflow:visible"
             overflow="visible"
             id="textext-70291358-5-4">
            <path
               inkscape:connector-curvature="0"
               style="stroke:none"
               d="m 2.328125,-4.4375 c 0,-0.1875 0,-0.1875 -0.203125,-0.1875 -0.453125,0.4375 -1.078125,0.4375 -1.359375,0.4375 l 0,0.25 c 0.15625,0 0.625,0 1,-0.1875 l 0,3.546875 c 0,0.234375 0,0.328125 -0.6875,0.328125 l -0.265625,0 0,0.25 c 0.125,0 0.984375,-0.03125 1.234375,-0.03125 0.21875,0 1.09375,0.03125 1.25,0.03125 l 0,-0.25 -0.265625,0 c -0.703125,0 -0.703125,-0.09375 -0.703125,-0.328125 z m 0,0"
               id="path9068-3" />
          </symbol>
        </g>
      </defs>
      <g
         id="textext-70291358-6-1">
        <g
           style="fill:#000000;fill-opacity:1"
           id="g9071-4">
          <use
             height="100%"
             width="100%"
             xlink:href="#textext-70291358-1-0"
             x="223.43201"
             y="134.765"
             id="use9073-6" />
        </g>
        <g
           style="fill:#000000;fill-opacity:1"
           id="g9075-9">
          <use
             height="100%"
             width="100%"
             xlink:href="#textext-70291358-3-3"
             x="229.382"
             y="131.14999"
             id="use9077-4" />
        </g>
        <g
           style="fill:#000000;fill-opacity:1"
           id="g9079-2">
          <use
             height="100%"
             width="100%"
             xlink:href="#textext-70291358-5-4"
             x="235.60899"
             y="131.14999"
             id="use9081-2" />
        </g>
      </g>
    </g>
    <path
       inkscape:connector-curvature="0"
       id="path10473-8-4"
       d="m 122.15173,547.50681 -2.12157,0 0,-36.86131 2.12157,0"
       style="fill:none;fill-rule:evenodd;stroke:#000000;stroke-width:0.79100001;stroke-linecap:butt;stroke-linejoin:miter;stroke-miterlimit:4;stroke-dasharray:none;stroke-opacity:1"
       sodipodi:nodetypes="cccc" />
    <path
       inkscape:connector-curvature="0"
       id="path10473-8-1"
       d="m 30.008875,587.68538 -2.121568,0 0,-36.86131 2.121568,0"
       style="fill:none;fill-rule:evenodd;stroke:#000000;stroke-width:0.79100001;stroke-linecap:butt;stroke-linejoin:miter;stroke-miterlimit:4;stroke-dasharray:none;stroke-opacity:1"
       sodipodi:nodetypes="cccc" />
    <path
       inkscape:connector-curvature="0"
       id="path10473-8-4-2"
       d="m 237.16004,547.60451 2.12157,0 0,-36.86131 -2.12157,0"
       style="fill:none;fill-rule:evenodd;stroke:#000000;stroke-width:0.79100001;stroke-linecap:butt;stroke-linejoin:miter;stroke-miterlimit:4;stroke-dasharray:none;stroke-opacity:1"
       sodipodi:nodetypes="cccc" />
    <path
       inkscape:connector-curvature="0"
       id="path10473-8-4-2-8"
       d="m 385.04458,547.09943 2.12157,0 0,-36.86131 -2.12157,0"
       style="fill:none;fill-rule:evenodd;stroke:#000000;stroke-width:0.79100001;stroke-linecap:butt;stroke-linejoin:miter;stroke-miterlimit:4;stroke-dasharray:none;stroke-opacity:1"
       sodipodi:nodetypes="cccc" />
    <path
       inkscape:connector-curvature="0"
       id="path10473-8-4-2-89"
       d="m 92.203151,587.90781 2.12157,0 0,-36.86131 -2.12157,0"
       style="fill:none;fill-rule:evenodd;stroke:#000000;stroke-width:0.79100001;stroke-linecap:butt;stroke-linejoin:miter;stroke-miterlimit:4;stroke-dasharray:none;stroke-opacity:1"
       sodipodi:nodetypes="cccc" />
    <path
       inkscape:connector-curvature="0"
       id="path10473-8-4-2-2"
       d="m 324.38212,547.40401 2.12157,0 0,-36.86131 -2.12157,0"
       style="fill:none;fill-rule:evenodd;stroke:#000000;stroke-width:0.79100001;stroke-linecap:butt;stroke-linejoin:miter;stroke-miterlimit:4;stroke-dasharray:none;stroke-opacity:1"
       sodipodi:nodetypes="cccc" />
    <path
       inkscape:connector-curvature="0"
       id="path10473-8-4-8"
       d="m 330.23295,547.44239 -2.12157,0 0,-36.86131 2.12157,0"
       style="fill:none;fill-rule:evenodd;stroke:#000000;stroke-width:0.79100001;stroke-linecap:butt;stroke-linejoin:miter;stroke-miterlimit:4;stroke-dasharray:none;stroke-opacity:1"
       sodipodi:nodetypes="cccc" />
  </g>
</svg>
