<?xml version="1.0" encoding="utf-8"  standalone="no"?>
<!DOCTYPE svg PUBLIC "-//W3C//DTD SVG 1.1//EN" 
 "http://www.w3.org/Graphics/SVG/1.1/DTD/svg11.dtd">
<svg 
 width="600" height="480" 
 viewBox="0 0 600 480"
 xmlns="http://www.w3.org/2000/svg"
 xmlns:xlink="http://www.w3.org/1999/xlink"
>

<title>Gnuplot</title>
<desc>Produced by GNUPLOT 4.6 patchlevel 6 </desc>

<g id="gnuplot_canvas">

<rect x="0" y="0" width="600" height="480" fill="none"/>
<defs>

	<circle id='gpDot' r='0.5' stroke-width='0.5'/>
	<path id='gpPt0' stroke-width='0.157' stroke='currentColor' d='M-1,0 h2 M0,-1 v2'/>
	<path id='gpPt1' stroke-width='0.157' stroke='currentColor' d='M-1,-1 L1,1 M1,-1 L-1,1'/>
	<path id='gpPt2' stroke-width='0.157' stroke='currentColor' d='M-1,0 L1,0 M0,-1 L0,1 M-1,-1 L1,1 M-1,1 L1,-1'/>
	<rect id='gpPt3' stroke-width='0.157' stroke='currentColor' x='-1' y='-1' width='2' height='2'/>
	<rect id='gpPt4' stroke-width='0.157' stroke='currentColor' fill='currentColor' x='-1' y='-1' width='2' height='2'/>
	<circle id='gpPt5' stroke-width='0.157' stroke='currentColor' cx='0' cy='0' r='1'/>
	<use xlink:href='#gpPt5' id='gpPt6' fill='currentColor' stroke='none'/>
	<path id='gpPt7' stroke-width='0.157' stroke='currentColor' d='M0,-1.33 L-1.33,0.67 L1.33,0.67 z'/>
	<use xlink:href='#gpPt7' id='gpPt8' fill='currentColor' stroke='none'/>
	<use xlink:href='#gpPt7' id='gpPt9' stroke='currentColor' transform='rotate(180)'/>
	<use xlink:href='#gpPt9' id='gpPt10' fill='currentColor' stroke='none'/>
	<use xlink:href='#gpPt3' id='gpPt11' stroke='currentColor' transform='rotate(45)'/>
	<use xlink:href='#gpPt11' id='gpPt12' fill='currentColor' stroke='none'/>
	<filter id='greybox' filterUnits='objectBoundingBox' x='0' y='0' height='1' width='1'>
	  <feFlood flood-color='lightgrey' flood-opacity='1' result='grey'/>
	  <feComposite in='SourceGraphic' in2='grey' operator='atop'/>
	</filter>
</defs>
<g style="fill:none; color:white; stroke:currentColor; stroke-width:1.00; stroke-linecap:butt; stroke-linejoin:miter">
</g>
<g style="fill:none; color:black; stroke:currentColor; stroke-width:1.00; stroke-linecap:butt; stroke-linejoin:miter">
	<path stroke='black'  d='M151.6,429.2 L164.3,429.2 M489.6,429.2 L476.9,429.2  '/>	<g transform="translate(139.8,435.6)" style="stroke:none; fill:black; font-family:Arial; font-size:17.00pt; text-anchor:end">
		<text> 0</text>
	</g>
	<path stroke='black'  d='M151.6,388.6 L164.3,388.6 M489.6,388.6 L476.9,388.6  '/>	<g transform="translate(139.8,395.0)" style="stroke:none; fill:black; font-family:Arial; font-size:17.00pt; text-anchor:end">
		<text> 0.5</text>
	</g>
	<path stroke='black'  d='M151.6,348.1 L164.3,348.1 M489.6,348.1 L476.9,348.1  '/>	<g transform="translate(139.8,354.5)" style="stroke:none; fill:black; font-family:Arial; font-size:17.00pt; text-anchor:end">
		<text> 1</text>
	</g>
	<path stroke='black'  d='M151.6,307.5 L164.3,307.5 M489.6,307.5 L476.9,307.5  '/>	<g transform="translate(139.8,313.9)" style="stroke:none; fill:black; font-family:Arial; font-size:17.00pt; text-anchor:end">
		<text> 1.5</text>
	</g>
	<path stroke='black'  d='M151.6,267.0 L164.3,267.0 M489.6,267.0 L476.9,267.0  '/>	<g transform="translate(139.8,273.4)" style="stroke:none; fill:black; font-family:Arial; font-size:17.00pt; text-anchor:end">
		<text> 2</text>
	</g>
	<path stroke='black'  d='M151.6,226.4 L164.3,226.4 M489.6,226.4 L476.9,226.4  '/>	<g transform="translate(139.8,232.8)" style="stroke:none; fill:black; font-family:Arial; font-size:17.00pt; text-anchor:end">
		<text> 2.5</text>
	</g>
	<path stroke='black'  d='M151.6,185.9 L164.3,185.9 M489.6,185.9 L476.9,185.9  '/>	<g transform="translate(139.8,192.3)" style="stroke:none; fill:black; font-family:Arial; font-size:17.00pt; text-anchor:end">
		<text> 3</text>
	</g>
	<path stroke='black'  d='M151.6,145.3 L164.3,145.3 M489.6,145.3 L476.9,145.3  '/>	<g transform="translate(139.8,151.7)" style="stroke:none; fill:black; font-family:Arial; font-size:17.00pt; text-anchor:end">
		<text> 3.5</text>
	</g>
	<path stroke='black'  d='M151.6,104.8 L164.3,104.8 M489.6,104.8 L476.9,104.8  '/>	<g transform="translate(139.8,111.2)" style="stroke:none; fill:black; font-family:Arial; font-size:17.00pt; text-anchor:end">
		<text> 4</text>
	</g>
	<path stroke='black'  d='M151.6,64.2 L164.3,64.2 M489.6,64.2 L476.9,64.2  '/>	<g transform="translate(139.8,70.6)" style="stroke:none; fill:black; font-family:Arial; font-size:17.00pt; text-anchor:end">
		<text> 4.5</text>
	</g>
	<path stroke='black'  d='M151.6,23.7 L164.3,23.7 M489.6,23.7 L476.9,23.7  '/>	<g transform="translate(139.8,30.1)" style="stroke:none; fill:black; font-family:Arial; font-size:17.00pt; text-anchor:end">
		<text> 5</text>
	</g>
	<path stroke='black'  d='M151.6,429.2 L151.6,416.5 M151.6,23.7 L151.6,36.4  '/>	<g transform="translate(151.6,461.0)" style="stroke:none; fill:black; font-family:Arial; font-size:17.00pt; text-anchor:middle">
		<text>-6</text>
	</g>
	<path stroke='black'  d='M199.9,429.2 L199.9,416.5 M199.9,23.7 L199.9,36.4  '/>	<g transform="translate(199.9,461.0)" style="stroke:none; fill:black; font-family:Arial; font-size:17.00pt; text-anchor:middle">
		<text>-4</text>
	</g>
	<path stroke='black'  d='M248.2,429.2 L248.2,416.5 M248.2,23.7 L248.2,36.4  '/>	<g transform="translate(248.2,461.0)" style="stroke:none; fill:black; font-family:Arial; font-size:17.00pt; text-anchor:middle">
		<text>-2</text>
	</g>
	<path stroke='black'  d='M296.5,429.2 L296.5,416.5 M296.5,23.7 L296.5,36.4  '/>	<g transform="translate(296.5,461.0)" style="stroke:none; fill:black; font-family:Arial; font-size:17.00pt; text-anchor:middle">
		<text> 0</text>
	</g>
	<path stroke='black'  d='M344.7,429.2 L344.7,416.5 M344.7,23.7 L344.7,36.4  '/>	<g transform="translate(344.7,461.0)" style="stroke:none; fill:black; font-family:Arial; font-size:17.00pt; text-anchor:middle">
		<text> 2</text>
	</g>
	<path stroke='black'  d='M393.0,429.2 L393.0,416.5 M393.0,23.7 L393.0,36.4  '/>	<g transform="translate(393.0,461.0)" style="stroke:none; fill:black; font-family:Arial; font-size:17.00pt; text-anchor:middle">
		<text> 4</text>
	</g>
	<path stroke='black'  d='M441.3,429.2 L441.3,416.5 M441.3,23.7 L441.3,36.4  '/>	<g transform="translate(441.3,461.0)" style="stroke:none; fill:black; font-family:Arial; font-size:17.00pt; text-anchor:middle">
		<text> 6</text>
	</g>
	<path stroke='black'  d='M489.6,429.2 L489.6,416.5 M489.6,23.7 L489.6,36.4  '/>	<g transform="translate(489.6,461.0)" style="stroke:none; fill:black; font-family:Arial; font-size:17.00pt; text-anchor:middle">
		<text> 8</text>
	</g>
	<path stroke='black'  d='M151.6,23.7 L151.6,429.2 L489.6,429.2 L489.6,23.7 L151.6,23.7 Z  '/></g>
	<g id="gnuplot_plot_1" ><title>gnuplot_plot_1</title>
<g style="fill:none; color:red; stroke:currentColor; stroke-width:1.00; stroke-linecap:butt; stroke-linejoin:miter">
	<use xlink:href='#gpPt0' transform='translate(198.1,372.3) scale(6.35)' color='red'/>
	<use xlink:href='#gpPt0' transform='translate(198.1,365.5) scale(6.35)' color='red'/>
	<use xlink:href='#gpPt0' transform='translate(198.1,358.3) scale(6.35)' color='red'/>
	<use xlink:href='#gpPt0' transform='translate(198.1,356.2) scale(6.35)' color='red'/>
	<use xlink:href='#gpPt0' transform='translate(198.1,322.4) scale(6.35)' color='red'/>
	<use xlink:href='#gpPt0' transform='translate(198.1,320.2) scale(6.35)' color='red'/>
	<use xlink:href='#gpPt0' transform='translate(198.1,305.6) scale(6.35)' color='red'/>
	<use xlink:href='#gpPt0' transform='translate(198.1,305.3) scale(6.35)' color='red'/>
	<use xlink:href='#gpPt0' transform='translate(198.1,291.0) scale(6.35)' color='red'/>
	<use xlink:href='#gpPt0' transform='translate(198.1,290.5) scale(6.35)' color='red'/>
	<use xlink:href='#gpPt0' transform='translate(198.1,290.4) scale(6.35)' color='red'/>
	<use xlink:href='#gpPt0' transform='translate(198.1,286.5) scale(6.35)' color='red'/>
	<use xlink:href='#gpPt0' transform='translate(198.1,286.5) scale(6.35)' color='red'/>
	<use xlink:href='#gpPt0' transform='translate(198.1,285.3) scale(6.35)' color='red'/>
	<use xlink:href='#gpPt0' transform='translate(198.1,202.4) scale(6.35)' color='red'/>
	<use xlink:href='#gpPt0' transform='translate(198.1,202.4) scale(6.35)' color='red'/>
	<use xlink:href='#gpPt0' transform='translate(198.1,122.8) scale(6.35)' color='red'/>
	<use xlink:href='#gpPt0' transform='translate(198.1,44.6) scale(6.35)' color='red'/>
	<use xlink:href='#gpPt0' transform='translate(216.0,380.3) scale(6.35)' color='red'/>
	<use xlink:href='#gpPt0' transform='translate(216.0,365.2) scale(6.35)' color='red'/>
	<use xlink:href='#gpPt0' transform='translate(216.0,357.4) scale(6.35)' color='red'/>
	<use xlink:href='#gpPt0' transform='translate(216.0,348.0) scale(6.35)' color='red'/>
	<use xlink:href='#gpPt0' transform='translate(216.0,324.1) scale(6.35)' color='red'/>
	<use xlink:href='#gpPt0' transform='translate(216.0,320.9) scale(6.35)' color='red'/>
	<use xlink:href='#gpPt0' transform='translate(216.0,306.6) scale(6.35)' color='red'/>
	<use xlink:href='#gpPt0' transform='translate(216.0,304.5) scale(6.35)' color='red'/>
	<use xlink:href='#gpPt0' transform='translate(216.0,291.1) scale(6.35)' color='red'/>
	<use xlink:href='#gpPt0' transform='translate(216.0,290.6) scale(6.35)' color='red'/>
	<use xlink:href='#gpPt0' transform='translate(216.0,290.2) scale(6.35)' color='red'/>
	<use xlink:href='#gpPt0' transform='translate(216.0,286.6) scale(6.35)' color='red'/>
	<use xlink:href='#gpPt0' transform='translate(216.0,286.6) scale(6.35)' color='red'/>
	<use xlink:href='#gpPt0' transform='translate(216.0,285.2) scale(6.35)' color='red'/>
	<use xlink:href='#gpPt0' transform='translate(216.0,202.4) scale(6.35)' color='red'/>
	<use xlink:href='#gpPt0' transform='translate(216.0,202.4) scale(6.35)' color='red'/>
	<use xlink:href='#gpPt0' transform='translate(216.0,122.8) scale(6.35)' color='red'/>
	<use xlink:href='#gpPt0' transform='translate(216.0,119.9) scale(6.35)' color='red'/>
	<use xlink:href='#gpPt0' transform='translate(216.0,43.4) scale(6.35)' color='red'/>
	<use xlink:href='#gpPt0' transform='translate(233.9,390.6) scale(6.35)' color='red'/>
	<use xlink:href='#gpPt0' transform='translate(233.9,362.7) scale(6.35)' color='red'/>
	<use xlink:href='#gpPt0' transform='translate(233.9,355.7) scale(6.35)' color='red'/>
	<use xlink:href='#gpPt0' transform='translate(233.9,340.1) scale(6.35)' color='red'/>
	<use xlink:href='#gpPt0' transform='translate(233.9,326.9) scale(6.35)' color='red'/>
	<use xlink:href='#gpPt0' transform='translate(233.9,322.0) scale(6.35)' color='red'/>
	<use xlink:href='#gpPt0' transform='translate(233.9,308.2) scale(6.35)' color='red'/>
	<use xlink:href='#gpPt0' transform='translate(233.9,303.4) scale(6.35)' color='red'/>
	<use xlink:href='#gpPt0' transform='translate(233.9,292.3) scale(6.35)' color='red'/>
	<use xlink:href='#gpPt0' transform='translate(233.9,290.1) scale(6.35)' color='red'/>
	<use xlink:href='#gpPt0' transform='translate(233.9,289.9) scale(6.35)' color='red'/>
	<use xlink:href='#gpPt0' transform='translate(233.9,286.8) scale(6.35)' color='red'/>
	<use xlink:href='#gpPt0' transform='translate(233.9,286.8) scale(6.35)' color='red'/>
	<use xlink:href='#gpPt0' transform='translate(233.9,285.0) scale(6.35)' color='red'/>
	<use xlink:href='#gpPt0' transform='translate(233.9,202.5) scale(6.35)' color='red'/>
	<use xlink:href='#gpPt0' transform='translate(233.9,202.4) scale(6.35)' color='red'/>
	<use xlink:href='#gpPt0' transform='translate(233.9,122.8) scale(6.35)' color='red'/>
	<use xlink:href='#gpPt0' transform='translate(233.9,41.3) scale(6.35)' color='red'/>
	<use xlink:href='#gpPt0' transform='translate(251.8,401.4) scale(6.35)' color='red'/>
	<use xlink:href='#gpPt0' transform='translate(251.8,359.1) scale(6.35)' color='red'/>
	<use xlink:href='#gpPt0' transform='translate(251.8,353.4) scale(6.35)' color='red'/>
	<use xlink:href='#gpPt0' transform='translate(251.8,334.7) scale(6.35)' color='red'/>
	<use xlink:href='#gpPt0' transform='translate(251.8,330.3) scale(6.35)' color='red'/>
	<use xlink:href='#gpPt0' transform='translate(251.8,322.0) scale(6.35)' color='red'/>
	<use xlink:href='#gpPt0' transform='translate(251.8,309.5) scale(6.35)' color='red'/>
	<use xlink:href='#gpPt0' transform='translate(251.8,302.4) scale(6.35)' color='red'/>
	<use xlink:href='#gpPt0' transform='translate(251.8,294.6) scale(6.35)' color='red'/>
	<use xlink:href='#gpPt0' transform='translate(251.8,289.5) scale(6.35)' color='red'/>
	<use xlink:href='#gpPt0' transform='translate(251.8,289.4) scale(6.35)' color='red'/>
	<use xlink:href='#gpPt0' transform='translate(251.8,287.1) scale(6.35)' color='red'/>
	<use xlink:href='#gpPt0' transform='translate(251.8,286.9) scale(6.35)' color='red'/>
	<use xlink:href='#gpPt0' transform='translate(251.8,284.8) scale(6.35)' color='red'/>
	<use xlink:href='#gpPt0' transform='translate(251.8,202.5) scale(6.35)' color='red'/>
	<use xlink:href='#gpPt0' transform='translate(251.8,202.4) scale(6.35)' color='red'/>
	<use xlink:href='#gpPt0' transform='translate(251.8,122.8) scale(6.35)' color='red'/>
	<use xlink:href='#gpPt0' transform='translate(251.8,38.5) scale(6.35)' color='red'/>
	<use xlink:href='#gpPt0' transform='translate(269.6,412.4) scale(6.35)' color='red'/>
	<use xlink:href='#gpPt0' transform='translate(269.6,355.3) scale(6.35)' color='red'/>
	<use xlink:href='#gpPt0' transform='translate(269.6,351.0) scale(6.35)' color='red'/>
	<use xlink:href='#gpPt0' transform='translate(269.6,334.3) scale(6.35)' color='red'/>
	<use xlink:href='#gpPt0' transform='translate(269.6,333.6) scale(6.35)' color='red'/>
	<use xlink:href='#gpPt0' transform='translate(269.6,318.8) scale(6.35)' color='red'/>
	<use xlink:href='#gpPt0' transform='translate(269.6,310.3) scale(6.35)' color='red'/>
	<use xlink:href='#gpPt0' transform='translate(269.6,301.7) scale(6.35)' color='red'/>
	<use xlink:href='#gpPt0' transform='translate(269.6,297.7) scale(6.35)' color='red'/>
	<use xlink:href='#gpPt0' transform='translate(269.6,289.0) scale(6.35)' color='red'/>
	<use xlink:href='#gpPt0' transform='translate(269.6,288.8) scale(6.35)' color='red'/>
	<use xlink:href='#gpPt0' transform='translate(269.6,287.4) scale(6.35)' color='red'/>
	<use xlink:href='#gpPt0' transform='translate(269.6,287.1) scale(6.35)' color='red'/>
	<use xlink:href='#gpPt0' transform='translate(269.6,284.7) scale(6.35)' color='red'/>
	<use xlink:href='#gpPt0' transform='translate(269.6,202.5) scale(6.35)' color='red'/>
	<use xlink:href='#gpPt0' transform='translate(269.6,202.5) scale(6.35)' color='red'/>
	<use xlink:href='#gpPt0' transform='translate(269.6,122.8) scale(6.35)' color='red'/>
	<use xlink:href='#gpPt0' transform='translate(269.6,35.9) scale(6.35)' color='red'/>
	<use xlink:href='#gpPt0' transform='translate(287.5,423.6) scale(6.35)' color='red'/>
	<use xlink:href='#gpPt0' transform='translate(287.5,352.4) scale(6.35)' color='red'/>
	<use xlink:href='#gpPt0' transform='translate(287.5,349.0) scale(6.35)' color='red'/>
	<use xlink:href='#gpPt0' transform='translate(287.5,335.9) scale(6.35)' color='red'/>
	<use xlink:href='#gpPt0' transform='translate(287.5,335.9) scale(6.35)' color='red'/>
	<use xlink:href='#gpPt0' transform='translate(287.5,315.1) scale(6.35)' color='red'/>
	<use xlink:href='#gpPt0' transform='translate(287.5,310.4) scale(6.35)' color='red'/>
	<use xlink:href='#gpPt0' transform='translate(287.5,301.3) scale(6.35)' color='red'/>
	<use xlink:href='#gpPt0' transform='translate(287.5,300.7) scale(6.35)' color='red'/>
	<use xlink:href='#gpPt0' transform='translate(287.5,288.5) scale(6.35)' color='red'/>
	<use xlink:href='#gpPt0' transform='translate(287.5,288.1) scale(6.35)' color='red'/>
	<use xlink:href='#gpPt0' transform='translate(287.5,287.7) scale(6.35)' color='red'/>
	<use xlink:href='#gpPt0' transform='translate(287.5,287.6) scale(6.35)' color='red'/>
	<use xlink:href='#gpPt0' transform='translate(287.5,284.6) scale(6.35)' color='red'/>
	<use xlink:href='#gpPt0' transform='translate(287.5,202.5) scale(6.35)' color='red'/>
	<use xlink:href='#gpPt0' transform='translate(287.5,202.5) scale(6.35)' color='red'/>
	<use xlink:href='#gpPt0' transform='translate(287.5,122.8) scale(6.35)' color='red'/>
	<use xlink:href='#gpPt0' transform='translate(287.5,34.4) scale(6.35)' color='red'/>
	<use xlink:href='#gpPt0' transform='translate(302.8,425.3) scale(6.35)' color='red'/>
	<use xlink:href='#gpPt0' transform='translate(302.8,352.2) scale(6.35)' color='red'/>
	<use xlink:href='#gpPt0' transform='translate(302.8,348.9) scale(6.35)' color='red'/>
	<use xlink:href='#gpPt0' transform='translate(302.8,336.2) scale(6.35)' color='red'/>
	<use xlink:href='#gpPt0' transform='translate(302.8,335.9) scale(6.35)' color='red'/>
	<use xlink:href='#gpPt0' transform='translate(302.8,314.8) scale(6.35)' color='red'/>
	<use xlink:href='#gpPt0' transform='translate(302.8,310.3) scale(6.35)' color='red'/>
	<use xlink:href='#gpPt0' transform='translate(302.8,301.3) scale(6.35)' color='red'/>
	<use xlink:href='#gpPt0' transform='translate(302.8,301.0) scale(6.35)' color='red'/>
	<use xlink:href='#gpPt0' transform='translate(302.8,288.5) scale(6.35)' color='red'/>
	<use xlink:href='#gpPt0' transform='translate(302.8,288.0) scale(6.35)' color='red'/>
	<use xlink:href='#gpPt0' transform='translate(302.8,287.8) scale(6.35)' color='red'/>
	<use xlink:href='#gpPt0' transform='translate(302.8,287.6) scale(6.35)' color='red'/>
	<use xlink:href='#gpPt0' transform='translate(302.8,284.6) scale(6.35)' color='red'/>
	<use xlink:href='#gpPt0' transform='translate(302.8,202.5) scale(6.35)' color='red'/>
	<use xlink:href='#gpPt0' transform='translate(302.8,202.5) scale(6.35)' color='red'/>
	<use xlink:href='#gpPt0' transform='translate(302.8,122.8) scale(6.35)' color='red'/>
	<use xlink:href='#gpPt0' transform='translate(302.8,34.3) scale(6.35)' color='red'/>
	<use xlink:href='#gpPt0' transform='translate(315.4,417.3) scale(6.35)' color='red'/>
	<use xlink:href='#gpPt0' transform='translate(315.4,354.8) scale(6.35)' color='red'/>
	<use xlink:href='#gpPt0' transform='translate(315.4,348.8) scale(6.35)' color='red'/>
	<use xlink:href='#gpPt0' transform='translate(315.4,336.0) scale(6.35)' color='red'/>
	<use xlink:href='#gpPt0' transform='translate(315.4,334.1) scale(6.35)' color='red'/>
	<use xlink:href='#gpPt0' transform='translate(315.4,316.7) scale(6.35)' color='red'/>
	<use xlink:href='#gpPt0' transform='translate(315.4,310.8) scale(6.35)' color='red'/>
	<use xlink:href='#gpPt0' transform='translate(315.4,301.0) scale(6.35)' color='red'/>
	<use xlink:href='#gpPt0' transform='translate(315.4,299.5) scale(6.35)' color='red'/>
	<use xlink:href='#gpPt0' transform='translate(315.4,288.9) scale(6.35)' color='red'/>
	<use xlink:href='#gpPt0' transform='translate(315.4,288.5) scale(6.35)' color='red'/>
	<use xlink:href='#gpPt0' transform='translate(315.4,288.3) scale(6.35)' color='red'/>
	<use xlink:href='#gpPt0' transform='translate(315.4,287.8) scale(6.35)' color='red'/>
	<use xlink:href='#gpPt0' transform='translate(315.4,287.2) scale(6.35)' color='red'/>
	<use xlink:href='#gpPt0' transform='translate(315.4,284.6) scale(6.35)' color='red'/>
	<use xlink:href='#gpPt0' transform='translate(315.4,202.5) scale(6.35)' color='red'/>
	<use xlink:href='#gpPt0' transform='translate(315.4,202.4) scale(6.35)' color='red'/>
	<use xlink:href='#gpPt0' transform='translate(315.4,122.8) scale(6.35)' color='red'/>
	<use xlink:href='#gpPt0' transform='translate(315.4,35.0) scale(6.35)' color='red'/>
	<use xlink:href='#gpPt0' transform='translate(328.1,409.5) scale(6.35)' color='red'/>
	<use xlink:href='#gpPt0' transform='translate(328.1,359.4) scale(6.35)' color='red'/>
	<use xlink:href='#gpPt0' transform='translate(328.1,347.4) scale(6.35)' color='red'/>
	<use xlink:href='#gpPt0' transform='translate(328.1,335.6) scale(6.35)' color='red'/>
	<use xlink:href='#gpPt0' transform='translate(328.1,332.0) scale(6.35)' color='red'/>
	<use xlink:href='#gpPt0' transform='translate(328.1,319.4) scale(6.35)' color='red'/>
	<use xlink:href='#gpPt0' transform='translate(328.1,311.6) scale(6.35)' color='red'/>
	<use xlink:href='#gpPt0' transform='translate(328.1,300.7) scale(6.35)' color='red'/>
	<use xlink:href='#gpPt0' transform='translate(328.1,297.3) scale(6.35)' color='red'/>
	<use xlink:href='#gpPt0' transform='translate(328.1,289.3) scale(6.35)' color='red'/>
	<use xlink:href='#gpPt0' transform='translate(328.1,288.5) scale(6.35)' color='red'/>
	<use xlink:href='#gpPt0' transform='translate(328.1,288.4) scale(6.35)' color='red'/>
	<use xlink:href='#gpPt0' transform='translate(328.1,287.8) scale(6.35)' color='red'/>
	<use xlink:href='#gpPt0' transform='translate(328.1,286.8) scale(6.35)' color='red'/>
	<use xlink:href='#gpPt0' transform='translate(328.1,284.7) scale(6.35)' color='red'/>
	<use xlink:href='#gpPt0' transform='translate(328.1,202.6) scale(6.35)' color='red'/>
	<use xlink:href='#gpPt0' transform='translate(328.1,202.3) scale(6.35)' color='red'/>
	<use xlink:href='#gpPt0' transform='translate(328.1,122.8) scale(6.35)' color='red'/>
	<use xlink:href='#gpPt0' transform='translate(328.1,36.2) scale(6.35)' color='red'/>
	<use xlink:href='#gpPt0' transform='translate(340.7,401.9) scale(6.35)' color='red'/>
	<use xlink:href='#gpPt0' transform='translate(340.7,365.1) scale(6.35)' color='red'/>
	<use xlink:href='#gpPt0' transform='translate(340.7,345.3) scale(6.35)' color='red'/>
	<use xlink:href='#gpPt0' transform='translate(340.7,335.1) scale(6.35)' color='red'/>
	<use xlink:href='#gpPt0' transform='translate(340.7,331.2) scale(6.35)' color='red'/>
	<use xlink:href='#gpPt0' transform='translate(340.7,321.6) scale(6.35)' color='red'/>
	<use xlink:href='#gpPt0' transform='translate(340.7,312.5) scale(6.35)' color='red'/>
	<use xlink:href='#gpPt0' transform='translate(340.7,300.3) scale(6.35)' color='red'/>
	<use xlink:href='#gpPt0' transform='translate(340.7,295.1) scale(6.35)' color='red'/>
	<use xlink:href='#gpPt0' transform='translate(340.7,289.8) scale(6.35)' color='red'/>
	<use xlink:href='#gpPt0' transform='translate(340.7,288.9) scale(6.35)' color='red'/>
	<use xlink:href='#gpPt0' transform='translate(340.7,287.8) scale(6.35)' color='red'/>
	<use xlink:href='#gpPt0' transform='translate(340.7,286.5) scale(6.35)' color='red'/>
	<use xlink:href='#gpPt0' transform='translate(340.7,284.9) scale(6.35)' color='red'/>
	<use xlink:href='#gpPt0' transform='translate(340.7,202.7) scale(6.35)' color='red'/>
	<use xlink:href='#gpPt0' transform='translate(340.7,202.2) scale(6.35)' color='red'/>
	<use xlink:href='#gpPt0' transform='translate(340.7,122.8) scale(6.35)' color='red'/>
	<use xlink:href='#gpPt0' transform='translate(340.7,37.3) scale(6.35)' color='red'/>
	<use xlink:href='#gpPt0' transform='translate(353.3,394.6) scale(6.35)' color='red'/>
	<use xlink:href='#gpPt0' transform='translate(353.3,371.2) scale(6.35)' color='red'/>
	<use xlink:href='#gpPt0' transform='translate(353.3,342.6) scale(6.35)' color='red'/>
	<use xlink:href='#gpPt0' transform='translate(353.3,334.6) scale(6.35)' color='red'/>
	<use xlink:href='#gpPt0' transform='translate(353.3,332.6) scale(6.35)' color='red'/>
	<use xlink:href='#gpPt0' transform='translate(353.3,322.3) scale(6.35)' color='red'/>
	<use xlink:href='#gpPt0' transform='translate(353.3,313.2) scale(6.35)' color='red'/>
	<use xlink:href='#gpPt0' transform='translate(353.3,300.1) scale(6.35)' color='red'/>
	<use xlink:href='#gpPt0' transform='translate(353.3,293.2) scale(6.35)' color='red'/>
	<use xlink:href='#gpPt0' transform='translate(353.3,290.2) scale(6.35)' color='red'/>
	<use xlink:href='#gpPt0' transform='translate(353.3,289.4) scale(6.35)' color='red'/>
	<use xlink:href='#gpPt0' transform='translate(353.3,288.5) scale(6.35)' color='red'/>
	<use xlink:href='#gpPt0' transform='translate(353.3,287.8) scale(6.35)' color='red'/>
	<use xlink:href='#gpPt0' transform='translate(353.3,286.2) scale(6.35)' color='red'/>
	<use xlink:href='#gpPt0' transform='translate(353.3,285.0) scale(6.35)' color='red'/>
	<use xlink:href='#gpPt0' transform='translate(353.3,202.8) scale(6.35)' color='red'/>
	<use xlink:href='#gpPt0' transform='translate(353.3,202.1) scale(6.35)' color='red'/>
	<use xlink:href='#gpPt0' transform='translate(353.3,122.8) scale(6.35)' color='red'/>
	<use xlink:href='#gpPt0' transform='translate(353.3,38.2) scale(6.35)' color='red'/>
	<use xlink:href='#gpPt0' transform='translate(366.0,388.5) scale(6.35)' color='red'/>
	<use xlink:href='#gpPt0' transform='translate(366.0,376.7) scale(6.35)' color='red'/>
	<use xlink:href='#gpPt0' transform='translate(366.0,339.8) scale(6.35)' color='red'/>
	<use xlink:href='#gpPt0' transform='translate(366.0,335.1) scale(6.35)' color='red'/>
	<use xlink:href='#gpPt0' transform='translate(366.0,334.4) scale(6.35)' color='red'/>
	<use xlink:href='#gpPt0' transform='translate(366.0,322.3) scale(6.35)' color='red'/>
	<use xlink:href='#gpPt0' transform='translate(366.0,313.6) scale(6.35)' color='red'/>
	<use xlink:href='#gpPt0' transform='translate(366.0,299.9) scale(6.35)' color='red'/>
	<use xlink:href='#gpPt0' transform='translate(366.0,291.7) scale(6.35)' color='red'/>
	<use xlink:href='#gpPt0' transform='translate(366.0,290.4) scale(6.35)' color='red'/>
	<use xlink:href='#gpPt0' transform='translate(366.0,290.1) scale(6.35)' color='red'/>
	<use xlink:href='#gpPt0' transform='translate(366.0,287.8) scale(6.35)' color='red'/>
	<use xlink:href='#gpPt0' transform='translate(366.0,286.0) scale(6.35)' color='red'/>
	<use xlink:href='#gpPt0' transform='translate(366.0,285.1) scale(6.35)' color='red'/>
	<use xlink:href='#gpPt0' transform='translate(366.0,202.9) scale(6.35)' color='red'/>
	<use xlink:href='#gpPt0' transform='translate(366.0,202.1) scale(6.35)' color='red'/>
	<use xlink:href='#gpPt0' transform='translate(366.0,122.8) scale(6.35)' color='red'/>
	<use xlink:href='#gpPt0' transform='translate(366.0,72.5) scale(6.35)' color='red'/>
	<use xlink:href='#gpPt0' transform='translate(366.0,38.7) scale(6.35)' color='red'/>
	<use xlink:href='#gpPt0' transform='translate(378.6,387.0) scale(6.35)' color='red'/>
	<use xlink:href='#gpPt0' transform='translate(378.6,377.8) scale(6.35)' color='red'/>
	<use xlink:href='#gpPt0' transform='translate(378.6,339.4) scale(6.35)' color='red'/>
	<use xlink:href='#gpPt0' transform='translate(378.6,337.1) scale(6.35)' color='red'/>
	<use xlink:href='#gpPt0' transform='translate(378.6,333.1) scale(6.35)' color='red'/>
	<use xlink:href='#gpPt0' transform='translate(378.6,322.2) scale(6.35)' color='red'/>
	<use xlink:href='#gpPt0' transform='translate(378.6,313.5) scale(6.35)' color='red'/>
	<use xlink:href='#gpPt0' transform='translate(378.6,300.0) scale(6.35)' color='red'/>
	<use xlink:href='#gpPt0' transform='translate(378.6,291.4) scale(6.35)' color='red'/>
	<use xlink:href='#gpPt0' transform='translate(378.6,290.4) scale(6.35)' color='red'/>
	<use xlink:href='#gpPt0' transform='translate(378.6,290.3) scale(6.35)' color='red'/>
	<use xlink:href='#gpPt0' transform='translate(378.6,288.7) scale(6.35)' color='red'/>
	<use xlink:href='#gpPt0' transform='translate(378.6,287.8) scale(6.35)' color='red'/>
	<use xlink:href='#gpPt0' transform='translate(378.6,286.0) scale(6.35)' color='red'/>
	<use xlink:href='#gpPt0' transform='translate(378.6,285.1) scale(6.35)' color='red'/>
	<use xlink:href='#gpPt0' transform='translate(378.6,202.9) scale(6.35)' color='red'/>
	<use xlink:href='#gpPt0' transform='translate(378.6,202.1) scale(6.35)' color='red'/>
	<use xlink:href='#gpPt0' transform='translate(378.6,122.8) scale(6.35)' color='red'/>
	<use xlink:href='#gpPt0' transform='translate(378.6,38.9) scale(6.35)' color='red'/>
	<use xlink:href='#gpPt0' transform='translate(391.3,385.5) scale(6.35)' color='red'/>
	<use xlink:href='#gpPt0' transform='translate(391.3,376.7) scale(6.35)' color='red'/>
	<use xlink:href='#gpPt0' transform='translate(391.3,341.5) scale(6.35)' color='red'/>
	<use xlink:href='#gpPt0' transform='translate(391.3,341.0) scale(6.35)' color='red'/>
	<use xlink:href='#gpPt0' transform='translate(391.3,329.9) scale(6.35)' color='red'/>
	<use xlink:href='#gpPt0' transform='translate(391.3,322.0) scale(6.35)' color='red'/>
	<use xlink:href='#gpPt0' transform='translate(391.3,312.2) scale(6.35)' color='red'/>
	<use xlink:href='#gpPt0' transform='translate(391.3,300.7) scale(6.35)' color='red'/>
	<use xlink:href='#gpPt0' transform='translate(391.3,291.2) scale(6.35)' color='red'/>
	<use xlink:href='#gpPt0' transform='translate(391.3,290.5) scale(6.35)' color='red'/>
	<use xlink:href='#gpPt0' transform='translate(391.3,287.7) scale(6.35)' color='red'/>
	<use xlink:href='#gpPt0' transform='translate(391.3,286.1) scale(6.35)' color='red'/>
	<use xlink:href='#gpPt0' transform='translate(391.3,285.1) scale(6.35)' color='red'/>
	<use xlink:href='#gpPt0' transform='translate(391.3,202.8) scale(6.35)' color='red'/>
	<use xlink:href='#gpPt0' transform='translate(391.3,202.1) scale(6.35)' color='red'/>
	<use xlink:href='#gpPt0' transform='translate(391.3,122.8) scale(6.35)' color='red'/>
	<use xlink:href='#gpPt0' transform='translate(391.3,40.0) scale(6.35)' color='red'/>
	<use xlink:href='#gpPt0' transform='translate(403.9,382.7) scale(6.35)' color='red'/>
	<use xlink:href='#gpPt0' transform='translate(403.9,374.7) scale(6.35)' color='red'/>
	<use xlink:href='#gpPt0' transform='translate(403.9,345.3) scale(6.35)' color='red'/>
	<use xlink:href='#gpPt0' transform='translate(403.9,345.2) scale(6.35)' color='red'/>
	<use xlink:href='#gpPt0' transform='translate(403.9,327.1) scale(6.35)' color='red'/>
	<use xlink:href='#gpPt0' transform='translate(403.9,321.5) scale(6.35)' color='red'/>
	<use xlink:href='#gpPt0' transform='translate(403.9,310.1) scale(6.35)' color='red'/>
	<use xlink:href='#gpPt0' transform='translate(403.9,302.0) scale(6.35)' color='red'/>
	<use xlink:href='#gpPt0' transform='translate(403.9,290.9) scale(6.35)' color='red'/>
	<use xlink:href='#gpPt0' transform='translate(403.9,290.4) scale(6.35)' color='red'/>
	<use xlink:href='#gpPt0' transform='translate(403.9,287.4) scale(6.35)' color='red'/>
	<use xlink:href='#gpPt0' transform='translate(403.9,286.2) scale(6.35)' color='red'/>
	<use xlink:href='#gpPt0' transform='translate(403.9,285.2) scale(6.35)' color='red'/>
	<use xlink:href='#gpPt0' transform='translate(403.9,202.7) scale(6.35)' color='red'/>
	<use xlink:href='#gpPt0' transform='translate(403.9,202.2) scale(6.35)' color='red'/>
	<use xlink:href='#gpPt0' transform='translate(403.9,122.8) scale(6.35)' color='red'/>
	<use xlink:href='#gpPt0' transform='translate(403.9,41.5) scale(6.35)' color='red'/>
	<use xlink:href='#gpPt0' transform='translate(416.5,379.0) scale(6.35)' color='red'/>
	<use xlink:href='#gpPt0' transform='translate(416.5,371.9) scale(6.35)' color='red'/>
	<use xlink:href='#gpPt0' transform='translate(416.5,349.6) scale(6.35)' color='red'/>
	<use xlink:href='#gpPt0' transform='translate(416.5,349.6) scale(6.35)' color='red'/>
	<use xlink:href='#gpPt0' transform='translate(416.5,324.8) scale(6.35)' color='red'/>
	<use xlink:href='#gpPt0' transform='translate(416.5,321.0) scale(6.35)' color='red'/>
	<use xlink:href='#gpPt0' transform='translate(416.5,308.1) scale(6.35)' color='red'/>
	<use xlink:href='#gpPt0' transform='translate(416.5,303.4) scale(6.35)' color='red'/>
	<use xlink:href='#gpPt0' transform='translate(416.5,290.6) scale(6.35)' color='red'/>
	<use xlink:href='#gpPt0' transform='translate(416.5,290.4) scale(6.35)' color='red'/>
	<use xlink:href='#gpPt0' transform='translate(416.5,287.0) scale(6.35)' color='red'/>
	<use xlink:href='#gpPt0' transform='translate(416.5,286.3) scale(6.35)' color='red'/>
	<use xlink:href='#gpPt0' transform='translate(416.5,285.2) scale(6.35)' color='red'/>
	<use xlink:href='#gpPt0' transform='translate(416.5,202.6) scale(6.35)' color='red'/>
	<use xlink:href='#gpPt0' transform='translate(416.5,202.3) scale(6.35)' color='red'/>
	<use xlink:href='#gpPt0' transform='translate(416.5,122.8) scale(6.35)' color='red'/>
	<use xlink:href='#gpPt0' transform='translate(416.5,43.0) scale(6.35)' color='red'/>
	<use xlink:href='#gpPt0' transform='translate(429.2,374.9) scale(6.35)' color='red'/>
	<use xlink:href='#gpPt0' transform='translate(429.2,368.5) scale(6.35)' color='red'/>
	<use xlink:href='#gpPt0' transform='translate(429.2,354.2) scale(6.35)' color='red'/>
	<use xlink:href='#gpPt0' transform='translate(429.2,354.0) scale(6.35)' color='red'/>
	<use xlink:href='#gpPt0' transform='translate(429.2,323.2) scale(6.35)' color='red'/>
	<use xlink:href='#gpPt0' transform='translate(429.2,320.5) scale(6.35)' color='red'/>
	<use xlink:href='#gpPt0' transform='translate(429.2,306.4) scale(6.35)' color='red'/>
	<use xlink:href='#gpPt0' transform='translate(429.2,304.6) scale(6.35)' color='red'/>
	<use xlink:href='#gpPt0' transform='translate(429.2,290.5) scale(6.35)' color='red'/>
	<use xlink:href='#gpPt0' transform='translate(429.2,290.4) scale(6.35)' color='red'/>
	<use xlink:href='#gpPt0' transform='translate(429.2,286.7) scale(6.35)' color='red'/>
	<use xlink:href='#gpPt0' transform='translate(429.2,286.4) scale(6.35)' color='red'/>
	<use xlink:href='#gpPt0' transform='translate(429.2,285.3) scale(6.35)' color='red'/>
	<use xlink:href='#gpPt0' transform='translate(429.2,249.9) scale(6.35)' color='red'/>
	<use xlink:href='#gpPt0' transform='translate(429.2,202.5) scale(6.35)' color='red'/>
	<use xlink:href='#gpPt0' transform='translate(429.2,202.4) scale(6.35)' color='red'/>
	<use xlink:href='#gpPt0' transform='translate(429.2,122.8) scale(6.35)' color='red'/>
	<use xlink:href='#gpPt0' transform='translate(429.2,44.1) scale(6.35)' color='red'/>
	<use xlink:href='#gpPt0' transform='translate(441.8,371.6) scale(6.35)' color='red'/>
	<use xlink:href='#gpPt0' transform='translate(441.8,365.3) scale(6.35)' color='red'/>
	<use xlink:href='#gpPt0' transform='translate(441.8,357.8) scale(6.35)' color='red'/>
	<use xlink:href='#gpPt0' transform='translate(441.8,357.6) scale(6.35)' color='red'/>
	<use xlink:href='#gpPt0' transform='translate(441.8,322.3) scale(6.35)' color='red'/>
	<use xlink:href='#gpPt0' transform='translate(441.8,320.2) scale(6.35)' color='red'/>
	<use xlink:href='#gpPt0' transform='translate(441.8,305.5) scale(6.35)' color='red'/>
	<use xlink:href='#gpPt0' transform='translate(441.8,305.3) scale(6.35)' color='red'/>
	<use xlink:href='#gpPt0' transform='translate(441.8,290.5) scale(6.35)' color='red'/>
	<use xlink:href='#gpPt0' transform='translate(441.8,290.5) scale(6.35)' color='red'/>
	<use xlink:href='#gpPt0' transform='translate(441.8,286.5) scale(6.35)' color='red'/>
	<use xlink:href='#gpPt0' transform='translate(441.8,286.5) scale(6.35)' color='red'/>
	<use xlink:href='#gpPt0' transform='translate(441.8,285.3) scale(6.35)' color='red'/>
	<use xlink:href='#gpPt0' transform='translate(441.8,202.4) scale(6.35)' color='red'/>
	<use xlink:href='#gpPt0' transform='translate(441.8,202.4) scale(6.35)' color='red'/>
	<use xlink:href='#gpPt0' transform='translate(441.8,122.8) scale(6.35)' color='red'/>
	<use xlink:href='#gpPt0' transform='translate(441.8,44.7) scale(6.35)' color='red'/>
</g>
	</g>
<g style="fill:none; color:black; stroke:currentColor; stroke-width:1.00; stroke-linecap:butt; stroke-linejoin:miter">
	<path stroke='black'  d='M151.6,23.7 L151.6,429.2 L489.6,429.2 L489.6,23.7 L151.6,23.7 Z  '/></g>
</g>
</svg>

