%!PS-Adobe-3.0 EPSF-3.0
%%Creator: cairo 1.14.0 (http://cairographics.org)
%%CreationDate: Fri Feb 17 14:28:30 2017
%%Pages: 1
%%DocumentData: Clean7Bit
%%LanguageLevel: 2
%%BoundingBox: 94 -1 418 368
%%EndComments
%%BeginProlog
save
50 dict begin
/q { gsave } bind def
/Q { grestore } bind def
/cm { 6 array astore concat } bind def
/w { setlinewidth } bind def
/J { setlinecap } bind def
/j { setlinejoin } bind def
/M { setmiterlimit } bind def
/d { setdash } bind def
/m { moveto } bind def
/l { lineto } bind def
/c { curveto } bind def
/h { closepath } bind def
/re { exch dup neg 3 1 roll 5 3 roll moveto 0 rlineto
      0 exch rlineto 0 rlineto closepath } bind def
/S { stroke } bind def
/f { fill } bind def
/f* { eofill } bind def
/n { newpath } bind def
/W { clip } bind def
/W* { eoclip } bind def
/BT { } bind def
/ET { } bind def
/pdfmark where { pop globaldict /?pdfmark /exec load put }
    { globaldict begin /?pdfmark /pop load def /pdfmark
    /cleartomark load def end } ifelse
/BDC { mark 3 1 roll /BDC pdfmark } bind def
/EMC { mark /EMC pdfmark } bind def
/cairo_store_point { /cairo_point_y exch def /cairo_point_x exch def } def
/Tj { show currentpoint cairo_store_point } bind def
/TJ {
  {
    dup
    type /stringtype eq
    { show } { -0.001 mul 0 cairo_font_matrix dtransform rmoveto } ifelse
  } forall
  currentpoint cairo_store_point
} bind def
/cairo_selectfont { cairo_font_matrix aload pop pop pop 0 0 6 array astore
    cairo_font exch selectfont cairo_point_x cairo_point_y moveto } bind def
/Tf { pop /cairo_font exch def /cairo_font_matrix where
      { pop cairo_selectfont } if } bind def
/Td { matrix translate cairo_font_matrix matrix concatmatrix dup
      /cairo_font_matrix exch def dup 4 get exch 5 get cairo_store_point
      /cairo_font where { pop cairo_selectfont } if } bind def
/Tm { 2 copy 8 2 roll 6 array astore /cairo_font_matrix exch def
      cairo_store_point /cairo_font where { pop cairo_selectfont } if } bind def
/g { setgray } bind def
/rg { setrgbcolor } bind def
/d1 { setcachedevice } bind def
%%EndProlog
%%BeginSetup
%%EndSetup
%%Page: 1 1
%%BeginPageSetup
%%PageBoundingBox: 94 -1 418 368
%%EndPageSetup
q 94 -1 324 369 rectclip q
1 g
96.07 365.873 319.93 -318.465 re f
0 g
0.8 w
1 J
0 j
[] 0.0 d
4 M q 1 0 0 -1 0 387.408081 cm
96.07 21.535 319.93 318.465 re S Q
0.701961 g
273.34 54.15 m 273.34 61.342 l 287.719 61.342 l 287.719 46.959 l 273.34
 46.959 l h
273.34 54.15 m f
0 g
0.0575273 w
q 1 0 0 -1 0 387.408081 cm
273.34 333.258 m 273.34 326.066 l 287.719 326.066 l 287.719 340.449 l 273.34
 340.449 l h
273.34 333.258 m S Q
0.701961 g
273.34 69.971 m 273.34 77.451 l 287.719 77.451 l 287.719 62.49 l 273.34
 62.49 l h
273.34 69.971 m f
0 g
q 1 0 0 -1 0 387.408081 cm
273.34 317.438 m 273.34 309.957 l 287.719 309.957 l 287.719 324.918 l 273.34
 324.918 l h
273.34 317.438 m S Q
0.701961 g
273.34 86.08 m 273.34 93.557 l 287.719 93.557 l 287.719 78.599 l 273.34
 78.599 l h
273.34 86.08 m f
0 g
q 1 0 0 -1 0 387.408081 cm
273.34 301.328 m 273.34 293.852 l 287.719 293.852 l 287.719 308.809 l 273.34
 308.809 l h
273.34 301.328 m S Q
0.701961 g
273.34 101.896 m 273.34 109.088 l 287.719 109.088 l 287.719 94.709 l 273.34
 94.709 l h
273.34 101.896 m f
0 g
q 1 0 0 -1 0 387.408081 cm
273.34 285.512 m 273.34 278.32 l 287.719 278.32 l 287.719 292.699 l 273.34
 292.699 l h
273.34 285.512 m S Q
0.701961 g
289.445 118.006 m 289.445 125.197 l 303.828 125.197 l 303.828 110.814 l
 289.445 110.814 l h
289.445 118.006 m f
0 g
q 1 0 0 -1 0 387.408081 cm
289.445 269.402 m 289.445 262.211 l 303.828 262.211 l 303.828 276.594 l
 289.445 276.594 l h
289.445 269.402 m S Q
0.701961 g
304.98 134.115 m 304.98 141.303 l 319.938 141.303 l 319.938 126.924 l 304.98
 126.924 l h
304.98 134.115 m f
0 g
q 1 0 0 -1 0 387.408081 cm
304.98 253.293 m 304.98 246.105 l 319.938 246.105 l 319.938 260.484 l 304.98
 260.484 l h
304.98 253.293 m S Q
0.701961 g
321.086 149.935 m 321.086 157.412 l 336.043 157.412 l 336.043 142.455 l
 321.086 142.455 l h
321.086 149.935 m f
0 g
q 1 0 0 -1 0 387.408081 cm
321.086 237.473 m 321.086 229.996 l 336.043 229.996 l 336.043 244.953 l
 321.086 244.953 l h
321.086 237.473 m S Q
0.701961 g
337.195 166.041 m 337.195 173.521 l 352.152 173.521 l 352.152 158.564 l
 337.195 158.564 l h
337.195 166.041 m f
0 g
q 1 0 0 -1 0 387.408081 cm
337.195 221.367 m 337.195 213.887 l 352.152 213.887 l 352.152 228.844 l
 337.195 228.844 l h
337.195 221.367 m S Q
0.701961 g
353.301 182.15 m 353.301 189.627 l 367.684 189.627 l 367.684 174.67 l 353.301
 174.67 l h
353.301 182.15 m f
0 g
q 1 0 0 -1 0 387.408081 cm
353.301 205.258 m 353.301 197.781 l 367.684 197.781 l 367.684 212.738 l
 353.301 212.738 l h
353.301 205.258 m S Q
0.701961 g
369.41 182.15 m 369.41 189.627 l 383.793 189.627 l 383.793 174.67 l 369.41
 174.67 l h
369.41 182.15 m f
0 g
q 1 0 0 -1 0 387.408081 cm
369.41 205.258 m 369.41 197.781 l 383.793 197.781 l 383.793 212.738 l 369.41
 212.738 l h
369.41 205.258 m S Q
0.701961 g
385.516 182.15 m 385.516 189.627 l 399.898 189.627 l 399.898 174.67 l 385.516
 174.67 l h
385.516 182.15 m f
0 g
q 1 0 0 -1 0 387.408081 cm
385.516 205.258 m 385.516 197.781 l 399.898 197.781 l 399.898 212.738 l
 385.516 212.738 l h
385.516 205.258 m S Q
0.701961 g
401.051 182.15 m 401.051 189.627 l 416.008 189.627 l 416.008 174.67 l 401.051
 174.67 l h
401.051 182.15 m f
0 g
q 1 0 0 -1 0 387.408081 cm
401.051 205.258 m 401.051 197.781 l 416.008 197.781 l 416.008 212.738 l
 401.051 212.738 l h
401.051 205.258 m S Q
0.701961 g
401.051 166.041 m 401.051 173.521 l 416.008 173.521 l 416.008 158.564 l
 401.051 158.564 l h
401.051 166.041 m f
0 g
q 1 0 0 -1 0 387.408081 cm
401.051 221.367 m 401.051 213.887 l 416.008 213.887 l 416.008 228.844 l
 401.051 228.844 l h
401.051 221.367 m S Q
0.701961 g
401.051 149.935 m 401.051 157.412 l 416.008 157.412 l 416.008 142.455 l
 401.051 142.455 l h
401.051 149.935 m f
0 g
q 1 0 0 -1 0 387.408081 cm
401.051 237.473 m 401.051 229.996 l 416.008 229.996 l 416.008 244.953 l
 401.051 244.953 l h
401.051 237.473 m S Q
0.701961 g
401.051 118.006 m 401.051 125.197 l 416.008 125.197 l 416.008 110.814 l
 401.051 110.814 l h
401.051 118.006 m f
0 g
q 1 0 0 -1 0 387.408081 cm
401.051 269.402 m 401.051 262.211 l 416.008 262.211 l 416.008 276.594 l
 401.051 276.594 l h
401.051 269.402 m S Q
0.701961 g
401.051 134.115 m 401.051 141.303 l 416.008 141.303 l 416.008 126.924 l
 401.051 126.924 l h
401.051 134.115 m f
0 g
q 1 0 0 -1 0 387.408081 cm
401.051 253.293 m 401.051 246.105 l 416.008 246.105 l 416.008 260.484 l
 401.051 260.484 l h
401.051 253.293 m S Q
0.701961 g
401.051 101.896 m 401.051 109.088 l 416.008 109.088 l 416.008 94.709 l 
401.051 94.709 l h
401.051 101.896 m f
0 g
q 1 0 0 -1 0 387.408081 cm
401.051 285.512 m 401.051 278.32 l 416.008 278.32 l 416.008 292.699 l 401.051
 292.699 l h
401.051 285.512 m S Q
0.701961 g
401.051 86.08 m 401.051 93.557 l 416.008 93.557 l 416.008 78.599 l 401.051
 78.599 l h
401.051 86.08 m f
0 g
q 1 0 0 -1 0 387.408081 cm
401.051 301.328 m 401.051 293.852 l 416.008 293.852 l 416.008 308.809 l
 401.051 308.809 l h
401.051 301.328 m S Q
0.701961 g
401.051 69.971 m 401.051 77.451 l 416.008 77.451 l 416.008 62.49 l 401.051
 62.49 l h
401.051 69.971 m f
0 g
q 1 0 0 -1 0 387.408081 cm
401.051 317.438 m 401.051 309.957 l 416.008 309.957 l 416.008 324.918 l
 401.051 324.918 l h
401.051 317.438 m S Q
0.701961 g
401.051 54.15 m 401.051 61.342 l 416.008 61.342 l 416.008 46.959 l 401.051
 46.959 l h
401.051 54.15 m f
0 g
q 1 0 0 -1 0 387.408081 cm
401.051 333.258 m 401.051 326.066 l 416.008 326.066 l 416.008 340.449 l
 401.051 340.449 l h
401.051 333.258 m S Q
0.701961 g
385.516 54.15 m 385.516 61.342 l 399.898 61.342 l 399.898 46.959 l 385.516
 46.959 l h
385.516 54.15 m f
0 g
q 1 0 0 -1 0 387.408081 cm
385.516 333.258 m 385.516 326.066 l 399.898 326.066 l 399.898 340.449 l
 385.516 340.449 l h
385.516 333.258 m S Q
0.701961 g
369.41 54.15 m 369.41 61.342 l 383.793 61.342 l 383.793 46.959 l 369.41
 46.959 l h
369.41 54.15 m f
0 g
q 1 0 0 -1 0 387.408081 cm
369.41 333.258 m 369.41 326.066 l 383.793 326.066 l 383.793 340.449 l 369.41
 340.449 l h
369.41 333.258 m S Q
0.701961 g
353.301 54.15 m 353.301 61.342 l 367.684 61.342 l 367.684 46.959 l 353.301
 46.959 l h
353.301 54.15 m f
0 g
q 1 0 0 -1 0 387.408081 cm
353.301 333.258 m 353.301 326.066 l 367.684 326.066 l 367.684 340.449 l
 353.301 340.449 l h
353.301 333.258 m S Q
0.701961 g
337.195 54.15 m 337.195 61.342 l 352.152 61.342 l 352.152 46.959 l 337.195
 46.959 l h
337.195 54.15 m f
0 g
q 1 0 0 -1 0 387.408081 cm
337.195 333.258 m 337.195 326.066 l 352.152 326.066 l 352.152 340.449 l
 337.195 340.449 l h
337.195 333.258 m S Q
0.701961 g
321.086 54.15 m 321.086 61.342 l 336.043 61.342 l 336.043 46.959 l 321.086
 46.959 l h
321.086 54.15 m f
0 g
q 1 0 0 -1 0 387.408081 cm
321.086 333.258 m 321.086 326.066 l 336.043 326.066 l 336.043 340.449 l
 321.086 340.449 l h
321.086 333.258 m S Q
0.701961 g
304.98 54.15 m 304.98 61.342 l 319.938 61.342 l 319.938 46.959 l 304.98
 46.959 l h
304.98 54.15 m f
0 g
q 1 0 0 -1 0 387.408081 cm
304.98 333.258 m 304.98 326.066 l 319.938 326.066 l 319.938 340.449 l 304.98
 340.449 l h
304.98 333.258 m S Q
0.701961 g
289.445 54.15 m 289.445 61.342 l 303.828 61.342 l 303.828 46.959 l 289.445
 46.959 l h
289.445 54.15 m f
0 g
q 1 0 0 -1 0 387.408081 cm
289.445 333.258 m 289.445 326.066 l 303.828 326.066 l 303.828 340.449 l
 289.445 340.449 l h
289.445 333.258 m S Q
0.701961 g
289.445 101.896 m 289.445 109.088 l 303.828 109.088 l 303.828 94.709 l 
289.445 94.709 l h
289.445 101.896 m f
0 g
q 1 0 0 -1 0 387.408081 cm
289.445 285.512 m 289.445 278.32 l 303.828 278.32 l 303.828 292.699 l 289.445
 292.699 l h
289.445 285.512 m S Q
0.701961 g
289.445 86.08 m 289.445 93.557 l 303.828 93.557 l 303.828 78.599 l 289.445
 78.599 l h
289.445 86.08 m f
0 g
q 1 0 0 -1 0 387.408081 cm
289.445 301.328 m 289.445 293.852 l 303.828 293.852 l 303.828 308.809 l
 289.445 308.809 l h
289.445 301.328 m S Q
0.701961 g
289.445 69.971 m 289.445 77.451 l 303.828 77.451 l 303.828 62.49 l 289.445
 62.49 l h
289.445 69.971 m f
0 g
q 1 0 0 -1 0 387.408081 cm
289.445 317.438 m 289.445 309.957 l 303.828 309.957 l 303.828 324.918 l
 289.445 324.918 l h
289.445 317.438 m S Q
0.701961 g
304.98 69.971 m 304.98 77.451 l 319.938 77.451 l 319.938 62.49 l 304.98
 62.49 l h
304.98 69.971 m f
0 g
q 1 0 0 -1 0 387.408081 cm
304.98 317.438 m 304.98 309.957 l 319.938 309.957 l 319.938 324.918 l 304.98
 324.918 l h
304.98 317.438 m S Q
0.701961 g
304.98 86.08 m 304.98 93.557 l 319.938 93.557 l 319.938 78.599 l 304.98
 78.599 l h
304.98 86.08 m f
0 g
q 1 0 0 -1 0 387.408081 cm
304.98 301.328 m 304.98 293.852 l 319.938 293.852 l 319.938 308.809 l 304.98
 308.809 l h
304.98 301.328 m S Q
0.701961 g
304.98 101.896 m 304.98 109.088 l 319.938 109.088 l 319.938 94.709 l 304.98
 94.709 l h
304.98 101.896 m f
0 g
q 1 0 0 -1 0 387.408081 cm
304.98 285.512 m 304.98 278.32 l 319.938 278.32 l 319.938 292.699 l 304.98
 292.699 l h
304.98 285.512 m S Q
0.701961 g
304.98 118.006 m 304.98 125.197 l 319.938 125.197 l 319.938 110.814 l 304.98
 110.814 l h
304.98 118.006 m f
0 g
q 1 0 0 -1 0 387.408081 cm
304.98 269.402 m 304.98 262.211 l 319.938 262.211 l 319.938 276.594 l 304.98
 276.594 l h
304.98 269.402 m S Q
0.701961 g
321.086 134.115 m 321.086 141.303 l 336.043 141.303 l 336.043 126.924 l
 321.086 126.924 l h
321.086 134.115 m f
0 g
q 1 0 0 -1 0 387.408081 cm
321.086 253.293 m 321.086 246.105 l 336.043 246.105 l 336.043 260.484 l
 321.086 260.484 l h
321.086 253.293 m S Q
0.701961 g
321.086 118.006 m 321.086 125.197 l 336.043 125.197 l 336.043 110.814 l
 321.086 110.814 l h
321.086 118.006 m f
0 g
q 1 0 0 -1 0 387.408081 cm
321.086 269.402 m 321.086 262.211 l 336.043 262.211 l 336.043 276.594 l
 321.086 276.594 l h
321.086 269.402 m S Q
0.701961 g
321.086 101.896 m 321.086 109.088 l 336.043 109.088 l 336.043 94.709 l 
321.086 94.709 l h
321.086 101.896 m f
0 g
q 1 0 0 -1 0 387.408081 cm
321.086 285.512 m 321.086 278.32 l 336.043 278.32 l 336.043 292.699 l 321.086
 292.699 l h
321.086 285.512 m S Q
0.701961 g
321.086 86.08 m 321.086 93.557 l 336.043 93.557 l 336.043 78.599 l 321.086
 78.599 l h
321.086 86.08 m f
0 g
q 1 0 0 -1 0 387.408081 cm
321.086 301.328 m 321.086 293.852 l 336.043 293.852 l 336.043 308.809 l
 321.086 308.809 l h
321.086 301.328 m S Q
0.701961 g
321.086 69.971 m 321.086 77.451 l 336.043 77.451 l 336.043 62.49 l 321.086
 62.49 l h
321.086 69.971 m f
0 g
q 1 0 0 -1 0 387.408081 cm
321.086 317.438 m 321.086 309.957 l 336.043 309.957 l 336.043 324.918 l
 321.086 324.918 l h
321.086 317.438 m S Q
0.701961 g
337.195 69.971 m 337.195 77.451 l 352.152 77.451 l 352.152 62.49 l 337.195
 62.49 l h
337.195 69.971 m f
0 g
q 1 0 0 -1 0 387.408081 cm
337.195 317.438 m 337.195 309.957 l 352.152 309.957 l 352.152 324.918 l
 337.195 324.918 l h
337.195 317.438 m S Q
0.701961 g
337.195 86.08 m 337.195 93.557 l 352.152 93.557 l 352.152 78.599 l 337.195
 78.599 l h
337.195 86.08 m f
0 g
q 1 0 0 -1 0 387.408081 cm
337.195 301.328 m 337.195 293.852 l 352.152 293.852 l 352.152 308.809 l
 337.195 308.809 l h
337.195 301.328 m S Q
0.701961 g
337.195 101.896 m 337.195 109.088 l 352.152 109.088 l 352.152 94.709 l 
337.195 94.709 l h
337.195 101.896 m f
0 g
q 1 0 0 -1 0 387.408081 cm
337.195 285.512 m 337.195 278.32 l 352.152 278.32 l 352.152 292.699 l 337.195
 292.699 l h
337.195 285.512 m S Q
0.701961 g
337.195 118.006 m 337.195 125.197 l 352.152 125.197 l 352.152 110.814 l
 337.195 110.814 l h
337.195 118.006 m f
0 g
q 1 0 0 -1 0 387.408081 cm
337.195 269.402 m 337.195 262.211 l 352.152 262.211 l 352.152 276.594 l
 337.195 276.594 l h
337.195 269.402 m S Q
0.701961 g
337.195 134.115 m 337.195 141.303 l 352.152 141.303 l 352.152 126.924 l
 337.195 126.924 l h
337.195 134.115 m f
0 g
q 1 0 0 -1 0 387.408081 cm
337.195 253.293 m 337.195 246.105 l 352.152 246.105 l 352.152 260.484 l
 337.195 260.484 l h
337.195 253.293 m S Q
0.701961 g
337.195 149.935 m 337.195 157.412 l 352.152 157.412 l 352.152 142.455 l
 337.195 142.455 l h
337.195 149.935 m f
0 g
q 1 0 0 -1 0 387.408081 cm
337.195 237.473 m 337.195 229.996 l 352.152 229.996 l 352.152 244.953 l
 337.195 244.953 l h
337.195 237.473 m S Q
0.701961 g
353.301 166.041 m 353.301 173.521 l 367.684 173.521 l 367.684 158.564 l
 353.301 158.564 l h
353.301 166.041 m f
0 g
q 1 0 0 -1 0 387.408081 cm
353.301 221.367 m 353.301 213.887 l 367.684 213.887 l 367.684 228.844 l
 353.301 228.844 l h
353.301 221.367 m S Q
0.701961 g
353.301 149.935 m 353.301 157.412 l 367.684 157.412 l 367.684 142.455 l
 353.301 142.455 l h
353.301 149.935 m f
0 g
q 1 0 0 -1 0 387.408081 cm
353.301 237.473 m 353.301 229.996 l 367.684 229.996 l 367.684 244.953 l
 353.301 244.953 l h
353.301 237.473 m S Q
0.701961 g
353.301 134.115 m 353.301 141.303 l 367.684 141.303 l 367.684 126.924 l
 353.301 126.924 l h
353.301 134.115 m f
0 g
q 1 0 0 -1 0 387.408081 cm
353.301 253.293 m 353.301 246.105 l 367.684 246.105 l 367.684 260.484 l
 353.301 260.484 l h
353.301 253.293 m S Q
0.701961 g
353.301 118.006 m 353.301 125.197 l 367.684 125.197 l 367.684 110.814 l
 353.301 110.814 l h
353.301 118.006 m f
0 g
q 1 0 0 -1 0 387.408081 cm
353.301 269.402 m 353.301 262.211 l 367.684 262.211 l 367.684 276.594 l
 353.301 276.594 l h
353.301 269.402 m S Q
0.701961 g
353.301 101.896 m 353.301 109.088 l 367.684 109.088 l 367.684 94.709 l 
353.301 94.709 l h
353.301 101.896 m f
0 g
q 1 0 0 -1 0 387.408081 cm
353.301 285.512 m 353.301 278.32 l 367.684 278.32 l 367.684 292.699 l 353.301
 292.699 l h
353.301 285.512 m S Q
0.701961 g
353.301 86.08 m 353.301 93.557 l 367.684 93.557 l 367.684 78.599 l 353.301
 78.599 l h
353.301 86.08 m f
0 g
q 1 0 0 -1 0 387.408081 cm
353.301 301.328 m 353.301 293.852 l 367.684 293.852 l 367.684 308.809 l
 353.301 308.809 l h
353.301 301.328 m S Q
0.701961 g
353.301 69.971 m 353.301 77.451 l 367.684 77.451 l 367.684 62.49 l 353.301
 62.49 l h
353.301 69.971 m f
0 g
q 1 0 0 -1 0 387.408081 cm
353.301 317.438 m 353.301 309.957 l 367.684 309.957 l 367.684 324.918 l
 353.301 324.918 l h
353.301 317.438 m S Q
0.701961 g
369.41 69.971 m 369.41 77.451 l 383.793 77.451 l 383.793 62.49 l 369.41
 62.49 l h
369.41 69.971 m f
0 g
q 1 0 0 -1 0 387.408081 cm
369.41 317.438 m 369.41 309.957 l 383.793 309.957 l 383.793 324.918 l 369.41
 324.918 l h
369.41 317.438 m S Q
0.701961 g
369.41 86.08 m 369.41 93.557 l 383.793 93.557 l 383.793 78.599 l 369.41
 78.599 l h
369.41 86.08 m f
0 g
q 1 0 0 -1 0 387.408081 cm
369.41 301.328 m 369.41 293.852 l 383.793 293.852 l 383.793 308.809 l 369.41
 308.809 l h
369.41 301.328 m S Q
0.701961 g
369.41 101.896 m 369.41 109.088 l 383.793 109.088 l 383.793 94.709 l 369.41
 94.709 l h
369.41 101.896 m f
0 g
q 1 0 0 -1 0 387.408081 cm
369.41 285.512 m 369.41 278.32 l 383.793 278.32 l 383.793 292.699 l 369.41
 292.699 l h
369.41 285.512 m S Q
0.701961 g
369.41 118.006 m 369.41 125.197 l 383.793 125.197 l 383.793 110.814 l 369.41
 110.814 l h
369.41 118.006 m f
0 g
q 1 0 0 -1 0 387.408081 cm
369.41 269.402 m 369.41 262.211 l 383.793 262.211 l 383.793 276.594 l 369.41
 276.594 l h
369.41 269.402 m S Q
0.701961 g
369.41 134.115 m 369.41 141.303 l 383.793 141.303 l 383.793 126.924 l 369.41
 126.924 l h
369.41 134.115 m f
0 g
q 1 0 0 -1 0 387.408081 cm
369.41 253.293 m 369.41 246.105 l 383.793 246.105 l 383.793 260.484 l 369.41
 260.484 l h
369.41 253.293 m S Q
0.701961 g
369.41 149.935 m 369.41 157.412 l 383.793 157.412 l 383.793 142.455 l 369.41
 142.455 l h
369.41 149.935 m f
0 g
q 1 0 0 -1 0 387.408081 cm
369.41 237.473 m 369.41 229.996 l 383.793 229.996 l 383.793 244.953 l 369.41
 244.953 l h
369.41 237.473 m S Q
0.701961 g
369.41 166.041 m 369.41 173.521 l 383.793 173.521 l 383.793 158.564 l 369.41
 158.564 l h
369.41 166.041 m f
0 g
q 1 0 0 -1 0 387.408081 cm
369.41 221.367 m 369.41 213.887 l 383.793 213.887 l 383.793 228.844 l 369.41
 228.844 l h
369.41 221.367 m S Q
0.701961 g
385.516 166.041 m 385.516 173.521 l 399.898 173.521 l 399.898 158.564 l
 385.516 158.564 l h
385.516 166.041 m f
0 g
q 1 0 0 -1 0 387.408081 cm
385.516 221.367 m 385.516 213.887 l 399.898 213.887 l 399.898 228.844 l
 385.516 228.844 l h
385.516 221.367 m S Q
0.701961 g
385.516 149.935 m 385.516 157.412 l 399.898 157.412 l 399.898 142.455 l
 385.516 142.455 l h
385.516 149.935 m f
0 g
q 1 0 0 -1 0 387.408081 cm
385.516 237.473 m 385.516 229.996 l 399.898 229.996 l 399.898 244.953 l
 385.516 244.953 l h
385.516 237.473 m S Q
0.701961 g
385.516 134.115 m 385.516 141.303 l 399.898 141.303 l 399.898 126.924 l
 385.516 126.924 l h
385.516 134.115 m f
0 g
q 1 0 0 -1 0 387.408081 cm
385.516 253.293 m 385.516 246.105 l 399.898 246.105 l 399.898 260.484 l
 385.516 260.484 l h
385.516 253.293 m S Q
0.701961 g
385.516 118.006 m 385.516 125.197 l 399.898 125.197 l 399.898 110.814 l
 385.516 110.814 l h
385.516 118.006 m f
0 g
q 1 0 0 -1 0 387.408081 cm
385.516 269.402 m 385.516 262.211 l 399.898 262.211 l 399.898 276.594 l
 385.516 276.594 l h
385.516 269.402 m S Q
0.701961 g
385.516 101.896 m 385.516 109.088 l 399.898 109.088 l 399.898 94.709 l 
385.516 94.709 l h
385.516 101.896 m f
0 g
q 1 0 0 -1 0 387.408081 cm
385.516 285.512 m 385.516 278.32 l 399.898 278.32 l 399.898 292.699 l 385.516
 292.699 l h
385.516 285.512 m S Q
0.701961 g
385.516 86.08 m 385.516 93.557 l 399.898 93.557 l 399.898 78.599 l 385.516
 78.599 l h
385.516 86.08 m f
0 g
q 1 0 0 -1 0 387.408081 cm
385.516 301.328 m 385.516 293.852 l 399.898 293.852 l 399.898 308.809 l
 385.516 308.809 l h
385.516 301.328 m S Q
0.701961 g
385.516 69.971 m 385.516 77.451 l 399.898 77.451 l 399.898 62.49 l 385.516
 62.49 l h
385.516 69.971 m f
0 g
q 1 0 0 -1 0 387.408081 cm
385.516 317.438 m 385.516 309.957 l 399.898 309.957 l 399.898 324.918 l
 385.516 324.918 l h
385.516 317.438 m S Q
0.701961 g
97.305 182.06 m 97.305 189.252 l 111.688 189.252 l 111.688 174.869 l 97.305
 174.869 l h
97.305 182.06 m f
0 g
q 1 0 0 -1 0 387.408081 cm
97.305 205.348 m 97.305 198.156 l 111.688 198.156 l 111.688 212.539 l 97.305
 212.539 l h
97.305 205.348 m S Q
0.701961 g
113.414 182.06 m 113.414 189.252 l 127.793 189.252 l 127.793 174.869 l 
113.414 174.869 l h
113.414 182.06 m f
0 g
q 1 0 0 -1 0 387.408081 cm
113.414 205.348 m 113.414 198.156 l 127.793 198.156 l 127.793 212.539 l
 113.414 212.539 l h
113.414 205.348 m S Q
0.701961 g
97.305 165.951 m 97.305 173.142 l 111.688 173.142 l 111.688 158.76 l 97.305
 158.76 l h
97.305 165.951 m f
0 g
q 1 0 0 -1 0 387.408081 cm
97.305 221.457 m 97.305 214.266 l 111.688 214.266 l 111.688 228.648 l 97.305
 228.648 l h
97.305 221.457 m S Q
0.701961 g
113.414 165.951 m 113.414 173.142 l 127.793 173.142 l 127.793 158.76 l 
113.414 158.76 l h
113.414 165.951 m f
0 g
q 1 0 0 -1 0 387.408081 cm
113.414 221.457 m 113.414 214.266 l 127.793 214.266 l 127.793 228.648 l
 113.414 228.648 l h
113.414 221.457 m S Q
0.701961 g
113.414 150.131 m 113.414 157.611 l 127.793 157.611 l 127.793 142.654 l
 113.414 142.654 l h
113.414 150.131 m f
0 g
q 1 0 0 -1 0 387.408081 cm
113.414 237.277 m 113.414 229.797 l 127.793 229.797 l 127.793 244.754 l
 113.414 244.754 l h
113.414 237.277 m S Q
0.701961 g
113.414 134.025 m 113.414 141.502 l 127.793 141.502 l 127.793 126.545 l
 113.414 126.545 l h
113.414 134.025 m f
0 g
q 1 0 0 -1 0 387.408081 cm
113.414 253.383 m 113.414 245.906 l 127.793 245.906 l 127.793 260.863 l
 113.414 260.863 l h
113.414 253.383 m S Q
0.701961 g
113.414 117.916 m 113.414 125.396 l 127.793 125.396 l 127.793 110.439 l
 113.414 110.439 l h
113.414 117.916 m f
0 g
q 1 0 0 -1 0 387.408081 cm
113.414 269.492 m 113.414 262.012 l 127.793 262.012 l 127.793 276.969 l
 113.414 276.969 l h
113.414 269.492 m S Q
0.701961 g
113.414 102.096 m 113.414 109.287 l 127.793 109.287 l 127.793 94.904 l 
113.414 94.904 l h
113.414 102.096 m f
0 g
q 1 0 0 -1 0 387.408081 cm
113.414 285.312 m 113.414 278.121 l 127.793 278.121 l 127.793 292.504 l
 113.414 292.504 l h
113.414 285.312 m S Q
0.701961 g
113.414 85.99 m 113.414 93.178 l 127.793 93.178 l 127.793 78.799 l 113.414
 78.799 l h
113.414 85.99 m f
0 g
q 1 0 0 -1 0 387.408081 cm
113.414 301.418 m 113.414 294.23 l 127.793 294.23 l 127.793 308.609 l 113.414
 308.609 l h
113.414 301.418 m S Q
0.701961 g
113.414 69.881 m 113.414 77.072 l 127.793 77.072 l 127.793 62.689 l 113.414
 62.689 l h
113.414 69.881 m f
0 g
q 1 0 0 -1 0 387.408081 cm
113.414 317.527 m 113.414 310.336 l 127.793 310.336 l 127.793 324.719 l
 113.414 324.719 l h
113.414 317.527 m S Q
0.701961 g
113.414 54.06 m 113.414 61.541 l 127.793 61.541 l 127.793 46.584 l 113.414
 46.584 l h
113.414 54.06 m f
0 g
q 1 0 0 -1 0 387.408081 cm
113.414 333.348 m 113.414 325.867 l 127.793 325.867 l 127.793 340.824 l
 113.414 340.824 l h
113.414 333.348 m S Q
0.701961 g
97.305 54.06 m 97.305 61.541 l 111.688 61.541 l 111.688 46.584 l 97.305
 46.584 l h
97.305 54.06 m f
0 g
q 1 0 0 -1 0 387.408081 cm
97.305 333.348 m 97.305 325.867 l 111.688 325.867 l 111.688 340.824 l 97.305
 340.824 l h
97.305 333.348 m S Q
0.701961 g
97.305 69.881 m 97.305 77.072 l 111.688 77.072 l 111.688 62.689 l 97.305
 62.689 l h
97.305 69.881 m f
0 g
q 1 0 0 -1 0 387.408081 cm
97.305 317.527 m 97.305 310.336 l 111.688 310.336 l 111.688 324.719 l 97.305
 324.719 l h
97.305 317.527 m S Q
0.701961 g
97.305 85.99 m 97.305 93.178 l 111.688 93.178 l 111.688 78.799 l 97.305
 78.799 l h
97.305 85.99 m f
0 g
q 1 0 0 -1 0 387.408081 cm
97.305 301.418 m 97.305 294.23 l 111.688 294.23 l 111.688 308.609 l 97.305
 308.609 l h
97.305 301.418 m S Q
0.701961 g
97.305 102.096 m 97.305 109.287 l 111.688 109.287 l 111.688 94.904 l 97.305
 94.904 l h
97.305 102.096 m f
0 g
q 1 0 0 -1 0 387.408081 cm
97.305 285.312 m 97.305 278.121 l 111.688 278.121 l 111.688 292.504 l 97.305
 292.504 l h
97.305 285.312 m S Q
0.701961 g
97.305 117.916 m 97.305 125.396 l 111.688 125.396 l 111.688 110.439 l 97.305
 110.439 l h
97.305 117.916 m f
0 g
q 1 0 0 -1 0 387.408081 cm
97.305 269.492 m 97.305 262.012 l 111.688 262.012 l 111.688 276.969 l 97.305
 276.969 l h
97.305 269.492 m S Q
0.701961 g
97.305 134.025 m 97.305 141.502 l 111.688 141.502 l 111.688 126.545 l 97.305
 126.545 l h
97.305 134.025 m f
0 g
q 1 0 0 -1 0 387.408081 cm
97.305 253.383 m 97.305 245.906 l 111.688 245.906 l 111.688 260.863 l 97.305
 260.863 l h
97.305 253.383 m S Q
0.701961 g
97.305 150.131 m 97.305 157.611 l 111.688 157.611 l 111.688 142.654 l 97.305
 142.654 l h
97.305 150.131 m f
0 g
q 1 0 0 -1 0 387.408081 cm
97.305 237.277 m 97.305 229.797 l 111.688 229.797 l 111.688 244.754 l 97.305
 244.754 l h
97.305 237.277 m S Q
0.701961 g
129.52 182.15 m 129.52 189.627 l 143.902 189.627 l 143.902 174.67 l 129.52
 174.67 l h
129.52 182.15 m f
0 g
q 1 0 0 -1 0 387.408081 cm
129.52 205.258 m 129.52 197.781 l 143.902 197.781 l 143.902 212.738 l 129.52
 212.738 l h
129.52 205.258 m S Q
0.701961 g
129.52 166.041 m 129.52 173.521 l 143.902 173.521 l 143.902 158.564 l 129.52
 158.564 l h
129.52 166.041 m f
0 g
q 1 0 0 -1 0 387.408081 cm
129.52 221.367 m 129.52 213.887 l 143.902 213.887 l 143.902 228.844 l 129.52
 228.844 l h
129.52 221.367 m S Q
0.701961 g
129.52 149.935 m 129.52 157.412 l 143.902 157.412 l 143.902 142.455 l 129.52
 142.455 l h
129.52 149.935 m f
0 g
q 1 0 0 -1 0 387.408081 cm
129.52 237.473 m 129.52 229.996 l 143.902 229.996 l 143.902 244.953 l 129.52
 244.953 l h
129.52 237.473 m S Q
0.701961 g
129.52 134.115 m 129.52 141.303 l 143.902 141.303 l 143.902 126.924 l 129.52
 126.924 l h
129.52 134.115 m f
0 g
q 1 0 0 -1 0 387.408081 cm
129.52 253.293 m 129.52 246.105 l 143.902 246.105 l 143.902 260.484 l 129.52
 260.484 l h
129.52 253.293 m S Q
0.701961 g
129.52 118.006 m 129.52 125.197 l 143.902 125.197 l 143.902 110.814 l 129.52
 110.814 l h
129.52 118.006 m f
0 g
q 1 0 0 -1 0 387.408081 cm
129.52 269.402 m 129.52 262.211 l 143.902 262.211 l 143.902 276.594 l 129.52
 276.594 l h
129.52 269.402 m S Q
0.701961 g
129.52 101.896 m 129.52 109.088 l 143.902 109.088 l 143.902 94.709 l 129.52
 94.709 l h
129.52 101.896 m f
0 g
q 1 0 0 -1 0 387.408081 cm
129.52 285.512 m 129.52 278.32 l 143.902 278.32 l 143.902 292.699 l 129.52
 292.699 l h
129.52 285.512 m S Q
0.701961 g
129.52 86.08 m 129.52 93.557 l 143.902 93.557 l 143.902 78.599 l 129.52
 78.599 l h
129.52 86.08 m f
0 g
q 1 0 0 -1 0 387.408081 cm
129.52 301.328 m 129.52 293.852 l 143.902 293.852 l 143.902 308.809 l 129.52
 308.809 l h
129.52 301.328 m S Q
0.701961 g
129.52 69.971 m 129.52 77.451 l 143.902 77.451 l 143.902 62.49 l 129.52
 62.49 l h
129.52 69.971 m f
0 g
q 1 0 0 -1 0 387.408081 cm
129.52 317.438 m 129.52 309.957 l 143.902 309.957 l 143.902 324.918 l 129.52
 324.918 l h
129.52 317.438 m S Q
0.701961 g
129.52 54.15 m 129.52 61.342 l 143.902 61.342 l 143.902 46.959 l 129.52
 46.959 l h
129.52 54.15 m f
0 g
q 1 0 0 -1 0 387.408081 cm
129.52 333.258 m 129.52 326.066 l 143.902 326.066 l 143.902 340.449 l 129.52
 340.449 l h
129.52 333.258 m S Q
0.701961 g
145.051 54.15 m 145.051 61.342 l 160.008 61.342 l 160.008 46.959 l 145.051
 46.959 l h
145.051 54.15 m f
0 g
q 1 0 0 -1 0 387.408081 cm
145.051 333.258 m 145.051 326.066 l 160.008 326.066 l 160.008 340.449 l
 145.051 340.449 l h
145.051 333.258 m S Q
0.701961 g
145.051 69.971 m 145.051 77.451 l 160.008 77.451 l 160.008 62.49 l 145.051
 62.49 l h
145.051 69.971 m f
0 g
q 1 0 0 -1 0 387.408081 cm
145.051 317.438 m 145.051 309.957 l 160.008 309.957 l 160.008 324.918 l
 145.051 324.918 l h
145.051 317.438 m S Q
0.701961 g
145.051 86.08 m 145.051 93.557 l 160.008 93.557 l 160.008 78.599 l 145.051
 78.599 l h
145.051 86.08 m f
0 g
q 1 0 0 -1 0 387.408081 cm
145.051 301.328 m 145.051 293.852 l 160.008 293.852 l 160.008 308.809 l
 145.051 308.809 l h
145.051 301.328 m S Q
0.701961 g
145.051 101.896 m 145.051 109.088 l 160.008 109.088 l 160.008 94.709 l 
145.051 94.709 l h
145.051 101.896 m f
0 g
q 1 0 0 -1 0 387.408081 cm
145.051 285.512 m 145.051 278.32 l 160.008 278.32 l 160.008 292.699 l 145.051
 292.699 l h
145.051 285.512 m S Q
0.701961 g
145.051 118.006 m 145.051 125.197 l 160.008 125.197 l 160.008 110.814 l
 145.051 110.814 l h
145.051 118.006 m f
0 g
q 1 0 0 -1 0 387.408081 cm
145.051 269.402 m 145.051 262.211 l 160.008 262.211 l 160.008 276.594 l
 145.051 276.594 l h
145.051 269.402 m S Q
0.701961 g
145.051 134.115 m 145.051 141.303 l 160.008 141.303 l 160.008 126.924 l
 145.051 126.924 l h
145.051 134.115 m f
0 g
q 1 0 0 -1 0 387.408081 cm
145.051 253.293 m 145.051 246.105 l 160.008 246.105 l 160.008 260.484 l
 145.051 260.484 l h
145.051 253.293 m S Q
0.701961 g
145.051 149.935 m 145.051 157.412 l 160.008 157.412 l 160.008 142.455 l
 145.051 142.455 l h
145.051 149.935 m f
0 g
q 1 0 0 -1 0 387.408081 cm
145.051 237.473 m 145.051 229.996 l 160.008 229.996 l 160.008 244.953 l
 145.051 244.953 l h
145.051 237.473 m S Q
0.701961 g
145.051 166.041 m 145.051 173.521 l 160.008 173.521 l 160.008 158.564 l
 145.051 158.564 l h
145.051 166.041 m f
0 g
q 1 0 0 -1 0 387.408081 cm
145.051 221.367 m 145.051 213.887 l 160.008 213.887 l 160.008 228.844 l
 145.051 228.844 l h
145.051 221.367 m S Q
0.701961 g
145.051 182.15 m 145.051 189.627 l 160.008 189.627 l 160.008 174.67 l 145.051
 174.67 l h
145.051 182.15 m f
0 g
q 1 0 0 -1 0 387.408081 cm
145.051 205.258 m 145.051 197.781 l 160.008 197.781 l 160.008 212.738 l
 145.051 212.738 l h
145.051 205.258 m S Q
0.701961 g
161.16 166.041 m 161.16 173.521 l 176.117 173.521 l 176.117 158.564 l 161.16
 158.564 l h
161.16 166.041 m f
0 g
q 1 0 0 -1 0 387.408081 cm
161.16 221.367 m 161.16 213.887 l 176.117 213.887 l 176.117 228.844 l 161.16
 228.844 l h
161.16 221.367 m S Q
0.701961 g
161.16 149.935 m 161.16 157.412 l 176.117 157.412 l 176.117 142.455 l 161.16
 142.455 l h
161.16 149.935 m f
0 g
q 1 0 0 -1 0 387.408081 cm
161.16 237.473 m 161.16 229.996 l 176.117 229.996 l 176.117 244.953 l 161.16
 244.953 l h
161.16 237.473 m S Q
0.701961 g
161.16 134.115 m 161.16 141.303 l 176.117 141.303 l 176.117 126.924 l 161.16
 126.924 l h
161.16 134.115 m f
0 g
q 1 0 0 -1 0 387.408081 cm
161.16 253.293 m 161.16 246.105 l 176.117 246.105 l 176.117 260.484 l 161.16
 260.484 l h
161.16 253.293 m S Q
0.701961 g
177.27 149.935 m 177.27 157.412 l 191.648 157.412 l 191.648 142.455 l 177.27
 142.455 l h
177.27 149.935 m f
0 g
q 1 0 0 -1 0 387.408081 cm
177.27 237.473 m 177.27 229.996 l 191.648 229.996 l 191.648 244.953 l 177.27
 244.953 l h
177.27 237.473 m S Q
0.701961 g
193.375 118.006 m 193.375 125.197 l 207.758 125.197 l 207.758 110.814 l
 193.375 110.814 l h
193.375 118.006 m f
0 g
q 1 0 0 -1 0 387.408081 cm
193.375 269.402 m 193.375 262.211 l 207.758 262.211 l 207.758 276.594 l
 193.375 276.594 l h
193.375 269.402 m S Q
0.701961 g
193.375 134.115 m 193.375 141.303 l 207.758 141.303 l 207.758 126.924 l
 193.375 126.924 l h
193.375 134.115 m f
0 g
q 1 0 0 -1 0 387.408081 cm
193.375 253.293 m 193.375 246.105 l 207.758 246.105 l 207.758 260.484 l
 193.375 260.484 l h
193.375 253.293 m S Q
0.701961 g
209.484 118.006 m 209.484 125.197 l 223.863 125.197 l 223.863 110.814 l
 209.484 110.814 l h
209.484 118.006 m f
0 g
q 1 0 0 -1 0 387.408081 cm
209.484 269.402 m 209.484 262.211 l 223.863 262.211 l 223.863 276.594 l
 209.484 276.594 l h
209.484 269.402 m S Q
0.701961 g
225.016 101.896 m 225.016 109.088 l 239.973 109.088 l 239.973 94.709 l 
225.016 94.709 l h
225.016 101.896 m f
0 g
q 1 0 0 -1 0 387.408081 cm
225.016 285.512 m 225.016 278.32 l 239.973 278.32 l 239.973 292.699 l 225.016
 292.699 l h
225.016 285.512 m S Q
0.701961 g
225.016 86.08 m 225.016 93.557 l 239.973 93.557 l 239.973 78.599 l 225.016
 78.599 l h
225.016 86.08 m f
0 g
q 1 0 0 -1 0 387.408081 cm
225.016 301.328 m 225.016 293.852 l 239.973 293.852 l 239.973 308.809 l
 225.016 308.809 l h
225.016 301.328 m S Q
0.701961 g
225.016 69.971 m 225.016 77.451 l 239.973 77.451 l 239.973 62.49 l 225.016
 62.49 l h
225.016 69.971 m f
0 g
q 1 0 0 -1 0 387.408081 cm
225.016 317.438 m 225.016 309.957 l 239.973 309.957 l 239.973 324.918 l
 225.016 324.918 l h
225.016 317.438 m S Q
0.701961 g
225.016 54.15 m 225.016 61.342 l 239.973 61.342 l 239.973 46.959 l 225.016
 46.959 l h
225.016 54.15 m f
0 g
q 1 0 0 -1 0 387.408081 cm
225.016 333.258 m 225.016 326.066 l 239.973 326.066 l 239.973 340.449 l
 225.016 340.449 l h
225.016 333.258 m S Q
0.701961 g
209.484 54.15 m 209.484 61.342 l 223.863 61.342 l 223.863 46.959 l 209.484
 46.959 l h
209.484 54.15 m f
0 g
q 1 0 0 -1 0 387.408081 cm
209.484 333.258 m 209.484 326.066 l 223.863 326.066 l 223.863 340.449 l
 209.484 340.449 l h
209.484 333.258 m S Q
0.701961 g
209.484 69.971 m 209.484 77.451 l 223.863 77.451 l 223.863 62.49 l 209.484
 62.49 l h
209.484 69.971 m f
0 g
q 1 0 0 -1 0 387.408081 cm
209.484 317.438 m 209.484 309.957 l 223.863 309.957 l 223.863 324.918 l
 209.484 324.918 l h
209.484 317.438 m S Q
0.701961 g
209.484 86.08 m 209.484 93.557 l 223.863 93.557 l 223.863 78.599 l 209.484
 78.599 l h
209.484 86.08 m f
0 g
q 1 0 0 -1 0 387.408081 cm
209.484 301.328 m 209.484 293.852 l 223.863 293.852 l 223.863 308.809 l
 209.484 308.809 l h
209.484 301.328 m S Q
0.701961 g
209.484 101.896 m 209.484 109.088 l 223.863 109.088 l 223.863 94.709 l 
209.484 94.709 l h
209.484 101.896 m f
0 g
q 1 0 0 -1 0 387.408081 cm
209.484 285.512 m 209.484 278.32 l 223.863 278.32 l 223.863 292.699 l 209.484
 292.699 l h
209.484 285.512 m S Q
0.701961 g
193.375 101.896 m 193.375 109.088 l 207.758 109.088 l 207.758 94.709 l 
193.375 94.709 l h
193.375 101.896 m f
0 g
q 1 0 0 -1 0 387.408081 cm
193.375 285.512 m 193.375 278.32 l 207.758 278.32 l 207.758 292.699 l 193.375
 292.699 l h
193.375 285.512 m S Q
0.701961 g
193.375 86.08 m 193.375 93.557 l 207.758 93.557 l 207.758 78.599 l 193.375
 78.599 l h
193.375 86.08 m f
0 g
q 1 0 0 -1 0 387.408081 cm
193.375 301.328 m 193.375 293.852 l 207.758 293.852 l 207.758 308.809 l
 193.375 308.809 l h
193.375 301.328 m S Q
0.701961 g
193.375 69.971 m 193.375 77.451 l 207.758 77.451 l 207.758 62.49 l 193.375
 62.49 l h
193.375 69.971 m f
0 g
q 1 0 0 -1 0 387.408081 cm
193.375 317.438 m 193.375 309.957 l 207.758 309.957 l 207.758 324.918 l
 193.375 324.918 l h
193.375 317.438 m S Q
0.701961 g
193.375 54.15 m 193.375 61.342 l 207.758 61.342 l 207.758 46.959 l 193.375
 46.959 l h
193.375 54.15 m f
0 g
q 1 0 0 -1 0 387.408081 cm
193.375 333.258 m 193.375 326.066 l 207.758 326.066 l 207.758 340.449 l
 193.375 340.449 l h
193.375 333.258 m S Q
0.701961 g
177.27 54.15 m 177.27 61.342 l 191.648 61.342 l 191.648 46.959 l 177.27
 46.959 l h
177.27 54.15 m f
0 g
q 1 0 0 -1 0 387.408081 cm
177.27 333.258 m 177.27 326.066 l 191.648 326.066 l 191.648 340.449 l 177.27
 340.449 l h
177.27 333.258 m S Q
0.701961 g
177.27 69.971 m 177.27 77.451 l 191.648 77.451 l 191.648 62.49 l 177.27
 62.49 l h
177.27 69.971 m f
0 g
q 1 0 0 -1 0 387.408081 cm
177.27 317.438 m 177.27 309.957 l 191.648 309.957 l 191.648 324.918 l 177.27
 324.918 l h
177.27 317.438 m S Q
0.701961 g
177.27 86.08 m 177.27 93.557 l 191.648 93.557 l 191.648 78.599 l 177.27
 78.599 l h
177.27 86.08 m f
0 g
q 1 0 0 -1 0 387.408081 cm
177.27 301.328 m 177.27 293.852 l 191.648 293.852 l 191.648 308.809 l 177.27
 308.809 l h
177.27 301.328 m S Q
0.701961 g
177.27 101.896 m 177.27 109.088 l 191.648 109.088 l 191.648 94.709 l 177.27
 94.709 l h
177.27 101.896 m f
0 g
q 1 0 0 -1 0 387.408081 cm
177.27 285.512 m 177.27 278.32 l 191.648 278.32 l 191.648 292.699 l 177.27
 292.699 l h
177.27 285.512 m S Q
0.701961 g
177.27 118.006 m 177.27 125.197 l 191.648 125.197 l 191.648 110.814 l 177.27
 110.814 l h
177.27 118.006 m f
0 g
q 1 0 0 -1 0 387.408081 cm
177.27 269.402 m 177.27 262.211 l 191.648 262.211 l 191.648 276.594 l 177.27
 276.594 l h
177.27 269.402 m S Q
0.701961 g
177.27 134.115 m 177.27 141.303 l 191.648 141.303 l 191.648 126.924 l 177.27
 126.924 l h
177.27 134.115 m f
0 g
q 1 0 0 -1 0 387.408081 cm
177.27 253.293 m 177.27 246.105 l 191.648 246.105 l 191.648 260.484 l 177.27
 260.484 l h
177.27 253.293 m S Q
0.701961 g
161.16 118.006 m 161.16 125.197 l 176.117 125.197 l 176.117 110.814 l 161.16
 110.814 l h
161.16 118.006 m f
0 g
q 1 0 0 -1 0 387.408081 cm
161.16 269.402 m 161.16 262.211 l 176.117 262.211 l 176.117 276.594 l 161.16
 276.594 l h
161.16 269.402 m S Q
0.701961 g
161.16 101.896 m 161.16 109.088 l 176.117 109.088 l 176.117 94.709 l 161.16
 94.709 l h
161.16 101.896 m f
0 g
q 1 0 0 -1 0 387.408081 cm
161.16 285.512 m 161.16 278.32 l 176.117 278.32 l 176.117 292.699 l 161.16
 292.699 l h
161.16 285.512 m S Q
0.701961 g
161.16 86.08 m 161.16 93.557 l 176.117 93.557 l 176.117 78.599 l 161.16
 78.599 l h
161.16 86.08 m f
0 g
q 1 0 0 -1 0 387.408081 cm
161.16 301.328 m 161.16 293.852 l 176.117 293.852 l 176.117 308.809 l 161.16
 308.809 l h
161.16 301.328 m S Q
0.701961 g
161.16 69.971 m 161.16 77.451 l 176.117 77.451 l 176.117 62.49 l 161.16
 62.49 l h
161.16 69.971 m f
0 g
q 1 0 0 -1 0 387.408081 cm
161.16 317.438 m 161.16 309.957 l 176.117 309.957 l 176.117 324.918 l 161.16
 324.918 l h
161.16 317.438 m S Q
0.701961 g
161.16 54.15 m 161.16 61.342 l 176.117 61.342 l 176.117 46.959 l 161.16
 46.959 l h
161.16 54.15 m f
0 g
q 1 0 0 -1 0 387.408081 cm
161.16 333.258 m 161.16 326.066 l 176.117 326.066 l 176.117 340.449 l 161.16
 340.449 l h
161.16 333.258 m S Q
0.701961 g
97.305 358.092 m 97.305 365.283 l 111.688 365.283 l 111.688 350.9 l 97.305
 350.9 l h
97.305 358.092 m f
0 g
q 1 0 0 -1 0 387.408081 cm
97.305 29.316 m 97.305 22.125 l 111.688 22.125 l 111.688 36.508 l 97.305
 36.508 l h
97.305 29.316 m S Q
0.701961 g
97.305 341.986 m 97.305 349.178 l 111.688 349.178 l 111.688 334.795 l 97.305
 334.795 l h
97.305 341.986 m f
0 g
q 1 0 0 -1 0 387.408081 cm
97.305 45.422 m 97.305 38.23 l 111.688 38.23 l 111.688 52.613 l 97.305 
52.613 l h
97.305 45.422 m S Q
0.701961 g
97.305 325.877 m 97.305 333.068 l 111.688 333.068 l 111.688 318.685 l 97.305
 318.685 l h
97.305 325.877 m f
0 g
q 1 0 0 -1 0 387.408081 cm
97.305 61.531 m 97.305 54.34 l 111.688 54.34 l 111.688 68.723 l 97.305 
68.723 l h
97.305 61.531 m S Q
0.701961 g
97.305 310.057 m 97.305 317.537 l 111.688 317.537 l 111.688 302.58 l 97.305
 302.58 l h
97.305 310.057 m f
0 g
q 1 0 0 -1 0 387.408081 cm
97.305 77.352 m 97.305 69.871 l 111.688 69.871 l 111.688 84.828 l 97.305
 84.828 l h
97.305 77.352 m S Q
0.701961 g
97.305 293.951 m 97.305 301.428 l 111.688 301.428 l 111.688 286.471 l 97.305
 286.471 l h
97.305 293.951 m f
0 g
q 1 0 0 -1 0 387.408081 cm
97.305 93.457 m 97.305 85.98 l 111.688 85.98 l 111.688 100.938 l 97.305
 100.938 l h
97.305 93.457 m S Q
0.701961 g
97.305 278.131 m 97.305 285.322 l 111.688 285.322 l 111.688 270.939 l 97.305
 270.939 l h
97.305 278.131 m f
0 g
q 1 0 0 -1 0 387.408081 cm
97.305 109.277 m 97.305 102.086 l 111.688 102.086 l 111.688 116.469 l 97.305
 116.469 l h
97.305 109.277 m S Q
0.701961 g
97.305 262.021 m 97.305 269.213 l 111.688 269.213 l 111.688 254.83 l 97.305
 254.83 l h
97.305 262.021 m f
0 g
q 1 0 0 -1 0 387.408081 cm
97.305 125.387 m 97.305 118.195 l 111.688 118.195 l 111.688 132.578 l 97.305
 132.578 l h
97.305 125.387 m S Q
0.701961 g
97.305 245.916 m 97.305 253.103 l 111.688 253.103 l 111.688 238.724 l 97.305
 238.724 l h
97.305 245.916 m f
0 g
q 1 0 0 -1 0 387.408081 cm
97.305 141.492 m 97.305 134.305 l 111.688 134.305 l 111.688 148.684 l 97.305
 148.684 l h
97.305 141.492 m S Q
0.701961 g
97.305 230.096 m 97.305 237.572 l 111.688 237.572 l 111.688 222.615 l 97.305
 222.615 l h
97.305 230.096 m f
0 g
q 1 0 0 -1 0 387.408081 cm
97.305 157.312 m 97.305 149.836 l 111.688 149.836 l 111.688 164.793 l 97.305
 164.793 l h
97.305 157.312 m S Q
0.701961 g
113.414 230.166 m 113.414 237.572 l 127.793 237.572 l 127.793 222.592 l
 120.602 222.674 l 113.414 222.76 l h
113.414 230.166 m f
0 g
q 1 0 0 -1 0 387.408081 cm
113.414 157.242 m 113.414 149.836 l 127.793 149.836 l 127.793 164.816 l
 120.602 164.734 l 113.414 164.648 l h
113.414 157.242 m S Q
0.701961 g
113.414 245.916 m 113.414 253.103 l 127.793 253.103 l 127.793 238.724 l
 113.414 238.724 l h
113.414 245.916 m f
0 g
q 1 0 0 -1 0 387.408081 cm
113.414 141.492 m 113.414 134.305 l 127.793 134.305 l 127.793 148.684 l
 113.414 148.684 l h
113.414 141.492 m S Q
0.701961 g
113.414 262.021 m 113.414 269.213 l 127.793 269.213 l 127.793 254.83 l 
113.414 254.83 l h
113.414 262.021 m f
0 g
q 1 0 0 -1 0 387.408081 cm
113.414 125.387 m 113.414 118.195 l 127.793 118.195 l 127.793 132.578 l
 113.414 132.578 l h
113.414 125.387 m S Q
0.701961 g
113.414 278.131 m 113.414 285.322 l 127.793 285.322 l 127.793 270.939 l
 113.414 270.939 l h
113.414 278.131 m f
0 g
q 1 0 0 -1 0 387.408081 cm
113.414 109.277 m 113.414 102.086 l 127.793 102.086 l 127.793 116.469 l
 113.414 116.469 l h
113.414 109.277 m S Q
0.701961 g
113.414 293.951 m 113.414 301.428 l 127.793 301.428 l 127.793 286.471 l
 113.414 286.471 l h
113.414 293.951 m f
0 g
q 1 0 0 -1 0 387.408081 cm
113.414 93.457 m 113.414 85.98 l 127.793 85.98 l 127.793 100.938 l 113.414
 100.938 l h
113.414 93.457 m S Q
0.701961 g
113.414 310.057 m 113.414 317.537 l 127.793 317.537 l 127.793 302.58 l 
113.414 302.58 l h
113.414 310.057 m f
0 g
q 1 0 0 -1 0 387.408081 cm
113.414 77.352 m 113.414 69.871 l 127.793 69.871 l 127.793 84.828 l 113.414
 84.828 l h
113.414 77.352 m S Q
0.701961 g
113.414 325.877 m 113.414 333.068 l 127.793 333.068 l 127.793 318.685 l
 113.414 318.685 l h
113.414 325.877 m f
0 g
q 1 0 0 -1 0 387.408081 cm
113.414 61.531 m 113.414 54.34 l 127.793 54.34 l 127.793 68.723 l 113.414
 68.723 l h
113.414 61.531 m S Q
0.701961 g
113.414 341.986 m 113.414 349.178 l 127.793 349.178 l 127.793 334.795 l
 113.414 334.795 l h
113.414 341.986 m f
0 g
q 1 0 0 -1 0 387.408081 cm
113.414 45.422 m 113.414 38.23 l 127.793 38.23 l 127.793 52.613 l 113.414
 52.613 l h
113.414 45.422 m S Q
0.701961 g
113.414 358.092 m 113.414 365.283 l 127.793 365.283 l 127.793 350.9 l 113.414
 350.9 l h
113.414 358.092 m f
0 g
q 1 0 0 -1 0 387.408081 cm
113.414 29.316 m 113.414 22.125 l 127.793 22.125 l 127.793 36.508 l 113.414
 36.508 l h
113.414 29.316 m S Q
0.701961 g
129.52 358.092 m 129.52 365.283 l 143.902 365.283 l 143.902 350.9 l 129.52
 350.9 l h
129.52 358.092 m f
0 g
q 1 0 0 -1 0 387.408081 cm
129.52 29.316 m 129.52 22.125 l 143.902 22.125 l 143.902 36.508 l 129.52
 36.508 l h
129.52 29.316 m S Q
0.701961 g
129.52 341.986 m 129.52 349.178 l 143.902 349.178 l 143.902 334.795 l 129.52
 334.795 l h
129.52 341.986 m f
0 g
q 1 0 0 -1 0 387.408081 cm
129.52 45.422 m 129.52 38.23 l 143.902 38.23 l 143.902 52.613 l 129.52 
52.613 l h
129.52 45.422 m S Q
0.701961 g
129.52 325.877 m 129.52 333.068 l 143.902 333.068 l 143.902 318.685 l 129.52
 318.685 l h
129.52 325.877 m f
0 g
q 1 0 0 -1 0 387.408081 cm
129.52 61.531 m 129.52 54.34 l 143.902 54.34 l 143.902 68.723 l 129.52 
68.723 l h
129.52 61.531 m S Q
0.701961 g
129.52 310.057 m 129.52 317.537 l 143.902 317.537 l 143.902 302.58 l 129.52
 302.58 l h
129.52 310.057 m f
0 g
q 1 0 0 -1 0 387.408081 cm
129.52 77.352 m 129.52 69.871 l 143.902 69.871 l 143.902 84.828 l 129.52
 84.828 l h
129.52 77.352 m S Q
0.701961 g
129.52 293.951 m 129.52 301.428 l 143.902 301.428 l 143.902 286.471 l 129.52
 286.471 l h
129.52 293.951 m f
0 g
q 1 0 0 -1 0 387.408081 cm
129.52 93.457 m 129.52 85.98 l 143.902 85.98 l 143.902 100.938 l 129.52
 100.938 l h
129.52 93.457 m S Q
0.701961 g
129.52 278.131 m 129.52 285.322 l 143.902 285.322 l 143.902 270.939 l 129.52
 270.939 l h
129.52 278.131 m f
0 g
q 1 0 0 -1 0 387.408081 cm
129.52 109.277 m 129.52 102.086 l 143.902 102.086 l 143.902 116.469 l 129.52
 116.469 l h
129.52 109.277 m S Q
0.701961 g
129.52 262.021 m 129.52 269.213 l 143.902 269.213 l 143.902 254.83 l 129.52
 254.83 l h
129.52 262.021 m f
0 g
q 1 0 0 -1 0 387.408081 cm
129.52 125.387 m 129.52 118.195 l 143.902 118.195 l 143.902 132.578 l 129.52
 132.578 l h
129.52 125.387 m S Q
0.701961 g
129.52 245.916 m 129.52 253.103 l 143.902 253.103 l 143.902 238.724 l 129.52
 238.724 l h
129.52 245.916 m f
0 g
q 1 0 0 -1 0 387.408081 cm
129.52 141.492 m 129.52 134.305 l 143.902 134.305 l 143.902 148.684 l 129.52
 148.684 l h
129.52 141.492 m S Q
0.701961 g
129.52 230.096 m 129.52 237.572 l 143.902 237.572 l 143.902 222.615 l 129.52
 222.615 l h
129.52 230.096 m f
0 g
q 1 0 0 -1 0 387.408081 cm
129.52 157.312 m 129.52 149.836 l 143.902 149.836 l 143.902 164.793 l 129.52
 164.793 l h
129.52 157.312 m S Q
0.701961 g
145.051 230.096 m 145.051 237.572 l 160.008 237.572 l 160.008 222.615 l
 145.051 222.615 l h
145.051 230.096 m f
0 g
q 1 0 0 -1 0 387.408081 cm
145.051 157.312 m 145.051 149.836 l 160.008 149.836 l 160.008 164.793 l
 145.051 164.793 l h
145.051 157.312 m S Q
0.701961 g
145.051 245.916 m 145.051 253.103 l 160.008 253.103 l 160.008 238.724 l
 145.051 238.724 l h
145.051 245.916 m f
0 g
q 1 0 0 -1 0 387.408081 cm
145.051 141.492 m 145.051 134.305 l 160.008 134.305 l 160.008 148.684 l
 145.051 148.684 l h
145.051 141.492 m S Q
0.701961 g
145.051 262.021 m 145.051 269.213 l 160.008 269.213 l 160.008 254.83 l 
145.051 254.83 l h
145.051 262.021 m f
0 g
q 1 0 0 -1 0 387.408081 cm
145.051 125.387 m 145.051 118.195 l 160.008 118.195 l 160.008 132.578 l
 145.051 132.578 l h
145.051 125.387 m S Q
0.701961 g
145.051 278.131 m 145.051 285.322 l 160.008 285.322 l 160.008 270.939 l
 145.051 270.939 l h
145.051 278.131 m f
0 g
q 1 0 0 -1 0 387.408081 cm
145.051 109.277 m 145.051 102.086 l 160.008 102.086 l 160.008 116.469 l
 145.051 116.469 l h
145.051 109.277 m S Q
0.701961 g
145.051 293.951 m 145.051 301.428 l 160.008 301.428 l 160.008 286.471 l
 145.051 286.471 l h
145.051 293.951 m f
0 g
q 1 0 0 -1 0 387.408081 cm
145.051 93.457 m 145.051 85.98 l 160.008 85.98 l 160.008 100.938 l 145.051
 100.938 l h
145.051 93.457 m S Q
0.701961 g
145.051 310.057 m 145.051 317.537 l 160.008 317.537 l 160.008 302.58 l 
145.051 302.58 l h
145.051 310.057 m f
0 g
q 1 0 0 -1 0 387.408081 cm
145.051 77.352 m 145.051 69.871 l 160.008 69.871 l 160.008 84.828 l 145.051
 84.828 l h
145.051 77.352 m S Q
0.701961 g
145.051 325.877 m 145.051 333.068 l 160.008 333.068 l 160.008 318.685 l
 145.051 318.685 l h
145.051 325.877 m f
0 g
q 1 0 0 -1 0 387.408081 cm
145.051 61.531 m 145.051 54.34 l 160.008 54.34 l 160.008 68.723 l 145.051
 68.723 l h
145.051 61.531 m S Q
0.701961 g
145.051 341.986 m 145.051 349.178 l 160.008 349.178 l 160.008 334.795 l
 145.051 334.795 l h
145.051 341.986 m f
0 g
q 1 0 0 -1 0 387.408081 cm
145.051 45.422 m 145.051 38.23 l 160.008 38.23 l 160.008 52.613 l 145.051
 52.613 l h
145.051 45.422 m S Q
0.701961 g
145.051 358.092 m 145.051 365.283 l 160.008 365.283 l 160.008 350.9 l 145.051
 350.9 l h
145.051 358.092 m f
0 g
q 1 0 0 -1 0 387.408081 cm
145.051 29.316 m 145.051 22.125 l 160.008 22.125 l 160.008 36.508 l 145.051
 36.508 l h
145.051 29.316 m S Q
0.701961 g
161.16 358.092 m 161.16 365.283 l 176.117 365.283 l 176.117 350.9 l 161.16
 350.9 l h
161.16 358.092 m f
0 g
q 1 0 0 -1 0 387.408081 cm
161.16 29.316 m 161.16 22.125 l 176.117 22.125 l 176.117 36.508 l 161.16
 36.508 l h
161.16 29.316 m S Q
0.701961 g
161.16 341.986 m 161.16 349.178 l 176.117 349.178 l 176.117 334.795 l 161.16
 334.795 l h
161.16 341.986 m f
0 g
q 1 0 0 -1 0 387.408081 cm
161.16 45.422 m 161.16 38.23 l 176.117 38.23 l 176.117 52.613 l 161.16 
52.613 l h
161.16 45.422 m S Q
0.701961 g
161.16 325.877 m 161.16 333.068 l 176.117 333.068 l 176.117 318.685 l 161.16
 318.685 l h
161.16 325.877 m f
0 g
q 1 0 0 -1 0 387.408081 cm
161.16 61.531 m 161.16 54.34 l 176.117 54.34 l 176.117 68.723 l 161.16 
68.723 l h
161.16 61.531 m S Q
0.701961 g
161.16 310.057 m 161.16 317.537 l 176.117 317.537 l 176.117 302.58 l 161.16
 302.58 l h
161.16 310.057 m f
0 g
q 1 0 0 -1 0 387.408081 cm
161.16 77.352 m 161.16 69.871 l 176.117 69.871 l 176.117 84.828 l 161.16
 84.828 l h
161.16 77.352 m S Q
0.701961 g
161.16 293.951 m 161.16 301.428 l 176.117 301.428 l 176.117 286.471 l 161.16
 286.471 l h
161.16 293.951 m f
0 g
q 1 0 0 -1 0 387.408081 cm
161.16 93.457 m 161.16 85.98 l 176.117 85.98 l 176.117 100.938 l 161.16
 100.938 l h
161.16 93.457 m S Q
0.701961 g
161.16 278.131 m 161.16 285.322 l 176.117 285.322 l 176.117 270.939 l 161.16
 270.939 l h
161.16 278.131 m f
0 g
q 1 0 0 -1 0 387.408081 cm
161.16 109.277 m 161.16 102.086 l 176.117 102.086 l 176.117 116.469 l 161.16
 116.469 l h
161.16 109.277 m S Q
0.701961 g
161.16 262.021 m 161.16 269.213 l 176.117 269.213 l 176.117 254.83 l 161.16
 254.83 l h
161.16 262.021 m f
0 g
q 1 0 0 -1 0 387.408081 cm
161.16 125.387 m 161.16 118.195 l 176.117 118.195 l 176.117 132.578 l 161.16
 132.578 l h
161.16 125.387 m S Q
0.701961 g
161.16 245.916 m 161.16 253.103 l 176.117 253.103 l 176.117 238.724 l 161.16
 238.724 l h
161.16 245.916 m f
0 g
q 1 0 0 -1 0 387.408081 cm
161.16 141.492 m 161.16 134.305 l 176.117 134.305 l 176.117 148.684 l 161.16
 148.684 l h
161.16 141.492 m S Q
0.701961 g
177.27 358.092 m 177.27 365.283 l 191.648 365.283 l 191.648 350.9 l 177.27
 350.9 l h
177.27 358.092 m f
0 g
q 1 0 0 -1 0 387.408081 cm
177.27 29.316 m 177.27 22.125 l 191.648 22.125 l 191.648 36.508 l 177.27
 36.508 l h
177.27 29.316 m S Q
0.701961 g
177.27 341.986 m 177.27 349.178 l 191.648 349.178 l 191.648 334.795 l 177.27
 334.795 l h
177.27 341.986 m f
0 g
q 1 0 0 -1 0 387.408081 cm
177.27 45.422 m 177.27 38.23 l 191.648 38.23 l 191.648 52.613 l 177.27 
52.613 l h
177.27 45.422 m S Q
0.701961 g
177.27 325.877 m 177.27 333.068 l 191.648 333.068 l 191.648 318.685 l 177.27
 318.685 l h
177.27 325.877 m f
0 g
q 1 0 0 -1 0 387.408081 cm
177.27 61.531 m 177.27 54.34 l 191.648 54.34 l 191.648 68.723 l 177.27 
68.723 l h
177.27 61.531 m S Q
0.701961 g
177.27 310.057 m 177.27 317.537 l 191.648 317.537 l 191.648 302.58 l 177.27
 302.58 l h
177.27 310.057 m f
0 g
q 1 0 0 -1 0 387.408081 cm
177.27 77.352 m 177.27 69.871 l 191.648 69.871 l 191.648 84.828 l 177.27
 84.828 l h
177.27 77.352 m S Q
0.701961 g
177.27 293.951 m 177.27 301.428 l 191.648 301.428 l 191.648 286.471 l 177.27
 286.471 l h
177.27 293.951 m f
0 g
q 1 0 0 -1 0 387.408081 cm
177.27 93.457 m 177.27 85.98 l 191.648 85.98 l 191.648 100.938 l 177.27
 100.938 l h
177.27 93.457 m S Q
0.701961 g
177.27 278.131 m 177.27 285.322 l 191.648 285.322 l 191.648 270.939 l 177.27
 270.939 l h
177.27 278.131 m f
0 g
q 1 0 0 -1 0 387.408081 cm
177.27 109.277 m 177.27 102.086 l 191.648 102.086 l 191.648 116.469 l 177.27
 116.469 l h
177.27 109.277 m S Q
0.701961 g
193.375 358.092 m 193.375 365.283 l 207.758 365.283 l 207.758 350.9 l 193.375
 350.9 l h
193.375 358.092 m f
0 g
q 1 0 0 -1 0 387.408081 cm
193.375 29.316 m 193.375 22.125 l 207.758 22.125 l 207.758 36.508 l 193.375
 36.508 l h
193.375 29.316 m S Q
0.701961 g
193.375 341.986 m 193.375 349.178 l 207.758 349.178 l 207.758 334.795 l
 193.375 334.795 l h
193.375 341.986 m f
0 g
q 1 0 0 -1 0 387.408081 cm
193.375 45.422 m 193.375 38.23 l 207.758 38.23 l 207.758 52.613 l 193.375
 52.613 l h
193.375 45.422 m S Q
0.701961 g
193.375 325.877 m 193.375 333.068 l 207.758 333.068 l 207.758 318.685 l
 193.375 318.685 l h
193.375 325.877 m f
0 g
q 1 0 0 -1 0 387.408081 cm
193.375 61.531 m 193.375 54.34 l 207.758 54.34 l 207.758 68.723 l 193.375
 68.723 l h
193.375 61.531 m S Q
0.701961 g
193.375 310.057 m 193.375 317.537 l 207.758 317.537 l 207.758 302.58 l 
193.375 302.58 l h
193.375 310.057 m f
0 g
q 1 0 0 -1 0 387.408081 cm
193.375 77.352 m 193.375 69.871 l 207.758 69.871 l 207.758 84.828 l 193.375
 84.828 l h
193.375 77.352 m S Q
0.701961 g
193.375 293.951 m 193.375 301.428 l 207.758 301.428 l 207.758 286.471 l
 193.375 286.471 l h
193.375 293.951 m f
0 g
q 1 0 0 -1 0 387.408081 cm
193.375 93.457 m 193.375 85.98 l 207.758 85.98 l 207.758 100.938 l 193.375
 100.938 l h
193.375 93.457 m S Q
0.701961 g
209.484 293.951 m 209.484 301.428 l 223.863 301.428 l 223.863 286.471 l
 209.484 286.471 l h
209.484 293.951 m f
0 g
q 1 0 0 -1 0 387.408081 cm
209.484 93.457 m 209.484 85.98 l 223.863 85.98 l 223.863 100.938 l 209.484
 100.938 l h
209.484 93.457 m S Q
0.701961 g
209.484 310.057 m 209.484 317.537 l 223.863 317.537 l 223.863 302.58 l 
209.484 302.58 l h
209.484 310.057 m f
0 g
q 1 0 0 -1 0 387.408081 cm
209.484 77.352 m 209.484 69.871 l 223.863 69.871 l 223.863 84.828 l 209.484
 84.828 l h
209.484 77.352 m S Q
0.701961 g
209.484 325.877 m 209.484 333.068 l 223.863 333.068 l 223.863 318.685 l
 209.484 318.685 l h
209.484 325.877 m f
0 g
q 1 0 0 -1 0 387.408081 cm
209.484 61.531 m 209.484 54.34 l 223.863 54.34 l 223.863 68.723 l 209.484
 68.723 l h
209.484 61.531 m S Q
0.701961 g
209.484 341.986 m 209.484 349.178 l 223.863 349.178 l 223.863 334.795 l
 209.484 334.795 l h
209.484 341.986 m f
0 g
q 1 0 0 -1 0 387.408081 cm
209.484 45.422 m 209.484 38.23 l 223.863 38.23 l 223.863 52.613 l 209.484
 52.613 l h
209.484 45.422 m S Q
0.701961 g
209.484 358.092 m 209.484 365.283 l 223.863 365.283 l 223.863 350.9 l 209.484
 350.9 l h
209.484 358.092 m f
0 g
q 1 0 0 -1 0 387.408081 cm
209.484 29.316 m 209.484 22.125 l 223.863 22.125 l 223.863 36.508 l 209.484
 36.508 l h
209.484 29.316 m S Q
0.701961 g
225.016 358.092 m 225.016 365.283 l 239.973 365.283 l 239.973 350.9 l 225.016
 350.9 l h
225.016 358.092 m f
0 g
q 1 0 0 -1 0 387.408081 cm
225.016 29.316 m 225.016 22.125 l 239.973 22.125 l 239.973 36.508 l 225.016
 36.508 l h
225.016 29.316 m S Q
0.701961 g
225.016 341.986 m 225.016 349.178 l 239.973 349.178 l 239.973 334.795 l
 225.016 334.795 l h
225.016 341.986 m f
0 g
q 1 0 0 -1 0 387.408081 cm
225.016 45.422 m 225.016 38.23 l 239.973 38.23 l 239.973 52.613 l 225.016
 52.613 l h
225.016 45.422 m S Q
0.701961 g
225.016 325.877 m 225.016 333.068 l 239.973 333.068 l 239.973 318.685 l
 225.016 318.685 l h
225.016 325.877 m f
0 g
q 1 0 0 -1 0 387.408081 cm
225.016 61.531 m 225.016 54.34 l 239.973 54.34 l 239.973 68.723 l 225.016
 68.723 l h
225.016 61.531 m S Q
0.701961 g
225.016 310.057 m 225.016 317.537 l 239.973 317.537 l 239.973 302.58 l 
225.016 302.58 l h
225.016 310.057 m f
0 g
q 1 0 0 -1 0 387.408081 cm
225.016 77.352 m 225.016 69.871 l 239.973 69.871 l 239.973 84.828 l 225.016
 84.828 l h
225.016 77.352 m S Q
0.701961 g
177.27 262.111 m 177.27 269.592 l 191.648 269.592 l 191.648 254.635 l 177.27
 254.635 l h
177.27 262.111 m f
0 g
q 1 0 0 -1 0 387.408081 cm
177.27 125.297 m 177.27 117.816 l 191.648 117.816 l 191.648 132.773 l 177.27
 132.773 l h
177.27 125.297 m S Q
0.701961 g
193.375 277.932 m 193.375 285.123 l 207.758 285.123 l 207.758 270.74 l 
193.375 270.74 l h
193.375 277.932 m f
0 g
q 1 0 0 -1 0 387.408081 cm
193.375 109.477 m 193.375 102.285 l 207.758 102.285 l 207.758 116.668 l
 193.375 116.668 l h
193.375 109.477 m S Q
0.701961 g
401.051 230.185 m 401.051 237.377 l 416.008 237.377 l 416.008 222.994 l
 401.051 222.994 l h
401.051 230.185 m f
0 g
q 1 0 0 -1 0 387.408081 cm
401.051 157.223 m 401.051 150.031 l 416.008 150.031 l 416.008 164.414 l
 401.051 164.414 l h
401.051 157.223 m S Q
0.701961 g
401.051 246.006 m 401.051 253.482 l 416.008 253.482 l 416.008 238.525 l
 401.051 238.525 l h
401.051 246.006 m f
0 g
q 1 0 0 -1 0 387.408081 cm
401.051 141.402 m 401.051 133.926 l 416.008 133.926 l 416.008 148.883 l
 401.051 148.883 l h
401.051 141.402 m S Q
0.701961 g
401.051 262.111 m 401.051 269.592 l 416.008 269.592 l 416.008 254.635 l
 401.051 254.635 l h
401.051 262.111 m f
0 g
q 1 0 0 -1 0 387.408081 cm
401.051 125.297 m 401.051 117.816 l 416.008 117.816 l 416.008 132.773 l
 401.051 132.773 l h
401.051 125.297 m S Q
0.701961 g
401.051 277.932 m 401.051 285.123 l 416.008 285.123 l 416.008 270.74 l 
401.051 270.74 l h
401.051 277.932 m f
0 g
q 1 0 0 -1 0 387.408081 cm
401.051 109.477 m 401.051 102.285 l 416.008 102.285 l 416.008 116.668 l
 401.051 116.668 l h
401.051 109.477 m S Q
0.701961 g
401.051 294.041 m 401.051 301.232 l 416.008 301.232 l 416.008 286.849 l
 401.051 286.849 l h
401.051 294.041 m f
0 g
q 1 0 0 -1 0 387.408081 cm
401.051 93.367 m 401.051 86.176 l 416.008 86.176 l 416.008 100.559 l 401.051
 100.559 l h
401.051 93.367 m S Q
0.701961 g
401.051 310.146 m 401.051 317.338 l 416.008 317.338 l 416.008 302.955 l
 401.051 302.955 l h
401.051 310.146 m f
0 g
q 1 0 0 -1 0 387.408081 cm
401.051 77.262 m 401.051 70.07 l 416.008 70.07 l 416.008 84.453 l 401.051
 84.453 l h
401.051 77.262 m S Q
0.701961 g
401.051 325.967 m 401.051 333.447 l 416.008 333.447 l 416.008 318.49 l 
401.051 318.49 l h
401.051 325.967 m f
0 g
q 1 0 0 -1 0 387.408081 cm
401.051 61.441 m 401.051 53.961 l 416.008 53.961 l 416.008 68.918 l 401.051
 68.918 l h
401.051 61.441 m S Q
0.701961 g
401.051 342.076 m 401.051 349.553 l 416.008 349.553 l 416.008 334.596 l
 401.051 334.596 l h
401.051 342.076 m f
0 g
q 1 0 0 -1 0 387.408081 cm
401.051 45.332 m 401.051 37.855 l 416.008 37.855 l 416.008 52.812 l 401.051
 52.812 l h
401.051 45.332 m S Q
0.701961 g
401.051 357.896 m 401.051 365.084 l 416.008 365.084 l 416.008 350.705 l
 401.051 350.705 l h
401.051 357.896 m f
0 g
q 1 0 0 -1 0 387.408081 cm
401.051 29.512 m 401.051 22.324 l 416.008 22.324 l 416.008 36.703 l 401.051
 36.703 l h
401.051 29.512 m S Q
0.701961 g
385.516 357.896 m 385.516 365.084 l 399.898 365.084 l 399.898 350.705 l
 385.516 350.705 l h
385.516 357.896 m f
0 g
q 1 0 0 -1 0 387.408081 cm
385.516 29.512 m 385.516 22.324 l 399.898 22.324 l 399.898 36.703 l 385.516
 36.703 l h
385.516 29.512 m S Q
0.701961 g
369.41 357.896 m 369.41 365.084 l 383.793 365.084 l 383.793 350.705 l 369.41
 350.705 l h
369.41 357.896 m f
0 g
q 1 0 0 -1 0 387.408081 cm
369.41 29.512 m 369.41 22.324 l 383.793 22.324 l 383.793 36.703 l 369.41
 36.703 l h
369.41 29.512 m S Q
0.701961 g
353.301 357.896 m 353.301 365.084 l 367.684 365.084 l 367.684 350.705 l
 353.301 350.705 l h
353.301 357.896 m f
0 g
q 1 0 0 -1 0 387.408081 cm
353.301 29.512 m 353.301 22.324 l 367.684 22.324 l 367.684 36.703 l 353.301
 36.703 l h
353.301 29.512 m S Q
0.701961 g
337.195 357.896 m 337.195 365.084 l 352.152 365.084 l 352.152 350.705 l
 337.195 350.705 l h
337.195 357.896 m f
0 g
q 1 0 0 -1 0 387.408081 cm
337.195 29.512 m 337.195 22.324 l 352.152 22.324 l 352.152 36.703 l 337.195
 36.703 l h
337.195 29.512 m S Q
0.701961 g
321.086 357.896 m 321.086 365.084 l 336.043 365.084 l 336.043 350.705 l
 321.086 350.705 l h
321.086 357.896 m f
0 g
q 1 0 0 -1 0 387.408081 cm
321.086 29.512 m 321.086 22.324 l 336.043 22.324 l 336.043 36.703 l 321.086
 36.703 l h
321.086 29.512 m S Q
0.701961 g
304.98 357.896 m 304.98 365.084 l 319.938 365.084 l 319.938 350.705 l 304.98
 350.705 l h
304.98 357.896 m f
0 g
q 1 0 0 -1 0 387.408081 cm
304.98 29.512 m 304.98 22.324 l 319.938 22.324 l 319.938 36.703 l 304.98
 36.703 l h
304.98 29.512 m S Q
0.701961 g
289.445 357.896 m 289.445 365.084 l 303.828 365.084 l 303.828 350.705 l
 289.445 350.705 l h
289.445 357.896 m f
0 g
q 1 0 0 -1 0 387.408081 cm
289.445 29.512 m 289.445 22.324 l 303.828 22.324 l 303.828 36.703 l 289.445
 36.703 l h
289.445 29.512 m S Q
0.701961 g
273.34 357.896 m 273.34 365.084 l 287.719 365.084 l 287.719 350.705 l 273.34
 350.705 l h
273.34 357.896 m f
0 g
q 1 0 0 -1 0 387.408081 cm
273.34 29.512 m 273.34 22.324 l 287.719 22.324 l 287.719 36.703 l 273.34
 36.703 l h
273.34 29.512 m S Q
0.701961 g
273.34 342.076 m 273.34 349.553 l 287.719 349.553 l 287.719 334.596 l 273.34
 334.596 l h
273.34 342.076 m f
0 g
q 1 0 0 -1 0 387.408081 cm
273.34 45.332 m 273.34 37.855 l 287.719 37.855 l 287.719 52.812 l 273.34
 52.812 l h
273.34 45.332 m S Q
0.701961 g
273.34 325.967 m 273.34 333.447 l 287.719 333.447 l 287.719 318.49 l 273.34
 318.49 l h
273.34 325.967 m f
0 g
q 1 0 0 -1 0 387.408081 cm
273.34 61.441 m 273.34 53.961 l 287.719 53.961 l 287.719 68.918 l 273.34
 68.918 l h
273.34 61.441 m S Q
0.701961 g
273.34 310.146 m 273.34 317.338 l 287.719 317.338 l 287.719 302.955 l 273.34
 302.955 l h
273.34 310.146 m f
0 g
q 1 0 0 -1 0 387.408081 cm
273.34 77.262 m 273.34 70.07 l 287.719 70.07 l 287.719 84.453 l 273.34 
84.453 l h
273.34 77.262 m S Q
0.701961 g
289.445 294.041 m 289.445 301.232 l 303.828 301.232 l 303.828 286.849 l
 289.445 286.849 l h
289.445 294.041 m f
0 g
q 1 0 0 -1 0 387.408081 cm
289.445 93.367 m 289.445 86.176 l 303.828 86.176 l 303.828 100.559 l 289.445
 100.559 l h
289.445 93.367 m S Q
0.701961 g
304.98 277.932 m 304.98 285.123 l 319.938 285.123 l 319.938 270.74 l 304.98
 270.74 l h
304.98 277.932 m f
0 g
q 1 0 0 -1 0 387.408081 cm
304.98 109.477 m 304.98 102.285 l 319.938 102.285 l 319.938 116.668 l 304.98
 116.668 l h
304.98 109.477 m S Q
0.701961 g
321.086 262.111 m 321.086 269.592 l 336.043 269.592 l 336.043 254.635 l
 321.086 254.635 l h
321.086 262.111 m f
0 g
q 1 0 0 -1 0 387.408081 cm
321.086 125.297 m 321.086 117.816 l 336.043 117.816 l 336.043 132.773 l
 321.086 132.773 l h
321.086 125.297 m S Q
0.701961 g
337.195 246.006 m 337.195 253.482 l 352.152 253.482 l 352.152 238.525 l
 337.195 238.525 l h
337.195 246.006 m f
0 g
q 1 0 0 -1 0 387.408081 cm
337.195 141.402 m 337.195 133.926 l 352.152 133.926 l 352.152 148.883 l
 337.195 148.883 l h
337.195 141.402 m S Q
0.701961 g
353.301 230.185 m 353.301 237.377 l 367.684 237.377 l 367.684 222.994 l
 353.301 222.994 l h
353.301 230.185 m f
0 g
q 1 0 0 -1 0 387.408081 cm
353.301 157.223 m 353.301 150.031 l 367.684 150.031 l 367.684 164.414 l
 353.301 164.414 l h
353.301 157.223 m S Q
0.701961 g
369.41 230.185 m 369.41 237.377 l 383.793 237.377 l 383.793 222.994 l 369.41
 222.994 l h
369.41 230.185 m f
0 g
q 1 0 0 -1 0 387.408081 cm
369.41 157.223 m 369.41 150.031 l 383.793 150.031 l 383.793 164.414 l 369.41
 164.414 l h
369.41 157.223 m S Q
0.701961 g
385.516 230.185 m 385.516 237.377 l 399.898 237.377 l 399.898 222.994 l
 385.516 222.994 l h
385.516 230.185 m f
0 g
q 1 0 0 -1 0 387.408081 cm
385.516 157.223 m 385.516 150.031 l 399.898 150.031 l 399.898 164.414 l
 385.516 164.414 l h
385.516 157.223 m S Q
0.701961 g
385.516 246.006 m 385.516 253.482 l 399.898 253.482 l 399.898 238.525 l
 385.516 238.525 l h
385.516 246.006 m f
0 g
q 1 0 0 -1 0 387.408081 cm
385.516 141.402 m 385.516 133.926 l 399.898 133.926 l 399.898 148.883 l
 385.516 148.883 l h
385.516 141.402 m S Q
0.701961 g
385.516 262.111 m 385.516 269.592 l 399.898 269.592 l 399.898 254.635 l
 385.516 254.635 l h
385.516 262.111 m f
0 g
q 1 0 0 -1 0 387.408081 cm
385.516 125.297 m 385.516 117.816 l 399.898 117.816 l 399.898 132.773 l
 385.516 132.773 l h
385.516 125.297 m S Q
0.701961 g
385.516 277.932 m 385.516 285.123 l 399.898 285.123 l 399.898 270.74 l 
385.516 270.74 l h
385.516 277.932 m f
0 g
q 1 0 0 -1 0 387.408081 cm
385.516 109.477 m 385.516 102.285 l 399.898 102.285 l 399.898 116.668 l
 385.516 116.668 l h
385.516 109.477 m S Q
0.701961 g
385.516 294.041 m 385.516 301.232 l 399.898 301.232 l 399.898 286.849 l
 385.516 286.849 l h
385.516 294.041 m f
0 g
q 1 0 0 -1 0 387.408081 cm
385.516 93.367 m 385.516 86.176 l 399.898 86.176 l 399.898 100.559 l 385.516
 100.559 l h
385.516 93.367 m S Q
0.701961 g
385.516 310.146 m 385.516 317.338 l 399.898 317.338 l 399.898 302.955 l
 385.516 302.955 l h
385.516 310.146 m f
0 g
q 1 0 0 -1 0 387.408081 cm
385.516 77.262 m 385.516 70.07 l 399.898 70.07 l 399.898 84.453 l 385.516
 84.453 l h
385.516 77.262 m S Q
0.701961 g
385.516 325.967 m 385.516 333.447 l 399.898 333.447 l 399.898 318.49 l 
385.516 318.49 l h
385.516 325.967 m f
0 g
q 1 0 0 -1 0 387.408081 cm
385.516 61.441 m 385.516 53.961 l 399.898 53.961 l 399.898 68.918 l 385.516
 68.918 l h
385.516 61.441 m S Q
0.701961 g
385.516 342.076 m 385.516 349.553 l 399.898 349.553 l 399.898 334.596 l
 385.516 334.596 l h
385.516 342.076 m f
0 g
q 1 0 0 -1 0 387.408081 cm
385.516 45.332 m 385.516 37.855 l 399.898 37.855 l 399.898 52.812 l 385.516
 52.812 l h
385.516 45.332 m S Q
0.701961 g
369.41 342.076 m 369.41 349.553 l 383.793 349.553 l 383.793 334.596 l 369.41
 334.596 l h
369.41 342.076 m f
0 g
q 1 0 0 -1 0 387.408081 cm
369.41 45.332 m 369.41 37.855 l 383.793 37.855 l 383.793 52.812 l 369.41
 52.812 l h
369.41 45.332 m S Q
0.701961 g
353.301 342.076 m 353.301 349.553 l 367.684 349.553 l 367.684 334.596 l
 353.301 334.596 l h
353.301 342.076 m f
0 g
q 1 0 0 -1 0 387.408081 cm
353.301 45.332 m 353.301 37.855 l 367.684 37.855 l 367.684 52.812 l 353.301
 52.812 l h
353.301 45.332 m S Q
0.701961 g
337.195 342.076 m 337.195 349.553 l 352.152 349.553 l 352.152 334.596 l
 337.195 334.596 l h
337.195 342.076 m f
0 g
q 1 0 0 -1 0 387.408081 cm
337.195 45.332 m 337.195 37.855 l 352.152 37.855 l 352.152 52.812 l 337.195
 52.812 l h
337.195 45.332 m S Q
0.701961 g
321.086 342.076 m 321.086 349.553 l 336.043 349.553 l 336.043 334.596 l
 321.086 334.596 l h
321.086 342.076 m f
0 g
q 1 0 0 -1 0 387.408081 cm
321.086 45.332 m 321.086 37.855 l 336.043 37.855 l 336.043 52.812 l 321.086
 52.812 l h
321.086 45.332 m S Q
0.701961 g
304.98 342.076 m 304.98 349.553 l 319.938 349.553 l 319.938 334.596 l 304.98
 334.596 l h
304.98 342.076 m f
0 g
q 1 0 0 -1 0 387.408081 cm
304.98 45.332 m 304.98 37.855 l 319.938 37.855 l 319.938 52.812 l 304.98
 52.812 l h
304.98 45.332 m S Q
0.701961 g
289.445 342.076 m 289.445 349.553 l 303.828 349.553 l 303.828 334.596 l
 289.445 334.596 l h
289.445 342.076 m f
0 g
q 1 0 0 -1 0 387.408081 cm
289.445 45.332 m 289.445 37.855 l 303.828 37.855 l 303.828 52.812 l 289.445
 52.812 l h
289.445 45.332 m S Q
0.701961 g
289.445 325.967 m 289.445 333.447 l 303.828 333.447 l 303.828 318.49 l 
289.445 318.49 l h
289.445 325.967 m f
0 g
q 1 0 0 -1 0 387.408081 cm
289.445 61.441 m 289.445 53.961 l 303.828 53.961 l 303.828 68.918 l 289.445
 68.918 l h
289.445 61.441 m S Q
0.701961 g
289.445 310.146 m 289.445 317.338 l 303.828 317.338 l 303.828 302.955 l
 289.445 302.955 l h
289.445 310.146 m f
0 g
q 1 0 0 -1 0 387.408081 cm
289.445 77.262 m 289.445 70.07 l 303.828 70.07 l 303.828 84.453 l 289.445
 84.453 l h
289.445 77.262 m S Q
0.701961 g
304.98 294.041 m 304.98 301.232 l 319.938 301.232 l 319.938 286.849 l 304.98
 286.849 l h
304.98 294.041 m f
0 g
q 1 0 0 -1 0 387.408081 cm
304.98 93.367 m 304.98 86.176 l 319.938 86.176 l 319.938 100.559 l 304.98
 100.559 l h
304.98 93.367 m S Q
0.701961 g
321.086 277.932 m 321.086 285.123 l 336.043 285.123 l 336.043 270.74 l 
321.086 270.74 l h
321.086 277.932 m f
0 g
q 1 0 0 -1 0 387.408081 cm
321.086 109.477 m 321.086 102.285 l 336.043 102.285 l 336.043 116.668 l
 321.086 116.668 l h
321.086 109.477 m S Q
0.701961 g
337.195 262.111 m 337.195 269.592 l 352.152 269.592 l 352.152 254.635 l
 337.195 254.635 l h
337.195 262.111 m f
0 g
q 1 0 0 -1 0 387.408081 cm
337.195 125.297 m 337.195 117.816 l 352.152 117.816 l 352.152 132.773 l
 337.195 132.773 l h
337.195 125.297 m S Q
0.701961 g
353.301 246.006 m 353.301 253.482 l 367.684 253.482 l 367.684 238.525 l
 353.301 238.525 l h
353.301 246.006 m f
0 g
q 1 0 0 -1 0 387.408081 cm
353.301 141.402 m 353.301 133.926 l 367.684 133.926 l 367.684 148.883 l
 353.301 148.883 l h
353.301 141.402 m S Q
0.701961 g
369.41 246.006 m 369.41 253.482 l 383.793 253.482 l 383.793 238.525 l 369.41
 238.525 l h
369.41 246.006 m f
0 g
q 1 0 0 -1 0 387.408081 cm
369.41 141.402 m 369.41 133.926 l 383.793 133.926 l 383.793 148.883 l 369.41
 148.883 l h
369.41 141.402 m S Q
0.701961 g
369.41 262.111 m 369.41 269.592 l 383.793 269.592 l 383.793 254.635 l 369.41
 254.635 l h
369.41 262.111 m f
0 g
q 1 0 0 -1 0 387.408081 cm
369.41 125.297 m 369.41 117.816 l 383.793 117.816 l 383.793 132.773 l 369.41
 132.773 l h
369.41 125.297 m S Q
0.701961 g
369.41 277.932 m 369.41 285.123 l 383.793 285.123 l 383.793 270.74 l 369.41
 270.74 l h
369.41 277.932 m f
0 g
q 1 0 0 -1 0 387.408081 cm
369.41 109.477 m 369.41 102.285 l 383.793 102.285 l 383.793 116.668 l 369.41
 116.668 l h
369.41 109.477 m S Q
0.701961 g
369.41 294.041 m 369.41 301.232 l 383.793 301.232 l 383.793 286.849 l 369.41
 286.849 l h
369.41 294.041 m f
0 g
q 1 0 0 -1 0 387.408081 cm
369.41 93.367 m 369.41 86.176 l 383.793 86.176 l 383.793 100.559 l 369.41
 100.559 l h
369.41 93.367 m S Q
0.701961 g
369.41 310.146 m 369.41 317.338 l 383.793 317.338 l 383.793 302.955 l 369.41
 302.955 l h
369.41 310.146 m f
0 g
q 1 0 0 -1 0 387.408081 cm
369.41 77.262 m 369.41 70.07 l 383.793 70.07 l 383.793 84.453 l 369.41 
84.453 l h
369.41 77.262 m S Q
0.701961 g
369.41 325.967 m 369.41 333.447 l 383.793 333.447 l 383.793 318.49 l 369.41
 318.49 l h
369.41 325.967 m f
0 g
q 1 0 0 -1 0 387.408081 cm
369.41 61.441 m 369.41 53.961 l 383.793 53.961 l 383.793 68.918 l 369.41
 68.918 l h
369.41 61.441 m S Q
0.701961 g
353.301 325.967 m 353.301 333.447 l 367.684 333.447 l 367.684 318.49 l 
353.301 318.49 l h
353.301 325.967 m f
0 g
q 1 0 0 -1 0 387.408081 cm
353.301 61.441 m 353.301 53.961 l 367.684 53.961 l 367.684 68.918 l 353.301
 68.918 l h
353.301 61.441 m S Q
0.701961 g
337.195 325.967 m 337.195 333.447 l 352.152 333.447 l 352.152 318.49 l 
337.195 318.49 l h
337.195 325.967 m f
0 g
q 1 0 0 -1 0 387.408081 cm
337.195 61.441 m 337.195 53.961 l 352.152 53.961 l 352.152 68.918 l 337.195
 68.918 l h
337.195 61.441 m S Q
0.701961 g
321.086 325.967 m 321.086 333.447 l 336.043 333.447 l 336.043 318.49 l 
321.086 318.49 l h
321.086 325.967 m f
0 g
q 1 0 0 -1 0 387.408081 cm
321.086 61.441 m 321.086 53.961 l 336.043 53.961 l 336.043 68.918 l 321.086
 68.918 l h
321.086 61.441 m S Q
0.701961 g
304.98 325.967 m 304.98 333.447 l 319.938 333.447 l 319.938 318.49 l 304.98
 318.49 l h
304.98 325.967 m f
0 g
q 1 0 0 -1 0 387.408081 cm
304.98 61.441 m 304.98 53.961 l 319.938 53.961 l 319.938 68.918 l 304.98
 68.918 l h
304.98 61.441 m S Q
0.701961 g
304.98 310.146 m 304.98 317.338 l 319.938 317.338 l 319.938 302.955 l 304.98
 302.955 l h
304.98 310.146 m f
0 g
q 1 0 0 -1 0 387.408081 cm
304.98 77.262 m 304.98 70.07 l 319.938 70.07 l 319.938 84.453 l 304.98 
84.453 l h
304.98 77.262 m S Q
0.701961 g
321.086 294.041 m 321.086 301.232 l 336.043 301.232 l 336.043 286.849 l
 321.086 286.849 l h
321.086 294.041 m f
0 g
q 1 0 0 -1 0 387.408081 cm
321.086 93.367 m 321.086 86.176 l 336.043 86.176 l 336.043 100.559 l 321.086
 100.559 l h
321.086 93.367 m S Q
0.701961 g
337.195 277.932 m 337.195 285.123 l 352.152 285.123 l 352.152 270.74 l 
337.195 270.74 l h
337.195 277.932 m f
0 g
q 1 0 0 -1 0 387.408081 cm
337.195 109.477 m 337.195 102.285 l 352.152 102.285 l 352.152 116.668 l
 337.195 116.668 l h
337.195 109.477 m S Q
0.701961 g
353.301 262.111 m 353.301 269.592 l 367.684 269.592 l 367.684 254.635 l
 353.301 254.635 l h
353.301 262.111 m f
0 g
q 1 0 0 -1 0 387.408081 cm
353.301 125.297 m 353.301 117.816 l 367.684 117.816 l 367.684 132.773 l
 353.301 132.773 l h
353.301 125.297 m S Q
0.701961 g
353.301 277.932 m 353.301 285.123 l 367.684 285.123 l 367.684 270.74 l 
353.301 270.74 l h
353.301 277.932 m f
0 g
q 1 0 0 -1 0 387.408081 cm
353.301 109.477 m 353.301 102.285 l 367.684 102.285 l 367.684 116.668 l
 353.301 116.668 l h
353.301 109.477 m S Q
0.701961 g
353.301 294.041 m 353.301 301.232 l 367.684 301.232 l 367.684 286.849 l
 353.301 286.849 l h
353.301 294.041 m f
0 g
q 1 0 0 -1 0 387.408081 cm
353.301 93.367 m 353.301 86.176 l 367.684 86.176 l 367.684 100.559 l 353.301
 100.559 l h
353.301 93.367 m S Q
0.701961 g
353.301 310.146 m 353.301 317.338 l 367.684 317.338 l 367.684 302.955 l
 353.301 302.955 l h
353.301 310.146 m f
0 g
q 1 0 0 -1 0 387.408081 cm
353.301 77.262 m 353.301 70.07 l 367.684 70.07 l 367.684 84.453 l 353.301
 84.453 l h
353.301 77.262 m S Q
0.701961 g
337.195 310.146 m 337.195 317.338 l 352.152 317.338 l 352.152 302.955 l
 337.195 302.955 l h
337.195 310.146 m f
0 g
q 1 0 0 -1 0 387.408081 cm
337.195 77.262 m 337.195 70.07 l 352.152 70.07 l 352.152 84.453 l 337.195
 84.453 l h
337.195 77.262 m S Q
0.701961 g
321.086 310.146 m 321.086 317.338 l 336.043 317.338 l 336.043 302.955 l
 321.086 302.955 l h
321.086 310.146 m f
0 g
q 1 0 0 -1 0 387.408081 cm
321.086 77.262 m 321.086 70.07 l 336.043 70.07 l 336.043 84.453 l 321.086
 84.453 l h
321.086 77.262 m S Q
0.701961 g
337.195 294.041 m 337.195 301.232 l 352.152 301.232 l 352.152 286.849 l
 337.195 286.849 l h
337.195 294.041 m f
0 g
q 1 0 0 -1 0 387.408081 cm
337.195 93.367 m 337.195 86.176 l 352.152 86.176 l 352.152 100.559 l 337.195
 100.559 l h
337.195 93.367 m S Q
0.8 w
0 J
q 1 0 0 -1 0 387.408081 cm
96.574 21.375 m 416.574 21.375 l S Q
q 1 0 0 -1 0 387.408081 cm
96.574 37.375 m 416.574 37.375 l S Q
q 1 0 0 -1 0 387.408081 cm
96.574 53.375 m 416.574 53.375 l S Q
q 1 0 0 -1 0 387.408081 cm
96.574 69.375 m 416.574 69.375 l S Q
q 1 0 0 -1 0 387.408081 cm
96.574 85.375 m 416.574 85.375 l S Q
q 1 0 0 -1 0 387.408081 cm
96.574 101.375 m 416.574 101.375 l S Q
q 1 0 0 -1 0 387.408081 cm
96.574 117.375 m 416.574 117.375 l S Q
q 1 0 0 -1 0 387.408081 cm
96.574 133.375 m 416.574 133.375 l S Q
q 1 0 0 -1 0 387.408081 cm
96.574 149.375 m 416.574 149.375 l S Q
q 1 0 0 -1 0 387.408081 cm
96.574 165.375 m 416.574 165.375 l S Q
q 1 0 0 -1 0 387.408081 cm
96.574 181.375 m 416.574 181.375 l S Q
q 1 0 0 -1 0 387.408081 cm
96.574 197.375 m 416.574 197.375 l S Q
q 1 0 0 -1 0 387.408081 cm
96.574 213.375 m 416.574 213.375 l S Q
q 1 0 0 -1 0 387.408081 cm
96.574 229.375 m 416.574 229.375 l S Q
q 1 0 0 -1 0 387.408081 cm
96.574 245.375 m 416.574 245.375 l S Q
q 1 0 0 -1 0 387.408081 cm
96.574 261.375 m 416.574 261.375 l S Q
q 1 0 0 -1 0 387.408081 cm
96.574 277.375 m 416.574 277.375 l S Q
q 1 0 0 -1 0 387.408081 cm
96.574 293.375 m 416.574 293.375 l S Q
q 1 0 0 -1 0 387.408081 cm
96.574 309.375 m 416.574 309.375 l S Q
q 1 0 0 -1 0 387.408081 cm
96.574 325.375 m 416.574 325.375 l S Q
q 1 0 0 -1 0 387.408081 cm
96.574 341.375 m 416.574 341.375 l S Q
q 1 0 0 -1 0 387.408081 cm
416.574 21.375 m 416.574 341.375 l S Q
q 1 0 0 -1 0 387.408081 cm
400.574 21.375 m 400.574 341.375 l S Q
q 1 0 0 -1 0 387.408081 cm
384.574 21.375 m 384.574 341.375 l S Q
q 1 0 0 -1 0 387.408081 cm
368.574 21.375 m 368.574 341.375 l S Q
q 1 0 0 -1 0 387.408081 cm
352.574 21.375 m 352.574 341.375 l S Q
q 1 0 0 -1 0 387.408081 cm
336.574 21.375 m 336.574 341.375 l S Q
q 1 0 0 -1 0 387.408081 cm
320.574 21.375 m 320.574 341.375 l S Q
q 1 0 0 -1 0 387.408081 cm
304.574 21.375 m 304.574 341.375 l S Q
q 1 0 0 -1 0 387.408081 cm
288.574 21.375 m 288.574 341.375 l S Q
q 1 0 0 -1 0 387.408081 cm
272.574 21.375 m 272.574 341.375 l S Q
q 1 0 0 -1 0 387.408081 cm
256.574 21.375 m 256.574 341.375 l S Q
q 1 0 0 -1 0 387.408081 cm
240.574 21.375 m 240.574 341.375 l S Q
q 1 0 0 -1 0 387.408081 cm
224.574 21.375 m 224.574 341.375 l S Q
q 1 0 0 -1 0 387.408081 cm
208.574 21.375 m 208.574 341.375 l S Q
q 1 0 0 -1 0 387.408081 cm
192.574 21.375 m 192.574 341.375 l S Q
q 1 0 0 -1 0 387.408081 cm
176.574 21.375 m 176.574 341.375 l S Q
q 1 0 0 -1 0 387.408081 cm
160.574 21.375 m 160.574 341.375 l S Q
q 1 0 0 -1 0 387.408081 cm
144.574 21.375 m 144.574 341.375 l S Q
q 1 0 0 -1 0 387.408081 cm
128.574 21.375 m 128.574 341.375 l S Q
q 1 0 0 -1 0 387.408081 cm
112.574 21.375 m 112.574 341.375 l S Q
q 1 0 0 -1 0 387.408081 cm
96.574 21.375 m 96.574 341.375 l S Q
108.078 33.963 m 108.078 34.002 l 108.039 34.037 l 108.039 34.076 l 108.004
 34.115 l 108.004 34.228 l 107.965 34.264 l 107.926 34.303 l 107.926 34.342
 l 107.891 34.377 l 107.891 34.416 l 107.816 34.49 l 107.816 34.529 l 107.777
 34.529 l 107.777 34.568 l 107.738 34.568 l 107.703 34.603 l 107.664 34.603
 l 107.664 34.642 l 107.625 34.642 l 107.59 34.682 l 107.438 34.682 l 107.363
 34.717 l 107.211 34.717 l 106.609 34.717 106.496 34.49 106.305 33.963 c
 98.578 11.568 l 97.898 9.646 96.391 9.08 94.355 9.045 c 94.355 7.873 l 
95.223 7.951 96.844 8.025 98.164 8.025 c 99.332 8.025 101.293 7.951 102.5
 7.873 c 102.5 9.045 l 100.613 9.045 99.672 9.986 99.672 10.967 c 99.672
 11.08 99.707 11.455 99.746 11.533 c 101.48 16.432 l 101.895 17.603 l 106.082
 29.779 l 110.34 17.603 l 101.895 17.603 l 101.48 16.432 l 110.754 16.432
 l 112.754 10.701 l 112.754 10.553 112.828 10.326 112.828 10.174 c 112.828
 9.045 110.754 9.045 109.738 9.045 c 109.738 7.873 l 111.094 8.025 113.695
 8.025 115.129 8.025 c 116.75 8.025 118.484 7.986 120.066 7.873 c 120.066
 9.045 l 119.387 9.045 l 117.125 9.045 116.598 9.307 116.184 10.553 c h
108.078 33.963 m f
137.824 12.889 m 137.824 13.303 l 137.863 13.342 l 137.863 13.455 l 137.898
 13.529 l 137.898 13.603 l 137.938 13.642 l 137.938 13.717 l 137.977 13.795
 l 137.977 13.869 l 138.012 13.908 l 138.09 14.057 l 138.125 14.135 l 138.203
 14.283 l 138.238 14.357 l 138.277 14.435 l 138.465 14.623 l 139.898 13.603
 141.445 13.455 142.16 13.455 c 142.16 14.322 l 138.918 14.322 138.918 18.092
 138.918 18.92 c 138.918 19.939 138.918 21.146 139.484 22.088 c 139.785 
22.541 140.652 23.596 142.16 23.596 c 145.441 23.596 145.441 19.826 145.441
 18.998 c 145.441 17.978 145.402 16.771 144.836 15.83 c 144.535 15.377 143.668
 14.322 142.16 14.322 c 142.16 13.455 l 145.629 13.455 148.23 16.057 148.23
 18.92 c 148.23 20.314 147.625 21.713 146.684 22.576 c 148.043 23.861 149.398
 24.049 150.078 24.049 c 150.152 24.049 150.34 24.049 150.453 24.01 c 150.039
 23.861 149.852 23.443 149.852 22.994 c 149.852 22.353 150.34 21.9 150.945
 21.9 c 151.32 21.9 152.039 22.162 152.039 23.029 c 152.039 23.67 151.586
 24.842 150.113 24.842 c 149.359 24.842 147.703 24.65 146.156 23.107 c 144.574
 24.349 142.988 24.463 142.16 24.463 c 138.691 24.463 136.09 21.861 136.09
 18.998 c 136.09 17.338 136.918 15.904 137.863 15.115 c 137.371 14.549 136.691
 13.342 136.691 12.021 c 136.691 10.853 137.184 9.42 138.312 8.666 c 136.09
 8.025 134.883 6.443 134.883 4.935 c 134.883 2.221 138.617 0.185 143.18 
0.185 c 143.215 1.053 l 139.406 1.053 136.844 2.935 136.844 4.935 c 136.844
 6.67 138.277 8.025 139.898 8.139 c 142.121 8.139 l 145.363 8.139 149.551
 8.139 149.551 4.935 c 149.551 2.896 146.871 1.053 143.215 1.053 c 143.18
 0.185 l 147.59 0.185 151.508 2.107 151.508 5.01 c 151.508 6.33 150.98 8.213
 149.059 9.271 c 147.062 10.326 144.91 10.326 142.613 10.326 c 141.668 10.326
 140.047 10.326 139.785 10.361 c 138.617 10.514 137.824 11.682 137.824 12.889
 c h
137.824 12.889 m f
158.859 20.314 m 158.859 24.463 l 153.66 24.049 l 153.66 22.881 l 156.297
 22.881 156.598 22.615 156.598 20.767 c 156.598 10.74 l 156.598 9.045 156.184
 9.045 153.66 9.045 c 153.66 7.873 l 155.129 7.951 156.902 8.025 157.957
 8.025 c 159.426 8.025 161.199 8.025 162.707 7.873 c 162.707 9.045 l 161.914
 9.045 l 159.125 9.045 159.051 9.459 159.051 10.814 c 159.051 16.584 l 159.051
 20.279 160.633 23.635 163.5 23.635 c 163.762 23.635 163.836 23.635 163.914
 23.596 c 163.801 23.557 163.047 23.107 163.047 22.127 c 163.047 21.068 
163.836 20.506 164.668 20.506 c 165.344 20.506 166.25 20.955 166.25 22.162
 c 166.25 23.369 165.121 24.463 163.5 24.463 c 160.746 24.463 159.391 21.935
 158.859 20.314 c h
158.859 20.314 m f
173.98 24.463 m 168.699 24.049 l 168.699 22.881 l 171.152 22.881 171.492
 22.654 171.492 20.807 c 171.492 10.74 l 171.492 9.045 171.078 9.045 168.551
 9.045 c 168.551 7.873 l 169.758 7.951 171.793 8.025 172.699 8.025 c 174.016
 8.025 175.297 7.951 176.582 7.873 c 176.582 9.045 l 174.129 9.045 173.98
 9.232 173.98 10.701 c h
173.98 24.463 m f
174.129 30.947 m 174.129 31.06 l 174.094 31.174 l 174.094 31.287 l 174.055
 31.4 l 174.055 31.474 l 174.016 31.588 l 173.98 31.701 l 173.941 31.775
 l 173.902 31.853 l 173.867 31.967 l 173.828 32.041 l 173.754 32.115 l 173.715
 32.193 l 173.641 32.267 l 173.562 32.342 l 173.527 32.416 l 173.453 32.455
 l 173.375 32.529 l 173.301 32.568 l 173.227 32.642 l 173.148 32.682 l 173.035
 32.721 l 172.961 32.756 l 172.887 32.795 l 172.773 32.834 l 172.699 32.869
 l 172.621 32.908 l 172.508 32.908 l 172.434 32.947 l 172.133 32.947 l 170.965
 32.947 170.133 31.928 170.133 30.947 c 170.133 29.967 170.965 28.986 172.133
 28.986 c 173.188 28.986 174.129 29.779 174.129 30.947 c h
174.129 30.947 m f
192 9.947 m 192 7.498 l 197.543 7.873 l 197.543 9.045 l 194.902 9.045 194.602
 9.307 194.602 11.154 c 194.602 33.889 l 189.211 33.474 l 189.211 32.307
 l 191.812 32.307 192.113 32.041 192.113 30.232 c 192.113 22.127 l 191.059
 23.482 189.438 24.463 187.402 24.463 c 187.551 23.635 l 188.871 23.635 
190.453 23.068 191.586 21.373 c 192 20.732 192 20.654 192 19.978 c 192 12.322
 l 192 11.646 192 11.568 191.586 10.928 c 190.453 9.119 188.797 8.291 187.176
 8.291 c 185.477 8.291 184.121 9.271 183.215 10.701 c 182.273 12.248 182.16
 14.357 182.16 15.904 c 182.16 17.299 182.234 19.525 183.328 21.221 c 184.082
 22.389 185.516 23.635 187.551 23.635 c 187.402 24.463 l 182.988 24.463 
179.031 20.767 179.031 15.943 c 179.031 11.193 182.727 7.498 186.984 7.498
 c 189.398 7.498 191.059 8.74 192 9.947 c h
192 9.947 m f
228.832 15.904 m 228.832 16.357 l 228.797 16.81 l 228.758 17.224 l 228.684
 17.678 l 228.344 18.92 l 228.191 19.299 l 228.004 19.674 l 227.816 20.053
 l 227.629 20.428 l 227.402 20.767 l 227.176 21.146 l 226.949 21.447 l 226.684
 21.787 l 226.383 22.088 l 226.117 22.389 l 225.816 22.654 l 225.477 22.916
 l 225.176 23.142 l 224.836 23.408 l 224.496 23.596 l 224.121 23.783 l 223.742
 23.974 l 223.367 24.123 l 222.988 24.275 l 222.613 24.389 l 222.199 24.502
 l 221.82 24.576 l 221.406 24.615 l 220.992 24.65 l 220.539 24.689 l 220.5
 23.861 l 222.16 23.861 223.781 23.029 224.762 21.408 c 225.742 19.787 225.742
 17.639 225.742 16.205 c 225.742 14.849 225.742 12.849 224.914 11.193 c 
224.082 9.494 222.426 8.404 220.539 8.404 c 218.957 8.404 217.297 9.193 
216.277 10.928 c 215.336 12.588 215.336 14.849 215.336 16.205 c 215.336 
17.678 215.336 19.674 216.242 21.334 c 217.258 23.068 219.031 23.861 220.5
 23.861 c 220.539 24.689 l 215.863 24.689 212.207 20.58 212.207 15.904 c
 212.207 11.08 216.129 7.498 220.5 7.498 c 225.062 7.498 228.832 11.154 
228.832 15.904 c h
228.832 15.904 m f
236.523 24.049 m 236.523 28.385 l 236.523 31.662 238.297 33.474 239.957
 33.474 c 240.066 33.474 240.633 33.474 241.199 33.209 c 240.746 33.06 240.066
 32.568 240.066 31.627 c 240.066 30.795 240.672 30.041 241.688 30.041 c 
242.781 30.041 243.348 30.795 243.348 31.662 c 243.348 33.06 241.953 34.303
 239.957 34.303 c 237.355 34.303 234.148 32.307 234.148 28.346 c 234.148
 24.049 l 231.207 24.049 l 231.207 22.881 l 234.148 22.881 l 234.148 10.74
 l 234.148 9.045 233.734 9.045 231.207 9.045 c 231.207 7.873 l 232.68 7.951
 234.449 8.025 235.508 8.025 c 237.016 8.025 238.75 8.025 240.258 7.873 
c 240.258 9.045 l 239.465 9.045 l 236.715 9.045 236.637 9.459 236.637 10.814
 c 236.637 22.881 l 240.898 22.881 l 240.898 24.049 l h
236.523 24.049 m f
266.422 10.74 m 266.457 10.588 l 266.457 10.474 l 266.496 10.326 l 266.535
 10.174 l 266.57 10.025 l 266.609 9.912 l 266.648 9.76 l 266.684 9.646 l
 266.762 9.494 l 266.836 9.385 l 266.875 9.232 l 267.023 9.006 l 267.102
 8.853 l 267.211 8.74 l 267.289 8.627 l 267.59 8.326 l 267.816 8.178 l 267.93
 8.064 l 268.043 7.986 l 268.156 7.951 l 268.305 7.873 l 268.457 7.838 l
 268.57 7.764 l 268.723 7.724 l 268.871 7.724 l 269.023 7.685 l 269.363 
7.685 l 270.152 7.685 272.414 8.178 272.414 11.228 c 272.414 13.342 l 271.473
 13.342 l 271.473 11.228 l 271.473 9.045 270.566 8.818 270.152 8.818 c 268.91
 8.818 268.758 10.514 268.758 10.701 c 268.758 18.205 l 268.758 19.752 268.758
 21.221 267.402 22.615 c 265.93 24.088 264.082 24.689 262.273 24.689 c 259.184
 24.689 256.617 22.916 256.617 20.428 c 256.617 19.334 257.336 18.693 258.316
 18.693 c 259.371 18.693 260.051 19.412 260.051 20.392 c 260.051 20.846 
259.859 22.088 258.125 22.127 c 259.145 23.443 260.992 23.861 262.199 23.861
 c 264.047 23.861 266.156 22.389 266.156 19.072 c 266.156 13.154 l 266.156
 9.572 263.48 8.291 261.785 8.291 c 259.938 8.291 258.391 9.607 258.391 
11.494 c 258.391 13.529 259.973 16.658 266.156 16.885 c 266.156 17.678 l
 264.273 17.564 261.633 17.451 259.258 16.318 c 256.43 15.037 255.527 13.115
 255.527 11.455 c 255.527 8.404 259.145 7.498 261.52 7.498 c 263.969 7.498
 265.703 8.967 266.422 10.74 c h
266.422 10.74 m f
299.898 10.853 m 299.898 7.498 l 305.289 7.873 l 305.289 9.045 l 302.652
 9.045 302.352 9.307 302.352 11.154 c 302.352 24.463 l 296.844 24.049 l 
296.844 22.881 l 299.484 22.881 299.785 22.615 299.785 20.767 c 299.785 
14.096 l 299.785 10.853 297.977 8.291 295.223 8.291 c 292.094 8.291 291.945
 10.06 291.945 12.021 c 291.945 24.463 l 286.441 24.049 l 286.441 22.881
 l 289.344 22.881 289.344 22.767 289.344 19.412 c 289.344 13.795 l 289.344
 10.892 289.344 7.498 295.035 7.498 c 297.148 7.498 298.805 8.517 299.898
 10.853 c h
299.898 10.853 m f
310.23 20.767 m 310.23 10.74 l 310.23 9.045 309.812 9.045 307.289 9.045
 c 307.289 7.873 l 308.609 7.951 310.531 8.025 311.547 8.025 c 312.492 8.025
 314.453 7.951 315.734 7.873 c 315.734 9.045 l 313.207 9.045 312.793 9.045
 312.793 10.74 c 312.793 17.639 l 312.793 21.521 315.469 23.635 317.883 
23.635 c 320.219 23.635 320.633 21.599 320.633 19.486 c 320.633 10.74 l 
320.633 9.045 320.219 9.045 317.73 9.045 c 317.73 7.873 l 319.051 7.951 
320.938 8.025 321.953 8.025 c 322.934 8.025 324.895 7.951 326.176 7.873 
c 326.176 9.045 l 324.215 9.045 323.273 9.045 323.234 10.174 c 323.234 17.338
 l 323.234 20.541 323.234 21.713 322.066 23.068 c 321.539 23.709 320.297
 24.463 318.145 24.463 c 315.395 24.463 313.621 22.842 312.566 20.506 c 
312.566 24.463 l 307.289 24.049 l 307.289 22.881 l 309.926 22.881 310.23
 22.615 310.23 20.767 c h
310.23 20.767 m f
333.602 24.463 m 328.363 24.049 l 328.363 22.881 l 330.777 22.881 331.117
 22.654 331.117 20.807 c 331.117 10.74 l 331.117 9.045 330.699 9.045 328.211
 9.045 c 328.211 7.873 l 329.418 7.951 331.418 8.025 332.32 8.025 c 333.641
 8.025 334.961 7.951 336.203 7.873 c 336.203 9.045 l 333.754 9.045 333.602
 9.232 333.602 10.701 c h
333.602 24.463 m f
333.754 30.947 m 333.754 31.174 l 333.715 31.287 l 333.715 31.4 l 333.68
 31.474 l 333.641 31.588 l 333.641 31.701 l 333.602 31.775 l 333.527 31.853
 l 333.492 31.967 l 333.414 32.115 l 333.34 32.193 l 333.266 32.267 l 333.227
 32.342 l 333.152 32.416 l 333.074 32.455 l 333 32.529 l 332.926 32.568 
l 332.848 32.642 l 332.699 32.721 l 332.586 32.756 l 332.512 32.795 l 332.434
 32.834 l 332.32 32.869 l 332.246 32.908 l 332.133 32.908 l 332.059 32.947
 l 331.758 32.947 l 330.586 32.947 329.758 31.928 329.758 30.947 c 329.758
 29.967 330.586 28.986 331.758 28.986 c 332.812 28.986 333.754 29.779 333.754
 30.947 c h
333.754 30.947 m f
343.895 22.881 m 349.25 22.881 l 349.25 24.049 l 343.895 24.049 l 343.895
 30.908 l 342.953 30.908 l 342.914 27.857 341.785 23.861 338.09 23.709 c
 338.09 22.881 l 341.293 22.881 l 341.293 12.549 l 341.293 7.951 344.801
 7.498 346.121 7.498 c 348.797 7.498 349.852 10.139 349.852 12.549 c 349.852
 14.662 l 348.91 14.662 l 348.91 12.627 l 348.91 9.834 347.777 8.404 346.383
 8.404 c 343.895 8.404 343.895 11.834 343.895 12.474 c h
343.895 22.881 m f
368.891 16.057 m 368.891 16.623 l 368.93 16.885 l 368.93 17.15 l 368.965
 17.412 l 368.965 17.678 l 369.043 18.131 l 369.078 18.357 l 369.117 18.58
 l 369.156 18.807 l 369.191 19.033 l 369.305 19.447 l 369.418 19.826 l 369.531
 20.201 l 369.684 20.541 l 369.832 20.881 l 369.984 21.182 l 370.137 21.447
 l 370.324 21.713 l 370.512 21.974 l 370.699 22.201 l 370.891 22.389 l 371.078
 22.576 l 371.266 22.767 l 371.492 22.916 l 371.68 23.068 l 372.133 23.295
 l 372.32 23.408 l 372.773 23.557 l 372.965 23.596 l 373.188 23.67 l 373.379
 23.709 l 373.566 23.709 l 373.754 23.748 l 373.98 23.748 l 374.281 23.748
 376.656 23.709 377.977 22.353 c 376.43 22.24 376.207 21.107 376.207 20.619
 c 376.207 19.639 376.883 18.92 377.938 18.92 c 378.918 18.92 379.672 19.525
 379.672 20.654 c 379.672 23.221 376.809 24.689 373.906 24.689 c 369.23 
24.689 365.801 20.619 365.801 15.978 c 365.801 11.193 369.496 7.498 373.867
 7.498 c 378.883 7.498 380.09 11.982 380.09 12.361 c 380.09 12.736 379.711
 12.736 379.598 12.736 c 379.258 12.736 379.184 12.588 379.109 12.361 c 
378.016 8.853 375.562 8.404 374.207 8.404 c 372.207 8.404 368.891 10.025
 368.891 16.057 c h
368.891 16.057 m f
385.367 16.545 m 385.402 17.338 l 385.629 22.916 388.797 23.861 390.043
 23.861 c 393.926 23.861 394.301 18.807 394.301 17.338 c 385.402 17.338 
l 385.367 16.545 l 395.809 16.545 l 396.641 16.545 396.754 16.545 396.754
 17.338 c 396.754 21.033 394.754 24.689 390.043 24.689 c 385.707 24.689 
382.238 20.807 382.238 16.131 c 382.238 11.115 386.195 7.498 390.492 7.498
 c 395.094 7.498 396.754 11.646 396.754 12.361 c 396.754 12.736 396.449 
12.814 396.262 12.814 c 395.922 12.814 395.887 12.588 395.773 12.287 c 394.488
 8.404 391.098 8.404 390.719 8.404 c 388.836 8.404 387.363 9.533 386.496
 10.928 c 385.367 12.736 385.367 15.189 385.367 16.545 c h
385.367 16.545 m f
404.555 33.889 m 399.164 33.474 l 399.164 32.307 l 401.805 32.307 402.105
 32.041 402.105 30.232 c 402.105 10.74 l 402.105 9.045 401.691 9.045 399.164
 9.045 c 399.164 7.873 l 400.41 7.951 402.406 8.025 403.312 8.025 c 404.254
 8.025 406.102 7.951 407.496 7.873 c 407.496 9.045 l 404.973 9.045 404.555
 9.045 404.555 10.74 c h
404.555 33.889 m f
415 33.889 m 409.609 33.474 l 409.609 32.307 l 412.246 32.307 412.512 32.041
 412.512 30.232 c 412.512 10.74 l 412.512 9.045 412.133 9.045 409.609 9.045
 c 409.609 7.873 l 410.852 7.951 412.812 8.025 413.754 8.025 c 414.699 8.025
 416.543 7.951 417.941 7.873 c 417.941 9.045 l 415.414 9.045 415 9.045 415
 10.74 c h
415 33.889 m f
Q Q
showpage
%%Trailer
end restore
%%EOF
