%!PS-Adobe-3.0 EPSF-3.0
%%Creator: cairo 1.12.2 (http://cairographics.org)
%%CreationDate: Mon Sep 26 15:09:18 2016
%%Pages: 1
%%DocumentData: Clean7Bit
%%LanguageLevel: 2
%%BoundingBox: 0 -1 223 221
%%EndComments
%%BeginProlog
save
50 dict begin
/q { gsave } bind def
/Q { grestore } bind def
/cm { 6 array astore concat } bind def
/w { setlinewidth } bind def
/J { setlinecap } bind def
/j { setlinejoin } bind def
/M { setmiterlimit } bind def
/d { setdash } bind def
/m { moveto } bind def
/l { lineto } bind def
/c { curveto } bind def
/h { closepath } bind def
/re { exch dup neg 3 1 roll 5 3 roll moveto 0 rlineto
      0 exch rlineto 0 rlineto closepath } bind def
/S { stroke } bind def
/f { fill } bind def
/f* { eofill } bind def
/n { newpath } bind def
/W { clip } bind def
/W* { eoclip } bind def
/BT { } bind def
/ET { } bind def
/pdfmark where { pop globaldict /?pdfmark /exec load put }
    { globaldict begin /?pdfmark /pop load def /pdfmark
    /cleartomark load def end } ifelse
/BDC { mark 3 1 roll /BDC pdfmark } bind def
/EMC { mark /EMC pdfmark } bind def
/cairo_store_point { /cairo_point_y exch def /cairo_point_x exch def } def
/Tj { show currentpoint cairo_store_point } bind def
/TJ {
  {
    dup
    type /stringtype eq
    { show } { -0.001 mul 0 cairo_font_matrix dtransform rmoveto } ifelse
  } forall
  currentpoint cairo_store_point
} bind def
/cairo_selectfont { cairo_font_matrix aload pop pop pop 0 0 6 array astore
    cairo_font exch selectfont cairo_point_x cairo_point_y moveto } bind def
/Tf { pop /cairo_font exch def /cairo_font_matrix where
      { pop cairo_selectfont } if } bind def
/Td { matrix translate cairo_font_matrix matrix concatmatrix dup
      /cairo_font_matrix exch def dup 4 get exch 5 get cairo_store_point
      /cairo_font where { pop cairo_selectfont } if } bind def
/Tm { 2 copy 8 2 roll 6 array astore /cairo_font_matrix exch def
      cairo_store_point /cairo_font where { pop cairo_selectfont } if } bind def
/g { setgray } bind def
/rg { setrgbcolor } bind def
/d1 { setcachedevice } bind def
%%EndProlog
%%Page: 1 1
%%BeginPageSetup
%%PageBoundingBox: 0 -1 223 221
%%EndPageSetup
q 0 -1 223 222 rectclip q
0.658824 g
56.004 164.909 108.902 -108.902 re f
0 g
1.191132 w
0 J
1 j
[] 0.0 d
4 M q 1 0 0 -1 0 220.912491 cm
110.457 110.457 m 164.906 56.004 l 164.906 110.457 l h
S Q
106.609 107.623 m 97.375 107.623 l 97.375 107.069 l 97.793 107.069 l 99.156
 107.069 99.211 106.873 99.211 106.233 c 99.211 96.944 l 99.211 96.303 99.156
 96.108 97.793 96.108 c 97.375 96.108 l 97.375 95.553 l 97.988 95.608 99.379
 95.608 100.074 95.608 c 100.797 95.608 102.41 95.608 103.051 95.553 c 103.051
 96.108 l 102.465 96.108 l 100.797 96.108 100.797 96.33 100.797 96.944 c
 100.797 106.373 l 100.797 106.955 100.824 107.069 101.66 107.069 c 103.496
 107.069 l 106.027 107.069 106.387 106.01 106.668 103.62 c 107.109 103.62
 l h
f
173.371 176.616 m 176.57 179.705 l 176.711 179.842 177.656 180.733 179.102
 180.76 c 179.102 181.319 l 178.629 181.26 178.074 181.26 177.574 181.26
 c 176.934 181.26 175.934 181.26 175.32 181.319 c 175.32 180.76 l 176.043
 180.733 176.156 180.342 176.156 180.178 c 176.156 179.897 175.961 179.705
 175.82 179.592 c 170.285 174.28 l 170.285 179.928 l 170.285 180.565 170.312
 180.76 171.676 180.76 c 172.094 180.76 l 172.094 181.319 l 171.48 181.26
 170.176 181.26 169.477 181.26 c 168.812 181.26 167.477 181.26 166.863 181.319
 c 166.863 180.76 l 167.281 180.76 l 168.645 180.76 168.699 180.565 168.699
 179.928 c 168.699 170.58 l 168.699 169.94 168.645 169.745 167.281 169.745
 c 166.863 169.745 l 166.863 169.19 l 167.477 169.245 168.812 169.245 169.477
 169.245 c 170.145 169.245 171.48 169.245 172.094 169.19 c 172.094 169.745
 l 171.676 169.745 l 170.312 169.745 170.285 169.94 170.285 170.58 c 170.285
 173.666 l 172.344 175.643 l 175.543 170.885 l 175.652 170.721 175.82 170.498
 175.82 170.276 c 175.82 169.745 175.125 169.745 174.762 169.745 c 174.762
 169.19 l 175.375 169.245 176.629 169.245 177.293 169.245 c 177.934 169.245
 178.602 169.217 179.352 169.19 c 179.352 169.745 l 178.379 169.745 178.02
 169.803 177.488 170.58 c h
f
168.949 107.053 m 168.781 107.444 168.727 107.444 168.309 107.444 c 165.332
 107.444 l 165.332 106.889 l 165.75 106.889 l 167.113 106.889 167.141 106.694
 167.141 106.053 c 167.141 97.178 l 167.141 96.705 167.141 95.873 165.332
 95.873 c 165.332 95.315 l 165.945 95.342 166.809 95.373 167.391 95.373 
c 167.977 95.373 168.863 95.342 169.477 95.315 c 169.477 95.873 l 167.641
 95.873 167.641 96.705 167.641 97.178 c 167.641 106.748 l 167.668 106.748
 l 171.953 95.705 l 172.035 95.483 172.121 95.315 172.285 95.315 c 172.48
 95.315 172.535 95.455 172.621 95.651 c 176.988 106.889 l 176.988 96.705
 l 176.988 96.069 176.961 95.873 175.598 95.873 c 175.18 95.873 l 175.18
 95.315 l 175.82 95.373 177.043 95.373 177.738 95.373 c 178.406 95.373 179.602
 95.373 180.27 95.315 c 180.27 95.873 l 179.824 95.873 l 178.461 95.873 
178.434 96.069 178.434 96.705 c 178.434 106.053 l 178.434 106.694 178.461
 106.889 179.824 106.889 c 180.27 106.889 l 180.27 107.444 l 177.266 107.444
 l 176.793 107.444 176.793 107.416 176.68 107.112 c 172.789 97.096 l h
f
0.850809 w
0 j
q 1 0 0 -1 0 220.912491 cm
110.457 110.457 m 219.359 110.457 l S Q
210.852 110.455 m 207.449 107.053 l 219.359 110.455 l 207.449 113.858 l
 h
f*
q -1 0 0 1 0 220.912491 cm
-210.852 -110.457 m -207.449 -113.859 l -219.359 -110.457 l -207.449 -107.055
 l h
S Q
q 1 0 0 -1 0 220.912491 cm
110.457 110.457 m 110.457 1.551 l S Q
110.457 210.85 m 113.859 207.448 l 110.457 219.362 l 107.055 207.448 l 
h
f*
q -0.000000000000000061 -1 -1 0.000000000000000061 0 220.912491 cm
10.062 -110.457 m 13.465 -113.859 l 1.551 -110.457 l 13.465 -107.055 l 
h
S Q
q 1 0 0 -1 0 220.912491 cm
110.457 110.457 m 1.551 110.457 l S Q
10.062 110.455 m 13.465 113.858 l 1.551 110.455 l 13.465 107.053 l h
f*
q 1 -0.000000000000000122 -0.000000000000000122 -1 0 220.912491 cm
10.063 110.457 m 13.465 107.055 l 1.551 110.457 l 13.465 113.859 l h
S Q
q 1 0 0 -1 0 220.912491 cm
110.457 110.457 m 110.457 219.359 l S Q
110.457 10.061 m 107.055 13.463 l 110.457 1.553 l 113.859 13.463 l h
f*
q -0.000000000000000061 1 1 0.000000000000000061 0 220.912491 cm
-210.852 110.457 m -207.449 107.055 l -219.359 110.457 l -207.449 113.859
 l h
S Q
114.781 164.92 m 114.781 160.58 l 110.457 160.58 l 110.457 160.006 l 115.355
 160.006 l 115.355 164.92 l h
f
q 1 0 0 -1 0 220.912491 cm
107.055 30.48 m 113.859 30.48 l S Q
q 1 0 0 -1 0 220.912491 cm
107.055 84.934 m 113.859 84.934 l S Q
q 1 0 0 -1 0 220.912491 cm
107.055 81.527 m 113.859 81.527 l S Q
q 1 0 0 -1 0 220.912491 cm
107.055 27.078 m 113.859 27.078 l S Q
212.625 105.725 m 212.625 105.78 l 212.605 105.78 l 212.605 105.819 l 212.59
 105.834 l 212.59 105.854 l 212.57 105.854 l 212.57 105.873 l 212.551 105.873
 l 212.551 105.889 l 212.535 105.889 l 212.516 105.909 l 212.461 105.909
 l 212.461 105.928 l 212.387 105.928 l 211.965 105.928 210.641 105.78 210.164
 105.745 c 210.02 105.725 209.816 105.705 209.816 105.377 c 209.816 105.155
 209.98 105.155 210.258 105.155 c 211.121 105.155 211.156 105.03 211.156
 104.846 c 211.156 104.717 210.992 104.112 210.918 103.725 c 209.414 97.776
 l 209.191 96.858 209.117 96.565 209.117 95.94 c 209.117 94.194 210.09 93.077
 211.434 93.077 c 211.434 93.459 l 210.809 93.459 210.219 93.955 210.219
 95.315 c 210.219 95.662 210.219 95.995 210.516 97.151 c 210.918 98.842 
l 211.008 99.225 211.008 99.264 211.176 99.463 c 212.074 100.659 212.902
 100.932 213.379 100.932 c 214.039 100.932 214.535 100.381 214.535 99.209
 c 214.535 98.143 213.93 96.049 213.598 95.35 c 212.992 94.123 212.148 93.459
 211.434 93.459 c 211.434 93.077 l 213.598 93.077 215.84 95.791 215.84 98.416
 c 215.84 100.069 214.863 101.338 213.414 101.338 c 212.57 101.338 211.816
 100.803 211.266 100.237 c h
f
220.391 98.639 m 220.391 98.842 l 220.375 98.858 l 220.375 98.912 l 220.355
 98.912 l 220.355 98.932 l 220.336 98.952 l 220.316 98.967 l 220.301 98.967
 l 220.281 98.987 l 220.207 98.987 l 220.207 99.006 l 220.008 99.006 l 219.199
 98.198 218.023 98.178 217.508 98.178 c 217.508 97.721 l 217.805 97.721 
218.648 97.721 219.363 98.088 c 219.363 91.569 l 219.363 91.147 219.363 
90.983 218.078 90.983 c 217.602 90.983 l 217.602 90.522 l 217.82 90.541 
219.398 90.577 219.879 90.577 c 220.262 90.577 221.879 90.541 222.156 90.522
 c 222.156 90.983 l 221.676 90.983 l 220.391 90.983 220.391 91.147 220.391
 91.569 c h
f
122.496 217.713 m 122.496 217.768 l 122.477 217.768 l 122.477 217.803 l
 122.457 217.823 l 122.457 217.842 l 122.441 217.842 l 122.441 217.858 l
 122.422 217.858 l 122.422 217.877 l 122.402 217.877 l 122.383 217.897 l
 122.328 217.897 l 122.328 217.912 l 122.258 217.912 l 121.832 217.912 120.512
 217.768 120.035 217.729 c 119.887 217.713 119.688 217.694 119.688 217.362
 c 119.688 217.143 119.852 217.143 120.125 217.143 c 120.988 217.143 121.027
 217.014 121.027 216.83 c 121.027 216.702 120.859 216.096 120.789 215.709
 c 119.281 209.76 l 119.062 208.842 118.988 208.549 118.988 207.924 c 118.988
 206.182 119.961 205.061 121.301 205.061 c 121.301 205.448 l 120.676 205.448
 120.09 205.944 120.09 207.303 c 120.09 207.651 120.09 207.983 120.383 209.139
 c 120.789 210.827 l 120.879 211.213 120.879 211.248 121.043 211.452 c 121.945
 212.643 122.77 212.92 123.246 212.92 c 123.91 212.92 124.406 212.37 124.406
 211.194 c 124.406 210.127 123.797 208.037 123.469 207.338 c 122.863 206.108
 122.016 205.448 121.301 205.448 c 121.301 205.061 l 123.469 205.061 125.707
 207.78 125.707 210.405 c 125.707 212.057 124.734 213.323 123.285 213.323
 c 122.441 213.323 121.688 212.791 121.137 212.221 c h
f
132.445 204.842 m 132.004 204.842 l 131.969 204.549 131.84 203.795 131.676
 203.666 c 131.566 203.592 130.574 203.592 130.41 203.592 c 128.059 203.592
 l 129.398 204.787 129.84 205.135 130.609 205.741 c 131.547 206.495 132.445
 207.284 132.445 208.495 c 132.445 210.037 131.086 210.991 129.453 210.991
 c 127.855 210.991 126.793 209.873 126.793 208.698 c 126.793 208.053 127.344
 207.983 127.469 207.983 c 127.766 207.983 128.133 208.202 128.133 208.659
 c 128.133 208.901 128.059 209.338 127.379 209.338 c 127.781 210.241 128.645
 210.534 129.25 210.534 c 130.535 210.534 131.199 209.541 131.199 208.495
 c 131.199 207.393 130.41 206.51 130.004 206.053 c 126.918 203.006 l 126.793
 202.897 126.793 202.877 126.793 202.51 c 132.062 202.51 l h
f
Q Q
showpage
%%Trailer
end restore
%%EOF
