%!PS-Adobe-3.0 EPSF-3.0
%%Creator: cairo 1.14.6 (http://cairographics.org)
%%CreationDate: Fri Feb  9 00:43:16 2018
%%Pages: 1
%%DocumentData: Clean7Bit
%%LanguageLevel: 2
%%BoundingBox: 0 -1 223 221
%%EndComments
%%BeginProlog
save
50 dict begin
/q { gsave } bind def
/Q { grestore } bind def
/cm { 6 array astore concat } bind def
/w { setlinewidth } bind def
/J { setlinecap } bind def
/j { setlinejoin } bind def
/M { setmiterlimit } bind def
/d { setdash } bind def
/m { moveto } bind def
/l { lineto } bind def
/c { curveto } bind def
/h { closepath } bind def
/re { exch dup neg 3 1 roll 5 3 roll moveto 0 rlineto
      0 exch rlineto 0 rlineto closepath } bind def
/S { stroke } bind def
/f { fill } bind def
/f* { eofill } bind def
/n { newpath } bind def
/W { clip } bind def
/W* { eoclip } bind def
/BT { } bind def
/ET { } bind def
/pdfmark where { pop globaldict /?pdfmark /exec load put }
    { globaldict begin /?pdfmark /pop load def /pdfmark
    /cleartomark load def end } ifelse
/BDC { mark 3 1 roll /BDC pdfmark } bind def
/EMC { mark /EMC pdfmark } bind def
/cairo_store_point { /cairo_point_y exch def /cairo_point_x exch def } def
/Tj { show currentpoint cairo_store_point } bind def
/TJ {
  {
    dup
    type /stringtype eq
    { show } { -0.001 mul 0 cairo_font_matrix dtransform rmoveto } ifelse
  } forall
  currentpoint cairo_store_point
} bind def
/cairo_selectfont { cairo_font_matrix aload pop pop pop 0 0 6 array astore
    cairo_font exch selectfont cairo_point_x cairo_point_y moveto } bind def
/Tf { pop /cairo_font exch def /cairo_font_matrix where
      { pop cairo_selectfont } if } bind def
/Td { matrix translate cairo_font_matrix matrix concatmatrix dup
      /cairo_font_matrix exch def dup 4 get exch 5 get cairo_store_point
      /cairo_font where { pop cairo_selectfont } if } bind def
/Tm { 2 copy 8 2 roll 6 array astore /cairo_font_matrix exch def
      cairo_store_point /cairo_font where { pop cairo_selectfont } if } bind def
/g { setgray } bind def
/rg { setrgbcolor } bind def
/d1 { setcachedevice } bind def
%%EndProlog
%%BeginSetup
%%EndSetup
%%Page: 1 1
%%BeginPageSetup
%%PageBoundingBox: 0 -1 223 221
%%EndPageSetup
q 0 -1 223 222 rectclip q
0.658824 g
56 164.904 108.902 -108.902 re f
0.568627 0.568627 1 rg
110.453 110.451 m 164.902 164.904 l 164.902 110.451 l h
110.453 110.451 m f
0 g
1.6 w
0 J
1 j
[] 0.0 d
4 M q 1 0 0 -1 0 220.904022 cm
110.453 110.453 m 164.902 56 l 164.902 110.453 l h
110.453 110.453 m S Q
106.605 107.619 m 97.371 107.619 l 97.371 107.064 l 97.789 107.064 l 99.152
 107.064 99.207 106.869 99.207 106.228 c 99.207 96.939 l 99.207 96.299 99.152
 96.103 97.789 96.103 c 97.371 96.103 l 97.371 95.549 l 97.984 95.603 99.375
 95.603 100.07 95.603 c 100.793 95.603 102.406 95.603 103.047 95.549 c 103.047
 96.103 l 102.461 96.103 l 100.793 96.103 100.793 96.326 100.793 96.939 
c 100.793 106.369 l 100.793 106.951 100.82 107.064 101.656 107.064 c 103.492
 107.064 l 106.023 107.064 106.383 106.006 106.66 103.615 c 107.105 103.615
 l h
106.605 107.619 m f
173.367 176.611 m 176.566 179.701 l 176.707 179.838 177.652 180.728 179.098
 180.756 c 179.098 181.314 l 178.625 181.256 178.07 181.256 177.57 181.256
 c 176.93 181.256 175.926 181.256 175.316 181.314 c 175.316 180.756 l 176.039
 180.728 176.148 180.338 176.148 180.174 c 176.148 179.892 175.957 179.701
 175.816 179.588 c 170.281 174.275 l 170.281 179.924 l 170.281 180.56 170.309
 180.756 171.672 180.756 c 172.09 180.756 l 172.09 181.314 l 171.477 181.256
 170.168 181.256 169.473 181.256 c 168.809 181.256 167.473 181.256 166.859
 181.314 c 166.859 180.756 l 167.277 180.756 l 168.641 180.756 168.695 180.56
 168.695 179.924 c 168.695 170.576 l 168.695 169.935 168.641 169.74 167.277
 169.74 c 166.859 169.74 l 166.859 169.185 l 167.473 169.24 168.809 169.24
 169.473 169.24 c 170.141 169.24 171.477 169.24 172.09 169.185 c 172.09 
169.74 l 171.672 169.74 l 170.309 169.74 170.281 169.935 170.281 170.576
 c 170.281 173.662 l 172.34 175.638 l 175.539 170.881 l 175.648 170.717 
175.816 170.494 175.816 170.271 c 175.816 169.74 175.121 169.74 174.758 
169.74 c 174.758 169.185 l 175.371 169.24 176.621 169.24 177.289 169.24 
c 177.93 169.24 178.598 169.213 179.348 169.185 c 179.348 169.74 l 178.375
 169.74 178.016 169.799 177.484 170.576 c h
173.367 176.611 m f
168.945 107.049 m 168.777 107.439 168.723 107.439 168.305 107.439 c 165.328
 107.439 l 165.328 106.884 l 165.746 106.884 l 167.109 106.884 167.137 106.689
 167.137 106.049 c 167.137 97.177 l 167.137 96.701 167.137 95.869 165.328
 95.869 c 165.328 95.31 l 165.941 95.342 166.801 95.369 167.387 95.369 c
 167.973 95.369 168.859 95.342 169.473 95.31 c 169.473 95.869 l 167.637 
95.869 167.637 96.701 167.637 97.177 c 167.637 106.744 l 167.664 106.744
 l 171.949 95.701 l 172.031 95.478 172.117 95.31 172.281 95.31 c 172.477
 95.31 172.531 95.451 172.617 95.646 c 176.984 106.884 l 176.984 96.701 
l 176.984 96.064 176.957 95.869 175.594 95.869 c 175.176 95.869 l 175.176
 95.31 l 175.816 95.369 177.039 95.369 177.734 95.369 c 178.402 95.369 179.598
 95.369 180.266 95.31 c 180.266 95.869 l 179.82 95.869 l 178.457 95.869 
178.43 96.064 178.43 96.701 c 178.43 106.049 l 178.43 106.689 178.457 106.884
 179.82 106.884 c 180.266 106.884 l 180.266 107.439 l 177.262 107.439 l 
176.789 107.439 176.789 107.412 176.676 107.107 c 172.781 97.092 l h
168.945 107.049 m f
0.850809 w
0 j
q 1 0 0 -1 0 220.904022 cm
110.453 110.453 m 219.355 110.453 l S Q
210.848 110.451 m 207.445 107.049 l 219.355 110.451 l 207.445 113.857 l
 h
210.848 110.451 m f*
q -1 0 0 1 0 220.904022 cm
-210.848 -110.453 m -207.445 -113.855 l -219.355 -110.453 l -207.445 -107.047
 l h
-210.848 -110.453 m S Q
q 1 0 0 -1 0 220.904022 cm
110.453 110.453 m 110.453 1.547 l S Q
110.453 210.849 m 113.855 207.443 l 110.453 219.357 l 107.047 207.443 l
 h
110.453 210.849 m f*
q 0 -1 -1 0 0 220.904022 cm
10.055 -110.453 m 13.461 -113.855 l 1.547 -110.453 l 13.461 -107.047 l 
h
10.055 -110.453 m S Q
q 1 0 0 -1 0 220.904022 cm
110.453 110.453 m 1.547 110.453 l S Q
10.055 110.451 m 13.461 113.857 l 1.547 110.451 l 13.461 107.049 l h
10.055 110.451 m f*
q 1 0 0 -1 0 220.904022 cm
10.055 110.453 m 13.461 107.047 l 1.547 110.453 l 13.461 113.855 l h
10.055 110.453 m S Q
q 1 0 0 -1 0 220.904022 cm
110.453 110.453 m 110.453 219.355 l S Q
110.453 10.056 m 107.047 13.459 l 110.453 1.549 l 113.855 13.459 l h
110.453 10.056 m f*
q 0 1 1 0 0 220.904022 cm
-210.848 110.453 m -207.445 107.047 l -219.355 110.453 l -207.445 113.855
 l h
-210.848 110.453 m S Q
114.773 164.916 m 114.773 160.576 l 110.453 160.576 l 110.453 160.002 l
 115.352 160.002 l 115.352 164.916 l h
114.773 164.916 m f
q 1 0 0 -1 0 220.904022 cm
107.047 30.477 m 113.855 30.477 l S Q
q 1 0 0 -1 0 220.904022 cm
107.047 84.93 m 113.855 84.93 l S Q
q 1 0 0 -1 0 220.904022 cm
107.047 81.523 m 113.855 81.523 l S Q
q 1 0 0 -1 0 220.904022 cm
107.047 27.074 m 113.855 27.074 l S Q
212.621 105.72 m 212.621 105.775 l 212.602 105.775 l 212.602 105.814 l 
212.586 105.83 l 212.586 105.849 l 212.566 105.849 l 212.566 105.869 l 212.547
 105.869 l 212.547 105.888 l 212.527 105.888 l 212.512 105.904 l 212.457
 105.904 l 212.457 105.924 l 212.383 105.924 l 211.961 105.924 210.637 105.775
 210.16 105.74 c 210.016 105.72 209.812 105.705 209.812 105.373 c 209.812
 105.154 209.977 105.154 210.254 105.154 c 211.117 105.154 211.152 105.025
 211.152 104.842 c 211.152 104.713 210.988 104.107 210.914 103.72 c 209.406
 97.771 l 209.188 96.853 209.113 96.56 209.113 95.935 c 209.113 94.189 210.086
 93.072 211.426 93.072 c 211.426 93.455 l 210.805 93.455 210.215 93.951 
210.215 95.31 c 210.215 95.658 210.215 95.99 210.508 97.146 c 210.914 98.838
 l 211.004 99.22 211.004 99.259 211.172 99.459 c 212.07 100.654 212.895 
100.927 213.375 100.927 c 214.035 100.927 214.531 100.377 214.531 99.205
 c 214.531 98.138 213.926 96.045 213.594 95.349 c 212.988 94.119 212.145
 93.455 211.426 93.455 c 211.426 93.072 l 213.594 93.072 215.836 95.787 
215.836 98.412 c 215.836 100.068 214.859 101.334 213.41 101.334 c 212.566
 101.334 211.812 100.802 211.262 100.232 c h
212.621 105.72 m f
220.387 98.634 m 220.387 98.838 l 220.367 98.853 l 220.367 98.908 l 220.352
 98.908 l 220.352 98.927 l 220.312 98.967 l 220.297 98.967 l 220.277 98.982
 l 220.203 98.982 l 220.203 99.002 l 220 99.002 l 219.195 98.193 218.02 
98.174 217.504 98.174 c 217.504 97.717 l 217.797 97.717 218.645 97.717 219.359
 98.084 c 219.359 91.564 l 219.359 91.142 219.359 90.978 218.074 90.978 
c 217.598 90.978 l 217.598 90.517 l 217.816 90.537 219.395 90.572 219.875
 90.572 c 220.258 90.572 221.875 90.537 222.148 90.517 c 222.148 90.978 
l 221.672 90.978 l 220.387 90.978 220.387 91.142 220.387 91.564 c h
220.387 98.634 m f
122.492 217.709 m 122.492 217.763 l 122.473 217.763 l 122.473 217.799 l
 122.453 217.818 l 122.453 217.838 l 122.438 217.838 l 122.438 217.853 l
 122.418 217.853 l 122.418 217.873 l 122.398 217.873 l 122.379 217.892 l
 122.324 217.892 l 122.324 217.908 l 122.254 217.908 l 121.828 217.908 120.508
 217.763 120.031 217.724 c 119.883 217.709 119.68 217.689 119.68 217.357
 c 119.68 217.138 119.848 217.138 120.121 217.138 c 120.984 217.138 121.023
 217.009 121.023 216.826 c 121.023 216.697 120.855 216.092 120.781 215.705
 c 119.277 209.759 l 119.059 208.842 118.984 208.545 118.984 207.92 c 118.984
 206.177 119.957 205.056 121.297 205.056 c 121.297 205.443 l 120.672 205.443
 120.086 205.939 120.086 207.299 c 120.086 207.646 120.086 207.978 120.379
 209.134 c 120.781 210.822 l 120.875 211.209 120.875 211.244 121.039 211.447
 c 121.941 212.638 122.766 212.916 123.242 212.916 c 123.906 212.916 124.398
 212.365 124.398 211.189 c 124.398 210.127 123.793 208.033 123.465 207.334
 c 122.859 206.103 122.012 205.443 121.297 205.443 c 121.297 205.056 l 123.465
 205.056 125.703 207.775 125.703 210.4 c 125.703 212.052 124.73 213.318 
123.281 213.318 c 122.438 213.318 121.684 212.787 121.133 212.217 c h
122.492 217.709 m f
132.441 204.838 m 132 204.838 l 131.965 204.545 131.836 203.791 131.672
 203.662 c 131.562 203.588 130.57 203.588 130.402 203.588 c 128.055 203.588
 l 129.395 204.783 129.836 205.131 130.605 205.736 c 131.543 206.49 132.441
 207.279 132.441 208.49 c 132.441 210.033 131.082 210.986 129.449 210.986
 c 127.852 210.986 126.785 209.869 126.785 208.693 c 126.785 208.049 127.336
 207.978 127.465 207.978 c 127.762 207.978 128.129 208.197 128.129 208.658
 c 128.129 208.896 128.055 209.334 127.375 209.334 c 127.777 210.236 128.641
 210.529 129.246 210.529 c 130.531 210.529 131.195 209.537 131.195 208.49
 c 131.195 207.388 130.402 206.509 130 206.049 c 126.914 203.002 l 126.785
 202.892 126.785 202.873 126.785 202.506 c 132.055 202.506 l h
132.441 204.838 m f
Q Q
showpage
%%Trailer
end restore
%%EOF
