%!PS-Adobe-3.0 EPSF-3.0
%%Creator: cairo 1.14.6 (http://cairographics.org)
%%CreationDate: Fri Feb  9 02:34:21 2018
%%Pages: 1
%%DocumentData: Clean7Bit
%%LanguageLevel: 2
%%BoundingBox: 0 -1 223 221
%%EndComments
%%BeginProlog
save
50 dict begin
/q { gsave } bind def
/Q { grestore } bind def
/cm { 6 array astore concat } bind def
/w { setlinewidth } bind def
/J { setlinecap } bind def
/j { setlinejoin } bind def
/M { setmiterlimit } bind def
/d { setdash } bind def
/m { moveto } bind def
/l { lineto } bind def
/c { curveto } bind def
/h { closepath } bind def
/re { exch dup neg 3 1 roll 5 3 roll moveto 0 rlineto
      0 exch rlineto 0 rlineto closepath } bind def
/S { stroke } bind def
/f { fill } bind def
/f* { eofill } bind def
/n { newpath } bind def
/W { clip } bind def
/W* { eoclip } bind def
/BT { } bind def
/ET { } bind def
/pdfmark where { pop globaldict /?pdfmark /exec load put }
    { globaldict begin /?pdfmark /pop load def /pdfmark
    /cleartomark load def end } ifelse
/BDC { mark 3 1 roll /BDC pdfmark } bind def
/EMC { mark /EMC pdfmark } bind def
/cairo_store_point { /cairo_point_y exch def /cairo_point_x exch def } def
/Tj { show currentpoint cairo_store_point } bind def
/TJ {
  {
    dup
    type /stringtype eq
    { show } { -0.001 mul 0 cairo_font_matrix dtransform rmoveto } ifelse
  } forall
  currentpoint cairo_store_point
} bind def
/cairo_selectfont { cairo_font_matrix aload pop pop pop 0 0 6 array astore
    cairo_font exch selectfont cairo_point_x cairo_point_y moveto } bind def
/Tf { pop /cairo_font exch def /cairo_font_matrix where
      { pop cairo_selectfont } if } bind def
/Td { matrix translate cairo_font_matrix matrix concatmatrix dup
      /cairo_font_matrix exch def dup 4 get exch 5 get cairo_store_point
      /cairo_font where { pop cairo_selectfont } if } bind def
/Tm { 2 copy 8 2 roll 6 array astore /cairo_font_matrix exch def
      cairo_store_point /cairo_font where { pop cairo_selectfont } if } bind def
/g { setgray } bind def
/rg { setrgbcolor } bind def
/d1 { setcachedevice } bind def
%%EndProlog
%%BeginSetup
%%EndSetup
%%Page: 1 1
%%BeginPageSetup
%%PageBoundingBox: 0 -1 223 221
%%EndPageSetup
q 0 -1 223 222 rectclip q
0.658824 g
56 164.904 108.902 -108.902 re f
0.568627 0.568627 1 rg
110.453 110.451 m 164.902 164.904 l 164.902 110.451 l h
110.453 110.451 m f
0 g
1.6 w
0 J
1 j
[] 0.0 d
4 M q 1 0 0 -1 0 220.904022 cm
110.453 110.453 m 164.902 56 l 164.902 110.453 l h
110.453 110.453 m S Q
106.605 107.619 m 97.371 107.619 l 97.371 107.064 l 97.789 107.064 l 99.152
 107.064 99.207 106.869 99.207 106.228 c 99.207 96.939 l 99.207 96.299 99.152
 96.103 97.789 96.103 c 97.371 96.103 l 97.371 95.549 l 97.984 95.603 99.375
 95.603 100.07 95.603 c 100.793 95.603 102.406 95.603 103.047 95.549 c 103.047
 96.103 l 102.461 96.103 l 100.793 96.103 100.793 96.326 100.793 96.939 
c 100.793 106.369 l 100.793 106.951 100.82 107.064 101.656 107.064 c 103.492
 107.064 l 106.023 107.064 106.383 106.006 106.66 103.615 c 107.105 103.615
 l h
106.605 107.619 m f
173.367 176.611 m 176.566 179.701 l 176.707 179.838 177.652 180.728 179.098
 180.756 c 179.098 181.314 l 178.625 181.256 178.07 181.256 177.57 181.256
 c 176.93 181.256 175.926 181.256 175.316 181.314 c 175.316 180.756 l 176.039
 180.728 176.148 180.338 176.148 180.174 c 176.148 179.892 175.957 179.701
 175.816 179.588 c 170.281 174.275 l 170.281 179.924 l 170.281 180.56 170.309
 180.756 171.672 180.756 c 172.09 180.756 l 172.09 181.314 l 171.477 181.256
 170.168 181.256 169.473 181.256 c 168.809 181.256 167.473 181.256 166.859
 181.314 c 166.859 180.756 l 167.277 180.756 l 168.641 180.756 168.695 180.56
 168.695 179.924 c 168.695 170.576 l 168.695 169.935 168.641 169.74 167.277
 169.74 c 166.859 169.74 l 166.859 169.185 l 167.473 169.24 168.809 169.24
 169.473 169.24 c 170.141 169.24 171.477 169.24 172.09 169.185 c 172.09 
169.74 l 171.672 169.74 l 170.309 169.74 170.281 169.935 170.281 170.576
 c 170.281 173.662 l 172.34 175.638 l 175.539 170.881 l 175.648 170.717 
175.816 170.494 175.816 170.271 c 175.816 169.74 175.121 169.74 174.758 
169.74 c 174.758 169.185 l 175.371 169.24 176.621 169.24 177.289 169.24 
c 177.93 169.24 178.598 169.213 179.348 169.185 c 179.348 169.74 l 178.375
 169.74 178.016 169.799 177.484 170.576 c h
173.367 176.611 m f
168.945 107.049 m 168.777 107.439 168.723 107.439 168.305 107.439 c 165.328
 107.439 l 165.328 106.884 l 165.746 106.884 l 167.109 106.884 167.137 106.689
 167.137 106.049 c 167.137 97.177 l 167.137 96.701 167.137 95.869 165.328
 95.869 c 165.328 95.31 l 165.941 95.342 166.801 95.369 167.387 95.369 c
 167.973 95.369 168.859 95.342 169.473 95.31 c 169.473 95.869 l 167.637 
95.869 167.637 96.701 167.637 97.177 c 167.637 106.744 l 167.664 106.744
 l 171.949 95.701 l 172.031 95.478 172.117 95.31 172.281 95.31 c 172.477
 95.31 172.531 95.451 172.617 95.646 c 176.984 106.884 l 176.984 96.701 
l 176.984 96.064 176.957 95.869 175.594 95.869 c 175.176 95.869 l 175.176
 95.31 l 175.816 95.369 177.039 95.369 177.734 95.369 c 178.402 95.369 179.598
 95.369 180.266 95.31 c 180.266 95.869 l 179.82 95.869 l 178.457 95.869 
178.43 96.064 178.43 96.701 c 178.43 106.049 l 178.43 106.689 178.457 106.884
 179.82 106.884 c 180.266 106.884 l 180.266 107.439 l 177.262 107.439 l 
176.789 107.439 176.789 107.412 176.676 107.107 c 172.781 97.092 l h
168.945 107.049 m f
0.850809 w
0 j
q 1 0 0 -1 0 220.904022 cm
110.453 110.453 m 219.355 110.453 l S Q
210.848 110.451 m 207.445 107.049 l 219.355 110.451 l 207.445 113.857 l
 h
210.848 110.451 m f*
q -1 0 0 1 0 220.904022 cm
-210.848 -110.453 m -207.445 -113.855 l -219.355 -110.453 l -207.445 -107.047
 l h
-210.848 -110.453 m S Q
q 1 0 0 -1 0 220.904022 cm
110.453 110.453 m 110.453 1.547 l S Q
110.453 210.849 m 113.855 207.443 l 110.453 219.357 l 107.047 207.443 l
 h
110.453 210.849 m f*
q 0 -1 -1 0 0 220.904022 cm
10.055 -110.453 m 13.461 -113.855 l 1.547 -110.453 l 13.461 -107.047 l 
h
10.055 -110.453 m S Q
q 1 0 0 -1 0 220.904022 cm
110.453 110.453 m 1.547 110.453 l S Q
10.055 110.451 m 13.461 113.857 l 1.547 110.451 l 13.461 107.049 l h
10.055 110.451 m f*
q 1 0 0 -1 0 220.904022 cm
10.055 110.453 m 13.461 107.047 l 1.547 110.453 l 13.461 113.855 l h
10.055 110.453 m S Q
q 1 0 0 -1 0 220.904022 cm
110.453 110.453 m 110.453 219.355 l S Q
110.453 10.056 m 107.047 13.459 l 110.453 1.549 l 113.855 13.459 l h
110.453 10.056 m f*
q 0 1 1 0 0 220.904022 cm
-210.848 110.453 m -207.445 107.047 l -219.355 110.453 l -207.445 113.855
 l h
-210.848 110.453 m S Q
114.773 164.916 m 114.773 160.576 l 110.453 160.576 l 110.453 160.002 l
 115.352 160.002 l 115.352 164.916 l h
114.773 164.916 m f
q 1 0 0 -1 0 220.904022 cm
107.047 30.477 m 113.855 30.477 l S Q
q 1 0 0 -1 0 220.904022 cm
107.047 84.93 m 113.855 84.93 l S Q
q 1 0 0 -1 0 220.904022 cm
107.047 81.523 m 113.855 81.523 l S Q
q 1 0 0 -1 0 220.904022 cm
107.047 27.074 m 113.855 27.074 l S Q
212.621 105.72 m 212.621 105.775 l 212.602 105.775 l 212.602 105.814 l 
212.586 105.83 l 212.586 105.849 l 212.566 105.849 l 212.566 105.869 l 212.547
 105.869 l 212.547 105.888 l 212.527 105.888 l 212.512 105.904 l 212.457
 105.904 l 212.457 105.924 l 212.383 105.924 l 211.961 105.924 210.637 105.775
 210.16 105.74 c 210.016 105.72 209.812 105.705 209.812 105.373 c 209.812
 105.154 209.977 105.154 210.254 105.154 c 211.117 105.154 211.152 105.025
 211.152 104.842 c 211.152 104.713 210.988 104.107 210.914 103.72 c 209.406
 97.771 l 209.188 96.853 209.113 96.56 209.113 95.935 c 209.113 94.189 210.086
 93.072 211.426 93.072 c 211.426 93.455 l 210.805 93.455 210.215 93.951 
210.215 95.31 c 210.215 95.658 210.215 95.99 210.508 97.146 c 210.914 98.838
 l 211.004 99.22 211.004 99.259 211.172 99.459 c 212.07 100.654 212.895 
100.927 213.375 100.927 c 214.035 100.927 214.531 100.377 214.531 99.205
 c 214.531 98.138 213.926 96.045 213.594 95.349 c 212.988 94.119 212.145
 93.455 211.426 93.455 c 211.426 93.072 l 213.594 93.072 215.836 95.787 
215.836 98.412 c 215.836 100.068 214.859 101.334 213.41 101.334 c 212.566
 101.334 211.812 100.802 211.262 100.232 c h
212.621 105.72 m f
220.387 98.634 m 220.387 98.838 l 220.367 98.853 l 220.367 98.908 l 220.352
 98.908 l 220.352 98.927 l 220.312 98.967 l 220.297 98.967 l 220.277 98.982
 l 220.203 98.982 l 220.203 99.002 l 220 99.002 l 219.195 98.193 218.02 
98.174 217.504 98.174 c 217.504 97.717 l 217.797 97.717 218.645 97.717 219.359
 98.084 c 219.359 91.564 l 219.359 91.142 219.359 90.978 218.074 90.978 
c 217.598 90.978 l 217.598 90.517 l 217.816 90.537 219.395 90.572 219.875
 90.572 c 220.258 90.572 221.875 90.537 222.148 90.517 c 222.148 90.978 
l 221.672 90.978 l 220.387 90.978 220.387 91.142 220.387 91.564 c h
220.387 98.634 m f
122.492 217.709 m 122.492 217.763 l 122.473 217.763 l 122.473 217.799 l
 122.453 217.818 l 122.453 217.838 l 122.438 217.838 l 122.438 217.853 l
 122.418 217.853 l 122.418 217.873 l 122.398 217.873 l 122.379 217.892 l
 122.324 217.892 l 122.324 217.908 l 122.254 217.908 l 121.828 217.908 120.508
 217.763 120.031 217.724 c 119.883 217.709 119.68 217.689 119.68 217.357
 c 119.68 217.138 119.848 217.138 120.121 217.138 c 120.984 217.138 121.023
 217.009 121.023 216.826 c 121.023 216.697 120.855 216.092 120.781 215.705
 c 119.277 209.759 l 119.059 208.842 118.984 208.545 118.984 207.92 c 118.984
 206.177 119.957 205.056 121.297 205.056 c 121.297 205.443 l 120.672 205.443
 120.086 205.939 120.086 207.299 c 120.086 207.646 120.086 207.978 120.379
 209.134 c 120.781 210.822 l 120.875 211.209 120.875 211.244 121.039 211.447
 c 121.941 212.638 122.766 212.916 123.242 212.916 c 123.906 212.916 124.398
 212.365 124.398 211.189 c 124.398 210.127 123.793 208.033 123.465 207.334
 c 122.859 206.103 122.012 205.443 121.297 205.443 c 121.297 205.056 l 123.465
 205.056 125.703 207.775 125.703 210.4 c 125.703 212.052 124.73 213.318 
123.281 213.318 c 122.438 213.318 121.684 212.787 121.133 212.217 c h
122.492 217.709 m f
132.441 204.838 m 132 204.838 l 131.965 204.545 131.836 203.791 131.672
 203.662 c 131.562 203.588 130.57 203.588 130.402 203.588 c 128.055 203.588
 l 129.395 204.783 129.836 205.131 130.605 205.736 c 131.543 206.49 132.441
 207.279 132.441 208.49 c 132.441 210.033 131.082 210.986 129.449 210.986
 c 127.852 210.986 126.785 209.869 126.785 208.693 c 126.785 208.049 127.336
 207.978 127.465 207.978 c 127.762 207.978 128.129 208.197 128.129 208.658
 c 128.129 208.896 128.055 209.334 127.375 209.334 c 127.777 210.236 128.641
 210.529 129.246 210.529 c 130.531 210.529 131.195 209.537 131.195 208.49
 c 131.195 207.388 130.402 206.509 130 206.049 c 126.914 203.002 l 126.785
 202.892 126.785 202.873 126.785 202.506 c 132.055 202.506 l h
132.441 204.838 m f
162.141 158.97 m 162.141 157.22 160.723 155.802 158.973 155.802 c 157.223
 155.802 155.805 157.22 155.805 158.97 c 155.805 160.72 157.223 162.138 
158.973 162.138 c 160.723 162.138 162.141 160.72 162.141 158.97 c h
162.141 158.97 m f
155.043 151.924 m 155.043 150.174 153.625 148.756 151.875 148.756 c 150.125
 148.756 148.707 150.174 148.707 151.924 c 148.707 153.674 150.125 155.092
 151.875 155.092 c 153.625 155.092 155.043 153.674 155.043 151.924 c h
155.043 151.924 m f
147.949 144.877 m 147.949 143.127 146.531 141.709 144.781 141.709 c 143.031
 141.709 141.613 143.127 141.613 144.877 c 141.613 146.627 143.031 148.045
 144.781 148.045 c 146.531 148.045 147.949 146.627 147.949 144.877 c h
147.949 144.877 m f
140.852 137.83 m 140.852 136.08 139.434 134.662 137.688 134.662 c 135.938
 134.662 134.52 136.08 134.52 137.83 c 134.52 139.58 135.938 140.998 137.688
 140.998 c 139.434 140.998 140.852 139.58 140.852 137.83 c h
140.852 137.83 m f
133.758 130.779 m 133.758 129.033 132.34 127.615 130.59 127.615 c 128.84
 127.615 127.422 129.033 127.422 130.779 c 127.422 132.529 128.84 133.947
 130.59 133.947 c 132.34 133.947 133.758 132.529 133.758 130.779 c h
133.758 130.779 m f
126.664 123.732 m 126.664 121.982 125.246 120.564 123.496 120.564 c 121.746
 120.564 120.328 121.982 120.328 123.732 c 120.328 125.482 121.746 126.9
 123.496 126.9 c 125.246 126.9 126.664 125.482 126.664 123.732 c h
126.664 123.732 m f
119.566 116.685 m 119.566 114.935 118.148 113.517 116.398 113.517 c 114.652
 113.517 113.234 114.935 113.234 116.685 c 113.234 118.435 114.652 119.853
 116.398 119.853 c 118.148 119.853 119.566 118.435 119.566 116.685 c h
119.566 116.685 m f
121.117 110.451 m 121.117 108.701 119.699 107.283 117.949 107.283 c 116.199
 107.283 114.781 108.701 114.781 110.451 c 114.781 112.201 116.199 113.619
 117.949 113.619 c 119.699 113.619 121.117 112.201 121.117 110.451 c h
121.117 110.451 m f
129.469 110.451 m 129.469 108.701 128.051 107.283 126.301 107.283 c 124.551
 107.283 123.133 108.701 123.133 110.451 c 123.133 112.201 124.551 113.619
 126.301 113.619 c 128.051 113.619 129.469 112.201 129.469 110.451 c h
129.469 110.451 m f
137.82 110.451 m 137.82 108.701 136.402 107.283 134.656 107.283 c 132.906
 107.283 131.488 108.701 131.488 110.451 c 131.488 112.201 132.906 113.619
 134.656 113.619 c 136.402 113.619 137.82 112.201 137.82 110.451 c h
137.82 110.451 m f
146.176 110.451 m 146.176 108.701 144.758 107.283 143.008 107.283 c 141.258
 107.283 139.84 108.701 139.84 110.451 c 139.84 112.201 141.258 113.619 
143.008 113.619 c 144.758 113.619 146.176 112.201 146.176 110.451 c h
146.176 110.451 m f
154.527 110.451 m 154.527 108.701 153.109 107.283 151.359 107.283 c 149.613
 107.283 148.195 108.701 148.195 110.451 c 148.195 112.201 149.613 113.619
 151.359 113.619 c 153.109 113.619 154.527 112.201 154.527 110.451 c h
154.527 110.451 m f
162.883 110.451 m 162.883 108.701 161.465 107.283 159.715 107.283 c 157.965
 107.283 156.547 108.701 156.547 110.451 c 156.547 112.201 157.965 113.619
 159.715 113.619 c 161.465 113.619 162.883 112.201 162.883 110.451 c h
162.883 110.451 m f
168.309 116.287 m 168.309 114.537 166.891 113.119 165.145 113.119 c 163.395
 113.119 161.977 114.537 161.977 116.287 c 161.977 118.037 163.395 119.455
 165.145 119.455 c 166.891 119.455 168.309 118.037 168.309 116.287 c h
168.309 116.287 m f
168.309 124.342 m 168.309 122.595 166.891 121.174 165.145 121.174 c 163.395
 121.174 161.977 122.595 161.977 124.342 c 161.977 126.092 163.395 127.509
 165.145 127.509 c 166.891 127.509 168.309 126.092 168.309 124.342 c h
168.309 124.342 m f
168.309 132.4 m 168.309 130.65 166.891 129.232 165.145 129.232 c 163.395
 129.232 161.977 130.65 161.977 132.4 c 161.977 134.15 163.395 135.568 165.145
 135.568 c 166.891 135.568 168.309 134.15 168.309 132.4 c h
168.309 132.4 m f
168.309 140.459 m 168.309 138.709 166.891 137.291 165.145 137.291 c 163.395
 137.291 161.977 138.709 161.977 140.459 c 161.977 142.205 163.395 143.623
 165.145 143.623 c 166.891 143.623 168.309 142.205 168.309 140.459 c h
168.309 140.459 m f
168.309 148.513 m 168.309 146.763 166.891 145.345 165.145 145.345 c 163.395
 145.345 161.977 146.763 161.977 148.513 c 161.977 150.263 163.395 151.681
 165.145 151.681 c 166.891 151.681 168.309 150.263 168.309 148.513 c h
168.309 148.513 m f
168.309 156.572 m 168.309 154.822 166.891 153.404 165.145 153.404 c 163.395
 153.404 161.977 154.822 161.977 156.572 c 161.977 158.322 163.395 159.74
 165.145 159.74 c 166.891 159.74 168.309 158.322 168.309 156.572 c h
168.309 156.572 m f
0.8 w
q 1 0 0 -1 0 220.904022 cm
111.715 110.453 m 151.855 69.047 l S Q
0 0 1 rg
110.535 110.541 m 144.52 144.748 l f*
3.2 w
1 J
q 1 0 0 -1 0 220.904022 cm
110.535 110.363 m 144.52 76.156 l S Q
135.117 127.967 m 135.109 128.986 135.121 131.045 135.141 132.541 c 135.172
 135.263 l 133.117 135.263 l 127.504 135.263 125.402 135.068 125.648 135.279
 c 126.176 135.732 146.785 147.134 146.883 147.021 c 146.938 146.959 143.809
 141.662 140.73 136.146 c 135 125.619 l h
135.117 127.967 m f
1.349353 w
0 J
q 1 0 0 -1 0 220.904022 cm
135.117 92.938 m 135.109 91.918 135.121 89.859 135.141 88.363 c 135.172
 85.641 l 133.117 85.641 l 127.504 85.641 125.402 85.836 125.648 85.625 
c 126.176 85.172 146.785 73.77 146.883 73.883 c 146.938 73.945 143.809 79.242
 140.73 84.758 c 135 95.285 l h
135.117 92.938 m S Q
127.156 161.806 m 127.125 161.869 127.062 162.025 127.062 162.088 c 127.062
 162.088 127.41 162.373 127.629 162.529 c 131.148 165.232 l 133.035 166.646
 133.824 166.709 134.418 166.775 c 134.578 166.806 134.766 166.806 134.766
 167.181 c 134.766 167.244 134.703 167.404 134.547 167.404 c 134.105 167.404
 133.602 167.338 133.129 167.338 c 132.406 167.338 131.621 167.404 130.898
 167.404 c 130.773 167.404 130.52 167.404 130.52 166.994 c 130.52 166.869
 130.617 166.806 130.773 166.775 c 131.215 166.744 131.371 166.646 131.371
 166.365 c 131.371 165.986 130.773 165.517 130.648 165.424 c 122.852 159.416
 l 124.453 165.861 l 124.609 166.584 124.676 166.775 126.121 166.775 c 126.625
 166.775 126.812 166.775 126.812 167.181 c 126.812 167.338 126.656 167.404
 126.527 167.404 c 125.961 167.404 124.516 167.338 123.949 167.338 c 123.387
 167.338 121.969 167.404 121.371 167.404 c 121.246 167.404 120.965 167.404
 120.965 167.025 c 120.965 166.775 121.152 166.775 121.562 166.775 c 121.812
 166.775 122.191 166.744 122.41 166.744 c 122.727 166.677 122.852 166.646
 122.852 166.396 c 122.852 166.334 122.852 166.271 122.789 166.017 c 120.082
 155.267 l 119.895 154.482 119.863 154.326 118.262 154.326 c 117.914 154.326
 117.695 154.326 117.695 153.947 c 117.695 153.697 117.945 153.697 118.008
 153.697 c 118.574 153.697 119.988 153.759 120.555 153.759 c 120.965 153.759
 121.406 153.728 121.844 153.728 c 122.285 153.728 122.727 153.697 123.133
 153.697 c 123.289 153.697 123.543 153.697 123.543 154.103 c 123.543 154.326
 123.352 154.326 122.977 154.326 c 122.223 154.326 121.688 154.326 121.688
 154.67 c 121.688 154.826 121.781 155.267 121.844 155.549 c 122.129 156.619
 122.41 157.658 122.66 158.724 c 125.648 161.052 l 127.977 155.646 l 128.227
 155.111 128.227 155.049 128.227 154.951 c 128.227 154.326 127.348 154.326
 127.156 154.326 c 126.938 154.326 126.719 154.326 126.719 153.916 c 126.719
 153.697 126.969 153.697 127 153.697 c 127.816 153.697 128.668 153.759 129.453
 153.759 c 129.895 153.759 130.992 153.697 131.434 153.697 c 131.527 153.697
 131.777 153.697 131.777 154.103 c 131.777 154.326 131.559 154.326 131.371
 154.326 c 130.555 154.326 130.301 154.513 129.988 155.205 c h
127.156 161.806 m f
140.125 159.459 m 140.125 159.681 139.938 159.994 139.559 159.994 c 139.152
 159.994 138.773 159.588 138.773 159.209 c 138.773 158.99 138.93 158.674
 139.34 158.674 c 139.719 158.674 140.125 159.052 140.125 159.459 c h
137.141 149.998 m 136.918 149.021 136.164 148.236 135.348 148.236 c 135.16
 148.236 135 148.236 134.844 148.299 c 135.191 148.49 135.316 148.802 135.316
 149.021 c 135.316 149.369 135.031 149.525 134.75 149.525 c 134.34 149.525
 133.965 149.15 133.965 148.709 c 133.965 148.174 134.5 147.83 135.348 147.83
 c 136.195 147.83 137.832 148.33 138.27 150.029 c 139.527 155.06 l 139.559
 155.217 139.59 155.342 139.59 155.56 c 139.59 156.318 138.93 156.881 138.113
 156.881 c 136.543 156.881 135.66 154.935 135.66 154.713 c 135.66 154.556
 135.852 154.556 135.883 154.556 c 136.039 154.556 136.07 154.588 136.164
 154.806 c 136.512 155.627 137.234 156.474 138.051 156.474 c 138.398 156.474
 138.523 156.256 138.523 155.783 c 138.523 155.627 138.523 155.435 138.492
 155.373 c h
137.141 149.998 m f
Q Q
showpage
%%Trailer
end restore
%%EOF
