%!PS-Adobe-3.0 EPSF-3.0
%%Creator: cairo 1.12.2 (http://cairographics.org)
%%CreationDate: Thu Aug 18 16:40:07 2016
%%Pages: 1
%%DocumentData: Clean7Bit
%%LanguageLevel: 2
%%BoundingBox: 0 -1 212 227
%%EndComments
%%BeginProlog
save
50 dict begin
/q { gsave } bind def
/Q { grestore } bind def
/cm { 6 array astore concat } bind def
/w { setlinewidth } bind def
/J { setlinecap } bind def
/j { setlinejoin } bind def
/M { setmiterlimit } bind def
/d { setdash } bind def
/m { moveto } bind def
/l { lineto } bind def
/c { curveto } bind def
/h { closepath } bind def
/re { exch dup neg 3 1 roll 5 3 roll moveto 0 rlineto
      0 exch rlineto 0 rlineto closepath } bind def
/S { stroke } bind def
/f { fill } bind def
/f* { eofill } bind def
/n { newpath } bind def
/W { clip } bind def
/W* { eoclip } bind def
/BT { } bind def
/ET { } bind def
/pdfmark where { pop globaldict /?pdfmark /exec load put }
    { globaldict begin /?pdfmark /pop load def /pdfmark
    /cleartomark load def end } ifelse
/BDC { mark 3 1 roll /BDC pdfmark } bind def
/EMC { mark /EMC pdfmark } bind def
/cairo_store_point { /cairo_point_y exch def /cairo_point_x exch def } def
/Tj { show currentpoint cairo_store_point } bind def
/TJ {
  {
    dup
    type /stringtype eq
    { show } { -0.001 mul 0 cairo_font_matrix dtransform rmoveto } ifelse
  } forall
  currentpoint cairo_store_point
} bind def
/cairo_selectfont { cairo_font_matrix aload pop pop pop 0 0 6 array astore
    cairo_font exch selectfont cairo_point_x cairo_point_y moveto } bind def
/Tf { pop /cairo_font exch def /cairo_font_matrix where
      { pop cairo_selectfont } if } bind def
/Td { matrix translate cairo_font_matrix matrix concatmatrix dup
      /cairo_font_matrix exch def dup 4 get exch 5 get cairo_store_point
      /cairo_font where { pop cairo_selectfont } if } bind def
/Tm { 2 copy 8 2 roll 6 array astore /cairo_font_matrix exch def
      cairo_store_point /cairo_font where { pop cairo_selectfont } if } bind def
/g { setgray } bind def
/rg { setrgbcolor } bind def
/d1 { setcachedevice } bind def
%%EndProlog
%%Page: 1 1
%%BeginPageSetup
%%PageBoundingBox: 0 -1 212 227
%%EndPageSetup
q 0 -1 212 228 rectclip q
0.608025 0.715626 1 rg
162.758 113.459 m 130.508 57.604 l 66.012 57.604 l 33.762 113.459 l 66.012
 169.318 l 130.508 169.318 l h
f
0 g
1.6 w
0 J
1 j
[] 0.0 d
4 M q 1 0 0 -1 0 226.919998 cm
98.258 113.461 m 162.258 113.461 l 146.258 141.172 l h
S Q
0.8 w
0 j
q 1 0 0 -1 0 226.919998 cm
98.258 1.461 m 98.258 225.461 l S Q
98.258 217.459 m 101.461 214.26 l 98.258 225.459 l 95.059 214.26 l h
f*
0.8 w
q 0.000000000000000061 -1 -1 -0.000000000000000061 0 226.919998 cm
9.461 -98.258 m 12.66 -101.461 l 1.461 -98.258 l 12.66 -95.059 l h
S Q
98.258 9.459 m 95.059 12.658 l 98.258 1.459 l 101.461 12.658 l h
f*
q -0.000000000000000184 1 1 0.000000000000000184 0 226.919998 cm
-217.461 98.258 m -214.262 95.059 l -225.461 98.258 l -214.262 101.461 
l h
S Q
0.8 w
q 1 0 0 -1 0 226.919998 cm
195.254 57.461 m 1.266 169.461 l S Q
188.324 165.459 m 187.156 161.088 l 195.254 169.459 l 183.953 166.631 l
 h
f*
0.69282 w
q -1 -0.57735 -0.57735 1 0 226.919998 cm
-114.63 -127.642 m -111.861 -130.415 l -121.559 -127.643 l -111.859 -124.871
 l h
S Q
8.191 61.459 m 9.363 65.83 l 1.266 57.459 l 12.562 60.287 l h
f*
q 1 0.57735 0.57735 -1 0 226.919998 cm
-65.503 127.643 m -62.731 124.872 l -72.43 127.644 l -62.732 130.414 l 
h
S Q
0.8 w
q 1 0 0 -1 0 226.919998 cm
1.266 57.461 m 195.254 169.461 l S Q
8.191 165.459 m 12.562 166.631 l 1.266 169.459 l 9.363 161.088 l h
f*
0.69282 w
q 1 -0.57735 -0.57735 -1 0 226.919998 cm
32.757 42.549 m 35.528 39.777 l 25.831 42.548 l 35.529 45.32 l h
S Q
188.324 61.459 m 183.953 60.287 l 195.254 57.459 l 187.156 65.83 l h
f*
q -1 0.57735 0.57735 1 0 226.919998 cm
-212.89 -42.549 m -210.119 -45.321 l -219.819 -42.548 l -210.121 -39.776
 l h
S Q
0.8 w
q 1 0 0 -1 0 226.919998 cm
98.258 61.461 m 102.258 61.461 l 102.258 57.461 l S Q
q 1 0 0 -1 0 226.919998 cm
96.238 84.254 m 100.238 84.254 l S Q
q 1 0 0 -1 0 226.919998 cm
96.285 86.723 m 100.285 86.723 l S Q
q 1 0 0 -1 0 226.919998 cm
96.262 28.254 m 100.262 28.254 l S Q
q 1 0 0 -1 0 226.919998 cm
96.305 30.723 m 100.305 30.723 l S Q
108.777 105.272 m 99.266 105.272 l 99.266 104.701 l 99.707 104.701 l 101.102
 104.701 101.156 104.498 101.156 103.838 c 101.156 94.295 l 101.156 93.635
 101.102 93.432 99.707 93.432 c 99.266 93.432 l 99.266 92.861 l 99.91 92.936
 101.324 92.936 102.039 92.936 c 102.793 92.936 104.461 92.936 105.105 92.861
 c 105.105 93.432 l 104.516 93.432 l 102.773 93.432 102.773 93.67 102.773
 94.311 c 102.773 103.967 l 102.773 104.572 102.809 104.701 103.672 104.701
 c 105.547 104.701 l 108.168 104.701 108.555 103.639 108.832 101.178 c 109.289
 101.178 l h
f
146.211 77.119 m 146.211 77.139 l 146.191 77.158 l 146.191 77.174 l 146.176
 77.193 l 146.176 77.229 l 146.156 77.248 l 146.137 77.283 l 146.117 77.303
 l 146.117 77.342 l 146.082 77.377 l 146.082 77.397 l 146.062 77.412 l 146.047
 77.432 l 146.027 77.432 l 146.008 77.451 l 146.008 77.467 l 145.992 77.467
 l 145.973 77.486 l 145.953 77.486 l 145.938 77.506 l 145.879 77.506 l 145.844
 77.525 l 142.484 77.525 l 142.484 76.955 l 142.926 76.955 l 144.32 76.955
 144.355 76.752 144.355 76.111 c 144.355 66.986 l 144.355 66.49 144.355 
65.631 142.484 65.631 c 142.484 65.061 l 143.129 65.096 144.027 65.135 144.613
 65.135 c 145.219 65.135 146.117 65.096 146.762 65.061 c 146.762 65.631 
l 144.871 65.631 144.871 66.49 144.871 66.986 c 144.871 76.807 l 144.891
 76.807 l 149.293 65.463 l 149.387 65.225 149.477 65.061 149.66 65.061 c
 149.863 65.061 149.918 65.205 149.992 65.408 c 154.488 76.955 l 154.508
 76.955 l 154.508 66.49 l 154.508 65.83 154.473 65.631 153.059 65.631 c 
152.617 65.631 l 152.617 65.061 l 153.297 65.135 154.543 65.135 155.262 
65.135 c 155.957 65.135 157.188 65.135 157.867 65.061 c 157.867 65.631 l
 157.426 65.631 l 156.012 65.631 155.977 65.83 155.977 66.49 c 155.977 76.111
 l 155.977 76.752 156.012 76.955 157.426 76.955 c 157.867 76.955 l 157.867
 77.525 l 154.781 77.525 l 154.305 77.525 154.305 77.506 154.176 77.174 
c 150.176 66.912 l h
f
170.457 114.869 m 173.742 118.025 l 173.891 118.174 174.863 119.092 176.352
 119.107 c 176.352 119.678 l 175.871 119.623 175.285 119.623 174.789 119.623
 c 174.129 119.623 173.082 119.623 172.477 119.678 c 172.477 119.107 l 173.191
 119.092 173.305 118.67 173.305 118.502 c 173.305 118.209 173.121 118.045
 172.992 117.916 c 167.262 112.463 l 167.262 118.264 l 167.262 118.908 167.301
 119.107 168.715 119.107 c 169.156 119.107 l 169.156 119.678 l 168.512 119.623
 167.152 119.623 166.457 119.623 c 165.758 119.623 164.398 119.623 163.758
 119.678 c 163.758 119.107 l 164.199 119.107 l 165.594 119.107 165.648 118.908
 165.648 118.264 c 165.648 108.647 l 165.648 107.986 165.594 107.783 164.199
 107.783 c 163.758 107.783 l 163.758 107.213 l 164.398 107.287 165.758 107.287
 166.438 107.287 c 167.137 107.287 168.512 107.287 169.156 107.213 c 169.156
 107.783 l 168.715 107.783 l 167.301 107.783 167.262 107.986 167.262 108.647
 c 167.262 111.838 l 169.375 113.842 l 172.695 108.959 l 172.789 108.791
 172.953 108.553 172.953 108.334 c 172.953 107.783 172.258 107.783 171.891
 107.783 c 171.891 107.213 l 172.531 107.287 173.797 107.287 174.496 107.287
 c 175.137 107.287 175.836 107.268 176.605 107.213 c 176.605 107.783 l 175.617
 107.783 175.23 107.857 174.68 108.662 c h
f
201.977 56.779 m 201.977 56.838 l 201.957 56.838 l 201.957 56.873 l 201.941
 56.893 l 201.941 56.908 l 201.922 56.908 l 201.922 56.928 l 201.902 56.928
 l 201.902 56.947 l 201.883 56.947 l 201.867 56.963 l 201.812 56.963 l 201.812
 56.982 l 201.738 56.982 l 201.316 56.982 199.992 56.838 199.516 56.799 
c 199.371 56.779 199.168 56.764 199.168 56.432 c 199.168 56.213 199.332 
56.213 199.609 56.213 c 200.473 56.213 200.508 56.084 200.508 55.9 c 200.508
 55.772 200.344 55.166 200.27 54.779 c 198.762 48.83 l 198.543 47.912 198.469
 47.619 198.469 46.994 c 198.469 45.252 199.441 44.131 200.781 44.131 c 
200.781 44.518 l 200.16 44.518 199.57 45.014 199.57 46.369 c 199.57 46.721
 199.57 47.049 199.863 48.205 c 200.27 49.897 l 200.359 50.283 200.359 50.318
 200.527 50.522 c 201.426 51.713 202.25 51.99 202.73 51.99 c 203.391 51.99
 203.887 51.44 203.887 50.264 c 203.887 49.197 203.281 47.104 202.949 46.408
 c 202.344 45.178 201.5 44.518 200.781 44.518 c 200.781 44.131 l 202.949
 44.131 205.191 46.85 205.191 49.475 c 205.191 51.127 204.215 52.393 202.766
 52.393 c 201.922 52.393 201.168 51.861 200.617 51.291 c h
f
209.742 49.693 m 209.742 49.897 l 209.723 49.916 l 209.723 49.971 l 209.707
 49.971 l 209.707 49.986 l 209.668 50.025 l 209.652 50.025 l 209.633 50.041
 l 209.559 50.041 l 209.559 50.061 l 209.355 50.061 l 208.551 49.252 207.375
 49.236 206.859 49.236 c 206.859 48.775 l 207.152 48.775 208 48.775 208.715
 49.143 c 208.715 42.627 l 208.715 42.201 208.715 42.037 207.43 42.037 c
 206.953 42.037 l 206.953 41.58 l 207.172 41.596 208.75 41.635 209.23 41.635
 c 209.613 41.635 211.23 41.596 211.504 41.58 c 211.504 42.037 l 211.027
 42.037 l 209.742 42.037 209.742 42.201 209.742 42.627 c h
f
109.906 224.869 m 109.906 224.924 l 109.891 224.924 l 109.891 224.963 l
 109.871 224.982 l 109.871 224.998 l 109.852 224.998 l 109.852 225.018 l
 109.836 225.018 l 109.836 225.037 l 109.816 225.037 l 109.797 225.053 l
 109.742 225.053 l 109.742 225.072 l 109.668 225.072 l 109.246 225.072 107.926
 224.924 107.449 224.889 c 107.301 224.869 107.098 224.854 107.098 224.522
 c 107.098 224.303 107.266 224.303 107.539 224.303 c 108.402 224.303 108.438
 224.174 108.438 223.99 c 108.438 223.861 108.273 223.256 108.199 222.869
 c 106.695 216.92 l 106.473 216.002 106.402 215.709 106.402 215.084 c 106.402
 213.342 107.375 212.221 108.715 212.221 c 108.715 212.607 l 108.09 212.607
 107.504 213.1 107.504 214.459 c 107.504 214.811 107.504 215.139 107.797
 216.295 c 108.199 217.986 l 108.293 218.369 108.293 218.408 108.457 218.611
 c 109.355 219.803 110.184 220.08 110.66 220.08 c 111.32 220.08 111.816 
219.529 111.816 218.354 c 111.816 217.287 111.211 215.193 110.883 214.498
 c 110.273 213.268 109.43 212.607 108.715 212.607 c 108.715 212.221 l 110.883
 212.221 113.121 214.94 113.121 217.565 c 113.121 219.217 112.148 220.482
 110.699 220.482 c 109.852 220.482 109.102 219.951 108.551 219.381 c h
f
119.859 211.998 m 119.418 211.998 l 119.383 211.705 119.254 210.955 119.09
 210.826 c 118.977 210.752 117.988 210.752 117.82 210.752 c 115.473 210.752
 l 116.812 211.943 117.254 212.295 118.023 212.9 c 118.961 213.654 119.859
 214.443 119.859 215.654 c 119.859 217.197 118.5 218.15 116.867 218.15 c
 115.27 218.15 114.203 217.029 114.203 215.857 c 114.203 215.213 114.754
 215.139 114.883 215.139 c 115.176 215.139 115.543 215.361 115.543 215.818
 c 115.543 216.057 115.473 216.498 114.793 216.498 c 115.195 217.397 116.059
 217.693 116.664 217.693 c 117.949 217.693 118.609 216.701 118.609 215.654
 c 118.609 214.553 117.82 213.67 117.418 213.213 c 114.332 210.162 l 114.203
 210.053 114.203 210.037 114.203 209.67 c 119.473 209.67 l h
f
Q Q
showpage
%%Trailer
end restore
%%EOF
