%!PS-Adobe-3.0 EPSF-3.0
%%Creator: cairo 1.14.6 (http://cairographics.org)
%%CreationDate: Sun Jan  7 18:56:54 2018
%%Pages: 1
%%DocumentData: Clean7Bit
%%LanguageLevel: 2
%%BoundingBox: 0 -1 455 227
%%EndComments
%%BeginProlog
save
50 dict begin
/q { gsave } bind def
/Q { grestore } bind def
/cm { 6 array astore concat } bind def
/w { setlinewidth } bind def
/J { setlinecap } bind def
/j { setlinejoin } bind def
/M { setmiterlimit } bind def
/d { setdash } bind def
/m { moveto } bind def
/l { lineto } bind def
/c { curveto } bind def
/h { closepath } bind def
/re { exch dup neg 3 1 roll 5 3 roll moveto 0 rlineto
      0 exch rlineto 0 rlineto closepath } bind def
/S { stroke } bind def
/f { fill } bind def
/f* { eofill } bind def
/n { newpath } bind def
/W { clip } bind def
/W* { eoclip } bind def
/BT { } bind def
/ET { } bind def
/pdfmark where { pop globaldict /?pdfmark /exec load put }
    { globaldict begin /?pdfmark /pop load def /pdfmark
    /cleartomark load def end } ifelse
/BDC { mark 3 1 roll /BDC pdfmark } bind def
/EMC { mark /EMC pdfmark } bind def
/cairo_store_point { /cairo_point_y exch def /cairo_point_x exch def } def
/Tj { show currentpoint cairo_store_point } bind def
/TJ {
  {
    dup
    type /stringtype eq
    { show } { -0.001 mul 0 cairo_font_matrix dtransform rmoveto } ifelse
  } forall
  currentpoint cairo_store_point
} bind def
/cairo_selectfont { cairo_font_matrix aload pop pop pop 0 0 6 array astore
    cairo_font exch selectfont cairo_point_x cairo_point_y moveto } bind def
/Tf { pop /cairo_font exch def /cairo_font_matrix where
      { pop cairo_selectfont } if } bind def
/Td { matrix translate cairo_font_matrix matrix concatmatrix dup
      /cairo_font_matrix exch def dup 4 get exch 5 get cairo_store_point
      /cairo_font where { pop cairo_selectfont } if } bind def
/Tm { 2 copy 8 2 roll 6 array astore /cairo_font_matrix exch def
      cairo_store_point /cairo_font where { pop cairo_selectfont } if } bind def
/g { setgray } bind def
/rg { setrgbcolor } bind def
/d1 { setcachedevice } bind def
%%EndProlog
%%BeginSetup
%%EndSetup
%%Page: 1 1
%%BeginPageSetup
%%PageBoundingBox: 0 -1 455 227
%%EndPageSetup
q 0 -1 455 228 rectclip q
0.658824 g
56 167.908 108.902 -108.902 re f
0.568627 0.568627 1 rg
110.453 113.455 m 164.902 167.908 l 164.902 113.455 l h
110.453 113.455 m f
0 g
1.6 w
0 J
1 j
[] 0.0 d
4 M q 1 0 0 -1 0 226.912033 cm
110.453 113.457 m 164.902 59.004 l 164.902 113.457 l h
110.453 113.457 m S Q
106.605 110.623 m 97.371 110.623 l 97.371 110.068 l 97.789 110.068 l 99.152
 110.068 99.207 109.873 99.207 109.232 c 99.207 99.943 l 99.207 99.303 99.152
 99.107 97.789 99.107 c 97.371 99.107 l 97.371 98.553 l 97.984 98.607 99.375
 98.607 100.07 98.607 c 100.793 98.607 102.406 98.607 103.047 98.553 c 103.047
 99.107 l 102.461 99.107 l 100.793 99.107 100.793 99.33 100.793 99.943 c
 100.793 109.373 l 100.793 109.955 100.82 110.068 101.656 110.068 c 103.492
 110.068 l 106.023 110.068 106.383 109.01 106.66 106.619 c 107.105 106.619
 l h
106.605 110.623 m f
173.367 179.615 m 176.566 182.705 l 176.707 182.842 177.652 183.732 179.098
 183.76 c 179.098 184.318 l 178.625 184.26 178.07 184.26 177.57 184.26 c
 176.93 184.26 175.926 184.26 175.316 184.318 c 175.316 183.76 l 176.039
 183.732 176.148 183.342 176.148 183.178 c 176.148 182.896 175.957 182.705
 175.816 182.592 c 170.281 177.279 l 170.281 182.928 l 170.281 183.564 170.309
 183.76 171.672 183.76 c 172.09 183.76 l 172.09 184.318 l 171.477 184.26
 170.168 184.26 169.473 184.26 c 168.809 184.26 167.473 184.26 166.859 184.318
 c 166.859 183.76 l 167.277 183.76 l 168.641 183.76 168.695 183.564 168.695
 182.928 c 168.695 173.58 l 168.695 172.939 168.641 172.744 167.277 172.744
 c 166.859 172.744 l 166.859 172.189 l 167.473 172.244 168.809 172.244 169.473
 172.244 c 170.141 172.244 171.477 172.244 172.09 172.189 c 172.09 172.744
 l 171.672 172.744 l 170.309 172.744 170.281 172.939 170.281 173.58 c 170.281
 176.666 l 172.34 178.643 l 175.539 173.885 l 175.648 173.721 175.816 173.498
 175.816 173.275 c 175.816 172.744 175.121 172.744 174.758 172.744 c 174.758
 172.189 l 175.371 172.244 176.621 172.244 177.289 172.244 c 177.93 172.244
 178.598 172.217 179.348 172.189 c 179.348 172.744 l 178.375 172.744 178.016
 172.803 177.484 173.58 c h
173.367 179.615 m f
168.945 110.053 m 168.777 110.443 168.723 110.443 168.305 110.443 c 165.328
 110.443 l 165.328 109.889 l 165.746 109.889 l 167.109 109.889 167.137 109.693
 167.137 109.053 c 167.137 100.182 l 167.137 99.705 167.137 98.873 165.328
 98.873 c 165.328 98.314 l 165.941 98.346 166.801 98.373 167.387 98.373 
c 167.973 98.373 168.859 98.346 169.473 98.314 c 169.473 98.873 l 167.637
 98.873 167.637 99.705 167.637 100.182 c 167.637 109.748 l 167.664 109.748
 l 171.949 98.705 l 172.031 98.482 172.117 98.314 172.281 98.314 c 172.477
 98.314 172.531 98.455 172.617 98.65 c 176.984 109.889 l 176.984 99.705 
l 176.984 99.068 176.957 98.873 175.594 98.873 c 175.176 98.873 l 175.176
 98.314 l 175.816 98.373 177.039 98.373 177.734 98.373 c 178.402 98.373 
179.598 98.373 180.266 98.314 c 180.266 98.873 l 179.82 98.873 l 178.457
 98.873 178.43 99.068 178.43 99.705 c 178.43 109.053 l 178.43 109.693 178.457
 109.889 179.82 109.889 c 180.266 109.889 l 180.266 110.443 l 177.262 110.443
 l 176.789 110.443 176.789 110.416 176.676 110.111 c 172.781 100.096 l h
168.945 110.053 m f
0.850809 w
0 j
q 1 0 0 -1 0 226.912033 cm
110.453 113.457 m 219.355 113.457 l S Q
210.848 113.455 m 207.445 110.053 l 219.355 113.455 l 207.445 116.857 l
 h
210.848 113.455 m f*
q -1 0 0 1 0 226.912033 cm
-210.848 -113.457 m -207.445 -116.859 l -219.355 -113.457 l -207.445 -110.055
 l h
-210.848 -113.457 m S Q
q 1 0 0 -1 0 226.912033 cm
110.453 113.457 m 110.453 4.551 l S Q
110.453 213.85 m 113.855 210.447 l 110.453 222.361 l 107.047 210.447 l 
h
110.453 213.85 m f*
q 0 -1 -1 0 0 226.912033 cm
13.062 -110.453 m 16.465 -113.855 l 4.551 -110.453 l 16.465 -107.047 l 
h
13.062 -110.453 m S Q
q 1 0 0 -1 0 226.912033 cm
110.453 113.457 m 1.547 113.457 l S Q
10.055 113.455 m 13.461 116.857 l 1.547 113.455 l 13.461 110.053 l h
10.055 113.455 m f*
q 1 0 0 -1 0 226.912033 cm
10.055 113.457 m 13.461 110.055 l 1.547 113.457 l 13.461 116.859 l h
10.055 113.457 m S Q
q 1 0 0 -1 0 226.912033 cm
110.453 113.457 m 110.453 222.359 l S Q
110.453 13.06 m 107.047 16.463 l 110.453 4.553 l 113.855 16.463 l h
110.453 13.06 m f*
q 0 1 1 0 0 226.912033 cm
-213.852 110.453 m -210.449 107.047 l -222.359 110.453 l -210.449 113.855
 l h
-213.852 110.453 m S Q
114.773 167.92 m 114.773 163.58 l 110.453 163.58 l 110.453 163.006 l 115.352
 163.006 l 115.352 167.92 l h
114.773 167.92 m f
q 1 0 0 -1 0 226.912033 cm
107.047 33.48 m 113.855 33.48 l S Q
q 1 0 0 -1 0 226.912033 cm
107.047 87.934 m 113.855 87.934 l S Q
q 1 0 0 -1 0 226.912033 cm
107.047 84.527 m 113.855 84.527 l S Q
q 1 0 0 -1 0 226.912033 cm
107.047 30.078 m 113.855 30.078 l S Q
212.621 108.725 m 212.621 108.779 l 212.602 108.779 l 212.602 108.818 l
 212.586 108.834 l 212.586 108.853 l 212.566 108.853 l 212.566 108.873 l
 212.547 108.873 l 212.547 108.889 l 212.527 108.889 l 212.512 108.908 l
 212.457 108.908 l 212.457 108.928 l 212.383 108.928 l 211.961 108.928 210.637
 108.779 210.16 108.744 c 210.016 108.725 209.812 108.705 209.812 108.377
 c 209.812 108.154 209.977 108.154 210.254 108.154 c 211.117 108.154 211.152
 108.029 211.152 107.846 c 211.152 107.717 210.988 107.111 210.914 106.725
 c 209.406 100.775 l 209.188 99.857 209.113 99.564 209.113 98.939 c 209.113
 97.193 210.086 96.076 211.426 96.076 c 211.426 96.459 l 210.805 96.459 
210.215 96.955 210.215 98.314 c 210.215 98.662 210.215 98.994 210.508 100.15
 c 210.914 101.842 l 211.004 102.225 211.004 102.264 211.172 102.463 c 212.07
 103.658 212.895 103.932 213.375 103.932 c 214.035 103.932 214.531 103.381
 214.531 102.209 c 214.531 101.143 213.926 99.049 213.594 98.353 c 212.988
 97.123 212.145 96.459 211.426 96.459 c 211.426 96.076 l 213.594 96.076 
215.836 98.791 215.836 101.416 c 215.836 103.068 214.859 104.338 213.41 
104.338 c 212.566 104.338 211.812 103.807 211.262 103.236 c h
212.621 108.725 m f
220.387 101.639 m 220.387 101.842 l 220.367 101.857 l 220.367 101.912 l
 220.352 101.912 l 220.352 101.932 l 220.332 101.951 l 220.312 101.967 l
 220.297 101.967 l 220.277 101.986 l 220.203 101.986 l 220.203 102.006 l
 220 102.006 l 219.195 101.197 218.02 101.178 217.504 101.178 c 217.504 
100.721 l 217.797 100.721 218.645 100.721 219.359 101.088 c 219.359 94.568
 l 219.359 94.146 219.359 93.982 218.074 93.982 c 217.598 93.982 l 217.598
 93.521 l 217.816 93.541 219.395 93.576 219.875 93.576 c 220.258 93.576 
221.875 93.541 222.148 93.521 c 222.148 93.982 l 221.672 93.982 l 220.387
 93.982 220.387 94.146 220.387 94.568 c h
220.387 101.639 m f
122.492 220.713 m 122.492 220.768 l 122.473 220.768 l 122.473 220.803 l
 122.453 220.822 l 122.453 220.842 l 122.438 220.842 l 122.438 220.857 l
 122.418 220.857 l 122.418 220.877 l 122.398 220.877 l 122.379 220.896 l
 122.324 220.896 l 122.324 220.912 l 122.254 220.912 l 121.828 220.912 120.508
 220.768 120.031 220.728 c 119.883 220.713 119.68 220.693 119.68 220.361
 c 119.68 220.143 119.848 220.143 120.121 220.143 c 120.984 220.143 121.023
 220.014 121.023 219.83 c 121.023 219.701 120.855 219.096 120.781 218.709
 c 119.277 212.764 l 119.059 211.842 118.984 211.549 118.984 210.924 c 118.984
 209.182 119.957 208.06 121.297 208.06 c 121.297 208.447 l 120.672 208.447
 120.086 208.943 120.086 210.303 c 120.086 210.65 120.086 210.982 120.379
 212.139 c 120.781 213.826 l 120.875 214.213 120.875 214.248 121.039 214.451
 c 121.941 215.643 122.766 215.92 123.242 215.92 c 123.906 215.92 124.398
 215.369 124.398 214.193 c 124.398 213.131 123.793 211.037 123.465 210.338
 c 122.859 209.107 122.012 208.447 121.297 208.447 c 121.297 208.06 l 123.465
 208.06 125.703 210.779 125.703 213.404 c 125.703 215.057 124.73 216.322
 123.281 216.322 c 122.438 216.322 121.684 215.791 121.133 215.221 c h
122.492 220.713 m f
132.441 207.842 m 132 207.842 l 131.965 207.549 131.836 206.795 131.672
 206.666 c 131.562 206.592 130.57 206.592 130.402 206.592 c 128.055 206.592
 l 129.395 207.787 129.836 208.135 130.605 208.74 c 131.543 209.494 132.441
 210.283 132.441 211.494 c 132.441 213.037 131.082 213.99 129.449 213.99
 c 127.852 213.99 126.785 212.873 126.785 211.697 c 126.785 211.053 127.336
 210.982 127.465 210.982 c 127.762 210.982 128.129 211.201 128.129 211.658
 c 128.129 211.9 128.055 212.338 127.375 212.338 c 127.777 213.24 128.641
 213.533 129.246 213.533 c 130.531 213.533 131.195 212.541 131.195 211.494
 c 131.195 210.393 130.402 209.514 130 209.053 c 126.914 206.006 l 126.785
 205.896 126.785 205.877 126.785 205.51 c 132.055 205.51 l h
132.441 207.842 m f
0.608025 g
405.941 113.455 m 373.691 57.6 l 309.195 57.6 l 276.945 113.455 l 309.195
 169.314 l 373.691 169.314 l h
405.941 113.455 m f
0.568627 0.568627 1 rg
341.441 113.455 m 405.441 113.455 l 389.441 85.744 l h
341.441 113.455 m f
0 g
1.6 w
1 j
q 1 0 0 -1 0 226.912033 cm
341.441 113.457 m 405.441 113.457 l 389.441 141.168 l h
341.441 113.457 m S Q
0.8 w
0 j
q 1 0 0 -1 0 226.912033 cm
341.441 1.457 m 341.441 225.457 l S Q
341.441 217.455 m 344.645 214.256 l 341.441 225.455 l 338.242 214.256 l
 h
341.441 217.455 m f*
0.8 w
q 0 -1 -1 0 0 226.912033 cm
9.457 -341.441 m 12.656 -344.645 l 1.457 -341.441 l 12.656 -338.242 l h
9.457 -341.441 m S Q
341.441 9.455 m 338.242 12.654 l 341.441 1.455 l 344.645 12.654 l h
341.441 9.455 m f*
q 0 1 1 0 0 226.912033 cm
-217.457 341.441 m -214.258 338.242 l -225.457 341.441 l -214.258 344.645
 l h
-217.457 341.441 m S Q
0.8 w
q 1 0 0 -1 0 226.912033 cm
438.438 57.457 m 244.449 169.457 l S Q
431.508 165.455 m 430.34 161.084 l 438.438 169.455 l 427.137 166.627 l 
h
431.508 165.455 m f*
0.69282 w
q -1 -0.57735 -0.57735 1 0 226.912033 cm
-297.019 -232.941 m -294.25 -235.714 l -303.949 -232.942 l -294.248 -230.169
 l h
-297.019 -232.941 m S Q
251.375 61.455 m 252.547 65.826 l 244.449 57.455 l 255.746 60.283 l h
251.375 61.455 m f*
q 1 0.57735 0.57735 -1 0 226.912033 cm
116.886 232.941 m 119.658 230.17 l 109.96 232.942 l 119.657 235.713 l h
116.886 232.941 m S Q
0.8 w
q 1 0 0 -1 0 226.912033 cm
244.449 57.457 m 438.438 169.457 l S Q
251.375 165.455 m 255.746 166.627 l 244.449 169.455 l 252.547 161.084 l
 h
251.375 165.455 m f*
0.69282 w
q 1 -0.57735 -0.57735 -1 0 226.912033 cm
215.143 -62.756 m 217.914 -65.527 l 208.217 -62.757 l 217.915 -59.985 l
 h
215.143 -62.756 m S Q
431.508 61.455 m 427.137 60.283 l 438.438 57.455 l 430.34 65.826 l h
431.508 61.455 m f*
q -1 0.57735 0.57735 1 0 226.912033 cm
-395.276 62.756 m -392.505 59.984 l -402.205 62.756 l -392.507 65.528 l
 h
-395.276 62.756 m S Q
0.8 w
q 1 0 0 -1 0 226.912033 cm
341.441 61.457 m 345.441 61.457 l 345.441 57.457 l S Q
q 1 0 0 -1 0 226.912033 cm
339.422 84.25 m 343.422 84.25 l S Q
q 1 0 0 -1 0 226.912033 cm
339.469 86.719 m 343.469 86.719 l S Q
q 1 0 0 -1 0 226.912033 cm
339.445 28.25 m 343.445 28.25 l S Q
q 1 0 0 -1 0 226.912033 cm
339.488 30.719 m 343.488 30.719 l S Q
351.961 105.268 m 342.449 105.268 l 342.449 104.697 l 342.891 104.697 l
 344.285 104.697 344.34 104.498 344.34 103.834 c 344.34 94.291 l 344.34 
93.631 344.285 93.428 342.891 93.428 c 342.449 93.428 l 342.449 92.857 l
 343.094 92.932 344.508 92.932 345.223 92.932 c 345.977 92.932 347.645 92.932
 348.289 92.857 c 348.289 93.428 l 347.699 93.428 l 345.957 93.428 345.957
 93.666 345.957 94.307 c 345.957 103.963 l 345.957 104.568 345.992 104.697
 346.855 104.697 c 348.73 104.697 l 351.352 104.697 351.738 103.635 352.016
 101.174 c 352.473 101.174 l h
351.961 105.268 m f
389.395 77.115 m 389.395 77.135 l 389.375 77.154 l 389.375 77.17 l 389.359
 77.189 l 389.359 77.225 l 389.34 77.244 l 389.32 77.279 l 389.301 77.299
 l 389.301 77.338 l 389.266 77.373 l 389.266 77.393 l 389.246 77.408 l 389.23
 77.428 l 389.211 77.428 l 389.191 77.447 l 389.191 77.463 l 389.176 77.463
 l 389.156 77.482 l 389.137 77.482 l 389.121 77.502 l 389.062 77.502 l 389.027
 77.521 l 385.668 77.521 l 385.668 76.951 l 386.109 76.951 l 387.504 76.951
 387.539 76.748 387.539 76.107 c 387.539 66.982 l 387.539 66.486 387.539
 65.627 385.668 65.627 c 385.668 65.057 l 386.312 65.092 387.211 65.131 
387.797 65.131 c 388.402 65.131 389.301 65.092 389.945 65.057 c 389.945 
65.627 l 388.055 65.627 388.055 66.486 388.055 66.982 c 388.055 76.803 l
 388.074 76.803 l 392.477 65.459 l 392.57 65.221 392.66 65.057 392.844 65.057
 c 393.047 65.057 393.102 65.201 393.176 65.404 c 397.672 76.951 l 397.691
 76.951 l 397.691 66.486 l 397.691 65.826 397.656 65.627 396.242 65.627 
c 395.801 65.627 l 395.801 65.057 l 396.48 65.131 397.727 65.131 398.445
 65.131 c 399.141 65.131 400.371 65.131 401.051 65.057 c 401.051 65.627 
l 400.609 65.627 l 399.195 65.627 399.16 65.826 399.16 66.486 c 399.16 76.107
 l 399.16 76.748 399.195 76.951 400.609 76.951 c 401.051 76.951 l 401.051
 77.521 l 397.965 77.521 l 397.488 77.521 397.488 77.502 397.359 77.17 c
 393.359 66.908 l h
389.395 77.115 m f
413.641 114.865 m 416.926 118.021 l 417.074 118.17 418.047 119.088 419.535
 119.103 c 419.535 119.674 l 419.055 119.619 418.469 119.619 417.973 119.619
 c 417.312 119.619 416.266 119.619 415.66 119.674 c 415.66 119.103 l 416.375
 119.088 416.488 118.666 416.488 118.498 c 416.488 118.205 416.305 118.041
 416.176 117.912 c 410.445 112.459 l 410.445 118.26 l 410.445 118.904 410.484
 119.103 411.898 119.103 c 412.34 119.103 l 412.34 119.674 l 411.695 119.619
 410.336 119.619 409.641 119.619 c 408.941 119.619 407.582 119.619 406.941
 119.674 c 406.941 119.103 l 407.383 119.103 l 408.777 119.103 408.832 118.904
 408.832 118.26 c 408.832 108.643 l 408.832 107.982 408.777 107.779 407.383
 107.779 c 406.941 107.779 l 406.941 107.209 l 407.582 107.283 408.941 107.283
 409.621 107.283 c 410.32 107.283 411.695 107.283 412.34 107.209 c 412.34
 107.779 l 411.898 107.779 l 410.484 107.779 410.445 107.982 410.445 108.643
 c 410.445 111.834 l 412.559 113.838 l 415.879 108.955 l 415.973 108.787
 416.137 108.549 416.137 108.33 c 416.137 107.779 415.441 107.779 415.074
 107.779 c 415.074 107.209 l 415.715 107.283 416.98 107.283 417.68 107.283
 c 418.32 107.283 419.02 107.264 419.789 107.209 c 419.789 107.779 l 418.801
 107.779 418.414 107.853 417.863 108.658 c h
413.641 114.865 m f
445.16 56.775 m 445.16 56.834 l 445.141 56.834 l 445.141 56.869 l 445.125
 56.889 l 445.125 56.904 l 445.105 56.904 l 445.105 56.924 l 445.086 56.924
 l 445.086 56.943 l 445.066 56.943 l 445.051 56.959 l 444.996 56.959 l 444.996
 56.978 l 444.922 56.978 l 444.5 56.978 443.176 56.834 442.699 56.795 c 
442.555 56.775 442.352 56.76 442.352 56.428 c 442.352 56.209 442.516 56.209
 442.793 56.209 c 443.656 56.209 443.691 56.08 443.691 55.896 c 443.691 
55.768 443.527 55.162 443.453 54.775 c 441.945 48.826 l 441.727 47.908 441.652
 47.615 441.652 46.99 c 441.652 45.248 442.625 44.127 443.965 44.127 c 443.965
 44.514 l 443.344 44.514 442.754 45.01 442.754 46.365 c 442.754 46.717 442.754
 47.045 443.047 48.201 c 443.453 49.893 l 443.543 50.279 443.543 50.314 
443.711 50.518 c 444.609 51.709 445.434 51.986 445.914 51.986 c 446.574 
51.986 447.07 51.435 447.07 50.26 c 447.07 49.193 446.465 47.1 446.133 46.404
 c 445.527 45.174 444.684 44.514 443.965 44.514 c 443.965 44.127 l 446.133
 44.127 448.375 46.846 448.375 49.471 c 448.375 51.123 447.398 52.389 445.949
 52.389 c 445.105 52.389 444.352 51.857 443.801 51.287 c h
445.16 56.775 m f
452.926 49.689 m 452.926 49.893 l 452.906 49.912 l 452.906 49.967 l 452.891
 49.967 l 452.891 49.982 l 452.852 50.021 l 452.836 50.021 l 452.816 50.037
 l 452.742 50.037 l 452.742 50.057 l 452.539 50.057 l 451.734 49.248 450.559
 49.232 450.043 49.232 c 450.043 48.771 l 450.336 48.771 451.184 48.771 
451.898 49.139 c 451.898 42.623 l 451.898 42.197 451.898 42.033 450.613 
42.033 c 450.137 42.033 l 450.137 41.576 l 450.355 41.592 451.934 41.631
 452.414 41.631 c 452.797 41.631 454.414 41.592 454.688 41.576 c 454.688
 42.033 l 454.211 42.033 l 452.926 42.033 452.926 42.197 452.926 42.623 
c h
452.926 49.689 m f
353.09 224.865 m 353.09 224.92 l 353.074 224.92 l 353.074 224.959 l 353.055
 224.978 l 353.055 224.994 l 353.035 224.994 l 353.035 225.014 l 353.02 
225.014 l 353.02 225.033 l 353 225.033 l 352.98 225.049 l 352.926 225.049
 l 352.926 225.068 l 352.852 225.068 l 352.43 225.068 351.109 224.92 350.633
 224.885 c 350.484 224.865 350.281 224.85 350.281 224.518 c 350.281 224.299
 350.449 224.299 350.723 224.299 c 351.586 224.299 351.621 224.17 351.621
 223.986 c 351.621 223.857 351.457 223.252 351.383 222.865 c 349.879 216.916
 l 349.656 215.998 349.586 215.705 349.586 215.08 c 349.586 213.338 350.559
 212.217 351.898 212.217 c 351.898 212.603 l 351.273 212.603 350.688 213.1
 350.688 214.455 c 350.688 214.807 350.688 215.135 350.98 216.291 c 351.383
 217.982 l 351.477 218.365 351.477 218.404 351.641 218.607 c 352.539 219.799
 353.367 220.076 353.844 220.076 c 354.504 220.076 355 219.525 355 218.35
 c 355 217.283 354.395 215.189 354.066 214.494 c 353.457 213.264 352.613
 212.603 351.898 212.603 c 351.898 212.217 l 354.066 212.217 356.305 214.935
 356.305 217.56 c 356.305 219.213 355.332 220.478 353.883 220.478 c 353.035
 220.478 352.285 219.947 351.734 219.377 c h
353.09 224.865 m f
363.043 211.994 m 362.602 211.994 l 362.566 211.701 362.438 210.951 362.273
 210.822 c 362.16 210.748 361.172 210.748 361.004 210.748 c 358.656 210.748
 l 359.996 211.939 360.438 212.291 361.207 212.896 c 362.145 213.65 363.043
 214.439 363.043 215.65 c 363.043 217.193 361.684 218.146 360.051 218.146
 c 358.453 218.146 357.387 217.025 357.387 215.853 c 357.387 215.209 357.938
 215.135 358.066 215.135 c 358.359 215.135 358.727 215.357 358.727 215.814
 c 358.727 216.053 358.656 216.494 357.977 216.494 c 358.379 217.393 359.242
 217.689 359.848 217.689 c 361.133 217.689 361.793 216.697 361.793 215.65
 c 361.793 214.549 361.004 213.666 360.602 213.209 c 357.516 210.158 l 357.387
 210.049 357.387 210.033 357.387 209.666 c 362.656 209.666 l h
363.043 211.994 m f
Q Q
showpage
%%Trailer
end restore
%%EOF
