<?xml version="1.0" encoding="utf-8"  standalone="no"?>
<!DOCTYPE svg PUBLIC "-//W3C//DTD SVG 1.1//EN"
 "http://www.w3.org/Graphics/SVG/1.1/DTD/svg11.dtd">
<svg 
 width="600" height="480"
 viewBox="0 0 600 480"
 xmlns="http://www.w3.org/2000/svg"
 xmlns:xlink="http://www.w3.org/1999/xlink"
>

<title>Gnuplot</title>
<desc>Produced by GNUPLOT 5.0 patchlevel 3 </desc>

<g id="gnuplot_canvas">

<rect x="0" y="0" width="600" height="480" fill="none"/>
<defs>

	<circle id='gpDot' r='0.5' stroke-width='0.5'/>
	<path id='gpPt0' stroke-width='0.157' stroke='currentColor' d='M-1,0 h2 M0,-1 v2'/>
	<path id='gpPt1' stroke-width='0.157' stroke='currentColor' d='M-1,-1 L1,1 M1,-1 L-1,1'/>
	<path id='gpPt2' stroke-width='0.157' stroke='currentColor' d='M-1,0 L1,0 M0,-1 L0,1 M-1,-1 L1,1 M-1,1 L1,-1'/>
	<rect id='gpPt3' stroke-width='0.157' stroke='currentColor' x='-1' y='-1' width='2' height='2'/>
	<rect id='gpPt4' stroke-width='0.157' stroke='currentColor' fill='currentColor' x='-1' y='-1' width='2' height='2'/>
	<circle id='gpPt5' stroke-width='0.157' stroke='currentColor' cx='0' cy='0' r='1'/>
	<use xlink:href='#gpPt5' id='gpPt6' fill='currentColor' stroke='none'/>
	<path id='gpPt7' stroke-width='0.157' stroke='currentColor' d='M0,-1.33 L-1.33,0.67 L1.33,0.67 z'/>
	<use xlink:href='#gpPt7' id='gpPt8' fill='currentColor' stroke='none'/>
	<use xlink:href='#gpPt7' id='gpPt9' stroke='currentColor' transform='rotate(180)'/>
	<use xlink:href='#gpPt9' id='gpPt10' fill='currentColor' stroke='none'/>
	<use xlink:href='#gpPt3' id='gpPt11' stroke='currentColor' transform='rotate(45)'/>
	<use xlink:href='#gpPt11' id='gpPt12' fill='currentColor' stroke='none'/>
	<path id='gpPt13' stroke-width='0.157' stroke='currentColor' d='M0,1.330 L1.265,0.411 L0.782,-1.067 L-0.782,-1.076 L-1.265,0.411 z'/>
	<use xlink:href='#gpPt13' id='gpPt14' fill='currentColor' stroke='none'/>
	<filter id='textbox' filterUnits='objectBoundingBox' x='0' y='0' height='1' width='1'>
	  <feFlood flood-color='white' flood-opacity='1' result='bgnd'/>
	  <feComposite in='SourceGraphic' in2='bgnd' operator='atop'/>
	</filter>
	<filter id='greybox' filterUnits='objectBoundingBox' x='0' y='0' height='1' width='1'>
	  <feFlood flood-color='lightgrey' flood-opacity='1' result='grey'/>
	  <feComposite in='SourceGraphic' in2='grey' operator='atop'/>
	</filter>
</defs>
<g fill="none" color="white" stroke="currentColor" stroke-width="1.00" stroke-linecap="butt" stroke-linejoin="miter">
</g>
<g fill="none" color="black" stroke="currentColor" stroke-width="1.00" stroke-linecap="butt" stroke-linejoin="miter">
	<path stroke='black'  d='M78.5,398.8 L91.2,398.8 M564.5,398.8 L551.8,398.8  '/>	<g transform="translate(66.7,405.2)" stroke="none" fill="black" font-family="Arial" font-size="17.00"  text-anchor="end">
		<text><tspan font-family="Arial" >-2</tspan></text>
	</g>
</g>
<g fill="none" color="black" stroke="currentColor" stroke-width="1.00" stroke-linecap="butt" stroke-linejoin="miter">
	<path stroke='black'  d='M78.5,336.3 L91.2,336.3 M564.5,336.3 L551.8,336.3  '/>	<g transform="translate(66.7,342.7)" stroke="none" fill="black" font-family="Arial" font-size="17.00"  text-anchor="end">
		<text><tspan font-family="Arial" >-1</tspan></text>
	</g>
</g>
<g fill="none" color="black" stroke="currentColor" stroke-width="1.00" stroke-linecap="butt" stroke-linejoin="miter">
	<path stroke='black'  d='M78.5,273.8 L91.2,273.8 M564.5,273.8 L551.8,273.8  '/>	<g transform="translate(66.7,280.2)" stroke="none" fill="black" font-family="Arial" font-size="17.00"  text-anchor="end">
		<text><tspan font-family="Arial" > 0</tspan></text>
	</g>
</g>
<g fill="none" color="black" stroke="currentColor" stroke-width="1.00" stroke-linecap="butt" stroke-linejoin="miter">
	<path stroke='black'  d='M78.5,211.2 L91.2,211.2 M564.5,211.2 L551.8,211.2  '/>	<g transform="translate(66.7,217.6)" stroke="none" fill="black" font-family="Arial" font-size="17.00"  text-anchor="end">
		<text><tspan font-family="Arial" > 1</tspan></text>
	</g>
</g>
<g fill="none" color="black" stroke="currentColor" stroke-width="1.00" stroke-linecap="butt" stroke-linejoin="miter">
	<path stroke='black'  d='M78.5,148.7 L91.2,148.7 M564.5,148.7 L551.8,148.7  '/>	<g transform="translate(66.7,155.1)" stroke="none" fill="black" font-family="Arial" font-size="17.00"  text-anchor="end">
		<text><tspan font-family="Arial" > 2</tspan></text>
	</g>
</g>
<g fill="none" color="black" stroke="currentColor" stroke-width="1.00" stroke-linecap="butt" stroke-linejoin="miter">
	<path stroke='black'  d='M78.5,86.2 L91.2,86.2 M564.5,86.2 L551.8,86.2  '/>	<g transform="translate(66.7,92.6)" stroke="none" fill="black" font-family="Arial" font-size="17.00"  text-anchor="end">
		<text><tspan font-family="Arial" > 3</tspan></text>
	</g>
</g>
<g fill="none" color="black" stroke="currentColor" stroke-width="1.00" stroke-linecap="butt" stroke-linejoin="miter">
	<path stroke='black'  d='M78.5,23.7 L91.2,23.7 M564.5,23.7 L551.8,23.7  '/>	<g transform="translate(66.7,30.1)" stroke="none" fill="black" font-family="Arial" font-size="17.00"  text-anchor="end">
		<text><tspan font-family="Arial" > 4</tspan></text>
	</g>
</g>
<g fill="none" color="black" stroke="currentColor" stroke-width="1.00" stroke-linecap="butt" stroke-linejoin="miter">
	<path stroke='black'  d='M78.5,398.8 L78.5,386.1 M78.5,23.7 L78.5,36.4  '/>	<g transform="translate(78.5,430.6)" stroke="none" fill="black" font-family="Arial" font-size="17.00"  text-anchor="middle">
		<text><tspan font-family="Arial" > 0</tspan></text>
	</g>
</g>
<g fill="none" color="black" stroke="currentColor" stroke-width="1.00" stroke-linecap="butt" stroke-linejoin="miter">
	<path stroke='black'  d='M147.9,398.8 L147.9,386.1 M147.9,23.7 L147.9,36.4  '/>	<g transform="translate(147.9,430.6)" stroke="none" fill="black" font-family="Arial" font-size="17.00"  text-anchor="middle">
		<text><tspan font-family="Arial" > 10</tspan></text>
	</g>
</g>
<g fill="none" color="black" stroke="currentColor" stroke-width="1.00" stroke-linecap="butt" stroke-linejoin="miter">
	<path stroke='black'  d='M217.4,398.8 L217.4,386.1 M217.4,23.7 L217.4,36.4  '/>	<g transform="translate(217.4,430.6)" stroke="none" fill="black" font-family="Arial" font-size="17.00"  text-anchor="middle">
		<text><tspan font-family="Arial" > 20</tspan></text>
	</g>
</g>
<g fill="none" color="black" stroke="currentColor" stroke-width="1.00" stroke-linecap="butt" stroke-linejoin="miter">
	<path stroke='black'  d='M286.8,398.8 L286.8,386.1 M286.8,23.7 L286.8,36.4  '/>	<g transform="translate(286.8,430.6)" stroke="none" fill="black" font-family="Arial" font-size="17.00"  text-anchor="middle">
		<text><tspan font-family="Arial" > 30</tspan></text>
	</g>
</g>
<g fill="none" color="black" stroke="currentColor" stroke-width="1.00" stroke-linecap="butt" stroke-linejoin="miter">
	<path stroke='black'  d='M356.2,398.8 L356.2,386.1 M356.2,23.7 L356.2,36.4  '/>	<g transform="translate(356.2,430.6)" stroke="none" fill="black" font-family="Arial" font-size="17.00"  text-anchor="middle">
		<text><tspan font-family="Arial" > 40</tspan></text>
	</g>
</g>
<g fill="none" color="black" stroke="currentColor" stroke-width="1.00" stroke-linecap="butt" stroke-linejoin="miter">
	<path stroke='black'  d='M425.6,398.8 L425.6,386.1 M425.6,23.7 L425.6,36.4  '/>	<g transform="translate(425.6,430.6)" stroke="none" fill="black" font-family="Arial" font-size="17.00"  text-anchor="middle">
		<text><tspan font-family="Arial" > 50</tspan></text>
	</g>
</g>
<g fill="none" color="black" stroke="currentColor" stroke-width="1.00" stroke-linecap="butt" stroke-linejoin="miter">
	<path stroke='black'  d='M495.1,398.8 L495.1,386.1 M495.1,23.7 L495.1,36.4  '/>	<g transform="translate(495.1,430.6)" stroke="none" fill="black" font-family="Arial" font-size="17.00"  text-anchor="middle">
		<text><tspan font-family="Arial" > 60</tspan></text>
	</g>
</g>
<g fill="none" color="black" stroke="currentColor" stroke-width="1.00" stroke-linecap="butt" stroke-linejoin="miter">
	<path stroke='black'  d='M564.5,398.8 L564.5,386.1 M564.5,23.7 L564.5,36.4  '/>	<g transform="translate(564.5,430.6)" stroke="none" fill="black" font-family="Arial" font-size="17.00"  text-anchor="middle">
		<text><tspan font-family="Arial" > 70</tspan></text>
	</g>
</g>
<g fill="none" color="black" stroke="currentColor" stroke-width="1.00" stroke-linecap="butt" stroke-linejoin="miter">
</g>
<g fill="none" color="black" stroke="currentColor" stroke-width="1.00" stroke-linecap="butt" stroke-linejoin="miter">
	<path stroke='black'  d='M78.5,23.7 L78.5,398.8 L564.5,398.8 L564.5,23.7 L78.5,23.7 Z  '/></g>
<g fill="none" color="black" stroke="currentColor" stroke-width="1.00" stroke-linecap="butt" stroke-linejoin="miter">
	<g transform="translate(25.0,211.3) rotate(270)" stroke="none" fill="black" font-family="Arial" font-size="17.00"  text-anchor="middle">
		<text><tspan font-family="Arial" >Full bandgap width</tspan></text>
	</g>
</g>
<g fill="none" color="black" stroke="currentColor" stroke-width="1.00" stroke-linecap="butt" stroke-linejoin="miter">
	<g transform="translate(321.5,468.7)" stroke="none" fill="black" font-family="Arial" font-size="17.00"  text-anchor="middle">
		<text><tspan font-family="Arial" >Step</tspan></text>
	</g>
</g>
<g fill="none" color="black" stroke="currentColor" stroke-width="1.00" stroke-linecap="butt" stroke-linejoin="miter">
</g>
	<g id="gnuplot_plot_1" ><title>Proposed method</title>
<g fill="none" color="black" stroke="currentColor" stroke-width="1.00" stroke-linecap="butt" stroke-linejoin="miter">
	<g transform="translate(469.2,55.5)" stroke="none" fill="black" font-family="Arial" font-size="17.00"  text-anchor="end">
		<text><tspan font-family="Arial" >Proposed method</tspan></text>
	</g>
</g>
<g fill="none" color="black" stroke="currentColor" stroke-width="1.00" stroke-linecap="butt" stroke-linejoin="miter">
	<path stroke='rgb(148,   0, 211)'  d='M481.0,49.1 L540.9,49.1 M78.5,363.5 L85.4,350.6 L92.4,342.2 L99.3,305.4 L106.3,268.0 L113.2,241.2
		L120.2,220.0 L127.1,215.2 L134.0,209.9 L141.0,205.1 L147.9,202.1 L154.9,200.8 L161.8,192.7 L168.8,190.0
		L175.7,188.9 L182.6,179.7 L189.6,175.5 L196.5,173.8 L203.5,164.5 L210.4,159.8 L217.4,152.2 L224.3,145.4
		L231.2,133.5 L238.2,119.0 L245.1,107.1 L252.1,97.8 L259.0,95.5 L266.0,93.2 L272.9,90.3 L279.8,88.0
		L286.8,77.7 L293.7,80.3 L300.7,71.3 L307.6,70.2 L314.6,67.5 L321.5,64.2 L328.4,159.6 L335.4,59.9
		L342.3,59.6 L349.3,58.2 L356.2,56.7 L363.2,56.1 L370.1,54.9 L377.0,53.7 L384.0,54.5 L390.9,54.5
		L397.9,55.3 L404.8,55.3 L411.8,53.5 L418.7,54.4 L425.6,52.9 L432.6,51.8 L439.5,53.2 L446.5,50.8
		L453.4,47.7 L460.4,44.7 L467.3,43.4 L474.2,39.0 L481.2,34.5 L488.1,31.8 L495.1,33.3 L502.0,31.0
		L509.0,31.8 L515.9,32.2 L522.8,35.5 L529.8,31.1 L536.7,34.6 L543.7,31.8 L550.6,32.6  '/>	<use xlink:href='#gpPt0' transform='translate(78.5,363.5) scale(6.35)' color='rgb(148,   0, 211)'/>
	<use xlink:href='#gpPt0' transform='translate(85.4,350.6) scale(6.35)' color='rgb(148,   0, 211)'/>
	<use xlink:href='#gpPt0' transform='translate(92.4,342.2) scale(6.35)' color='rgb(148,   0, 211)'/>
	<use xlink:href='#gpPt0' transform='translate(99.3,305.4) scale(6.35)' color='rgb(148,   0, 211)'/>
	<use xlink:href='#gpPt0' transform='translate(106.3,268.0) scale(6.35)' color='rgb(148,   0, 211)'/>
	<use xlink:href='#gpPt0' transform='translate(113.2,241.2) scale(6.35)' color='rgb(148,   0, 211)'/>
	<use xlink:href='#gpPt0' transform='translate(120.2,220.0) scale(6.35)' color='rgb(148,   0, 211)'/>
	<use xlink:href='#gpPt0' transform='translate(127.1,215.2) scale(6.35)' color='rgb(148,   0, 211)'/>
	<use xlink:href='#gpPt0' transform='translate(134.0,209.9) scale(6.35)' color='rgb(148,   0, 211)'/>
	<use xlink:href='#gpPt0' transform='translate(141.0,205.1) scale(6.35)' color='rgb(148,   0, 211)'/>
	<use xlink:href='#gpPt0' transform='translate(147.9,202.1) scale(6.35)' color='rgb(148,   0, 211)'/>
	<use xlink:href='#gpPt0' transform='translate(154.9,200.8) scale(6.35)' color='rgb(148,   0, 211)'/>
	<use xlink:href='#gpPt0' transform='translate(161.8,192.7) scale(6.35)' color='rgb(148,   0, 211)'/>
	<use xlink:href='#gpPt0' transform='translate(168.8,190.0) scale(6.35)' color='rgb(148,   0, 211)'/>
	<use xlink:href='#gpPt0' transform='translate(175.7,188.9) scale(6.35)' color='rgb(148,   0, 211)'/>
	<use xlink:href='#gpPt0' transform='translate(182.6,179.7) scale(6.35)' color='rgb(148,   0, 211)'/>
	<use xlink:href='#gpPt0' transform='translate(189.6,175.5) scale(6.35)' color='rgb(148,   0, 211)'/>
	<use xlink:href='#gpPt0' transform='translate(196.5,173.8) scale(6.35)' color='rgb(148,   0, 211)'/>
	<use xlink:href='#gpPt0' transform='translate(203.5,164.5) scale(6.35)' color='rgb(148,   0, 211)'/>
	<use xlink:href='#gpPt0' transform='translate(210.4,159.8) scale(6.35)' color='rgb(148,   0, 211)'/>
	<use xlink:href='#gpPt0' transform='translate(217.4,152.2) scale(6.35)' color='rgb(148,   0, 211)'/>
	<use xlink:href='#gpPt0' transform='translate(224.3,145.4) scale(6.35)' color='rgb(148,   0, 211)'/>
	<use xlink:href='#gpPt0' transform='translate(231.2,133.5) scale(6.35)' color='rgb(148,   0, 211)'/>
	<use xlink:href='#gpPt0' transform='translate(238.2,119.0) scale(6.35)' color='rgb(148,   0, 211)'/>
	<use xlink:href='#gpPt0' transform='translate(245.1,107.1) scale(6.35)' color='rgb(148,   0, 211)'/>
	<use xlink:href='#gpPt0' transform='translate(252.1,97.8) scale(6.35)' color='rgb(148,   0, 211)'/>
	<use xlink:href='#gpPt0' transform='translate(259.0,95.5) scale(6.35)' color='rgb(148,   0, 211)'/>
	<use xlink:href='#gpPt0' transform='translate(266.0,93.2) scale(6.35)' color='rgb(148,   0, 211)'/>
	<use xlink:href='#gpPt0' transform='translate(272.9,90.3) scale(6.35)' color='rgb(148,   0, 211)'/>
	<use xlink:href='#gpPt0' transform='translate(279.8,88.0) scale(6.35)' color='rgb(148,   0, 211)'/>
	<use xlink:href='#gpPt0' transform='translate(286.8,77.7) scale(6.35)' color='rgb(148,   0, 211)'/>
	<use xlink:href='#gpPt0' transform='translate(293.7,80.3) scale(6.35)' color='rgb(148,   0, 211)'/>
	<use xlink:href='#gpPt0' transform='translate(300.7,71.3) scale(6.35)' color='rgb(148,   0, 211)'/>
	<use xlink:href='#gpPt0' transform='translate(307.6,70.2) scale(6.35)' color='rgb(148,   0, 211)'/>
	<use xlink:href='#gpPt0' transform='translate(314.6,67.5) scale(6.35)' color='rgb(148,   0, 211)'/>
	<use xlink:href='#gpPt0' transform='translate(321.5,64.2) scale(6.35)' color='rgb(148,   0, 211)'/>
	<use xlink:href='#gpPt0' transform='translate(328.4,159.6) scale(6.35)' color='rgb(148,   0, 211)'/>
	<use xlink:href='#gpPt0' transform='translate(335.4,59.9) scale(6.35)' color='rgb(148,   0, 211)'/>
	<use xlink:href='#gpPt0' transform='translate(342.3,59.6) scale(6.35)' color='rgb(148,   0, 211)'/>
	<use xlink:href='#gpPt0' transform='translate(349.3,58.2) scale(6.35)' color='rgb(148,   0, 211)'/>
	<use xlink:href='#gpPt0' transform='translate(356.2,56.7) scale(6.35)' color='rgb(148,   0, 211)'/>
	<use xlink:href='#gpPt0' transform='translate(363.2,56.1) scale(6.35)' color='rgb(148,   0, 211)'/>
	<use xlink:href='#gpPt0' transform='translate(370.1,54.9) scale(6.35)' color='rgb(148,   0, 211)'/>
	<use xlink:href='#gpPt0' transform='translate(377.0,53.7) scale(6.35)' color='rgb(148,   0, 211)'/>
	<use xlink:href='#gpPt0' transform='translate(384.0,54.5) scale(6.35)' color='rgb(148,   0, 211)'/>
	<use xlink:href='#gpPt0' transform='translate(390.9,54.5) scale(6.35)' color='rgb(148,   0, 211)'/>
	<use xlink:href='#gpPt0' transform='translate(397.9,55.3) scale(6.35)' color='rgb(148,   0, 211)'/>
	<use xlink:href='#gpPt0' transform='translate(404.8,55.3) scale(6.35)' color='rgb(148,   0, 211)'/>
	<use xlink:href='#gpPt0' transform='translate(411.8,53.5) scale(6.35)' color='rgb(148,   0, 211)'/>
	<use xlink:href='#gpPt0' transform='translate(418.7,54.4) scale(6.35)' color='rgb(148,   0, 211)'/>
	<use xlink:href='#gpPt0' transform='translate(425.6,52.9) scale(6.35)' color='rgb(148,   0, 211)'/>
	<use xlink:href='#gpPt0' transform='translate(432.6,51.8) scale(6.35)' color='rgb(148,   0, 211)'/>
	<use xlink:href='#gpPt0' transform='translate(439.5,53.2) scale(6.35)' color='rgb(148,   0, 211)'/>
	<use xlink:href='#gpPt0' transform='translate(446.5,50.8) scale(6.35)' color='rgb(148,   0, 211)'/>
	<use xlink:href='#gpPt0' transform='translate(453.4,47.7) scale(6.35)' color='rgb(148,   0, 211)'/>
	<use xlink:href='#gpPt0' transform='translate(460.4,44.7) scale(6.35)' color='rgb(148,   0, 211)'/>
	<use xlink:href='#gpPt0' transform='translate(467.3,43.4) scale(6.35)' color='rgb(148,   0, 211)'/>
	<use xlink:href='#gpPt0' transform='translate(474.2,39.0) scale(6.35)' color='rgb(148,   0, 211)'/>
	<use xlink:href='#gpPt0' transform='translate(481.2,34.5) scale(6.35)' color='rgb(148,   0, 211)'/>
	<use xlink:href='#gpPt0' transform='translate(488.1,31.8) scale(6.35)' color='rgb(148,   0, 211)'/>
	<use xlink:href='#gpPt0' transform='translate(495.1,33.3) scale(6.35)' color='rgb(148,   0, 211)'/>
	<use xlink:href='#gpPt0' transform='translate(502.0,31.0) scale(6.35)' color='rgb(148,   0, 211)'/>
	<use xlink:href='#gpPt0' transform='translate(509.0,31.8) scale(6.35)' color='rgb(148,   0, 211)'/>
	<use xlink:href='#gpPt0' transform='translate(515.9,32.2) scale(6.35)' color='rgb(148,   0, 211)'/>
	<use xlink:href='#gpPt0' transform='translate(522.8,35.5) scale(6.35)' color='rgb(148,   0, 211)'/>
	<use xlink:href='#gpPt0' transform='translate(529.8,31.1) scale(6.35)' color='rgb(148,   0, 211)'/>
	<use xlink:href='#gpPt0' transform='translate(536.7,34.6) scale(6.35)' color='rgb(148,   0, 211)'/>
	<use xlink:href='#gpPt0' transform='translate(543.7,31.8) scale(6.35)' color='rgb(148,   0, 211)'/>
	<use xlink:href='#gpPt0' transform='translate(550.6,32.6) scale(6.35)' color='rgb(148,   0, 211)'/>
	<use xlink:href='#gpPt0' transform='translate(510.9,49.1) scale(6.35)' color='rgb(148,   0, 211)'/>
</g>
	</g>
	<g id="gnuplot_plot_2" ><title>Conventional method</title>
<g fill="none" color="black" stroke="currentColor" stroke-width="1.00" stroke-linecap="butt" stroke-linejoin="miter">
	<g transform="translate(469.2,80.9)" stroke="none" fill="black" font-family="Arial" font-size="17.00"  text-anchor="end">
		<text><tspan font-family="Arial" >Conventional method</tspan></text>
	</g>
</g>
<g fill="none" color="black" stroke="currentColor" stroke-width="1.00" stroke-linecap="butt" stroke-linejoin="miter">
	<path stroke='rgb(  0, 158, 115)'  d='M481.0,74.5 L540.9,74.5 M78.5,363.5 L85.4,350.6 L92.4,342.2 L99.3,305.4 L106.3,268.0 L113.2,241.2
		L120.2,220.0 L127.1,215.3 L134.0,209.8 L141.0,205.1 L147.9,202.1 L154.9,200.3 L161.8,192.7 L168.8,189.6
		L175.7,188.3 L182.6,179.5 L189.6,176.2 L196.5,173.1 L203.5,163.8 L210.4,159.0 L217.4,151.4 L224.3,145.5
		L231.2,133.5 L238.2,118.4 L245.1,106.3 L252.1,97.6 L259.0,95.5 L266.0,93.1 L272.9,90.8 L279.8,87.6
		L286.8,77.1 L293.7,78.7 L300.7,70.4 L307.6,67.5 L314.6,65.2 L321.5,65.6 L328.4,60.3 L335.4,60.8
		L342.3,60.2 L349.3,56.4 L356.2,57.1 L363.2,56.7 L370.1,55.9 L377.0,54.6 L384.0,57.4 L390.9,56.1
		L397.9,57.4 L404.8,61.2 L411.8,57.9 L418.7,59.3 L425.6,57.2 L432.6,57.9 L439.5,57.5 L446.5,56.7
		L453.4,56.0 L460.4,54.9 L467.3,53.9 L474.2,51.2 L481.2,50.7 L488.1,48.8 L495.1,47.9 L502.0,44.9
		L509.0,39.8 L515.9,43.3 L522.8,39.5 L529.8,42.1 L536.7,40.5 L543.7,44.3 L550.6,40.6  '/>	<use xlink:href='#gpPt1' transform='translate(78.5,363.5) scale(6.35)' color='rgb(  0, 158, 115)'/>
	<use xlink:href='#gpPt1' transform='translate(85.4,350.6) scale(6.35)' color='rgb(  0, 158, 115)'/>
	<use xlink:href='#gpPt1' transform='translate(92.4,342.2) scale(6.35)' color='rgb(  0, 158, 115)'/>
	<use xlink:href='#gpPt1' transform='translate(99.3,305.4) scale(6.35)' color='rgb(  0, 158, 115)'/>
	<use xlink:href='#gpPt1' transform='translate(106.3,268.0) scale(6.35)' color='rgb(  0, 158, 115)'/>
	<use xlink:href='#gpPt1' transform='translate(113.2,241.2) scale(6.35)' color='rgb(  0, 158, 115)'/>
	<use xlink:href='#gpPt1' transform='translate(120.2,220.0) scale(6.35)' color='rgb(  0, 158, 115)'/>
	<use xlink:href='#gpPt1' transform='translate(127.1,215.3) scale(6.35)' color='rgb(  0, 158, 115)'/>
	<use xlink:href='#gpPt1' transform='translate(134.0,209.8) scale(6.35)' color='rgb(  0, 158, 115)'/>
	<use xlink:href='#gpPt1' transform='translate(141.0,205.1) scale(6.35)' color='rgb(  0, 158, 115)'/>
	<use xlink:href='#gpPt1' transform='translate(147.9,202.1) scale(6.35)' color='rgb(  0, 158, 115)'/>
	<use xlink:href='#gpPt1' transform='translate(154.9,200.3) scale(6.35)' color='rgb(  0, 158, 115)'/>
	<use xlink:href='#gpPt1' transform='translate(161.8,192.7) scale(6.35)' color='rgb(  0, 158, 115)'/>
	<use xlink:href='#gpPt1' transform='translate(168.8,189.6) scale(6.35)' color='rgb(  0, 158, 115)'/>
	<use xlink:href='#gpPt1' transform='translate(175.7,188.3) scale(6.35)' color='rgb(  0, 158, 115)'/>
	<use xlink:href='#gpPt1' transform='translate(182.6,179.5) scale(6.35)' color='rgb(  0, 158, 115)'/>
	<use xlink:href='#gpPt1' transform='translate(189.6,176.2) scale(6.35)' color='rgb(  0, 158, 115)'/>
	<use xlink:href='#gpPt1' transform='translate(196.5,173.1) scale(6.35)' color='rgb(  0, 158, 115)'/>
	<use xlink:href='#gpPt1' transform='translate(203.5,163.8) scale(6.35)' color='rgb(  0, 158, 115)'/>
	<use xlink:href='#gpPt1' transform='translate(210.4,159.0) scale(6.35)' color='rgb(  0, 158, 115)'/>
	<use xlink:href='#gpPt1' transform='translate(217.4,151.4) scale(6.35)' color='rgb(  0, 158, 115)'/>
	<use xlink:href='#gpPt1' transform='translate(224.3,145.5) scale(6.35)' color='rgb(  0, 158, 115)'/>
	<use xlink:href='#gpPt1' transform='translate(231.2,133.5) scale(6.35)' color='rgb(  0, 158, 115)'/>
	<use xlink:href='#gpPt1' transform='translate(238.2,118.4) scale(6.35)' color='rgb(  0, 158, 115)'/>
	<use xlink:href='#gpPt1' transform='translate(245.1,106.3) scale(6.35)' color='rgb(  0, 158, 115)'/>
	<use xlink:href='#gpPt1' transform='translate(252.1,97.6) scale(6.35)' color='rgb(  0, 158, 115)'/>
	<use xlink:href='#gpPt1' transform='translate(259.0,95.5) scale(6.35)' color='rgb(  0, 158, 115)'/>
	<use xlink:href='#gpPt1' transform='translate(266.0,93.1) scale(6.35)' color='rgb(  0, 158, 115)'/>
	<use xlink:href='#gpPt1' transform='translate(272.9,90.8) scale(6.35)' color='rgb(  0, 158, 115)'/>
	<use xlink:href='#gpPt1' transform='translate(279.8,87.6) scale(6.35)' color='rgb(  0, 158, 115)'/>
	<use xlink:href='#gpPt1' transform='translate(286.8,77.1) scale(6.35)' color='rgb(  0, 158, 115)'/>
	<use xlink:href='#gpPt1' transform='translate(293.7,78.7) scale(6.35)' color='rgb(  0, 158, 115)'/>
	<use xlink:href='#gpPt1' transform='translate(300.7,70.4) scale(6.35)' color='rgb(  0, 158, 115)'/>
	<use xlink:href='#gpPt1' transform='translate(307.6,67.5) scale(6.35)' color='rgb(  0, 158, 115)'/>
	<use xlink:href='#gpPt1' transform='translate(314.6,65.2) scale(6.35)' color='rgb(  0, 158, 115)'/>
	<use xlink:href='#gpPt1' transform='translate(321.5,65.6) scale(6.35)' color='rgb(  0, 158, 115)'/>
	<use xlink:href='#gpPt1' transform='translate(328.4,60.3) scale(6.35)' color='rgb(  0, 158, 115)'/>
	<use xlink:href='#gpPt1' transform='translate(335.4,60.8) scale(6.35)' color='rgb(  0, 158, 115)'/>
	<use xlink:href='#gpPt1' transform='translate(342.3,60.2) scale(6.35)' color='rgb(  0, 158, 115)'/>
	<use xlink:href='#gpPt1' transform='translate(349.3,56.4) scale(6.35)' color='rgb(  0, 158, 115)'/>
	<use xlink:href='#gpPt1' transform='translate(356.2,57.1) scale(6.35)' color='rgb(  0, 158, 115)'/>
	<use xlink:href='#gpPt1' transform='translate(363.2,56.7) scale(6.35)' color='rgb(  0, 158, 115)'/>
	<use xlink:href='#gpPt1' transform='translate(370.1,55.9) scale(6.35)' color='rgb(  0, 158, 115)'/>
	<use xlink:href='#gpPt1' transform='translate(377.0,54.6) scale(6.35)' color='rgb(  0, 158, 115)'/>
	<use xlink:href='#gpPt1' transform='translate(384.0,57.4) scale(6.35)' color='rgb(  0, 158, 115)'/>
	<use xlink:href='#gpPt1' transform='translate(390.9,56.1) scale(6.35)' color='rgb(  0, 158, 115)'/>
	<use xlink:href='#gpPt1' transform='translate(397.9,57.4) scale(6.35)' color='rgb(  0, 158, 115)'/>
	<use xlink:href='#gpPt1' transform='translate(404.8,61.2) scale(6.35)' color='rgb(  0, 158, 115)'/>
	<use xlink:href='#gpPt1' transform='translate(411.8,57.9) scale(6.35)' color='rgb(  0, 158, 115)'/>
	<use xlink:href='#gpPt1' transform='translate(418.7,59.3) scale(6.35)' color='rgb(  0, 158, 115)'/>
	<use xlink:href='#gpPt1' transform='translate(425.6,57.2) scale(6.35)' color='rgb(  0, 158, 115)'/>
	<use xlink:href='#gpPt1' transform='translate(432.6,57.9) scale(6.35)' color='rgb(  0, 158, 115)'/>
	<use xlink:href='#gpPt1' transform='translate(439.5,57.5) scale(6.35)' color='rgb(  0, 158, 115)'/>
	<use xlink:href='#gpPt1' transform='translate(446.5,56.7) scale(6.35)' color='rgb(  0, 158, 115)'/>
	<use xlink:href='#gpPt1' transform='translate(453.4,56.0) scale(6.35)' color='rgb(  0, 158, 115)'/>
	<use xlink:href='#gpPt1' transform='translate(460.4,54.9) scale(6.35)' color='rgb(  0, 158, 115)'/>
	<use xlink:href='#gpPt1' transform='translate(467.3,53.9) scale(6.35)' color='rgb(  0, 158, 115)'/>
	<use xlink:href='#gpPt1' transform='translate(474.2,51.2) scale(6.35)' color='rgb(  0, 158, 115)'/>
	<use xlink:href='#gpPt1' transform='translate(481.2,50.7) scale(6.35)' color='rgb(  0, 158, 115)'/>
	<use xlink:href='#gpPt1' transform='translate(488.1,48.8) scale(6.35)' color='rgb(  0, 158, 115)'/>
	<use xlink:href='#gpPt1' transform='translate(495.1,47.9) scale(6.35)' color='rgb(  0, 158, 115)'/>
	<use xlink:href='#gpPt1' transform='translate(502.0,44.9) scale(6.35)' color='rgb(  0, 158, 115)'/>
	<use xlink:href='#gpPt1' transform='translate(509.0,39.8) scale(6.35)' color='rgb(  0, 158, 115)'/>
	<use xlink:href='#gpPt1' transform='translate(515.9,43.3) scale(6.35)' color='rgb(  0, 158, 115)'/>
	<use xlink:href='#gpPt1' transform='translate(522.8,39.5) scale(6.35)' color='rgb(  0, 158, 115)'/>
	<use xlink:href='#gpPt1' transform='translate(529.8,42.1) scale(6.35)' color='rgb(  0, 158, 115)'/>
	<use xlink:href='#gpPt1' transform='translate(536.7,40.5) scale(6.35)' color='rgb(  0, 158, 115)'/>
	<use xlink:href='#gpPt1' transform='translate(543.7,44.3) scale(6.35)' color='rgb(  0, 158, 115)'/>
	<use xlink:href='#gpPt1' transform='translate(550.6,40.6) scale(6.35)' color='rgb(  0, 158, 115)'/>
	<use xlink:href='#gpPt1' transform='translate(510.9,74.5) scale(6.35)' color='rgb(  0, 158, 115)'/>
</g>
	</g>
<g fill="none" color="white" stroke="rgb(  0, 158, 115)" stroke-width="2.00" stroke-linecap="butt" stroke-linejoin="miter">
</g>
<g fill="none" color="black" stroke="currentColor" stroke-width="2.00" stroke-linecap="butt" stroke-linejoin="miter">
</g>
<g fill="none" color="black" stroke="black" stroke-width="1.00" stroke-linecap="butt" stroke-linejoin="miter">
</g>
<g fill="none" color="black" stroke="currentColor" stroke-width="1.00" stroke-linecap="butt" stroke-linejoin="miter">
	<path stroke='black'  d='M78.5,23.7 L78.5,398.8 L564.5,398.8 L564.5,23.7 L78.5,23.7 Z  '/></g>
<g fill="none" color="black" stroke="currentColor" stroke-width="1.00" stroke-linecap="butt" stroke-linejoin="miter">
</g>
</g>
</svg>

