%!PS-Adobe-3.0 EPSF-3.0
%%Creator: cairo 1.14.6 (http://cairographics.org)
%%CreationDate: Thu Nov 30 16:40:05 2017
%%Pages: 1
%%DocumentData: Clean7Bit
%%LanguageLevel: 2
%%BoundingBox: 0 -1 490 395
%%EndComments
%%BeginProlog
save
50 dict begin
/q { gsave } bind def
/Q { grestore } bind def
/cm { 6 array astore concat } bind def
/w { setlinewidth } bind def
/J { setlinecap } bind def
/j { setlinejoin } bind def
/M { setmiterlimit } bind def
/d { setdash } bind def
/m { moveto } bind def
/l { lineto } bind def
/c { curveto } bind def
/h { closepath } bind def
/re { exch dup neg 3 1 roll 5 3 roll moveto 0 rlineto
      0 exch rlineto 0 rlineto closepath } bind def
/S { stroke } bind def
/f { fill } bind def
/f* { eofill } bind def
/n { newpath } bind def
/W { clip } bind def
/W* { eoclip } bind def
/BT { } bind def
/ET { } bind def
/pdfmark where { pop globaldict /?pdfmark /exec load put }
    { globaldict begin /?pdfmark /pop load def /pdfmark
    /cleartomark load def end } ifelse
/BDC { mark 3 1 roll /BDC pdfmark } bind def
/EMC { mark /EMC pdfmark } bind def
/cairo_store_point { /cairo_point_y exch def /cairo_point_x exch def } def
/Tj { show currentpoint cairo_store_point } bind def
/TJ {
  {
    dup
    type /stringtype eq
    { show } { -0.001 mul 0 cairo_font_matrix dtransform rmoveto } ifelse
  } forall
  currentpoint cairo_store_point
} bind def
/cairo_selectfont { cairo_font_matrix aload pop pop pop 0 0 6 array astore
    cairo_font exch selectfont cairo_point_x cairo_point_y moveto } bind def
/Tf { pop /cairo_font exch def /cairo_font_matrix where
      { pop cairo_selectfont } if } bind def
/Td { matrix translate cairo_font_matrix matrix concatmatrix dup
      /cairo_font_matrix exch def dup 4 get exch 5 get cairo_store_point
      /cairo_font where { pop cairo_selectfont } if } bind def
/Tm { 2 copy 8 2 roll 6 array astore /cairo_font_matrix exch def
      cairo_store_point /cairo_font where { pop cairo_selectfont } if } bind def
/g { setgray } bind def
/rg { setrgbcolor } bind def
/d1 { setcachedevice } bind def
%%EndProlog
%%BeginSetup
%%EndSetup
%%Page: 1 1
%%BeginPageSetup
%%PageBoundingBox: 0 -1 490 395
%%EndPageSetup
q 0 -1 490 396 rectclip q
0.733333 g
0.8 w
0 J
0 j
[] 0.0 d
4 M q 1 0 0 -1 0 394.025391 cm
78.922 333.949 m 459.723 333.949 l S Q
0 g
q 1 0 0 -1 0 394.025391 cm
78.922 333.949 m 89.082 333.949 l 459.723 333.949 m 449.562 333.949 l S Q
0.733333 g
q 1 0 0 -1 0 394.025391 cm
78.922 285.148 m 459.723 285.148 l S Q
0 g
q 1 0 0 -1 0 394.025391 cm
78.922 285.148 m 83.965 285.148 l 459.723 285.148 m 454.684 285.148 l S Q
0.733333 g
q 1 0 0 -1 0 394.025391 cm
78.922 256.586 m 459.723 256.586 l S Q
0 g
q 1 0 0 -1 0 394.025391 cm
78.922 256.586 m 83.965 256.586 l 459.723 256.586 m 454.684 256.586 l S Q
0.733333 g
q 1 0 0 -1 0 394.025391 cm
78.922 236.27 m 459.723 236.27 l S Q
0 g
q 1 0 0 -1 0 394.025391 cm
78.922 236.27 m 83.965 236.27 l 459.723 236.27 m 454.684 236.27 l S Q
0.733333 g
q 1 0 0 -1 0 394.025391 cm
78.922 220.586 m 459.723 220.586 l S Q
0 g
q 1 0 0 -1 0 394.025391 cm
78.922 220.586 m 83.965 220.586 l 459.723 220.586 m 454.684 220.586 l S Q
0.733333 g
q 1 0 0 -1 0 394.025391 cm
78.922 207.707 m 459.723 207.707 l S Q
0 g
q 1 0 0 -1 0 394.025391 cm
78.922 207.707 m 83.965 207.707 l 459.723 207.707 m 454.684 207.707 l S Q
0.733333 g
q 1 0 0 -1 0 394.025391 cm
78.922 196.906 m 459.723 196.906 l S Q
0 g
q 1 0 0 -1 0 394.025391 cm
78.922 196.906 m 83.965 196.906 l 459.723 196.906 m 454.684 196.906 l S Q
0.733333 g
q 1 0 0 -1 0 394.025391 cm
78.922 187.469 m 459.723 187.469 l S Q
0 g
q 1 0 0 -1 0 394.025391 cm
78.922 187.469 m 83.965 187.469 l 459.723 187.469 m 454.684 187.469 l S Q
0.733333 g
q 1 0 0 -1 0 394.025391 cm
78.922 179.148 m 459.723 179.148 l S Q
0 g
q 1 0 0 -1 0 394.025391 cm
78.922 179.148 m 83.965 179.148 l 459.723 179.148 m 454.684 179.148 l S Q
0.733333 g
q 1 0 0 -1 0 394.025391 cm
78.922 171.707 m 459.723 171.707 l S Q
0 g
q 1 0 0 -1 0 394.025391 cm
78.922 171.707 m 89.082 171.707 l 459.723 171.707 m 449.562 171.707 l S Q
0.733333 g
q 1 0 0 -1 0 394.025391 cm
78.922 122.906 m 459.723 122.906 l S Q
0 g
q 1 0 0 -1 0 394.025391 cm
78.922 122.906 m 83.965 122.906 l 459.723 122.906 m 454.684 122.906 l S Q
0.733333 g
q 1 0 0 -1 0 394.025391 cm
78.922 94.348 m 459.723 94.348 l S Q
0 g
q 1 0 0 -1 0 394.025391 cm
78.922 94.348 m 83.965 94.348 l 459.723 94.348 m 454.684 94.348 l S Q
0.733333 g
q 1 0 0 -1 0 394.025391 cm
78.922 74.109 m 459.723 74.109 l S Q
0 g
q 1 0 0 -1 0 394.025391 cm
78.922 74.109 m 83.965 74.109 l 459.723 74.109 m 454.684 74.109 l S Q
0.733333 g
q 1 0 0 -1 0 394.025391 cm
78.922 58.348 m 459.723 58.348 l S Q
0 g
q 1 0 0 -1 0 394.025391 cm
78.922 58.348 m 83.965 58.348 l 459.723 58.348 m 454.684 58.348 l S Q
0.733333 g
q 1 0 0 -1 0 394.025391 cm
78.922 45.547 m 459.723 45.547 l S Q
0 g
q 1 0 0 -1 0 394.025391 cm
78.922 45.547 m 83.965 45.547 l 459.723 45.547 m 454.684 45.547 l S Q
0.733333 g
q 1 0 0 -1 0 394.025391 cm
78.922 34.668 m 459.723 34.668 l S Q
0 g
q 1 0 0 -1 0 394.025391 cm
78.922 34.668 m 83.965 34.668 l 459.723 34.668 m 454.684 34.668 l S Q
0.733333 g
q 1 0 0 -1 0 394.025391 cm
78.922 25.227 m 459.723 25.227 l S Q
0 g
q 1 0 0 -1 0 394.025391 cm
78.922 25.227 m 83.965 25.227 l 459.723 25.227 m 454.684 25.227 l S Q
0.733333 g
q 1 0 0 -1 0 394.025391 cm
78.922 16.988 m 459.723 16.988 l S Q
0 g
q 1 0 0 -1 0 394.025391 cm
78.922 16.988 m 83.965 16.988 l 459.723 16.988 m 454.684 16.988 l S Q
0.733333 g
q 1 0 0 -1 0 394.025391 cm
78.922 9.547 m 459.723 9.547 l S Q
0 g
q 1 0 0 -1 0 394.025391 cm
78.922 9.547 m 89.082 9.547 l 459.723 9.547 m 449.562 9.547 l S Q
0.733333 g
q 1 0 0 -1 0 394.025391 cm
78.922 333.949 m 78.922 9.547 l S Q
0 g
q 1 0 0 -1 0 394.025391 cm
78.922 333.949 m 78.922 323.789 l 78.922 9.547 m 78.922 19.707 l S Q
0.733333 g
q 1 0 0 -1 0 394.025391 cm
136.203 333.949 m 136.203 9.547 l S Q
0 g
q 1 0 0 -1 0 394.025391 cm
136.203 333.949 m 136.203 328.906 l 136.203 9.547 m 136.203 14.586 l S Q
0.733333 g
q 1 0 0 -1 0 394.025391 cm
169.805 333.949 m 169.805 9.547 l S Q
0 g
q 1 0 0 -1 0 394.025391 cm
169.805 333.949 m 169.805 328.906 l 169.805 9.547 m 169.805 14.586 l S Q
0.733333 g
q 1 0 0 -1 0 394.025391 cm
193.562 333.949 m 193.562 9.547 l S Q
0 g
q 1 0 0 -1 0 394.025391 cm
193.562 333.949 m 193.562 328.906 l 193.562 9.547 m 193.562 14.586 l S Q
0.733333 g
q 1 0 0 -1 0 394.025391 cm
212.043 333.949 m 212.043 9.547 l S Q
0 g
q 1 0 0 -1 0 394.025391 cm
212.043 333.949 m 212.043 328.906 l 212.043 9.547 m 212.043 14.586 l S Q
0.733333 g
q 1 0 0 -1 0 394.025391 cm
227.082 333.949 m 227.082 9.547 l S Q
0 g
q 1 0 0 -1 0 394.025391 cm
227.082 333.949 m 227.082 328.906 l 227.082 9.547 m 227.082 14.586 l S Q
0.733333 g
q 1 0 0 -1 0 394.025391 cm
239.805 333.949 m 239.805 9.547 l S Q
0 g
q 1 0 0 -1 0 394.025391 cm
239.805 333.949 m 239.805 328.906 l 239.805 9.547 m 239.805 14.586 l S Q
0.733333 g
q 1 0 0 -1 0 394.025391 cm
250.844 333.949 m 250.844 9.547 l S Q
0 g
q 1 0 0 -1 0 394.025391 cm
250.844 333.949 m 250.844 328.906 l 250.844 9.547 m 250.844 14.586 l S Q
0.733333 g
q 1 0 0 -1 0 394.025391 cm
260.602 333.949 m 260.602 9.547 l S Q
0 g
q 1 0 0 -1 0 394.025391 cm
260.602 333.949 m 260.602 328.906 l 260.602 9.547 m 260.602 14.586 l S Q
0.733333 g
q 1 0 0 -1 0 394.025391 cm
269.324 333.949 m 269.324 9.547 l S Q
0 g
q 1 0 0 -1 0 394.025391 cm
269.324 333.949 m 269.324 323.789 l 269.324 9.547 m 269.324 19.707 l S Q
0.733333 g
q 1 0 0 -1 0 394.025391 cm
326.602 333.949 m 326.602 9.547 l S Q
0 g
q 1 0 0 -1 0 394.025391 cm
326.602 333.949 m 326.602 328.906 l 326.602 9.547 m 326.602 14.586 l S Q
0.733333 g
q 1 0 0 -1 0 394.025391 cm
360.203 333.949 m 360.203 9.547 l S Q
0 g
q 1 0 0 -1 0 394.025391 cm
360.203 333.949 m 360.203 328.906 l 360.203 9.547 m 360.203 14.586 l S Q
0.733333 g
q 1 0 0 -1 0 394.025391 cm
383.965 333.949 m 383.965 9.547 l S Q
0 g
q 1 0 0 -1 0 394.025391 cm
383.965 333.949 m 383.965 328.906 l 383.965 9.547 m 383.965 14.586 l S Q
0.733333 g
q 1 0 0 -1 0 394.025391 cm
402.445 333.949 m 402.445 9.547 l S Q
0 g
q 1 0 0 -1 0 394.025391 cm
402.445 333.949 m 402.445 328.906 l 402.445 9.547 m 402.445 14.586 l S Q
0.733333 g
q 1 0 0 -1 0 394.025391 cm
417.484 333.949 m 417.484 9.547 l S Q
0 g
q 1 0 0 -1 0 394.025391 cm
417.484 333.949 m 417.484 328.906 l 417.484 9.547 m 417.484 14.586 l S Q
0.733333 g
q 1 0 0 -1 0 394.025391 cm
430.203 333.949 m 430.203 9.547 l S Q
0 g
q 1 0 0 -1 0 394.025391 cm
430.203 333.949 m 430.203 328.906 l 430.203 9.547 m 430.203 14.586 l S Q
0.733333 g
q 1 0 0 -1 0 394.025391 cm
441.242 333.949 m 441.242 9.547 l S Q
0 g
q 1 0 0 -1 0 394.025391 cm
441.242 333.949 m 441.242 328.906 l 441.242 9.547 m 441.242 14.586 l S Q
0.733333 g
q 1 0 0 -1 0 394.025391 cm
451.004 333.949 m 451.004 9.547 l S Q
0 g
q 1 0 0 -1 0 394.025391 cm
451.004 333.949 m 451.004 328.906 l 451.004 9.547 m 451.004 14.586 l S Q
0.733333 g
q 1 0 0 -1 0 394.025391 cm
459.723 333.949 m 459.723 9.547 l S Q
0 g
q 1 0 0 -1 0 394.025391 cm
459.723 333.949 m 459.723 323.789 l 459.723 9.547 m 459.723 19.707 l S Q
q 1 0 0 -1 0 394.025391 cm
78.922 9.547 380.801 324.402 re S Q
0.580392 0 0.827451 rg
1.6 w
q 1 0 0 -1 0 394.025391 cm
111.324 75.148 m 168.684 129.629 l 225.965 182.348 l 283.324 232.27 l 340.684
 281.629 l S Q
1.59512 w
q 1 0 0 -1 0 394.025391 cm
101.164 75.148 m 121.484 75.148 l 111.324 64.988 m 111.324 85.309 l S Q
q 1 0 0 -1 0 394.025391 cm
158.523 129.629 m 178.844 129.629 l 168.684 119.469 m 168.684 139.789 l
 S Q
q 1 0 0 -1 0 394.025391 cm
215.805 182.348 m 236.125 182.348 l 225.965 172.188 m 225.965 192.508 l
 S Q
q 1 0 0 -1 0 394.025391 cm
273.164 232.27 m 293.484 232.27 l 283.324 222.109 m 283.324 242.426 l S Q
q 1 0 0 -1 0 394.025391 cm
330.523 281.629 m 350.844 281.629 l 340.684 271.469 m 340.684 291.789 l
 S Q
0 g
0.8 w
q 1 0 0 -1 0 394.025391 cm
78.922 9.547 380.801 324.402 re S Q
66.891 393.35 m 66.891 393.986 66.891 394.025 66.293 394.025 c 64.707 392.396
 62.484 392.396 61.688 392.396 c 61.688 391.604 l 62.203 391.604 63.676 
391.604 64.984 392.279 c 64.984 379.135 l 64.984 378.221 64.906 377.943 
62.641 377.943 c 61.848 377.943 l 61.848 377.15 l 62.723 377.229 64.906 
377.229 65.938 377.229 c 66.93 377.229 69.152 377.229 70.027 377.15 c 70.027
 377.943 l 69.234 377.943 l 66.93 377.943 66.891 378.221 66.891 379.135 
c h
66.891 393.35 m f
51.367 222.912 m 51.367 224.936 51.25 226.959 50.375 228.826 c 49.223 231.287
 47.121 231.686 46.086 231.686 c 44.539 231.686 42.711 231.01 41.641 228.666
 c 40.848 226.92 40.727 224.936 40.727 222.912 c 40.727 221.006 40.805 218.74
 41.879 216.795 c 42.949 214.771 44.816 214.256 46.047 214.256 c 47.398 
214.256 49.344 214.771 50.453 217.193 c 51.25 218.939 51.367 220.924 51.367
 222.912 c h
46.047 214.811 m 45.055 214.811 43.547 215.447 43.109 217.869 c 42.832 
219.377 42.832 221.721 42.832 223.229 c 42.832 224.857 42.832 226.521 43.031
 227.873 c 43.508 230.893 45.41 231.131 46.047 231.131 c 46.883 231.131 
48.547 230.654 49.023 228.15 c 49.305 226.721 49.305 224.814 49.305 223.229
 c 49.305 221.322 49.305 219.615 49.023 217.986 c 48.629 215.564 47.199 
214.811 46.047 214.811 c h
46.047 214.811 m f
57.234 216.162 m 57.234 216.873 56.641 217.51 55.926 217.51 c 55.172 217.51
 54.574 216.873 54.574 216.162 c 54.574 215.404 55.172 214.811 55.926 214.811
 c 56.641 214.811 57.234 215.404 57.234 216.162 c h
57.234 216.162 m f
66.891 231.01 m 66.891 231.646 66.891 231.686 66.293 231.686 c 64.707 230.057
 62.484 230.057 61.688 230.057 c 61.688 229.264 l 62.203 229.264 63.676 
229.264 64.984 229.939 c 64.984 216.795 l 64.984 215.881 64.906 215.604 
62.641 215.604 c 61.848 215.604 l 61.848 214.811 l 62.723 214.889 64.906
 214.889 65.938 214.889 c 66.93 214.889 69.152 214.889 70.027 214.811 c 
70.027 215.604 l 69.234 215.604 l 66.93 215.604 66.891 215.881 66.891 216.795
 c h
66.891 231.01 m f
38.711 61.686 m 38.711 63.713 38.59 65.736 37.719 67.604 c 36.566 70.064
 34.461 70.463 33.43 70.463 c 31.879 70.463 30.055 69.787 28.98 67.443 c
 28.188 65.697 28.07 63.713 28.07 61.686 c 28.07 59.783 28.148 57.518 29.219
 55.572 c 30.293 53.549 32.156 53.033 33.391 53.033 c 34.738 53.033 36.684
 53.549 37.797 55.971 c 38.59 57.717 38.711 59.701 38.711 61.686 c h
33.391 53.588 m 32.395 53.588 30.887 54.221 30.449 56.646 c 30.172 58.154
 30.172 60.494 30.172 62.006 c 30.172 63.631 30.172 65.299 30.371 66.65 
c 30.848 69.67 32.754 69.908 33.391 69.908 c 34.223 69.908 35.891 69.432
 36.367 66.928 c 36.645 65.498 36.645 63.592 36.645 62.006 c 36.645 60.1
 36.645 58.393 36.367 56.764 c 35.969 54.342 34.539 53.588 33.391 53.588
 c h
33.391 53.588 m f
44.578 54.936 m 44.578 55.65 43.98 56.287 43.266 56.287 c 42.512 56.287
 41.918 55.65 41.918 54.936 c 41.918 54.182 42.512 53.588 43.266 53.588 
c 43.98 53.588 44.578 54.182 44.578 54.936 c h
44.578 54.936 m f
58.402 61.686 m 58.402 63.713 58.281 65.736 57.41 67.604 c 56.258 70.064
 54.152 70.463 53.121 70.463 c 51.57 70.463 49.746 69.787 48.672 67.443 
c 47.879 65.697 47.762 63.713 47.762 61.686 c 47.762 59.783 47.84 57.518
 48.91 55.572 c 49.984 53.549 51.848 53.033 53.082 53.033 c 54.43 53.033
 56.375 53.549 57.488 55.971 c 58.281 57.717 58.402 59.701 58.402 61.686
 c h
53.082 53.588 m 52.086 53.588 50.578 54.221 50.141 56.646 c 49.863 58.154
 49.863 60.494 49.863 62.006 c 49.863 63.631 49.863 65.299 50.062 66.65 
c 50.539 69.67 52.445 69.908 53.082 69.908 c 53.914 69.908 55.582 69.432
 56.059 66.928 c 56.336 65.498 56.336 63.592 56.336 62.006 c 56.336 60.1
 56.336 58.393 56.059 56.764 c 55.66 54.342 54.23 53.588 53.082 53.588 c
 h
53.082 53.588 m f
66.891 69.787 m 66.891 70.424 66.891 70.463 66.293 70.463 c 64.707 68.834
 62.484 68.834 61.688 68.834 c 61.688 68.041 l 62.203 68.041 63.676 68.041
 64.984 68.717 c 64.984 55.572 l 64.984 54.658 64.906 54.381 62.641 54.381
 c 61.848 54.381 l 61.848 53.588 l 62.723 53.666 64.906 53.666 65.938 53.666
 c 66.93 53.666 69.152 53.666 70.027 53.588 c 70.027 54.381 l 69.234 54.381
 l 66.93 54.381 66.891 54.658 66.891 55.572 c h
66.891 69.787 m f
66.137 50.029 m 66.137 50.662 66.137 50.705 65.539 50.705 c 63.949 49.076
 61.727 49.076 60.934 49.076 c 60.934 48.283 l 61.449 48.283 62.918 48.283
 64.23 48.955 c 64.23 35.814 l 64.23 34.9 64.148 34.623 61.887 34.623 c 
61.094 34.623 l 61.094 33.83 l 61.965 33.908 64.148 33.908 65.184 33.908
 c 66.176 33.908 68.398 33.908 69.273 33.83 c 69.273 34.623 l 68.477 34.623
 l 66.176 34.623 66.137 34.9 66.137 35.814 c h
66.137 50.029 m f
82.961 41.928 m 82.961 43.955 82.844 45.979 81.969 47.846 c 80.816 50.307
 78.715 50.705 77.68 50.705 c 76.133 50.705 74.305 50.029 73.234 47.686 
c 72.441 45.939 72.32 43.955 72.32 41.928 c 72.32 40.021 72.402 37.76 73.473
 35.814 c 74.543 33.787 76.41 33.271 77.641 33.271 c 78.992 33.271 80.938
 33.787 82.051 36.209 c 82.844 37.959 82.961 39.943 82.961 41.928 c h
77.641 33.83 m 76.648 33.83 75.141 34.463 74.703 36.885 c 74.426 38.396
 74.426 40.736 74.426 42.248 c 74.426 43.873 74.426 45.541 74.625 46.893
 c 75.102 49.908 77.008 50.146 77.641 50.146 c 78.477 50.146 80.145 49.67
 80.621 47.17 c 80.898 45.74 80.898 43.834 80.898 42.248 c 80.898 40.342
 80.898 38.635 80.621 37.006 c 80.223 34.584 78.793 33.83 77.641 33.83 c
 h
77.641 33.83 m f
95.621 41.928 m 95.621 43.955 95.5 45.979 94.629 47.846 c 93.477 50.307
 91.371 50.705 90.34 50.705 c 88.793 50.705 86.965 50.029 85.891 47.686 
c 85.098 45.939 84.98 43.955 84.98 41.928 c 84.98 40.021 85.059 37.76 86.129
 35.814 c 87.203 33.787 89.07 33.271 90.301 33.271 c 91.648 33.271 93.594
 33.787 94.707 36.209 c 95.5 37.959 95.621 39.943 95.621 41.928 c h
90.301 33.83 m 89.309 33.83 87.797 34.463 87.363 36.885 c 87.082 38.396
 87.082 40.736 87.082 42.248 c 87.082 43.873 87.082 45.541 87.281 46.893
 c 87.758 49.908 89.664 50.146 90.301 50.146 c 91.133 50.146 92.801 49.67
 93.277 47.17 c 93.555 45.74 93.555 43.834 93.555 42.248 c 93.555 40.342
 93.555 38.635 93.277 37.006 c 92.879 34.584 91.453 33.83 90.301 33.83 c
 h
90.301 33.83 m f
250.387 50.029 m 250.387 50.662 250.387 50.705 249.789 50.705 c 248.203
 49.076 245.977 49.076 245.184 49.076 c 245.184 48.283 l 245.699 48.283 
247.168 48.283 248.48 48.955 c 248.48 35.814 l 248.48 34.9 248.398 34.623
 246.137 34.623 c 245.344 34.623 l 245.344 33.83 l 246.215 33.908 248.398
 33.908 249.434 33.908 c 250.426 33.908 252.648 33.908 253.523 33.83 c 253.523
 34.623 l 252.727 34.623 l 250.426 34.623 250.387 34.9 250.387 35.814 c 
h
250.387 50.029 m f
267.211 41.928 m 267.211 43.955 267.094 45.979 266.219 47.846 c 265.066
 50.307 262.965 50.705 261.93 50.705 c 260.383 50.705 258.555 50.029 257.484
 47.686 c 256.691 45.939 256.57 43.955 256.57 41.928 c 256.57 40.021 256.652
 37.76 257.723 35.814 c 258.793 33.787 260.66 33.271 261.891 33.271 c 263.242
 33.271 265.188 33.787 266.301 36.209 c 267.094 37.959 267.211 39.943 267.211
 41.928 c h
261.891 33.83 m 260.898 33.83 259.391 34.463 258.953 36.885 c 258.676 38.396
 258.676 40.736 258.676 42.248 c 258.676 43.873 258.676 45.541 258.875 46.893
 c 259.352 49.908 261.258 50.146 261.891 50.146 c 262.727 50.146 264.395
 49.67 264.871 47.17 c 265.148 45.74 265.148 43.834 265.148 42.248 c 265.148
 40.342 265.148 38.635 264.871 37.006 c 264.473 34.584 263.043 33.83 261.891
 33.83 c h
261.891 33.83 m f
279.871 41.928 m 279.871 43.955 279.75 45.979 278.879 47.846 c 277.727 
50.307 275.621 50.705 274.59 50.705 c 273.043 50.705 271.215 50.029 270.145
 47.686 c 269.348 45.939 269.23 43.955 269.23 41.928 c 269.23 40.021 269.309
 37.76 270.383 35.814 c 271.453 33.787 273.32 33.271 274.551 33.271 c 275.898
 33.271 277.844 33.787 278.957 36.209 c 279.75 37.959 279.871 39.943 279.871
 41.928 c h
274.551 33.83 m 273.559 33.83 272.047 34.463 271.613 36.885 c 271.332 38.396
 271.332 40.736 271.332 42.248 c 271.332 43.873 271.332 45.541 271.531 46.893
 c 272.008 49.908 273.914 50.146 274.551 50.146 c 275.383 50.146 277.051
 49.67 277.527 47.17 c 277.805 45.74 277.805 43.834 277.805 42.248 c 277.805
 40.342 277.805 38.635 277.527 37.006 c 277.133 34.584 275.703 33.83 274.551
 33.83 c h
274.551 33.83 m f
292.527 41.928 m 292.527 43.955 292.41 45.979 291.535 47.846 c 290.387 
50.307 288.281 50.705 287.25 50.705 c 285.699 50.705 283.875 50.029 282.801
 47.686 c 282.008 45.939 281.887 43.955 281.887 41.928 c 281.887 40.021 
281.969 37.76 283.039 35.814 c 284.113 33.787 285.977 33.271 287.207 33.271
 c 288.559 33.271 290.504 33.787 291.617 36.209 c 292.41 37.959 292.527 
39.943 292.527 41.928 c h
287.207 33.83 m 286.215 33.83 284.707 34.463 284.27 36.885 c 283.992 38.396
 283.992 40.736 283.992 42.248 c 283.992 43.873 283.992 45.541 284.191 46.893
 c 284.668 49.908 286.574 50.146 287.207 50.146 c 288.043 50.146 289.711
 49.67 290.188 47.17 c 290.465 45.74 290.465 43.834 290.465 42.248 c 290.465
 40.342 290.465 38.635 290.188 37.006 c 289.789 34.584 288.359 33.83 287.207
 33.83 c h
287.207 33.83 m f
435.082 50.029 m 435.082 50.662 435.082 50.705 434.488 50.705 c 432.898
 49.076 430.676 49.076 429.883 49.076 c 429.883 48.283 l 430.398 48.283 
431.867 48.283 433.176 48.955 c 433.176 35.814 l 433.176 34.9 433.098 34.623
 430.836 34.623 c 430.039 34.623 l 430.039 33.83 l 430.914 33.908 433.098
 33.908 434.129 33.908 c 435.125 33.908 437.348 33.908 438.219 33.83 c 438.219
 34.623 l 437.426 34.623 l 435.125 34.623 435.082 34.9 435.082 35.814 c 
h
435.082 50.029 m f
451.91 41.928 m 451.91 43.955 451.793 45.979 450.918 47.846 c 449.766 50.307
 447.664 50.705 446.629 50.705 c 445.082 50.705 443.254 50.029 442.184 47.686
 c 441.391 45.939 441.27 43.955 441.27 41.928 c 441.27 40.021 441.348 37.76
 442.422 35.814 c 443.492 33.787 445.359 33.271 446.59 33.271 c 447.941 
33.271 449.887 33.787 450.996 36.209 c 451.793 37.959 451.91 39.943 451.91
 41.928 c h
446.59 33.83 m 445.598 33.83 444.09 34.463 443.652 36.885 c 443.375 38.396
 443.375 40.736 443.375 42.248 c 443.375 43.873 443.375 45.541 443.574 46.893
 c 444.051 49.908 445.953 50.146 446.59 50.146 c 447.426 50.146 449.09 49.67
 449.566 47.17 c 449.848 45.74 449.848 43.834 449.848 42.248 c 449.848 40.342
 449.848 38.635 449.566 37.006 c 449.172 34.584 447.742 33.83 446.59 33.83
 c h
446.59 33.83 m f
464.57 41.928 m 464.57 43.955 464.449 45.979 463.578 47.846 c 462.426 50.307
 460.32 50.705 459.289 50.705 c 457.738 50.705 455.914 50.029 454.84 47.686
 c 454.047 45.939 453.93 43.955 453.93 41.928 c 453.93 40.021 454.008 37.76
 455.078 35.814 c 456.152 33.787 458.02 33.271 459.25 33.271 c 460.598 33.271
 462.543 33.787 463.656 36.209 c 464.449 37.959 464.57 39.943 464.57 41.928
 c h
459.25 33.83 m 458.254 33.83 456.746 34.463 456.309 36.885 c 456.031 38.396
 456.031 40.736 456.031 42.248 c 456.031 43.873 456.031 45.541 456.23 46.893
 c 456.707 49.908 458.613 50.146 459.25 50.146 c 460.082 50.146 461.75 49.67
 462.227 47.17 c 462.504 45.74 462.504 43.834 462.504 42.248 c 462.504 40.342
 462.504 38.635 462.227 37.006 c 461.828 34.584 460.398 33.83 459.25 33.83
 c h
459.25 33.83 m f
477.227 41.928 m 477.227 43.955 477.109 45.979 476.234 47.846 c 475.082
 50.307 472.98 50.705 471.945 50.705 c 470.398 50.705 468.57 50.029 467.5
 47.686 c 466.707 45.939 466.586 43.955 466.586 41.928 c 466.586 40.021 
466.664 37.76 467.738 35.814 c 468.809 33.787 470.676 33.271 471.906 33.271
 c 473.258 33.271 475.203 33.787 476.312 36.209 c 477.109 37.959 477.227
 39.943 477.227 41.928 c h
471.906 33.83 m 470.914 33.83 469.406 34.463 468.969 36.885 c 468.691 38.396
 468.691 40.736 468.691 42.248 c 468.691 43.873 468.691 45.541 468.891 46.893
 c 469.367 49.908 471.27 50.146 471.906 50.146 c 472.742 50.146 474.406 
49.67 474.883 47.17 c 475.164 45.74 475.164 43.834 475.164 42.248 c 475.164
 40.342 475.164 38.635 474.883 37.006 c 474.488 34.584 473.059 33.83 471.906
 33.83 c h
471.906 33.83 m f
489.887 41.928 m 489.887 43.955 489.766 45.979 488.895 47.846 c 487.742
 50.307 485.637 50.705 484.605 50.705 c 483.055 50.705 481.23 50.029 480.156
 47.686 c 479.363 45.939 479.246 43.955 479.246 41.928 c 479.246 40.021 
479.324 37.76 480.395 35.814 c 481.469 33.787 483.336 33.271 484.566 33.271
 c 485.914 33.271 487.859 33.787 488.973 36.209 c 489.766 37.959 489.887
 39.943 489.887 41.928 c h
484.566 33.83 m 483.574 33.83 482.062 34.463 481.625 36.885 c 481.348 38.396
 481.348 40.736 481.348 42.248 c 481.348 43.873 481.348 45.541 481.547 46.893
 c 482.023 49.908 483.93 50.146 484.566 50.146 c 485.398 50.146 487.066 
49.67 487.543 47.17 c 487.82 45.74 487.82 43.834 487.82 42.248 c 487.82 
40.342 487.82 38.635 487.543 37.006 c 487.145 34.584 485.715 33.83 484.566
 33.83 c h
484.566 33.83 m f
163.875 17.232 m 163.637 17.549 163.637 17.588 163.16 17.588 c 158.832 
17.588 l 158.832 16.795 l 159.586 16.795 l 159.945 16.795 160.461 16.756
 160.82 16.756 c 161.414 16.678 161.453 16.635 161.453 16.162 c 161.453 
2.939 l 161.453 2.264 161.453 1.072 158.832 1.072 c 158.832 0.279 l 159.707
 0.318 160.977 0.357 161.812 0.357 c 162.645 0.357 163.875 0.318 164.75 
0.279 c 164.75 1.072 l 162.168 1.072 162.168 2.264 162.168 2.939 c 162.168
 16.119 l 162.289 16.002 162.289 15.963 162.406 15.803 c 172.73 0.596 l 
172.969 0.318 173.008 0.279 173.168 0.279 c 173.523 0.279 173.523 0.436 
173.523 0.951 c 173.523 14.928 l 173.523 15.604 173.523 16.795 176.145 16.795
 c 176.145 17.588 l 175.23 17.549 174 17.51 173.168 17.51 c 172.332 17.51
 171.102 17.549 170.23 17.588 c 170.23 16.795 l 172.809 16.795 172.809 15.604
 172.809 14.928 c 172.809 4.088 l h
163.875 17.232 m f
186.875 2.264 m 186.875 -0.002 l 190.527 0.279 l 190.527 1.072 l 188.781
 1.072 188.582 1.232 188.582 2.502 c 188.582 11.475 l 184.848 11.197 l 184.848
 10.404 l 186.594 10.404 186.832 10.244 186.832 8.975 c 186.832 4.486 l 
186.832 2.264 185.602 0.557 183.738 0.557 c 181.633 0.557 181.512 1.748 
181.512 3.057 c 181.512 11.475 l 177.781 11.197 l 177.781 10.404 l 179.766
 10.404 179.766 10.322 179.766 8.1 c 179.766 4.287 l 179.766 2.303 179.766
 -0.002 183.617 -0.002 c 185.047 -0.002 186.16 0.713 186.875 2.264 c h
186.875 2.264 m f
193.832 8.975 m 193.832 2.186 l 193.832 1.072 193.555 1.072 191.848 1.072
 c 191.848 0.279 l 192.762 0.318 194.031 0.357 194.746 0.357 c 195.379 0.357
 196.691 0.318 197.562 0.279 c 197.562 1.072 l 195.855 1.072 195.578 1.072
 195.578 2.186 c 195.578 6.869 l 195.578 9.49 197.406 10.92 198.992 10.92
 c 200.621 10.92 200.898 9.568 200.898 8.1 c 200.898 2.186 l 200.898 1.072
 200.621 1.072 198.914 1.072 c 198.914 0.279 l 199.789 0.318 201.098 0.357
 201.773 0.357 c 202.41 0.357 203.758 0.318 204.594 0.279 c 204.594 1.072
 l 202.926 1.072 202.648 1.072 202.648 2.186 c 202.648 6.869 l 202.648 9.49
 204.434 10.92 206.062 10.92 c 207.648 10.92 207.926 9.568 207.926 8.1 c
 207.926 2.186 l 207.926 1.072 207.648 1.072 205.941 1.072 c 205.941 0.279
 l 206.816 0.318 208.125 0.357 208.801 0.357 c 209.477 0.357 210.785 0.318
 211.66 0.279 c 211.66 1.072 l 210.352 1.072 209.715 1.072 209.676 1.826
 c 209.676 6.67 l 209.676 8.854 209.676 9.607 208.879 10.521 c 208.523 10.959
 207.688 11.475 206.219 11.475 c 204.117 11.475 202.965 9.967 202.566 8.975
 c 202.211 11.197 200.344 11.475 199.191 11.475 c 197.328 11.475 196.137
 10.404 195.422 8.814 c 195.422 11.475 l 191.848 11.197 l 191.848 10.404
 l 193.633 10.404 193.832 10.244 193.832 8.975 c h
193.832 8.975 m f
215.809 9.846 m 215.809 17.869 l 212.156 17.588 l 212.156 16.795 l 213.941
 16.795 214.141 16.635 214.141 15.365 c 214.141 0.279 l 214.777 0.279 l 
214.777 0.318 214.973 0.674 215.688 1.865 c 216.047 1.271 217.117 -0.002
 218.984 -0.002 c 222 -0.002 224.621 2.502 224.621 5.756 c 224.621 8.975
 222.16 11.475 219.262 11.475 c 217.277 11.475 216.203 10.283 215.809 9.846
 c h
215.887 3.178 m 215.887 8.377 l 215.887 8.854 215.887 8.893 216.164 9.291
 c 217.156 10.721 218.547 10.92 219.145 10.92 c 220.293 10.92 221.207 10.244
 221.805 9.291 c 222.477 8.26 222.52 6.83 222.52 5.756 c 222.52 4.846 222.477
 3.334 221.762 2.186 c 221.207 1.389 220.254 0.557 218.906 0.557 c 217.754
 0.557 216.84 1.15 216.246 2.104 c 215.887 2.619 215.887 2.701 215.887 3.178
 c h
215.887 3.178 m f
229.035 6.67 m 229.191 10.443 231.336 11.076 232.211 11.076 c 234.793 11.076
 235.07 7.662 235.07 6.67 c h
229.035 6.115 m 236.102 6.115 l 236.656 6.115 236.738 6.115 236.738 6.67
 c 236.738 9.174 235.348 11.635 232.211 11.635 c 229.273 11.635 226.93 9.014
 226.93 5.838 c 226.93 2.463 229.59 -0.002 232.488 -0.002 c 235.586 -0.002
 236.738 2.818 236.738 3.295 c 236.738 3.533 236.539 3.611 236.379 3.611
 c 236.18 3.611 236.102 3.455 236.062 3.256 c 235.188 0.635 232.887 0.635
 232.648 0.635 c 231.375 0.635 230.383 1.389 229.789 2.342 c 229.035 3.533
 229.035 5.201 229.035 6.115 c h
229.035 6.115 m f
241.715 8.697 m 241.715 11.475 l 238.18 11.197 l 238.18 10.404 l 239.969
 10.404 240.164 10.244 240.164 8.975 c 240.164 2.186 l 240.164 1.072 239.887
 1.072 238.18 1.072 c 238.18 0.279 l 239.172 0.318 240.363 0.357 241.078
 0.357 c 242.07 0.357 243.262 0.357 244.293 0.279 c 244.293 1.072 l 243.738
 1.072 l 241.871 1.072 241.832 1.35 241.832 2.264 c 241.832 6.154 l 241.832
 8.654 242.906 10.92 244.812 10.92 c 244.969 10.92 245.051 10.92 245.09 
10.881 c 245.008 10.881 244.492 10.561 244.492 9.885 c 244.492 9.213 245.051
 8.814 245.605 8.814 c 246.043 8.814 246.676 9.131 246.676 9.928 c 246.676
 10.721 245.883 11.475 244.812 11.475 c 242.945 11.475 242.031 9.768 241.715
 8.697 c h
241.715 8.697 m f
267.723 5.717 m 267.723 8.936 265.223 11.635 262.164 11.635 c 258.988 11.635
 256.527 8.854 256.527 5.717 c 256.527 2.424 259.148 -0.002 262.125 -0.002
 c 265.184 -0.002 267.723 2.502 267.723 5.717 c h
262.164 0.635 m 261.055 0.635 259.941 1.15 259.266 2.342 c 258.633 3.455
 258.633 5.002 258.633 5.916 c 258.633 6.908 258.633 8.26 259.227 9.369 
c 259.902 10.521 261.094 11.076 262.125 11.076 c 263.238 11.076 264.309 
10.521 264.984 9.412 c 265.66 8.338 265.66 6.869 265.66 5.916 c 265.66 5.002
 265.66 3.611 265.105 2.502 c 264.508 1.35 263.395 0.635 262.164 0.635 c
 h
262.164 0.635 m f
272.918 11.197 m 272.918 14.135 l 272.918 16.357 274.109 17.588 275.219
 17.588 c 275.301 17.588 275.695 17.588 276.055 17.393 c 275.777 17.311 
275.301 16.955 275.301 16.318 c 275.301 15.764 275.695 15.248 276.41 15.248
 c 277.125 15.248 277.523 15.764 277.523 16.357 c 277.523 17.311 276.57 
18.146 275.219 18.146 c 273.473 18.146 271.289 16.795 271.289 14.096 c 271.289
 11.197 l 269.305 11.197 l 269.305 10.404 l 271.289 10.404 l 271.289 2.186
 l 271.289 1.072 271.012 1.072 269.344 1.072 c 269.344 0.279 l 270.336 0.318
 271.527 0.357 272.203 0.357 c 273.234 0.357 274.426 0.357 275.418 0.279
 c 275.418 1.072 l 274.902 1.072 l 273.035 1.072 272.996 1.35 272.996 2.264
 c 272.996 10.404 l 275.855 10.404 l 275.855 11.197 l h
272.918 11.197 m f
287.48 6.67 m 287.641 10.443 289.785 11.076 290.66 11.076 c 293.238 11.076
 293.516 7.662 293.516 6.67 c h
287.48 6.115 m 294.551 6.115 l 295.105 6.115 295.184 6.115 295.184 6.67
 c 295.184 9.174 293.797 11.635 290.66 11.635 c 287.719 11.635 285.379 9.014
 285.379 5.838 c 285.379 2.463 288.039 -0.002 290.938 -0.002 c 294.035 -0.002
 295.184 2.818 295.184 3.295 c 295.184 3.533 294.988 3.611 294.828 3.611
 c 294.629 3.611 294.551 3.455 294.512 3.256 c 293.637 0.635 291.332 0.635
 291.094 0.635 c 289.824 0.635 288.832 1.389 288.238 2.342 c 287.48 3.533
 287.48 5.201 287.48 6.115 c h
287.48 6.115 m f
300.402 17.869 m 296.746 17.588 l 296.746 16.795 l 298.535 16.795 298.734
 16.635 298.734 15.365 c 298.734 2.186 l 298.734 1.072 298.453 1.072 296.746
 1.072 c 296.746 0.279 l 297.582 0.318 298.93 0.357 299.566 0.357 c 300.203
 0.357 301.434 0.318 302.387 0.279 c 302.387 1.072 l 300.68 1.072 300.402
 1.072 300.402 2.186 c h
300.402 17.869 m f
305.766 6.67 m 305.926 10.443 308.07 11.076 308.941 11.076 c 311.523 11.076
 311.801 7.662 311.801 6.67 c h
305.766 6.115 m 312.832 6.115 l 313.391 6.115 313.469 6.115 313.469 6.67
 c 313.469 9.174 312.078 11.635 308.941 11.635 c 306.004 11.635 303.66 9.014
 303.66 5.838 c 303.66 2.463 306.32 -0.002 309.219 -0.002 c 312.316 -0.002
 313.469 2.818 313.469 3.295 c 313.469 3.533 313.27 3.611 313.113 3.611 
c 312.914 3.611 312.832 3.455 312.793 3.256 c 311.922 0.635 309.617 0.635
 309.379 0.635 c 308.109 0.635 307.117 1.389 306.52 2.342 c 305.766 3.533
 305.766 5.201 305.766 6.115 c h
305.766 6.115 m f
316.977 8.975 m 316.977 2.186 l 316.977 1.072 316.699 1.072 314.992 1.072
 c 314.992 0.279 l 315.906 0.318 317.176 0.357 317.891 0.357 c 318.523 0.357
 319.836 0.318 320.711 0.279 c 320.711 1.072 l 319 1.072 318.723 1.072 318.723
 2.186 c 318.723 6.869 l 318.723 9.49 320.551 10.92 322.137 10.92 c 323.766
 10.92 324.043 9.568 324.043 8.1 c 324.043 2.186 l 324.043 1.072 323.766
 1.072 322.059 1.072 c 322.059 0.279 l 322.934 0.318 324.242 0.357 324.918
 0.357 c 325.555 0.357 326.902 0.318 327.738 0.279 c 327.738 1.072 l 326.07
 1.072 325.793 1.072 325.793 2.186 c 325.793 6.869 l 325.793 9.49 327.578
 10.92 329.207 10.92 c 330.793 10.92 331.074 9.568 331.074 8.1 c 331.074
 2.186 l 331.074 1.072 330.793 1.072 329.086 1.072 c 329.086 0.279 l 329.961
 0.318 331.27 0.357 331.945 0.357 c 332.621 0.357 333.93 0.318 334.805 0.279
 c 334.805 1.072 l 333.496 1.072 332.859 1.072 332.82 1.826 c 332.82 6.67
 l 332.82 8.854 332.82 9.607 332.023 10.521 c 331.668 10.959 330.836 11.475
 329.363 11.475 c 327.262 11.475 326.109 9.967 325.711 8.975 c 325.355 11.197
 323.488 11.475 322.336 11.475 c 320.473 11.475 319.281 10.404 318.566 8.814
 c 318.566 11.475 l 314.992 11.197 l 314.992 10.404 l 316.777 10.404 316.977
 10.244 316.977 8.975 c h
316.977 8.975 m f
338.113 6.67 m 338.273 10.443 340.414 11.076 341.289 11.076 c 343.871 11.076
 344.148 7.662 344.148 6.67 c h
338.113 6.115 m 345.18 6.115 l 345.734 6.115 345.816 6.115 345.816 6.67
 c 345.816 9.174 344.426 11.635 341.289 11.635 c 338.352 11.635 336.008 
9.014 336.008 5.838 c 336.008 2.463 338.668 -0.002 341.566 -0.002 c 344.664
 -0.002 345.816 2.818 345.816 3.295 c 345.816 3.533 345.617 3.611 345.457
 3.611 c 345.262 3.611 345.18 3.455 345.141 3.256 c 344.266 0.635 341.965
 0.635 341.727 0.635 c 340.457 0.635 339.461 1.389 338.867 2.342 c 338.113
 3.533 338.113 5.201 338.113 6.115 c h
338.113 6.115 m f
349.324 8.975 m 349.324 2.186 l 349.324 1.072 349.047 1.072 347.34 1.072
 c 347.34 0.279 l 348.25 0.318 349.523 0.357 350.238 0.357 c 350.871 0.357
 352.184 0.318 353.055 0.279 c 353.055 1.072 l 351.348 1.072 351.07 1.072
 351.07 2.186 c 351.07 6.869 l 351.07 9.49 352.898 10.92 354.484 10.92 c
 356.113 10.92 356.391 9.568 356.391 8.1 c 356.391 2.186 l 356.391 1.072
 356.113 1.072 354.406 1.072 c 354.406 0.279 l 355.281 0.318 356.59 0.357
 357.266 0.357 c 357.898 0.357 359.25 0.318 360.082 0.279 c 360.082 1.072
 l 358.773 1.072 358.137 1.072 358.137 1.826 c 358.137 6.67 l 358.137 8.854
 358.137 9.607 357.344 10.521 c 356.988 10.959 356.152 11.475 354.684 11.475
 c 352.816 11.475 351.625 10.404 350.91 8.814 c 350.91 11.475 l 347.34 11.197
 l 347.34 10.404 l 349.125 10.404 349.324 10.244 349.324 8.975 c h
349.324 8.975 m f
364.27 10.404 m 367.922 10.404 l 367.922 11.197 l 364.27 11.197 l 364.27
 15.842 l 363.633 15.842 l 363.633 13.779 362.879 11.076 360.379 10.959 
c 360.379 10.404 l 362.523 10.404 l 362.523 3.416 l 362.523 0.318 364.906
 -0.002 365.816 -0.002 c 367.605 -0.002 368.32 1.787 368.32 3.416 c 368.32
 4.846 l 367.684 4.846 l 367.684 3.455 l 367.684 1.588 366.93 0.635 365.977
 0.635 c 364.27 0.635 364.27 2.939 364.27 3.373 c h
364.27 10.404 m f
375.027 5.201 m 375.582 5.084 377.648 4.686 377.648 2.857 c 377.648 1.588
 376.773 0.557 374.789 0.557 c 372.645 0.557 371.73 1.986 371.254 4.17 c
 371.176 4.486 371.176 4.564 370.898 4.564 c 370.582 4.564 370.582 4.408
 370.582 3.971 c 370.582 0.596 l 370.582 0.158 370.582 -0.002 370.859 -0.002
 c 370.977 -0.002 371.02 0.041 371.492 0.518 c 371.535 0.557 371.535 0.596
 372.012 1.072 c 373.121 0.041 374.273 -0.002 374.789 -0.002 c 377.688 -0.002
 378.879 1.709 378.879 3.533 c 378.879 4.846 378.125 5.639 377.809 5.916
 c 376.973 6.748 375.98 6.947 374.91 7.146 c 373.48 7.424 371.812 7.744 
371.812 9.213 c 371.812 10.123 372.445 11.158 374.629 11.158 c 377.41 11.158
 377.57 8.854 377.609 8.1 c 377.609 7.861 377.848 7.861 377.887 7.861 c 
378.242 7.861 378.242 7.982 378.242 8.459 c 378.242 11.037 l 378.242 11.436
 378.242 11.635 377.965 11.635 c 377.848 11.635 377.766 11.635 377.449 11.314
 c 377.371 11.236 377.133 10.998 377.012 10.92 c 376.059 11.635 375.027 
11.635 374.629 11.635 c 371.535 11.635 370.582 9.928 370.582 8.498 c 370.582
 7.623 370.977 6.908 371.652 6.354 c 372.488 5.717 373.203 5.561 375.027
 5.201 c h
375.027 5.201 m f
15.246 196.541 m 16.16 196.541 16.438 196.463 16.438 194.514 c 16.438 193.92
 l 17.23 193.92 l 17.23 208.533 l 10.68 209.604 l 10.68 208.967 l 14.613
 208.334 16.438 207.736 16.438 203.408 c 16.438 200.033 l 16.438 198.842
 16.277 198.803 15.445 198.803 c 8.656 198.803 l 8.656 201.068 l 8.656 203.529
 9.488 203.807 11.633 203.807 c 11.633 204.443 l 4.922 204.443 l 4.922 203.807
 l 7.105 203.807 7.902 203.529 7.902 201.068 c 7.902 198.803 l 1.785 198.803
 l 0.953 198.803 0.793 198.842 0.793 200.033 c 0.793 203.291 l 0.793 207.182
 2.184 207.857 5.719 208.252 c 5.719 208.889 l 0 208.174 l 0 193.92 l 0.793
 193.92 l 0.793 194.514 l 0.793 196.463 1.07 196.541 1.984 196.541 c h
15.246 196.541 m f
8.816 214.564 m 6.035 214.564 l 6.312 211.029 l 7.105 211.029 l 7.105 212.818
 7.266 213.018 8.535 213.018 c 15.328 213.018 l 16.438 213.018 16.438 212.74
 16.438 211.029 c 17.23 211.029 l 17.191 212.025 17.152 213.217 17.152 213.932
 c 17.152 214.924 17.152 216.115 17.23 217.146 c 16.438 217.146 l 16.438
 216.592 l 16.438 214.725 16.16 214.686 15.246 214.686 c 11.355 214.686 
l 8.855 214.686 6.59 215.756 6.59 217.662 c 6.59 217.822 6.59 217.9 6.629
 217.939 c 6.629 217.861 6.949 217.346 7.625 217.346 c 8.297 217.346 8.695
 217.9 8.695 218.455 c 8.695 218.893 8.379 219.529 7.582 219.529 c 6.789
 219.529 6.035 218.732 6.035 217.662 c 6.035 215.795 7.742 214.881 8.816
 214.564 c h
8.816 214.564 m f
8.816 224.482 m 6.035 224.482 l 6.312 220.947 l 7.105 220.947 l 7.105 222.736
 7.266 222.932 8.535 222.932 c 15.328 222.932 l 16.438 222.932 16.438 222.654
 16.438 220.947 c 17.23 220.947 l 17.191 221.939 17.152 223.131 17.152 223.846
 c 17.152 224.838 17.152 226.029 17.23 227.061 c 16.438 227.061 l 16.438
 226.506 l 16.438 224.639 16.16 224.6 15.246 224.6 c 11.355 224.6 l 8.855
 224.6 6.59 225.674 6.59 227.58 c 6.59 227.736 6.59 227.818 6.629 227.857
 c 6.629 227.775 6.949 227.26 7.625 227.26 c 8.297 227.26 8.695 227.818 
8.695 228.373 c 8.695 228.811 8.379 229.443 7.582 229.443 c 6.789 229.443
 6.035 228.65 6.035 227.58 c 6.035 225.713 7.742 224.799 8.816 224.482 c
 h
8.816 224.482 m f
11.793 242.061 m 8.578 242.061 5.875 239.561 5.875 236.502 c 5.875 233.326
 8.656 230.865 11.793 230.865 c 15.09 230.865 17.512 233.486 17.512 236.463
 c 17.512 239.521 15.008 242.061 11.793 242.061 c h
16.875 236.502 m 16.875 235.393 16.359 234.279 15.168 233.604 c 14.055 
232.967 12.508 232.967 11.594 232.967 c 10.602 232.967 9.25 232.967 8.141
 233.564 c 6.988 234.24 6.434 235.432 6.434 236.463 c 6.434 237.576 6.988
 238.646 8.102 239.322 c 9.172 239.998 10.641 239.998 11.594 239.998 c 12.508
 239.998 13.898 239.998 15.008 239.439 c 16.16 238.846 16.875 237.732 16.875
 236.502 c h
16.875 236.502 m f
8.816 247.057 m 6.035 247.057 l 6.312 243.521 l 7.105 243.521 l 7.105 245.311
 7.266 245.506 8.535 245.506 c 15.328 245.506 l 16.438 245.506 16.438 245.229
 16.438 243.521 c 17.23 243.521 l 17.191 244.514 17.152 245.705 17.152 246.42
 c 17.152 247.412 17.152 248.604 17.23 249.639 c 16.438 249.639 l 16.438
 249.08 l 16.438 247.217 16.16 247.174 15.246 247.174 c 11.355 247.174 l
 8.855 247.174 6.59 248.248 6.59 250.154 c 6.59 250.311 6.59 250.393 6.629
 250.432 c 6.629 250.354 6.949 249.834 7.625 249.834 c 8.297 249.834 8.695
 250.393 8.695 250.947 c 8.695 251.385 8.379 252.018 7.582 252.018 c 6.789
 252.018 6.035 251.225 6.035 250.154 c 6.035 248.287 7.742 247.373 8.816
 247.057 c h
8.816 247.057 m f
Q Q
showpage
%%Trailer
end restore
%%EOF
