%!PS-Adobe-3.0 EPSF-3.0
%%Creator: cairo 1.14.8 (http://cairographics.org)
%%CreationDate: Thu Oct  5 12:22:18 2017
%%Pages: 1
%%DocumentData: Clean7Bit
%%LanguageLevel: 2
%%BoundingBox: 0 -1 783 206
%%EndComments
%%BeginProlog
save
50 dict begin
/q { gsave } bind def
/Q { grestore } bind def
/cm { 6 array astore concat } bind def
/w { setlinewidth } bind def
/J { setlinecap } bind def
/j { setlinejoin } bind def
/M { setmiterlimit } bind def
/d { setdash } bind def
/m { moveto } bind def
/l { lineto } bind def
/c { curveto } bind def
/h { closepath } bind def
/re { exch dup neg 3 1 roll 5 3 roll moveto 0 rlineto
      0 exch rlineto 0 rlineto closepath } bind def
/S { stroke } bind def
/f { fill } bind def
/f* { eofill } bind def
/n { newpath } bind def
/W { clip } bind def
/W* { eoclip } bind def
/BT { } bind def
/ET { } bind def
/pdfmark where { pop globaldict /?pdfmark /exec load put }
    { globaldict begin /?pdfmark /pop load def /pdfmark
    /cleartomark load def end } ifelse
/BDC { mark 3 1 roll /BDC pdfmark } bind def
/EMC { mark /EMC pdfmark } bind def
/cairo_store_point { /cairo_point_y exch def /cairo_point_x exch def } def
/Tj { show currentpoint cairo_store_point } bind def
/TJ {
  {
    dup
    type /stringtype eq
    { show } { -0.001 mul 0 cairo_font_matrix dtransform rmoveto } ifelse
  } forall
  currentpoint cairo_store_point
} bind def
/cairo_selectfont { cairo_font_matrix aload pop pop pop 0 0 6 array astore
    cairo_font exch selectfont cairo_point_x cairo_point_y moveto } bind def
/Tf { pop /cairo_font exch def /cairo_font_matrix where
      { pop cairo_selectfont } if } bind def
/Td { matrix translate cairo_font_matrix matrix concatmatrix dup
      /cairo_font_matrix exch def dup 4 get exch 5 get cairo_store_point
      /cairo_font where { pop cairo_selectfont } if } bind def
/Tm { 2 copy 8 2 roll 6 array astore /cairo_font_matrix exch def
      cairo_store_point /cairo_font where { pop cairo_selectfont } if } bind def
/g { setgray } bind def
/rg { setrgbcolor } bind def
/d1 { setcachedevice } bind def
%%EndProlog
%%BeginSetup
%%EndSetup
%%Page: 1 1
%%BeginPageSetup
%%PageBoundingBox: 0 -1 783 206
%%EndPageSetup
q 0 -1 783 207 rectclip q
0.764706 g
661.418 185.167 m 762.668 185.167 l 762.668 87.667 l 661.418 185.167 l f
0 g
0.75 w
0 J
0 j
[] 0.0 d
4 M q 1 0 0 -1 0 205.334641 cm
661.418 20.168 m 762.668 20.168 l 762.668 117.668 l 661.418 20.168 l S Q
2.834646 w
q 1 0 0 -1 0 205.334641 cm
597.668 20.168 165 165 re S Q
1 g
616.418 185.167 m 616.418 174.811 608.023 166.417 597.668 166.417 c 587.312
 166.417 578.918 174.811 578.918 185.167 c 578.918 195.522 587.312 203.917
 597.668 203.917 c 608.023 203.917 616.418 195.522 616.418 185.167 c h
616.418 185.167 m f
0 g
q 1 0 0 -1 0 205.334641 cm
616.418 20.168 m 616.418 30.523 608.023 38.918 597.668 38.918 c 587.312
 38.918 578.918 30.523 578.918 20.168 c 578.918 9.812 587.312 1.418 597.668
 1.418 c 608.023 1.418 616.418 9.812 616.418 20.168 c h
616.418 20.168 m S Q
1 g
781.418 185.167 m 781.418 174.811 773.023 166.417 762.668 166.417 c 752.312
 166.417 743.918 174.811 743.918 185.167 c 743.918 195.522 752.312 203.917
 762.668 203.917 c 773.023 203.917 781.418 195.522 781.418 185.167 c h
781.418 185.167 m f
0 g
q 1 0 0 -1 0 205.334641 cm
781.418 20.168 m 781.418 30.523 773.023 38.918 762.668 38.918 c 752.312
 38.918 743.918 30.523 743.918 20.168 c 743.918 9.812 752.312 1.418 762.668
 1.418 c 773.023 1.418 781.418 9.812 781.418 20.168 c h
781.418 20.168 m S Q
1 g
781.418 20.167 m 781.418 9.811 773.023 1.417 762.668 1.417 c 752.312 1.417
 743.918 9.811 743.918 20.167 c 743.918 30.522 752.312 38.917 762.668 38.917
 c 773.023 38.917 781.418 30.522 781.418 20.167 c h
781.418 20.167 m f
0 g
q 1 0 0 -1 0 205.334641 cm
781.418 185.168 m 781.418 195.523 773.023 203.918 762.668 203.918 c 752.312
 203.918 743.918 195.523 743.918 185.168 c 743.918 174.812 752.312 166.418
 762.668 166.418 c 773.023 166.418 781.418 174.812 781.418 185.168 c h
781.418 185.168 m S Q
1 g
616.418 20.167 m 616.418 9.811 608.023 1.417 597.668 1.417 c 587.312 1.417
 578.918 9.811 578.918 20.167 c 578.918 30.522 587.312 38.917 597.668 38.917
 c 608.023 38.917 616.418 30.522 616.418 20.167 c h
616.418 20.167 m f
0 g
q 1 0 0 -1 0 205.334641 cm
616.418 185.168 m 616.418 195.523 608.023 203.918 597.668 203.918 c 587.312
 203.918 578.918 195.523 578.918 185.168 c 578.918 174.812 587.312 166.418
 597.668 166.418 c 608.023 166.418 616.418 174.812 616.418 185.168 c h
616.418 185.168 m S Q
5.669291 w
q 1 0 0 -1 0 205.334641 cm
586.418 20.168 m 608.918 20.168 l S Q
q 1 0 0 -1 0 205.334641 cm
597.668 8.918 m 597.668 31.418 l S Q
q 1 0 0 -1 0 205.334641 cm
751.418 20.168 m 773.918 20.168 l S Q
q 1 0 0 -1 0 205.334641 cm
751.418 185.168 m 773.918 185.168 l S Q
q 1 0 0 -1 0 205.334641 cm
762.668 173.918 m 762.668 196.418 l S Q
q 1 0 0 -1 0 205.334641 cm
586.418 185.168 m 608.918 185.168 l S Q
q 1 0 0 -1 0 205.334641 cm
597.668 173.918 m 597.668 196.418 l S Q
665.168 185.167 m 665.168 183.096 663.488 181.417 661.418 181.417 c 659.348
 181.417 657.668 183.096 657.668 185.167 c 657.668 187.237 659.348 188.917
 661.418 188.917 c 663.488 188.917 665.168 187.237 665.168 185.167 c h
665.168 185.167 m f
q 1 0 0 -1 0 205.334641 cm
665.168 20.168 m 665.168 22.238 663.488 23.918 661.418 23.918 c 659.348
 23.918 657.668 22.238 657.668 20.168 c 657.668 18.098 659.348 16.418 661.418
 16.418 c 663.488 16.418 665.168 18.098 665.168 20.168 c h
665.168 20.168 m S Q
766.418 87.667 m 766.418 85.596 764.738 83.917 762.668 83.917 c 760.598
 83.917 758.918 85.596 758.918 87.667 c 758.918 89.737 760.598 91.417 762.668
 91.417 c 764.738 91.417 766.418 89.737 766.418 87.667 c h
766.418 87.667 m f
q 1 0 0 -1 0 205.334641 cm
766.418 117.668 m 766.418 119.738 764.738 121.418 762.668 121.418 c 760.598
 121.418 758.918 119.738 758.918 117.668 c 758.918 115.598 760.598 113.918
 762.668 113.918 c 764.738 113.918 766.418 115.598 766.418 117.668 c h
766.418 117.668 m S Q
2.834646 w
q 1 0 0 -1 0 205.334641 cm
661.418 20.168 m 762.668 117.668 l S Q
q 1 0 0 -1 0 205.334641 cm
308.918 20.168 165 165 re S Q
1 g
327.668 185.167 m 327.668 174.811 319.273 166.417 308.918 166.417 c 298.562
 166.417 290.168 174.811 290.168 185.167 c 290.168 195.522 298.562 203.917
 308.918 203.917 c 319.273 203.917 327.668 195.522 327.668 185.167 c h
327.668 185.167 m f
0 g
q 1 0 0 -1 0 205.334641 cm
327.668 20.168 m 327.668 30.523 319.273 38.918 308.918 38.918 c 298.562
 38.918 290.168 30.523 290.168 20.168 c 290.168 9.812 298.562 1.418 308.918
 1.418 c 319.273 1.418 327.668 9.812 327.668 20.168 c h
327.668 20.168 m S Q
1 g
492.668 185.167 m 492.668 174.811 484.273 166.417 473.918 166.417 c 463.562
 166.417 455.168 174.811 455.168 185.167 c 455.168 195.522 463.562 203.917
 473.918 203.917 c 484.273 203.917 492.668 195.522 492.668 185.167 c h
492.668 185.167 m f
0 g
q 1 0 0 -1 0 205.334641 cm
492.668 20.168 m 492.668 30.523 484.273 38.918 473.918 38.918 c 463.562
 38.918 455.168 30.523 455.168 20.168 c 455.168 9.812 463.562 1.418 473.918
 1.418 c 484.273 1.418 492.668 9.812 492.668 20.168 c h
492.668 20.168 m S Q
1 g
492.668 20.167 m 492.668 9.811 484.273 1.417 473.918 1.417 c 463.562 1.417
 455.168 9.811 455.168 20.167 c 455.168 30.522 463.562 38.917 473.918 38.917
 c 484.273 38.917 492.668 30.522 492.668 20.167 c h
492.668 20.167 m f
0 g
q 1 0 0 -1 0 205.334641 cm
492.668 185.168 m 492.668 195.523 484.273 203.918 473.918 203.918 c 463.562
 203.918 455.168 195.523 455.168 185.168 c 455.168 174.812 463.562 166.418
 473.918 166.418 c 484.273 166.418 492.668 174.812 492.668 185.168 c h
492.668 185.168 m S Q
1 g
327.668 20.167 m 327.668 9.811 319.273 1.417 308.918 1.417 c 298.562 1.417
 290.168 9.811 290.168 20.167 c 290.168 30.522 298.562 38.917 308.918 38.917
 c 319.273 38.917 327.668 30.522 327.668 20.167 c h
327.668 20.167 m f
0 g
q 1 0 0 -1 0 205.334641 cm
327.668 185.168 m 327.668 195.523 319.273 203.918 308.918 203.918 c 298.562
 203.918 290.168 195.523 290.168 185.168 c 290.168 174.812 298.562 166.418
 308.918 166.418 c 319.273 166.418 327.668 174.812 327.668 185.168 c h
327.668 185.168 m S Q
5.669291 w
q 1 0 0 -1 0 205.334641 cm
297.668 20.168 m 320.168 20.168 l S Q
q 1 0 0 -1 0 205.334641 cm
308.918 8.918 m 308.918 31.418 l S Q
q 1 0 0 -1 0 205.334641 cm
462.668 20.168 m 485.168 20.168 l S Q
q 1 0 0 -1 0 205.334641 cm
462.668 185.168 m 485.168 185.168 l S Q
q 1 0 0 -1 0 205.334641 cm
473.918 173.918 m 473.918 196.418 l S Q
q 1 0 0 -1 0 205.334641 cm
297.668 185.168 m 320.168 185.168 l S Q
q 1 0 0 -1 0 205.334641 cm
308.918 173.918 m 308.918 196.418 l S Q
376.418 185.167 m 376.418 183.096 374.738 181.417 372.668 181.417 c 370.598
 181.417 368.918 183.096 368.918 185.167 c 368.918 187.237 370.598 188.917
 372.668 188.917 c 374.738 188.917 376.418 187.237 376.418 185.167 c h
376.418 185.167 m f
q 1 0 0 -1 0 205.334641 cm
376.418 20.168 m 376.418 22.238 374.738 23.918 372.668 23.918 c 370.598
 23.918 368.918 22.238 368.918 20.168 c 368.918 18.098 370.598 16.418 372.668
 16.418 c 374.738 16.418 376.418 18.098 376.418 20.168 c h
376.418 20.168 m S Q
477.668 87.667 m 477.668 85.596 475.988 83.917 473.918 83.917 c 471.848
 83.917 470.168 85.596 470.168 87.667 c 470.168 89.737 471.848 91.417 473.918
 91.417 c 475.988 91.417 477.668 89.737 477.668 87.667 c h
477.668 87.667 m f
q 1 0 0 -1 0 205.334641 cm
477.668 117.668 m 477.668 119.738 475.988 121.418 473.918 121.418 c 471.848
 121.418 470.168 119.738 470.168 117.668 c 470.168 115.598 471.848 113.918
 473.918 113.918 c 475.988 113.918 477.668 115.598 477.668 117.668 c h
477.668 117.668 m S Q
2.834646 w
q 1 0 0 -1 0 205.334641 cm
20.168 20.168 165 165 re S Q
1 g
38.918 185.167 m 38.918 174.811 30.523 166.417 20.168 166.417 c 9.812 166.417
 1.418 174.811 1.418 185.167 c 1.418 195.522 9.812 203.917 20.168 203.917
 c 30.523 203.917 38.918 195.522 38.918 185.167 c h
38.918 185.167 m f
0 g
q 1 0 0 -1 0 205.334641 cm
38.918 20.168 m 38.918 30.523 30.523 38.918 20.168 38.918 c 9.812 38.918
 1.418 30.523 1.418 20.168 c 1.418 9.812 9.812 1.418 20.168 1.418 c 30.523
 1.418 38.918 9.812 38.918 20.168 c h
38.918 20.168 m S Q
1 g
203.918 185.167 m 203.918 174.811 195.523 166.417 185.168 166.417 c 174.812
 166.417 166.418 174.811 166.418 185.167 c 166.418 195.522 174.812 203.917
 185.168 203.917 c 195.523 203.917 203.918 195.522 203.918 185.167 c h
203.918 185.167 m f
0 g
q 1 0 0 -1 0 205.334641 cm
203.918 20.168 m 203.918 30.523 195.523 38.918 185.168 38.918 c 174.812
 38.918 166.418 30.523 166.418 20.168 c 166.418 9.812 174.812 1.418 185.168
 1.418 c 195.523 1.418 203.918 9.812 203.918 20.168 c h
203.918 20.168 m S Q
1 g
203.918 20.167 m 203.918 9.811 195.523 1.417 185.168 1.417 c 174.812 1.417
 166.418 9.811 166.418 20.167 c 166.418 30.522 174.812 38.917 185.168 38.917
 c 195.523 38.917 203.918 30.522 203.918 20.167 c h
203.918 20.167 m f
0 g
q 1 0 0 -1 0 205.334641 cm
203.918 185.168 m 203.918 195.523 195.523 203.918 185.168 203.918 c 174.812
 203.918 166.418 195.523 166.418 185.168 c 166.418 174.812 174.812 166.418
 185.168 166.418 c 195.523 166.418 203.918 174.812 203.918 185.168 c h
203.918 185.168 m S Q
1 g
38.918 20.167 m 38.918 9.811 30.523 1.417 20.168 1.417 c 9.812 1.417 1.418
 9.811 1.418 20.167 c 1.418 30.522 9.812 38.917 20.168 38.917 c 30.523 38.917
 38.918 30.522 38.918 20.167 c h
38.918 20.167 m f
0 g
q 1 0 0 -1 0 205.334641 cm
38.918 185.168 m 38.918 195.523 30.523 203.918 20.168 203.918 c 9.812 203.918
 1.418 195.523 1.418 185.168 c 1.418 174.812 9.812 166.418 20.168 166.418
 c 30.523 166.418 38.918 174.812 38.918 185.168 c h
38.918 185.168 m S Q
5.669291 w
q 1 0 0 -1 0 205.334641 cm
8.918 20.168 m 31.418 20.168 l S Q
q 1 0 0 -1 0 205.334641 cm
20.168 8.918 m 20.168 31.418 l S Q
q 1 0 0 -1 0 205.334641 cm
173.918 20.168 m 196.418 20.168 l S Q
q 1 0 0 -1 0 205.334641 cm
173.918 185.168 m 196.418 185.168 l S Q
q 1 0 0 -1 0 205.334641 cm
185.168 173.918 m 185.168 196.418 l S Q
q 1 0 0 -1 0 205.334641 cm
8.918 185.168 m 31.418 185.168 l S Q
q 1 0 0 -1 0 205.334641 cm
20.168 173.918 m 20.168 196.418 l S Q
222.262 117.671 m 222.262 87.663 l 241.77 87.663 l 241.77 66.655 l 271.777
 102.667 l 241.77 138.678 l 241.77 117.671 l h
222.262 117.671 m f
0.300096 w
q 1 0 0 -1 0 205.334641 cm
222.262 87.664 m 222.262 117.672 l 241.77 117.672 l 241.77 138.68 l 271.777
 102.668 l 241.77 66.656 l 241.77 87.664 l h
222.262 87.664 m S Q
511.012 117.671 m 511.012 87.663 l 530.52 87.663 l 530.52 66.655 l 560.527
 102.667 l 530.52 138.678 l 530.52 117.671 l h
511.012 117.671 m f
0.300096 w
q 1 0 0 -1 0 205.334641 cm
511.012 87.664 m 511.012 117.672 l 530.52 117.672 l 530.52 138.68 l 560.527
 102.668 l 530.52 66.656 l 530.52 87.664 l h
511.012 87.664 m S Q
Q Q
showpage
%%Trailer
end restore
%%EOF
