%!PS-Adobe-3.0 EPSF-3.0
%%Creator: cairo 1.14.6 (http://cairographics.org)
%%CreationDate: Fri Dec  8 02:29:47 2017
%%Pages: 1
%%DocumentData: Clean7Bit
%%LanguageLevel: 2
%%BoundingBox: 0 -1 403 205
%%EndComments
%%BeginProlog
save
50 dict begin
/q { gsave } bind def
/Q { grestore } bind def
/cm { 6 array astore concat } bind def
/w { setlinewidth } bind def
/J { setlinecap } bind def
/j { setlinejoin } bind def
/M { setmiterlimit } bind def
/d { setdash } bind def
/m { moveto } bind def
/l { lineto } bind def
/c { curveto } bind def
/h { closepath } bind def
/re { exch dup neg 3 1 roll 5 3 roll moveto 0 rlineto
      0 exch rlineto 0 rlineto closepath } bind def
/S { stroke } bind def
/f { fill } bind def
/f* { eofill } bind def
/n { newpath } bind def
/W { clip } bind def
/W* { eoclip } bind def
/BT { } bind def
/ET { } bind def
/pdfmark where { pop globaldict /?pdfmark /exec load put }
    { globaldict begin /?pdfmark /pop load def /pdfmark
    /cleartomark load def end } ifelse
/BDC { mark 3 1 roll /BDC pdfmark } bind def
/EMC { mark /EMC pdfmark } bind def
/cairo_store_point { /cairo_point_y exch def /cairo_point_x exch def } def
/Tj { show currentpoint cairo_store_point } bind def
/TJ {
  {
    dup
    type /stringtype eq
    { show } { -0.001 mul 0 cairo_font_matrix dtransform rmoveto } ifelse
  } forall
  currentpoint cairo_store_point
} bind def
/cairo_selectfont { cairo_font_matrix aload pop pop pop 0 0 6 array astore
    cairo_font exch selectfont cairo_point_x cairo_point_y moveto } bind def
/Tf { pop /cairo_font exch def /cairo_font_matrix where
      { pop cairo_selectfont } if } bind def
/Td { matrix translate cairo_font_matrix matrix concatmatrix dup
      /cairo_font_matrix exch def dup 4 get exch 5 get cairo_store_point
      /cairo_font where { pop cairo_selectfont } if } bind def
/Tm { 2 copy 8 2 roll 6 array astore /cairo_font_matrix exch def
      cairo_store_point /cairo_font where { pop cairo_selectfont } if } bind def
/g { setgray } bind def
/rg { setrgbcolor } bind def
/d1 { setcachedevice } bind def
%%EndProlog
%%BeginSetup
%%EndSetup
%%Page: 1 1
%%BeginPageSetup
%%PageBoundingBox: 0 -1 403 205
%%EndPageSetup
q 0 -1 403 206 rectclip q
0 g
0.8 w
1 J
0 j
[] 0.0 d
4 M q 1 0 0 -1 0 204.422043 cm
128.973 97.27 m 128.801 106.074 121.547 113.086 112.742 112.957 c 103.938
 112.828 96.891 105.605 96.977 96.801 c 97.062 87.996 104.25 80.914 113.055
 80.957 c 121.863 81 128.977 88.152 128.977 96.957 c S Q
202.578 115.465 m 202.578 99.465 l 218.578 99.465 l 218.578 91.465 l 234.578
 107.465 l 218.578 123.465 l 218.578 115.465 l h
202.578 115.465 m f*
0 J
q 1 0 0 -1 0 204.422043 cm
202.578 88.957 m 202.578 104.957 l 218.578 104.957 l 218.578 112.957 l 
234.578 96.957 l 218.578 80.957 l 218.578 88.957 l h
202.578 88.957 m S Q
1 J
q 1 0 0 -1 0 204.422043 cm
32.977 16.957 160 160 re S Q
0.701961 g
33.207 187.223 m 32.797 156.641 33.148 125.93 33.031 95.297 c 33.031 27.867
 l 35.484 26.02 39.812 27.586 42.977 27.067 c 192.117 27.067 l 193.965 29.52
 192.398 33.848 192.918 37.008 c 192.918 186.723 l 190.465 188.57 186.137
 187.004 182.977 187.524 c 33.832 187.524 l 33.316 187.278 l h
112.977 123.067 m 121.852 123.695 129.797 115.254 128.656 106.434 c 128.574
 98.281 121.133 91.574 113.09 91.727 c 103.941 91.055 96.062 100.133 97.254
 109.028 c 97.734 116.949 105 123.559 112.977 123.067 c h
112.977 123.067 m f
0 g
0.571429 w
1 M q 1 0 0 -1 0 204.422043 cm
33.207 17.199 m 32.797 47.781 33.148 78.492 33.031 109.125 c 33.031 176.555
 l 35.484 178.402 39.812 176.836 42.977 177.355 c 192.117 177.355 l 193.965
 174.902 192.398 170.574 192.918 167.414 c 192.918 17.699 l 190.465 15.852
 186.137 17.418 182.977 16.898 c 33.832 16.898 l 33.316 17.145 l h
112.977 81.355 m 121.852 80.727 129.797 89.168 128.656 97.988 c 128.574
 106.141 121.133 112.848 113.09 112.695 c 103.941 113.367 96.062 104.289
 97.254 95.395 c 97.734 87.473 105 80.863 112.977 81.355 c h
112.977 81.355 m S Q
0.8 w
0 J
4 M q 1 0 0 -1 0 204.422043 cm
113.98 97.91 m 123.32 107.285 l S Q
115.562 102.18 m 113.227 107.254 l 118.293 104.903 l 116.895 104.692 115.797
 103.59 115.562 102.18 c h
115.562 102.18 m f*
0.212498 w
1 j
q 0.996556 -1 -1 -0.996556 0 204.422043 cm
109.078 -6.86 m 105.365 -8.225 l 109.078 -9.591 l 108.484 -8.784 108.488
 -7.682 109.078 -6.86 c h
109.078 -6.86 m S Q
121.738 101.469 m 124.074 96.391 l 119.004 98.746 l 120.402 98.957 121.504
 100.059 121.738 101.469 c h
121.738 101.469 m f*
q -0.996556 1 1 0.996556 0 204.422043 cm
-112.523 9.603 m -116.239 8.236 l -112.522 6.87 l -113.115 7.677 -113.113
 8.78 -112.523 9.603 c h
-112.523 9.603 m S Q
0.8 w
0 j
q 1 0 0 -1 0 204.422043 cm
118.848 103.055 m 81.02 141.156 l 109.109 141.156 l S Q
102.777 65.918 m 102.727 65.664 102.629 65.285 102.629 65.211 c 102.629
 64.934 102.855 64.781 103.105 64.781 c 103.309 64.781 103.586 64.91 103.711
 65.235 c 103.738 65.285 104.266 67.481 104.344 67.781 c 104.469 68.313 
104.77 69.422 104.848 69.875 c 104.922 70.078 105.375 70.832 105.754 71.184
 c 105.879 71.285 106.359 71.715 107.039 71.715 c 107.469 71.715 107.695
 71.512 107.719 71.512 c 107.242 71.438 106.887 71.059 106.887 70.629 c 
106.887 70.379 107.062 70.078 107.492 70.078 c 107.922 70.078 108.375 70.453
 108.375 71.035 c 108.375 71.59 107.871 72.067 107.039 72.067 c 106.004 
72.067 105.301 71.285 104.996 70.832 c 104.848 71.563 104.266 72.067 103.512
 72.067 c 102.777 72.067 102.477 71.438 102.324 71.16 c 102.047 70.606 101.848
 69.649 101.848 69.598 c 101.848 69.422 101.996 69.422 102.023 69.422 c 
102.199 69.422 102.199 69.445 102.301 69.801 c 102.578 70.934 102.906 71.715
 103.484 71.715 c 103.738 71.715 103.965 71.59 103.965 70.985 c 103.965 
70.629 103.914 70.453 103.711 69.621 c h
102.777 65.918 m f
187.855 33.914 m 187.453 33.914 l 187.379 33.512 187.305 33.133 187.152
 32.754 c 187.074 32.5 187.027 32.352 186.094 32.352 c 184.809 32.352 l 
185.035 33.258 185.512 34.039 186.242 35.098 c 187 36.235 187.656 37.344
 187.656 38.629 c 187.656 40.848 185.488 42.66 182.766 42.66 c 180.016 42.66
 177.875 40.82 177.875 38.629 c 177.875 37.344 178.531 36.235 179.285 35.098
 c 179.992 34.039 180.496 33.258 180.723 32.352 c 179.438 32.352 l 178.504
 32.352 178.453 32.5 178.379 32.731 c 178.227 33.106 178.152 33.512 178.078
 33.914 c 177.672 33.914 l 178.203 31.317 l 180.773 31.317 l 181.125 31.317
 181.176 31.317 181.176 31.645 c 181.176 32.778 180.672 34.192 180.32 35.223
 c 179.969 36.156 179.512 37.418 179.512 38.629 c 179.512 41.199 181.305
 42.309 182.766 42.309 c 184.305 42.309 186.016 41.149 186.016 38.629 c 
186.016 37.418 185.562 36.207 185.109 34.899 c 184.859 34.215 184.352 32.754
 184.352 31.645 c 184.352 31.317 184.402 31.317 184.758 31.317 c 187.328
 31.317 l h
187.855 33.914 m f
182.664 204.356 m 174.297 204.356 l 174.297 203.852 l 174.676 203.852 l
 175.91 203.852 175.961 203.676 175.961 203.098 c 175.961 194.676 l 175.961
 194.098 175.91 193.922 174.676 193.922 c 174.297 193.922 l 174.297 193.414
 l 174.852 193.465 176.113 193.465 176.742 193.465 c 177.398 193.465 178.859
 193.465 179.438 193.414 c 179.438 193.922 l 178.91 193.922 l 177.398 193.922
 177.398 194.121 177.398 194.676 c 177.398 203.223 l 177.398 203.75 177.422
 203.852 178.18 203.852 c 179.844 203.852 l 182.137 203.852 182.465 202.895
 182.715 200.727 c 183.121 200.727 l h
182.664 204.356 m f
184.469 198.695 m 184.469 198.289 l 184.746 198.289 l 185.602 198.289 185.629
 198.164 185.629 197.762 c 185.629 191.914 l 185.629 191.535 185.602 191.41
 184.746 191.41 c 184.469 191.41 l 184.469 191.004 l 188.906 191.004 l 190.973
 191.004 192.688 192.668 192.688 194.785 c 192.688 196.93 191 198.695 188.906
 198.695 c h
187.191 191.41 m 186.664 191.41 186.637 191.512 186.637 191.836 c 186.637
 197.836 l 186.637 198.192 186.664 198.289 187.191 198.289 c 188.578 198.289
 l 189.535 198.289 190.367 197.887 190.898 197.231 c 191.352 196.629 191.527
 195.77 191.527 194.785 c 191.527 193.477 191.199 192.797 190.797 192.34
 c 190.293 191.762 189.484 191.41 188.602 191.41 c h
187.191 191.41 m f
45.211 44.668 m 36.84 44.668 l 36.84 44.164 l 37.219 44.164 l 38.453 44.164
 38.504 43.988 38.504 43.406 c 38.504 34.988 l 38.504 34.406 38.453 34.231
 37.219 34.231 c 36.84 34.231 l 36.84 33.727 l 37.395 33.778 38.656 33.778
 39.285 33.778 c 39.941 33.778 41.402 33.778 41.984 33.727 c 41.984 34.231
 l 41.453 34.231 l 39.941 34.231 39.941 34.434 39.941 34.988 c 39.941 43.535
 l 39.941 44.063 39.969 44.164 40.723 44.164 c 42.387 44.164 l 44.68 44.164
 45.008 43.207 45.262 41.039 c 45.664 41.039 l h
45.211 44.668 m f
49.207 38.074 m 49.207 38.449 49.207 38.602 50.141 38.602 c 50.418 38.602
 l 50.418 39.004 l 50.34 39.004 49.133 38.957 48.676 38.957 c 48.223 38.957
 46.988 39.004 46.938 39.004 c 46.938 38.602 l 47.215 38.602 l 48.148 38.602
 48.148 38.449 48.148 38.074 c 48.148 32.25 l 48.148 31.848 48.148 31.719
 47.215 31.719 c 46.938 31.719 l 46.938 31.317 l 47.016 31.317 48.223 31.367
 48.676 31.367 c 49.133 31.367 50.367 31.317 50.418 31.317 c 50.418 31.719
 l 50.141 31.719 l 49.207 31.719 49.207 31.848 49.207 32.25 c h
49.207 38.074 m f
89.008 99.043 m 80.641 99.043 l 80.641 98.539 l 81.016 98.539 l 82.254 
98.539 82.305 98.36 82.305 97.781 c 82.305 89.36 l 82.305 88.781 82.254 
88.606 81.016 88.606 c 80.641 88.606 l 80.641 88.102 l 81.195 88.153 82.453
 88.153 83.086 88.153 c 83.738 88.153 85.203 88.153 85.781 88.102 c 85.781
 88.606 l 85.254 88.606 l 83.738 88.606 83.738 88.809 83.738 89.36 c 83.738
 97.906 l 83.738 98.438 83.766 98.539 84.523 98.539 c 86.184 98.539 l 88.48
 98.539 88.809 97.578 89.059 95.41 c 89.461 95.41 l h
89.008 99.043 m f
95.855 90.656 m 95.5 90.656 l 95.098 89.672 l 94.746 90.203 94.191 90.656
 93.383 90.656 c 91.945 90.656 90.688 89.547 90.688 88.11 c 90.688 86.699
 91.871 85.59 93.281 85.59 c 94.191 85.59 94.668 86.07 94.945 86.348 c 94.945
 84.406 l 94.945 83.926 94.844 83.926 94.113 83.926 c 94.113 83.496 l 94.141
 83.496 94.922 83.547 95.398 83.547 c 95.805 83.547 96.586 83.524 96.684
 83.496 c 96.684 83.926 l 95.953 83.926 95.855 83.926 95.855 84.406 c h
94.996 87.305 m 94.996 87.102 94.996 87.051 94.844 86.774 c 94.492 86.219
 93.938 85.891 93.359 85.891 c 92.426 85.891 91.695 86.903 91.695 88.086
 c 91.695 89.422 92.578 90.278 93.484 90.278 c 94.418 90.278 94.996 89.371
 94.996 88.742 c h
94.996 87.305 m f
1 J
q 1 0 0 -1 0 204.422043 cm
242.008 17.531 160 160 re S Q
q 1 0 0 -1 0 204.422043 cm
346.574 97.426 m 346.316 110.633 335.434 121.148 322.227 120.957 c 309.02
 120.762 298.449 109.934 298.578 96.723 c 298.707 83.516 309.484 72.895 
322.695 72.957 c 335.902 73.023 346.578 83.75 346.578 96.957 c S Q
0.701961 g
242.16 186.938 m 241.699 177.945 242.094 168.797 241.965 159.746 c 241.965
 27.617 l 243.422 25.848 246.664 27.278 248.824 26.817 c 401.559 26.817 
l 403.328 28.274 401.898 31.52 402.359 33.68 c 402.359 186.414 l 400.902
 188.184 397.66 186.754 395.5 187.215 c 242.766 187.215 l 242.398 187.047
 l h
322.242 131.043 m 334.586 131.992 346.191 120.824 346.164 108.645 c 346.492
 102.512 344.656 96.07 340.238 91.559 c 335.898 86.641 329.242 83.645 322.594
 83.879 c 311.52 83.195 301.047 92.078 299.34 102.891 c 297.57 111.578 300.973
 121.215 308.32 126.465 c 312.332 129.481 317.172 131.293 322.242 131.043
 c h
322.242 131.043 m f
0 g
0.404061 w
1 M q 1 0 0 -1 0 204.422043 cm
242.16 17.484 m 241.699 26.477 242.094 35.625 241.965 44.676 c 241.965 
176.805 l 243.422 178.574 246.664 177.145 248.824 177.605 c 401.559 177.605
 l 403.328 176.148 401.898 172.902 402.359 170.742 c 402.359 18.008 l 400.902
 16.238 397.66 17.668 395.5 17.207 c 242.766 17.207 l 242.398 17.375 l h
322.242 73.379 m 334.586 72.43 346.191 83.598 346.164 95.777 c 346.492 
101.91 344.656 108.352 340.238 112.863 c 335.898 117.781 329.242 120.777
 322.594 120.543 c 311.52 121.227 301.047 112.344 299.34 101.531 c 297.57
 92.844 300.973 83.207 308.32 77.957 c 312.332 74.941 317.172 73.129 322.242
 73.379 c h
322.242 73.379 m S Q
0.8 w
0 J
4 M q 1 0 0 -1 0 204.422043 cm
323.41 97.684 m 338.859 112.867 l S Q
325.035 102.422 m 322.648 107.473 l 327.738 105.176 l 326.344 104.949 325.254
 103.836 325.035 102.422 c h
325.035 102.422 m f*
0.213999 w
1 j
q 1 -0.982478 -0.982478 -1 0 204.422043 cm
216.382 -110.591 m 212.643 -111.968 l 216.381 -113.343 l 215.785 -112.531
 215.787 -111.42 216.382 -110.591 c h
216.382 -110.591 m S Q
337.234 95.867 m 339.621 90.817 l 334.531 93.117 l 335.926 93.344 337.016
 94.457 337.234 95.867 c h
337.234 95.867 m f*
q -1 0.982478 0.982478 1 0 204.422043 cm
-225.866 113.354 m -229.606 111.977 l -225.866 110.603 l -226.462 111.416
 -226.46 112.527 -225.866 113.354 c h
-225.866 113.354 m S Q
0.8 w
0 j
q 1 0 0 -1 0 204.422043 cm
330.93 104.922 m 300.551 141.133 l 357.027 141.133 l S Q
316.199 67.141 m 316.148 66.891 316.047 66.512 316.047 66.438 c 316.047
 66.16 316.273 66.008 316.527 66.008 c 316.73 66.008 317.008 66.133 317.133
 66.461 c 317.156 66.512 317.688 68.703 317.762 69.008 c 317.887 69.535 
318.191 70.645 318.266 71.098 c 318.344 71.301 318.797 72.059 319.176 72.41
 c 319.301 72.512 319.777 72.942 320.461 72.942 c 320.887 72.942 321.113
 72.738 321.141 72.738 c 320.66 72.664 320.309 72.285 320.309 71.856 c 320.309
 71.606 320.484 71.301 320.914 71.301 c 321.344 71.301 321.797 71.68 321.797
 72.258 c 321.797 72.813 321.293 73.293 320.461 73.293 c 319.426 73.293 
318.719 72.512 318.418 72.059 c 318.266 72.789 317.688 73.293 316.93 73.293
 c 316.199 73.293 315.898 72.664 315.746 72.387 c 315.469 71.832 315.266
 70.871 315.266 70.82 c 315.266 70.645 315.418 70.645 315.441 70.645 c 315.621
 70.645 315.621 70.672 315.719 71.024 c 315.996 72.156 316.324 72.942 316.906
 72.942 c 317.156 72.942 317.383 72.813 317.383 72.207 c 317.383 71.856 
317.332 71.68 317.133 70.848 c h
316.199 67.141 m f
332.637 69.891 m 337.125 69.891 l 337.352 69.891 337.652 69.891 337.652
 70.219 c 337.652 70.52 337.352 70.52 337.125 70.52 c 332.637 70.52 l 332.637
 75.031 l 332.637 75.258 332.637 75.563 332.309 75.563 c 331.98 75.563 331.98
 75.258 331.98 75.031 c 331.98 70.52 l 327.492 70.52 l 327.266 70.52 326.965
 70.52 326.965 70.219 c 326.965 69.891 327.266 69.891 327.492 69.891 c 331.98
 69.891 l 331.98 65.379 l 331.98 65.149 331.98 64.848 332.309 64.848 c 332.637
 64.848 332.637 65.149 332.637 65.379 c h
332.637 69.891 m f
346.922 69.813 m 347.172 69.813 347.477 69.813 347.477 70.09 c 347.477 
70.317 347.273 70.317 346.996 70.317 c 344.398 70.317 l 344.777 71.68 345.684
 72.613 347.148 72.613 c 347.652 72.613 l 347.93 72.613 348.18 72.613 348.18
 72.891 c 348.18 73.117 347.98 73.117 347.703 73.117 c 347.121 73.117 l 
345.031 73.117 342.887 71.504 342.887 69.059 c 342.887 67.27 344.098 66.008
 345.785 66.008 c 346.844 66.008 347.879 66.664 347.879 66.84 c 347.879 
66.863 347.879 67.039 347.727 67.039 c 347.703 67.039 347.652 67.039 347.527
 66.965 c 347.02 66.637 346.418 66.36 345.836 66.36 c 344.902 66.36 344.098
 67.039 344.098 68.453 c 344.098 69.008 344.223 69.637 344.273 69.813 c 
h
346.922 69.813 m f
356.191 72.156 m 356.191 73.039 355.766 73.293 355.488 73.293 c 355.082
 73.293 354.68 72.863 354.68 72.512 c 354.68 72.309 354.754 72.207 354.934
 72.031 c 355.285 71.703 355.488 71.301 355.488 70.723 c 355.488 70.039 
354.504 66.36 352.637 66.36 c 351.805 66.36 351.43 66.914 351.43 67.774 
c 351.43 68.653 351.883 69.84 352.359 71.176 c 352.488 71.453 352.562 71.68
 352.562 71.981 c 352.562 72.688 352.059 73.293 351.25 73.293 c 349.738 
73.293 349.133 70.949 349.133 70.82 c 349.133 70.645 349.285 70.645 349.309
 70.645 c 349.488 70.645 349.488 70.695 349.562 70.949 c 350.043 72.563 
350.723 72.942 351.199 72.942 c 351.328 72.942 351.605 72.942 351.605 72.434
 c 351.605 72.031 351.43 71.578 351.328 71.301 c 350.621 69.438 350.418 
68.703 350.418 68 c 350.418 66.258 351.832 66.008 352.562 66.008 c 355.258
 66.008 356.191 71.328 356.191 72.156 c h
356.191 72.156 m f
392.379 46.613 m 390.211 44.418 l 390.488 44.141 l 392.379 45.781 l 394.219
 44.141 l 394.496 44.418 l h
392.379 46.613 m f
397.449 33.981 m 397.047 33.981 l 396.969 33.574 396.895 33.195 396.742
 32.82 c 396.668 32.567 396.617 32.414 395.684 32.414 c 394.398 32.414 l
 394.625 33.324 395.105 34.106 395.836 35.164 c 396.594 36.297 397.246 37.406
 397.246 38.692 c 397.246 40.91 395.078 42.727 392.355 42.727 c 389.609 
42.727 387.465 40.887 387.465 38.692 c 387.465 37.406 388.121 36.297 388.879
 35.164 c 389.586 34.106 390.09 33.324 390.316 32.414 c 389.031 32.414 l
 388.098 32.414 388.047 32.567 387.973 32.793 c 387.82 33.172 387.742 33.574
 387.668 33.981 c 387.266 33.981 l 387.793 31.383 l 390.367 31.383 l 390.719
 31.383 390.77 31.383 390.77 31.711 c 390.77 32.844 390.266 34.258 389.91
 35.289 c 389.559 36.223 389.105 37.485 389.105 38.692 c 389.105 41.266 
390.895 42.375 392.355 42.375 c 393.895 42.375 395.609 41.215 395.609 38.692
 c 395.609 37.485 395.156 36.274 394.703 34.961 c 394.449 34.281 393.945
 32.82 393.945 31.711 c 393.945 31.383 393.996 31.383 394.348 31.383 c 396.918
 31.383 l h
397.449 33.981 m f
255.32 44.735 m 246.949 44.735 l 246.949 44.231 l 247.328 44.231 l 248.562
 44.231 248.613 44.051 248.613 43.473 c 248.613 35.055 l 248.613 34.473 
248.562 34.297 247.328 34.297 c 246.949 34.297 l 246.949 33.793 l 247.504
 33.844 248.766 33.844 249.395 33.844 c 250.051 33.844 251.512 33.844 252.094
 33.793 c 252.094 34.297 l 251.562 34.297 l 250.051 34.297 250.051 34.5 
250.051 35.055 c 250.051 43.598 l 250.051 44.129 250.074 44.231 250.832 
44.231 c 252.496 44.231 l 254.789 44.231 255.117 43.27 255.371 41.102 c 
255.773 41.102 l h
255.32 44.735 m f
259.316 38.137 m 259.316 38.516 259.316 38.668 260.246 38.668 c 260.523
 38.668 l 260.523 39.07 l 260.449 39.07 259.238 39.02 258.785 39.02 c 258.332
 39.02 257.098 39.07 257.047 39.07 c 257.047 38.668 l 257.324 38.668 l 258.258
 38.668 258.258 38.516 258.258 38.137 c 258.258 32.317 l 258.258 31.91 258.258
 31.785 257.324 31.785 c 257.047 31.785 l 257.047 31.383 l 257.121 31.383
 258.332 31.434 258.785 31.434 c 259.238 31.434 260.477 31.383 260.523 31.383
 c 260.523 31.785 l 260.246 31.785 l 259.316 31.785 259.316 31.91 259.316
 32.317 c h
259.316 38.137 m f
388.828 204.422 m 380.461 204.422 l 380.461 203.918 l 380.84 203.918 l 
382.074 203.918 382.125 203.742 382.125 203.16 c 382.125 194.742 l 382.125
 194.16 382.074 193.985 380.84 193.985 c 380.461 193.985 l 380.461 193.481
 l 381.016 193.531 382.273 193.531 382.906 193.531 c 383.559 193.531 385.023
 193.531 385.602 193.481 c 385.602 193.985 l 385.074 193.985 l 383.559 193.985
 383.559 194.188 383.559 194.742 c 383.559 203.289 l 383.559 203.817 383.586
 203.918 384.344 203.918 c 386.004 203.918 l 388.301 203.918 388.629 202.961
 388.879 200.793 c 389.281 200.793 l h
388.828 204.422 m f
390.633 198.758 m 390.633 198.356 l 390.91 198.356 l 391.766 198.356 391.793
 198.231 391.793 197.828 c 391.793 191.977 l 391.793 191.602 391.766 191.473
 390.91 191.473 c 390.633 191.473 l 390.633 191.07 l 395.07 191.07 l 397.137
 191.07 398.852 192.735 398.852 194.852 c 398.852 196.996 397.16 198.758
 395.07 198.758 c h
393.355 191.473 m 392.824 191.473 392.801 191.574 392.801 191.903 c 392.801
 197.903 l 392.801 198.254 392.824 198.356 393.355 198.356 c 394.742 198.356
 l 395.699 198.356 396.531 197.953 397.059 197.297 c 397.516 196.692 397.691
 195.836 397.691 194.852 c 397.691 193.543 397.363 192.86 396.961 192.406
 c 396.457 191.828 395.648 191.473 394.766 191.473 c h
393.355 191.473 m f
286.969 103.395 m 284.801 101.203 l 285.078 100.926 l 286.969 102.563 l
 288.809 100.926 l 289.086 101.203 l h
286.969 103.395 m f
290.828 99.106 m 282.461 99.106 l 282.461 98.602 l 282.84 98.602 l 284.074
 98.602 284.125 98.426 284.125 97.848 c 284.125 89.426 l 284.125 88.848 
284.074 88.672 282.84 88.672 c 282.461 88.672 l 282.461 88.168 l 283.016
 88.215 284.273 88.215 284.906 88.215 c 285.559 88.215 287.023 88.215 287.602
 88.168 c 287.602 88.672 l 287.074 88.672 l 285.559 88.672 285.559 88.871
 285.559 89.426 c 285.559 97.973 l 285.559 98.5 285.586 98.602 286.344 98.602
 c 288.004 98.602 l 290.301 98.602 290.629 97.645 290.879 95.477 c 291.281
 95.477 l h
290.828 99.106 m f
297.676 90.723 m 297.32 90.723 l 296.918 89.738 l 296.566 90.27 296.012
 90.723 295.203 90.723 c 293.766 90.723 292.508 89.613 292.508 88.176 c 
292.508 86.766 293.691 85.656 295.102 85.656 c 296.012 85.656 296.488 86.133
 296.766 86.41 c 296.766 84.469 l 296.766 83.992 296.664 83.992 295.934 
83.992 c 295.934 83.563 l 295.961 83.563 296.742 83.613 297.219 83.613 c
 297.625 83.613 298.406 83.586 298.508 83.563 c 298.508 83.992 l 297.773
 83.992 297.676 83.992 297.676 84.469 c h
296.816 87.367 m 296.816 87.168 296.816 87.117 296.664 86.84 c 296.312 
86.285 295.758 85.957 295.18 85.957 c 294.246 85.957 293.516 86.965 293.516
 88.153 c 293.516 89.488 294.398 90.344 295.305 90.344 c 296.238 90.344 
296.816 89.438 296.816 88.805 c h
296.816 87.367 m f
0.4 w
q 1 0 0 -1 0 204.422043 cm
32.977 180.957 m 32.977 196.957 l S Q
0.8 w
q 1 0 0 -1 0 204.422043 cm
34.336 188.957 m 191.621 188.957 l S Q
38.52 13.528 m 33.273 15.457 l 38.52 17.387 l 37.68 16.246 37.688 14.688
 38.52 13.528 c h
38.52 13.528 m f*
0.3 w
1 j
q 1 0 0 -1 0 204.422043 cm
38.52 190.895 m 33.273 188.965 l 38.52 187.035 l 37.68 188.176 37.688 189.734
 38.52 190.895 c h
38.52 190.895 m S Q
187.434 17.399 m 192.68 15.473 l 187.434 13.543 l 188.273 14.684 188.27
 16.238 187.434 17.399 c h
187.434 17.399 m f*
q -1 0 0 1 0 204.422043 cm
-187.434 -187.023 m -192.68 -188.949 l -187.434 -190.879 l -188.273 -189.738
 -188.27 -188.184 -187.434 -187.023 c h
-187.434 -187.023 m S Q
0.4 w
0 j
q 1 0 0 -1 0 204.422043 cm
192.977 180.957 m 192.977 196.957 l S Q
q 0 1 1 0 0 204.422043 cm
-177.043 15.262 m -177.043 31.262 l S Q
0.8 w
q 0 1 1 0 0 204.422043 cm
-175.684 23.262 m -18.398 23.262 l S Q
25.199 32.922 m 23.27 27.68 l 21.344 32.922 l 22.48 32.086 24.039 32.09
 25.199 32.922 c h
25.199 32.922 m f*
0.3 w
1 j
q 0 1 1 0 0 204.422043 cm
-171.5 25.199 m -176.742 23.27 l -171.5 21.344 l -172.336 22.48 -172.332
 24.039 -171.5 25.199 c h
-171.5 25.199 m S Q
21.328 181.84 m 23.254 187.082 l 25.184 181.84 l 24.047 182.676 22.488 
182.672 21.328 181.84 c h
21.328 181.84 m f*
q 0 -1 -1 0 0 204.422043 cm
22.582 -21.328 m 17.34 -23.254 l 22.582 -25.184 l 21.746 -24.047 21.75 
-22.488 22.582 -21.328 c h
22.582 -21.328 m S Q
0.4 w
0 j
q 0 1 1 0 0 204.422043 cm
-17.043 15.262 m -17.043 31.262 l S Q
107.875 10.637 m 107.875 11.043 107.875 11.067 107.496 11.067 c 106.488
 10.031 105.074 10.031 104.57 10.031 c 104.57 9.528 l 104.898 9.528 105.832
 9.528 106.664 9.957 c 106.664 1.613 l 106.664 1.035 106.613 0.856 105.176
 0.856 c 104.672 0.856 l 104.672 0.352 l 105.227 0.403 106.613 0.403 107.27
 0.403 c 107.898 0.403 109.312 0.403 109.867 0.352 c 109.867 0.856 l 109.359
 0.856 l 107.898 0.856 107.875 1.035 107.875 1.613 c h
107.875 10.637 m f
114.246 1.211 m 114.246 1.664 113.867 2.067 113.414 2.067 c 112.934 2.067
 112.559 1.664 112.559 1.211 c 112.559 0.731 112.934 0.352 113.414 0.352
 c 113.867 0.352 114.246 0.731 114.246 1.211 c h
114.246 1.211 m f
123.023 5.496 m 123.023 6.781 122.945 8.067 122.391 9.25 c 121.66 10.813
 120.324 11.067 119.668 11.067 c 118.688 11.067 117.527 10.637 116.848 9.153
 c 116.344 8.043 116.266 6.781 116.266 5.496 c 116.266 4.285 116.316 2.848
 116.996 1.613 c 117.68 0.328 118.863 0 119.645 0 c 120.5 0 121.738 0.328
 122.441 1.867 c 122.945 2.973 123.023 4.235 123.023 5.496 c h
119.645 0.352 m 119.016 0.352 118.055 0.758 117.777 2.293 c 117.602 3.25
 117.602 4.738 117.602 5.695 c 117.602 6.731 117.602 7.789 117.73 8.645 
c 118.031 10.563 119.242 10.715 119.645 10.715 c 120.176 10.715 121.234 
10.41 121.535 8.824 c 121.711 7.914 121.711 6.707 121.711 5.695 c 121.711
 4.488 121.711 3.403 121.535 2.371 c 121.285 0.832 120.375 0.352 119.645
 0.352 c h
119.645 0.352 m f
3.301 111.211 m 3.301 111.613 3.301 111.637 2.926 111.637 c 1.914 110.606
 0.504 110.606 0 110.606 c 0 110.102 l 0.328 110.102 1.262 110.102 2.094
 110.528 c 2.094 102.184 l 2.094 101.606 2.043 101.43 0.605 101.43 c 0.102
 101.43 l 0.102 100.926 l 0.656 100.973 2.043 100.973 2.699 100.973 c 3.328
 100.973 4.738 100.973 5.293 100.926 c 5.293 101.43 l 4.789 101.43 l 3.328
 101.43 3.301 101.606 3.301 102.184 c h
3.301 111.211 m f
9.676 101.781 m 9.676 102.235 9.297 102.637 8.844 102.637 c 8.363 102.637
 7.984 102.235 7.984 101.781 c 7.984 101.301 8.363 100.926 8.844 100.926
 c 9.297 100.926 9.676 101.301 9.676 101.781 c h
9.676 101.781 m f
18.453 106.067 m 18.453 107.352 18.375 108.637 17.82 109.824 c 17.09 111.387
 15.754 111.637 15.098 111.637 c 14.117 111.637 12.957 111.211 12.273 109.723
 c 11.77 108.613 11.695 107.352 11.695 106.067 c 11.695 104.856 11.746 103.418
 12.426 102.184 c 13.105 100.899 14.293 100.57 15.074 100.57 c 15.93 100.57
 17.164 100.899 17.871 102.438 c 18.375 103.547 18.453 104.805 18.453 106.067
 c h
15.074 100.926 m 14.441 100.926 13.484 101.328 13.207 102.867 c 13.031 
103.824 13.031 105.309 13.031 106.27 c 13.031 107.301 13.031 108.36 13.156
 109.219 c 13.461 111.133 14.668 111.285 15.074 111.285 c 15.602 111.285
 16.66 110.985 16.965 109.395 c 17.141 108.488 17.141 107.278 17.141 106.27
 c 17.141 105.059 17.141 103.973 16.965 102.942 c 16.711 101.403 15.805 
100.926 15.074 100.926 c h
15.074 100.926 m f
Q Q
showpage
%%Trailer
end restore
%%EOF
