%!PS-Adobe-3.0 EPSF-3.0
%%Creator: cairo 1.14.6 (http://cairographics.org)
%%CreationDate: Fri Dec  8 05:15:24 2017
%%Pages: 1
%%DocumentData: Clean7Bit
%%LanguageLevel: 2
%%BoundingBox: 0 45 963 392
%%EndComments
%%BeginProlog
save
50 dict begin
/q { gsave } bind def
/Q { grestore } bind def
/cm { 6 array astore concat } bind def
/w { setlinewidth } bind def
/J { setlinecap } bind def
/j { setlinejoin } bind def
/M { setmiterlimit } bind def
/d { setdash } bind def
/m { moveto } bind def
/l { lineto } bind def
/c { curveto } bind def
/h { closepath } bind def
/re { exch dup neg 3 1 roll 5 3 roll moveto 0 rlineto
      0 exch rlineto 0 rlineto closepath } bind def
/S { stroke } bind def
/f { fill } bind def
/f* { eofill } bind def
/n { newpath } bind def
/W { clip } bind def
/W* { eoclip } bind def
/BT { } bind def
/ET { } bind def
/pdfmark where { pop globaldict /?pdfmark /exec load put }
    { globaldict begin /?pdfmark /pop load def /pdfmark
    /cleartomark load def end } ifelse
/BDC { mark 3 1 roll /BDC pdfmark } bind def
/EMC { mark /EMC pdfmark } bind def
/cairo_store_point { /cairo_point_y exch def /cairo_point_x exch def } def
/Tj { show currentpoint cairo_store_point } bind def
/TJ {
  {
    dup
    type /stringtype eq
    { show } { -0.001 mul 0 cairo_font_matrix dtransform rmoveto } ifelse
  } forall
  currentpoint cairo_store_point
} bind def
/cairo_selectfont { cairo_font_matrix aload pop pop pop 0 0 6 array astore
    cairo_font exch selectfont cairo_point_x cairo_point_y moveto } bind def
/Tf { pop /cairo_font exch def /cairo_font_matrix where
      { pop cairo_selectfont } if } bind def
/Td { matrix translate cairo_font_matrix matrix concatmatrix dup
      /cairo_font_matrix exch def dup 4 get exch 5 get cairo_store_point
      /cairo_font where { pop cairo_selectfont } if } bind def
/Tm { 2 copy 8 2 roll 6 array astore /cairo_font_matrix exch def
      cairo_store_point /cairo_font where { pop cairo_selectfont } if } bind def
/g { setgray } bind def
/rg { setrgbcolor } bind def
/d1 { setcachedevice } bind def
%%EndProlog
%%BeginSetup
%%EndSetup
%%Page: 1 1
%%BeginPageSetup
%%PageBoundingBox: 0 45 963 392
%%EndPageSetup
q 0 45 963 347 rectclip q
0.6 g
70.715 319.848 m 69.02 278 70.008 235.903 69.703 193.961 c 70.133 177.606
 68.844 160.637 70.344 144.668 c 77.809 144.274 84.32 137.774 84.707 130.305
 c 101.855 128.805 120.004 130.09 137.535 129.661 c 157.652 130.164 177.973
 128.657 197.973 130.821 c 200.809 133.344 195.016 136.938 194.352 139.629
 c 153.973 200.02 113.562 260.426 71.906 319.934 c 70.777 319.856 l h
70.715 319.848 m f
0 g
428.742 270.989 m 428.742 222.446 l 460.297 222.446 l 460.297 188.469 l
 508.836 246.719 l 460.297 304.969 l 460.297 270.989 l h
428.742 270.989 m f
0.485415 w
0 J
0 j
[] 0.0 d
4 M q 1 0 0 -1 0 423.969147 cm
428.742 152.98 m 428.742 201.523 l 460.297 201.523 l 460.297 235.5 l 508.836
 177.25 l 460.297 119 l 460.297 152.98 l h
428.742 152.98 m S Q
2.834645 w
q 1 0 0 -1 0 423.969147 cm
68.648 55.117 240 240 re S Q
1 g
83.648 368.852 m 83.648 360.567 76.934 353.852 68.648 353.852 c 60.367 
353.852 53.648 360.567 53.648 368.852 c 53.648 377.137 60.367 383.852 68.648
 383.852 c 76.934 383.852 83.648 377.137 83.648 368.852 c h
83.648 368.852 m f
0 g
q 1 0 0 -1 0 423.969147 cm
83.648 55.117 m 83.648 63.402 76.934 70.117 68.648 70.117 c 60.367 70.117
 53.648 63.402 53.648 55.117 c 53.648 46.832 60.367 40.117 68.648 40.117
 c 76.934 40.117 83.648 46.832 83.648 55.117 c h
83.648 55.117 m S Q
1 g
323.648 368.852 m 323.648 360.567 316.934 353.852 308.648 353.852 c 300.367
 353.852 293.648 360.567 293.648 368.852 c 293.648 377.137 300.367 383.852
 308.648 383.852 c 316.934 383.852 323.648 377.137 323.648 368.852 c h
323.648 368.852 m f
0 g
q 1 0 0 -1 0 423.969147 cm
323.648 55.117 m 323.648 63.402 316.934 70.117 308.648 70.117 c 300.367
 70.117 293.648 63.402 293.648 55.117 c 293.648 46.832 300.367 40.117 308.648
 40.117 c 316.934 40.117 323.648 46.832 323.648 55.117 c h
323.648 55.117 m S Q
1 g
323.648 128.852 m 323.648 120.567 316.934 113.852 308.648 113.852 c 300.367
 113.852 293.648 120.567 293.648 128.852 c 293.648 137.137 300.367 143.852
 308.648 143.852 c 316.934 143.852 323.648 137.137 323.648 128.852 c h
323.648 128.852 m f
0 g
q 1 0 0 -1 0 423.969147 cm
323.648 295.117 m 323.648 303.402 316.934 310.117 308.648 310.117 c 300.367
 310.117 293.648 303.402 293.648 295.117 c 293.648 286.832 300.367 280.117
 308.648 280.117 c 316.934 280.117 323.648 286.832 323.648 295.117 c h
323.648 295.117 m S Q
1 g
83.648 128.852 m 83.648 120.567 76.934 113.852 68.648 113.852 c 60.367 
113.852 53.648 120.567 53.648 128.852 c 53.648 137.137 60.367 143.852 68.648
 143.852 c 76.934 143.852 83.648 137.137 83.648 128.852 c h
83.648 128.852 m f
0 g
q 1 0 0 -1 0 423.969147 cm
83.648 295.117 m 83.648 303.402 76.934 310.117 68.648 310.117 c 60.367 
310.117 53.648 303.402 53.648 295.117 c 53.648 286.832 60.367 280.117 68.648
 280.117 c 76.934 280.117 83.648 286.832 83.648 295.117 c h
83.648 295.117 m S Q
214.699 129.188 m 214.699 125.043 211.34 121.688 207.199 121.688 c 203.059
 121.688 199.699 125.043 199.699 129.188 c 199.699 133.329 203.059 136.688
 207.199 136.688 c 211.34 136.688 214.699 133.329 214.699 129.188 c h
214.699 129.188 m f
q 1 0 0 -1 0 423.969147 cm
214.699 294.781 m 214.699 298.926 211.34 302.281 207.199 302.281 c 203.059
 302.281 199.699 298.926 199.699 294.781 c 199.699 290.641 203.059 287.281
 207.199 287.281 c 211.34 287.281 214.699 290.641 214.699 294.781 c h
214.699 294.781 m S Q
75.672 328.547 m 75.672 324.403 72.312 321.047 68.172 321.047 c 64.031 
321.047 60.672 324.403 60.672 328.547 c 60.672 332.688 64.031 336.047 68.172
 336.047 c 72.312 336.047 75.672 332.688 75.672 328.547 c h
75.672 328.547 m f
q 1 0 0 -1 0 423.969147 cm
75.672 95.422 m 75.672 99.566 72.312 102.922 68.172 102.922 c 64.031 102.922
 60.672 99.566 60.672 95.422 c 60.672 91.281 64.031 87.922 68.172 87.922
 c 72.312 87.922 75.672 91.281 75.672 95.422 c h
75.672 95.422 m S Q
240.043 165.555 m 238.227 165.051 237.316 163.336 237.316 162.075 c 237.316
 160.961 238.176 159.75 239.84 159.75 c 241.609 159.75 243.477 161.215 243.477
 163.688 c 243.477 166.364 240.801 168.129 237.719 168.129 c 234.844 168.129
 232.977 165.961 232.32 165.051 c 231.059 167.172 228.23 168.129 225.352
 168.129 c 218.992 168.129 215.559 161.922 215.559 160.254 c 215.559 159.551
 216.316 159.551 216.77 159.551 c 217.379 159.551 217.73 159.551 217.934
 160.207 c 219.395 164.801 223.031 166.313 225.102 166.313 c 227.02 166.313
 227.926 165.407 227.926 163.789 c 227.926 162.832 227.223 160.055 226.766
 158.239 c 225.051 151.321 l 224.293 148.243 222.477 146.727 220.758 146.727
 c 220.508 146.727 219.348 146.727 218.336 147.485 c 220.152 147.989 221.062
 149.707 221.062 150.969 c 221.062 152.079 220.203 153.289 218.539 153.289
 c 216.77 153.289 214.902 151.825 214.902 149.352 c 214.902 146.676 217.578
 144.911 220.66 144.911 c 223.535 144.911 225.402 147.082 226.059 147.989
 c 227.32 145.868 230.148 144.911 233.027 144.911 c 239.387 144.911 242.82
 151.118 242.82 152.786 c 242.82 153.493 242.062 153.493 241.609 153.493
 c 241 153.493 240.648 153.493 240.445 152.836 c 238.984 148.243 235.348
 146.727 233.277 146.727 c 231.359 146.727 230.453 147.637 230.453 149.25
 c 230.453 150.313 231.109 152.989 231.562 154.856 c 231.914 156.168 233.078
 160.914 233.328 161.719 c 234.086 164.75 235.852 166.313 237.621 166.313
 c 237.871 166.313 239.031 166.313 240.043 165.555 c h
240.043 165.555 m f
257.965 155.309 m 257.965 156.262 257.895 156.297 256.906 156.297 c 254.645
 154.071 251.43 154.036 249.98 154.036 c 249.98 152.766 l 250.828 152.766
 253.16 152.766 255.105 153.754 c 255.105 135.731 l 255.105 134.567 255.105
 134.106 251.57 134.106 c 250.227 134.106 l 250.227 132.836 l 250.863 132.871
 255.211 132.977 256.516 132.977 c 257.613 132.977 262.066 132.871 262.844
 132.836 c 262.844 134.106 l 261.5 134.106 l 257.965 134.106 257.965 134.567
 257.965 135.731 c h
257.965 155.309 m f
105.371 355.028 m 103.555 354.524 102.645 352.805 102.645 351.543 c 102.645
 350.434 103.504 349.223 105.168 349.223 c 106.934 349.223 108.805 350.684
 108.805 353.161 c 108.805 355.836 106.129 357.602 103.047 357.602 c 100.172
 357.602 98.305 355.43 97.648 354.524 c 96.383 356.641 93.559 357.602 90.68
 357.602 c 84.32 357.602 80.887 351.391 80.887 349.727 c 80.887 349.02 81.645
 349.02 82.098 349.02 c 82.703 349.02 83.059 349.02 83.262 349.676 c 84.723
 354.27 88.359 355.786 90.43 355.786 c 92.348 355.786 93.254 354.875 93.254
 353.258 c 93.254 352.301 92.547 349.524 92.094 347.707 c 90.379 340.793
 l 89.621 337.711 87.805 336.2 86.086 336.2 c 85.836 336.2 84.672 336.2 
83.664 336.954 c 85.48 337.461 86.391 339.176 86.391 340.438 c 86.391 341.547
 85.531 342.762 83.867 342.762 c 82.098 342.762 80.23 341.297 80.23 338.825
 c 80.23 336.149 82.906 334.379 85.984 334.379 c 88.863 334.379 90.73 336.551
 91.387 337.461 c 92.648 335.34 95.477 334.379 98.352 334.379 c 104.715 
334.379 108.148 340.59 108.148 342.254 c 108.148 342.961 107.391 342.961
 106.934 342.961 c 106.328 342.961 105.977 342.961 105.773 342.305 c 104.309
 337.711 100.676 336.2 98.605 336.2 c 96.688 336.2 95.777 337.106 95.777
 338.723 c 95.777 339.782 96.434 342.457 96.891 344.325 c 97.242 345.637
 98.402 350.383 98.656 351.192 c 99.414 354.219 101.18 355.786 102.945 355.786
 c 103.199 355.786 104.359 355.786 105.371 355.028 c h
105.371 355.028 m f
129.301 328.735 m 128.098 328.735 l 127.992 327.957 127.641 325.875 127.18
 325.52 c 126.898 325.309 124.176 325.309 123.684 325.309 c 117.18 325.309
 l 120.891 328.594 122.129 329.582 124.246 331.246 c 126.863 333.329 129.301
 335.52 129.301 338.879 c 129.301 343.153 125.555 345.77 121.031 345.77 
c 116.648 345.77 113.684 342.696 113.684 339.442 c 113.684 337.641 115.203
 337.465 115.555 337.465 c 116.402 337.465 117.426 338.067 117.426 339.336
 c 117.426 339.973 117.18 341.211 115.344 341.211 c 116.438 343.719 118.84
 344.496 120.5 344.496 c 124.035 344.496 125.871 341.739 125.871 338.879
 c 125.871 335.805 123.684 333.364 122.551 332.094 c 114.035 323.684 l 113.684
 323.364 113.684 323.293 113.684 322.305 c 128.242 322.305 l h
129.301 328.735 m f
5.669291 w
q 1 0 0 -1 0 423.969147 cm
793.695 315.195 m 757.902 315.195 l S Q
764.707 108.774 m 770.375 114.446 l 750.531 108.774 l 770.375 103.106 l
 h
764.707 108.774 m f*
1.417323 w
q 1 0 0 -1 0 423.969147 cm
764.707 315.195 m 770.375 309.523 l 750.531 315.195 l 770.375 320.863 l
 h
764.707 315.195 m S Q
750.328 81.289 m 744.016 79.774 739.121 73.211 739.121 67.102 c 739.121
 62.258 742.352 58.621 747.098 58.621 c 753.004 58.621 757.191 66.547 757.191
 73.516 c 757.191 78.11 755.172 80.633 753.457 82.903 c 751.641 85.176 748.66
 88.961 748.66 91.184 c 748.66 92.293 749.672 93.504 751.438 93.504 c 752.953
 93.504 753.961 92.848 755.023 92.141 c 756.031 91.536 757.039 90.879 757.797
 90.879 c 759.059 90.879 759.816 92.09 759.816 92.899 c 759.816 94.008 759.008
 94.161 757.191 94.563 c 754.566 95.121 753.859 95.121 753.055 95.121 c 
749.117 95.121 747.297 92.95 747.297 89.918 c 747.297 87.196 748.762 84.368
 750.328 81.289 c h
750.934 80.176 m 752.195 77.856 753.711 75.129 753.711 71.496 c 753.711
 68.164 751.789 59.735 747.098 59.735 c 744.32 59.735 742.25 61.852 742.25
 65.688 c 742.25 68.871 744.117 78.36 750.934 80.176 c h
750.934 80.176 m f
788.316 79.469 m 786.5 78.965 785.594 77.25 785.594 75.989 c 785.594 74.875
 786.449 73.664 788.117 73.664 c 789.883 73.664 791.75 75.129 791.75 77.602
 c 791.75 80.278 789.074 82.043 785.996 82.043 c 783.117 82.043 781.25 79.875
 780.594 78.965 c 779.332 81.086 776.504 82.043 773.629 82.043 c 767.27 
82.043 763.836 75.836 763.836 74.172 c 763.836 73.465 764.594 73.465 765.047
 73.465 c 765.652 73.465 766.004 73.465 766.207 74.121 c 767.672 78.715 
771.305 80.227 773.375 80.227 c 775.293 80.227 776.203 79.321 776.203 77.704
 c 776.203 76.746 775.496 73.969 775.043 72.153 c 773.324 65.235 l 772.566
 62.157 770.75 60.641 769.035 60.641 c 768.781 60.641 767.621 60.641 766.613
 61.399 c 768.43 61.903 769.336 63.621 769.336 64.883 c 769.336 65.993 768.48
 67.204 766.812 67.204 c 765.047 67.204 763.18 65.739 763.18 63.266 c 763.18
 60.59 765.855 58.825 768.934 58.825 c 771.812 58.825 773.68 60.996 774.336
 61.903 c 775.598 59.786 778.426 58.825 781.301 58.825 c 787.66 58.825 791.094
 65.032 791.094 66.7 c 791.094 67.407 790.336 67.407 789.883 67.407 c 789.277
 67.407 788.922 67.407 788.723 66.75 c 787.258 62.157 783.625 60.641 781.555
 60.641 c 779.637 60.641 778.727 61.551 778.727 63.164 c 778.727 64.227 
779.383 66.903 779.836 68.77 c 780.191 70.082 781.352 74.829 781.605 75.633
 c 782.359 78.664 784.129 80.227 785.895 80.227 c 786.148 80.227 787.309
 80.227 788.316 79.469 c h
788.316 79.469 m f
806.242 69.223 m 806.242 70.176 806.172 70.211 805.18 70.211 c 802.918 
67.985 799.703 67.95 798.254 67.95 c 798.254 66.676 l 799.102 66.676 801.434
 66.676 803.379 67.668 c 803.379 49.645 l 803.379 48.481 803.379 48.02 799.844
 48.02 c 798.504 48.02 l 798.504 46.75 l 799.137 46.786 803.484 46.891 804.793
 46.891 c 805.887 46.891 810.34 46.786 811.117 46.75 c 811.117 48.02 l 809.773
 48.02 l 806.242 48.02 806.242 48.481 806.242 49.645 c h
806.242 69.223 m f
2.834645 w
q 1 0 0 -1 0 423.969147 cm
656.199 55.117 240 240 re S Q
1 g
671.199 368.852 m 671.199 360.567 664.484 353.852 656.199 353.852 c 647.914
 353.852 641.199 360.567 641.199 368.852 c 641.199 377.137 647.914 383.852
 656.199 383.852 c 664.484 383.852 671.199 377.137 671.199 368.852 c h
671.199 368.852 m f
0 g
q 1 0 0 -1 0 423.969147 cm
671.199 55.117 m 671.199 63.402 664.484 70.117 656.199 70.117 c 647.914
 70.117 641.199 63.402 641.199 55.117 c 641.199 46.832 647.914 40.117 656.199
 40.117 c 664.484 40.117 671.199 46.832 671.199 55.117 c h
671.199 55.117 m S Q
1 g
911.199 368.852 m 911.199 360.567 904.484 353.852 896.199 353.852 c 887.914
 353.852 881.199 360.567 881.199 368.852 c 881.199 377.137 887.914 383.852
 896.199 383.852 c 904.484 383.852 911.199 377.137 911.199 368.852 c h
911.199 368.852 m f
0 g
q 1 0 0 -1 0 423.969147 cm
911.199 55.117 m 911.199 63.402 904.484 70.117 896.199 70.117 c 887.914
 70.117 881.199 63.402 881.199 55.117 c 881.199 46.832 887.914 40.117 896.199
 40.117 c 904.484 40.117 911.199 46.832 911.199 55.117 c h
911.199 55.117 m S Q
1 g
911.199 128.852 m 911.199 120.567 904.484 113.852 896.199 113.852 c 887.914
 113.852 881.199 120.567 881.199 128.852 c 881.199 137.137 887.914 143.852
 896.199 143.852 c 904.484 143.852 911.199 137.137 911.199 128.852 c h
911.199 128.852 m f
0 g
q 1 0 0 -1 0 423.969147 cm
911.199 295.117 m 911.199 303.402 904.484 310.117 896.199 310.117 c 887.914
 310.117 881.199 303.402 881.199 295.117 c 881.199 286.832 887.914 280.117
 896.199 280.117 c 904.484 280.117 911.199 286.832 911.199 295.117 c h
911.199 295.117 m S Q
1 g
671.199 128.852 m 671.199 120.567 664.484 113.852 656.199 113.852 c 647.914
 113.852 641.199 120.567 641.199 128.852 c 641.199 137.137 647.914 143.852
 656.199 143.852 c 664.484 143.852 671.199 137.137 671.199 128.852 c h
671.199 128.852 m f
0 g
q 1 0 0 -1 0 423.969147 cm
671.199 295.117 m 671.199 303.402 664.484 310.117 656.199 310.117 c 647.914
 310.117 641.199 303.402 641.199 295.117 c 641.199 286.832 647.914 280.117
 656.199 280.117 c 664.484 280.117 671.199 286.832 671.199 295.117 c h
671.199 295.117 m S Q
1 g
802.25 129.188 m 802.25 125.043 798.891 121.688 794.75 121.688 c 790.605
 121.688 787.25 125.043 787.25 129.188 c 787.25 133.329 790.605 136.688 
794.75 136.688 c 798.891 136.688 802.25 133.329 802.25 129.188 c h
802.25 129.188 m f
0 g
q 1 0 0 -1 0 423.969147 cm
802.25 294.781 m 802.25 298.926 798.891 302.281 794.75 302.281 c 790.605
 302.281 787.25 298.926 787.25 294.781 c 787.25 290.641 790.605 287.281 
794.75 287.281 c 798.891 287.281 802.25 290.641 802.25 294.781 c h
802.25 294.781 m S Q
1 g
663.223 328.547 m 663.223 324.403 659.863 321.047 655.723 321.047 c 651.578
 321.047 648.223 324.403 648.223 328.547 c 648.223 332.688 651.578 336.047
 655.723 336.047 c 659.863 336.047 663.223 332.688 663.223 328.547 c h
663.223 328.547 m f
0 g
q 1 0 0 -1 0 423.969147 cm
663.223 95.422 m 663.223 99.566 659.863 102.922 655.723 102.922 c 651.578
 102.922 648.223 99.566 648.223 95.422 c 648.223 91.281 651.578 87.922 655.723
 87.922 c 659.863 87.922 663.223 91.281 663.223 95.422 c h
663.223 95.422 m S Q
663.449 263.243 m 663.449 259.098 660.09 255.743 655.949 255.743 c 651.805
 255.743 648.449 259.098 648.449 263.243 c 648.449 267.383 651.805 270.743
 655.949 270.743 c 660.09 270.743 663.449 267.383 663.449 263.243 c h
663.449 263.243 m f
q 1 0 0 -1 0 423.969147 cm
663.449 160.727 m 663.449 164.871 660.09 168.227 655.949 168.227 c 651.805
 168.227 648.449 164.871 648.449 160.727 c 648.449 156.586 651.805 153.227
 655.949 153.227 c 660.09 153.227 663.449 156.586 663.449 160.727 c h
663.449 160.727 m S Q
758.906 129.067 m 758.906 124.926 755.551 121.567 751.406 121.567 c 747.266
 121.567 743.906 124.926 743.906 129.067 c 743.906 133.211 747.266 136.567
 751.406 136.567 c 755.551 136.567 758.906 133.211 758.906 129.067 c h
758.906 129.067 m f
q 1 0 0 -1 0 423.969147 cm
758.906 294.902 m 758.906 299.043 755.551 302.402 751.406 302.402 c 747.266
 302.402 743.906 299.043 743.906 294.902 c 743.906 290.758 747.266 287.402
 751.406 287.402 c 755.551 287.402 758.906 290.758 758.906 294.902 c h
758.906 294.902 m S Q
5.669291 w
q 1 0 0 -1 0 423.969147 cm
640.098 104.953 m 640.098 144.871 l S Q
640.098 285.899 m 634.426 291.571 l 640.098 271.727 l 645.766 291.571 l
 h
640.098 285.899 m f*
1.417323 w
q 0 1 1 0 0 423.969147 cm
-138.07 640.098 m -132.398 634.426 l -152.242 640.098 l -132.398 645.766
 l h
-138.07 640.098 m S Q
566.031 305.192 m 559.723 303.676 554.824 297.114 554.824 291.008 c 554.824
 286.161 558.055 282.528 562.801 282.528 c 568.707 282.528 572.898 290.454
 572.898 297.418 c 572.898 302.012 570.879 304.536 569.16 306.809 c 567.344
 309.079 564.367 312.864 564.367 315.086 c 564.367 316.196 565.375 317.407
 567.141 317.407 c 568.656 317.407 569.668 316.75 570.727 316.047 c 571.734
 315.438 572.746 314.782 573.504 314.782 c 574.766 314.782 575.523 315.996
 575.523 316.801 c 575.523 317.914 574.715 318.063 572.898 318.469 c 570.273
 319.024 569.566 319.024 568.758 319.024 c 564.82 319.024 563.004 316.852
 563.004 313.825 c 563.004 311.098 564.469 308.27 566.031 305.192 c h
566.637 304.082 m 567.898 301.758 569.414 299.036 569.414 295.399 c 569.414
 292.067 567.496 283.637 562.801 283.637 c 560.023 283.637 557.953 285.758
 557.953 289.594 c 557.953 292.774 559.824 302.266 566.637 304.082 c h
566.637 304.082 m f
604.023 303.375 m 602.207 302.871 601.297 301.153 601.297 299.891 c 601.297
 298.782 602.156 297.571 603.82 297.571 c 605.586 297.571 607.457 299.036
 607.457 301.508 c 607.457 304.184 604.781 305.95 601.699 305.95 c 598.824
 305.95 596.957 303.778 596.301 302.871 c 595.039 304.989 592.211 305.95
 589.332 305.95 c 582.973 305.95 579.539 299.739 579.539 298.075 c 579.539
 297.368 580.297 297.368 580.75 297.368 c 581.355 297.368 581.711 297.368
 581.914 298.024 c 583.375 302.618 587.012 304.133 589.082 304.133 c 591
 304.133 591.906 303.223 591.906 301.61 c 591.906 300.649 591.199 297.871
 590.746 296.055 c 589.031 289.141 l 588.273 286.059 586.457 284.547 584.738
 284.547 c 584.488 284.547 583.324 284.547 582.316 285.305 c 584.133 285.809
 585.043 287.524 585.043 288.786 c 585.043 289.895 584.184 291.11 582.52
 291.11 c 580.75 291.11 578.883 289.645 578.883 287.172 c 578.883 284.496
 581.559 282.727 584.637 282.727 c 587.516 282.727 589.383 284.899 590.039
 285.809 c 591.301 283.688 594.129 282.727 597.008 282.727 c 603.367 282.727
 606.801 288.938 606.801 290.602 c 606.801 291.309 606.043 291.309 605.586
 291.309 c 604.98 291.309 604.629 291.309 604.426 290.653 c 602.961 286.059
 599.328 284.547 597.258 284.547 c 595.34 284.547 594.434 285.454 594.434
 287.071 c 594.434 288.129 595.09 290.805 595.543 292.672 c 595.895 293.985
 597.059 298.731 597.309 299.539 c 598.066 302.567 599.832 304.133 601.602
 304.133 c 601.852 304.133 603.012 304.133 604.023 303.375 c h
604.023 303.375 m f
627.953 277.082 m 626.75 277.082 l 626.645 276.305 626.293 274.219 625.832
 273.868 c 625.551 273.653 622.828 273.653 622.336 273.653 c 615.832 273.653
 l 619.543 276.942 620.781 277.93 622.898 279.59 c 625.516 281.676 627.953
 283.868 627.953 287.223 c 627.953 291.5 624.207 294.114 619.684 294.114
 c 615.305 294.114 612.336 291.039 612.336 287.789 c 612.336 285.989 613.855
 285.809 614.207 285.809 c 615.055 285.809 616.082 286.411 616.082 287.684
 c 616.082 288.321 615.832 289.555 613.996 289.555 c 615.09 292.063 617.492
 292.84 619.156 292.84 c 622.688 292.84 624.527 290.086 624.527 287.223 
c 624.527 284.149 622.336 281.711 621.203 280.438 c 612.688 272.028 l 612.336
 271.711 612.336 271.641 612.336 270.653 c 626.895 270.653 l h
627.953 277.082 m f
829.516 164.293 m 827.699 163.789 826.793 162.071 826.793 160.809 c 826.793
 159.7 827.648 158.489 829.316 158.489 c 831.082 158.489 832.949 159.954
 832.949 162.426 c 832.949 165.102 830.273 166.868 827.195 166.868 c 824.316
 166.868 822.449 164.696 821.793 163.789 c 820.531 165.911 817.703 166.868
 814.828 166.868 c 808.469 166.868 805.035 160.661 805.035 158.993 c 805.035
 158.286 805.793 158.286 806.246 158.286 c 806.852 158.286 807.207 158.286
 807.406 158.942 c 808.871 163.536 812.504 165.051 814.574 165.051 c 816.492
 165.051 817.402 164.141 817.402 162.528 c 817.402 161.567 816.695 158.789
 816.242 156.973 c 814.523 150.059 l 813.766 146.977 811.949 145.465 810.234
 145.465 c 809.98 145.465 808.82 145.465 807.812 146.223 c 809.629 146.727
 810.535 148.442 810.535 149.704 c 810.535 150.817 809.68 152.028 808.012
 152.028 c 806.246 152.028 804.379 150.563 804.379 148.09 c 804.379 145.414
 807.055 143.649 810.133 143.649 c 813.012 143.649 814.879 145.817 815.535
 146.727 c 816.797 144.606 819.625 143.649 822.5 143.649 c 828.859 143.649
 832.293 149.856 832.293 151.524 c 832.293 152.227 831.535 152.227 831.082
 152.227 c 830.477 152.227 830.125 152.227 829.922 151.571 c 828.457 146.977
 824.824 145.465 822.754 145.465 c 820.836 145.465 819.926 146.371 819.926
 147.989 c 819.926 149.047 820.582 151.723 821.035 153.59 c 821.391 154.903
 822.551 159.649 822.805 160.457 c 823.562 163.485 825.328 165.051 827.094
 165.051 c 827.348 165.051 828.508 165.051 829.516 164.293 c h
829.516 164.293 m f
847.441 154.047 m 847.441 155 847.371 155.036 846.379 155.036 c 844.117
 152.809 840.902 152.774 839.453 152.774 c 839.453 151.5 l 840.301 151.5
 842.633 151.5 844.578 152.489 c 844.578 134.469 l 844.578 133.301 844.578
 132.844 841.043 132.844 c 839.703 132.844 l 839.703 131.571 l 840.336 131.606
 844.684 131.711 845.992 131.711 c 847.086 131.711 851.539 131.606 852.316
 131.571 c 852.316 132.844 l 850.973 132.844 l 847.441 132.844 847.441 133.301
 847.441 134.469 c h
847.441 154.047 m f
693.555 353.926 m 691.738 353.418 690.828 351.704 690.828 350.442 c 690.828
 349.332 691.688 348.121 693.352 348.121 c 695.121 348.121 696.988 349.582
 696.988 352.059 c 696.988 354.731 694.312 356.5 691.23 356.5 c 688.355 
356.5 686.488 354.329 685.832 353.418 c 684.57 355.539 681.742 356.5 678.863
 356.5 c 672.504 356.5 669.07 350.289 669.07 348.625 c 669.07 347.918 669.828
 347.918 670.281 347.918 c 670.891 347.918 671.242 347.918 671.445 348.575
 c 672.906 353.168 676.543 354.684 678.613 354.684 c 680.531 354.684 681.438
 353.774 681.438 352.157 c 681.438 351.2 680.73 348.422 680.277 346.606 
c 678.562 339.688 l 677.805 336.61 675.988 335.094 674.27 335.094 c 674.02
 335.094 672.859 335.094 671.848 335.852 c 673.664 336.36 674.574 338.075
 674.574 339.336 c 674.574 340.446 673.715 341.657 672.051 341.657 c 670.281
 341.657 668.414 340.196 668.414 337.719 c 668.414 335.047 671.09 333.278
 674.172 333.278 c 677.047 333.278 678.914 335.45 679.57 336.36 c 680.832
 334.239 683.66 333.278 686.539 333.278 c 692.898 333.278 696.332 339.489
 696.332 341.153 c 696.332 341.86 695.574 341.86 695.121 341.86 c 694.512
 341.86 694.16 341.86 693.957 341.204 c 692.496 336.61 688.859 335.094 686.789
 335.094 c 684.871 335.094 683.965 336.004 683.965 337.621 c 683.965 338.68
 684.621 341.356 685.074 343.223 c 685.426 344.536 686.59 349.282 686.84
 350.09 c 687.598 353.118 689.363 354.684 691.133 354.684 c 691.383 354.684
 692.543 354.684 693.555 353.926 c h
693.555 353.926 m f
717.484 327.633 m 716.281 327.633 l 716.176 326.856 715.824 324.774 715.363
 324.418 c 715.082 324.207 712.359 324.207 711.867 324.207 c 705.363 324.207
 l 709.074 327.493 710.312 328.481 712.43 330.145 c 715.047 332.227 717.484
 334.418 717.484 337.778 c 717.484 342.051 713.738 344.664 709.215 344.664
 c 704.836 344.664 701.867 341.59 701.867 338.34 c 701.867 336.539 703.387
 336.364 703.738 336.364 c 704.586 336.364 705.613 336.961 705.613 338.235
 c 705.613 338.871 705.363 340.11 703.527 340.11 c 704.621 342.618 707.023
 343.395 708.688 343.395 c 712.219 343.395 714.059 340.637 714.059 337.778
 c 714.059 334.704 711.867 332.262 710.734 330.993 c 702.219 322.582 l 701.867
 322.262 701.867 322.192 701.867 321.204 c 716.426 321.204 l h
717.484 327.633 m f
63.441 102.942 m 63.441 103.039 63.586 103.571 63.586 103.621 c 63.586 
103.668 63.586 104.106 63.004 104.106 c 62.52 104.106 62.473 103.961 62.277
 103.133 c 59.465 91.934 l 51.754 91.688 44.625 85.239 44.625 78.645 c 44.625
 74.036 48.02 70.204 53.938 69.868 c 53.547 68.364 53.211 66.809 52.82 65.309
 c 52.238 63.028 51.754 61.184 51.754 61.039 c 51.754 60.555 52.094 60.504
 52.336 60.504 c 52.578 60.504 52.676 60.555 52.82 60.7 c 52.918 60.797 
53.211 61.961 53.355 62.641 c 55.199 69.868 l 63.004 70.11 70.039 76.657
 70.039 83.153 c 70.039 86.985 67.469 91.446 60.727 91.934 c h
54.18 70.934 m 51.27 71.079 47.777 72.774 47.777 77.625 c 47.777 83.446
 51.949 90.235 59.176 90.864 c h
60.434 90.864 m 64.121 90.672 66.887 88.442 66.887 84.172 c 66.887 78.45
 62.715 71.516 55.441 70.934 c h
60.434 90.864 m f
583.918 106.274 m 583.918 106.371 584.066 106.903 584.066 106.954 c 584.066
 107 584.066 107.438 583.484 107.438 c 582.996 107.438 582.949 107.293 582.754
 106.469 c 579.941 95.266 l 572.23 95.024 565.102 88.571 565.102 81.977 
c 565.102 77.368 568.496 73.539 574.414 73.2 c 574.027 71.696 573.688 70.145
 573.297 68.641 c 572.715 66.36 572.23 64.516 572.23 64.371 c 572.23 63.887
 572.57 63.84 572.812 63.84 c 573.055 63.84 573.152 63.887 573.297 64.032
 c 573.395 64.129 573.688 65.293 573.832 65.973 c 575.676 73.2 l 583.484
 73.442 590.516 79.989 590.516 86.489 c 590.516 90.317 587.945 94.782 581.203
 95.266 c h
574.656 74.266 m 571.746 74.411 568.254 76.11 568.254 80.957 c 568.254 
86.778 572.426 93.567 579.652 94.2 c h
580.914 94.2 m 584.598 94.004 587.363 91.774 587.363 87.504 c 587.363 81.782
 583.191 74.848 575.918 74.266 c h
580.914 94.2 m f
627.383 84.934 m 640.914 84.934 l 641.594 84.934 642.512 84.934 642.512
 85.907 c 642.512 86.875 641.594 86.875 640.914 86.875 c 627.383 86.875 
l 627.383 100.454 l 627.383 101.133 627.383 102.055 626.414 102.055 c 625.441
 102.055 625.441 101.133 625.441 100.454 c 625.441 86.875 l 611.863 86.875
 l 611.184 86.875 610.262 86.875 610.262 85.907 c 610.262 84.934 611.184
 84.934 611.863 84.934 c 625.441 84.934 l 625.441 71.356 l 625.441 70.676
 625.441 69.754 626.414 69.754 c 627.383 69.754 627.383 70.676 627.383 71.356
 c h
627.383 84.934 m f
668.707 94.973 m 662.645 93.52 657.941 87.215 657.941 81.348 c 657.941 
76.692 661.047 73.2 665.605 73.2 c 671.277 73.2 675.305 80.813 675.305 87.504
 c 675.305 91.918 673.363 94.344 671.715 96.528 c 669.969 98.707 667.109
 102.344 667.109 104.481 c 667.109 105.547 668.078 106.711 669.773 106.711
 c 671.23 106.711 672.199 106.079 673.219 105.399 c 674.188 104.821 675.16
 104.188 675.887 104.188 c 677.098 104.188 677.824 105.352 677.824 106.129
 c 677.824 107.196 677.051 107.34 675.305 107.727 c 672.781 108.262 672.102
 108.262 671.328 108.262 c 667.543 108.262 665.797 106.176 665.797 103.266
 c 665.797 100.649 667.203 97.934 668.707 94.973 c h
669.289 93.907 m 670.504 91.676 671.957 89.059 671.957 85.567 c 671.957
 82.364 670.113 74.266 665.605 74.266 c 662.938 74.266 660.949 76.301 660.949
 79.989 c 660.949 83.043 662.742 92.161 669.289 93.907 c h
669.289 93.907 m f
700.41 106.274 m 700.41 106.371 700.555 106.903 700.555 106.954 c 700.555
 107 700.555 107.438 699.973 107.438 c 699.488 107.438 699.441 107.293 699.246
 106.469 c 696.434 95.266 l 688.723 95.024 681.594 88.571 681.594 81.977
 c 681.594 77.368 684.988 73.539 690.906 73.2 c 690.516 71.696 690.176 70.145
 689.789 68.641 c 689.207 66.36 688.723 64.516 688.723 64.371 c 688.723 
63.887 689.062 63.84 689.305 63.84 c 689.547 63.84 689.645 63.887 689.789
 64.032 c 689.887 64.129 690.176 65.293 690.324 65.973 c 692.164 73.2 l 
699.973 73.442 707.008 79.989 707.008 86.489 c 707.008 90.317 704.438 94.782
 697.695 95.266 c h
691.148 74.266 m 688.238 74.411 684.746 76.11 684.746 80.957 c 684.746 
86.778 688.918 93.567 696.145 94.2 c h
697.402 94.2 m 701.09 94.004 703.855 91.774 703.855 87.504 c 703.855 81.782
 699.684 74.848 692.41 74.266 c h
697.402 94.2 m f
18.379 155.883 m 18.379 155.914 l 18.387 155.926 l 18.387 155.965 l 18.395
 155.985 l 18.395 156.012 l 18.402 156.032 l 18.402 156.063 l 18.418 156.118
 l 18.418 156.137 l 18.43 156.168 l 18.438 156.223 l 18.457 156.282 l 18.457
 156.309 l 18.465 156.336 l 18.473 156.36 l 18.473 156.387 l 18.48 156.407
 l 18.48 156.434 l 18.492 156.454 l 18.492 156.473 l 18.5 156.485 l 18.5
 156.508 l 18.508 156.516 l 18.508 156.536 l 18.508 156.582 18.508 157.008
 17.938 157.008 c 17.461 157.008 17.414 156.868 17.227 156.059 c 14.48 145.133
 l 6.953 144.895 0 138.598 0 132.164 c 0 127.672 3.316 123.926 9.082 123.594
 c 9.32 124.641 l 6.488 124.782 3.078 126.434 3.078 131.168 c 3.078 136.848
 7.145 143.469 14.203 144.086 c 9.32 124.641 l 9.082 123.594 l 8.711 122.133
 8.379 120.621 8 119.149 c 7.43 116.926 6.953 115.121 6.953 114.989 c 6.953
 114.512 7.289 114.465 7.523 114.465 c 7.762 114.465 7.855 114.512 8 114.653
 c 8.094 114.75 8.379 115.879 8.523 116.543 c 10.316 123.594 l 10.555 124.641
 l 15.43 144.086 l 19.02 143.899 21.719 141.723 21.719 137.559 c 21.719 
131.973 17.652 125.211 10.555 124.641 c 10.316 123.594 l 17.938 123.832 
24.797 130.227 24.797 136.563 c 24.797 140.297 22.289 144.657 15.715 145.133
 c h
18.379 155.883 m f*
42.34 128.082 m 42.34 128.758 l 42.32 129.403 l 42.289 130.032 l 42.25 
130.637 l 42.195 131.227 l 42.117 131.789 l 42.035 132.34 l 41.93 132.871
 l 41.816 133.395 l 41.672 133.899 l 41.512 134.383 l 41.328 134.856 l 41.129
 135.321 l 40.902 135.778 l 40.656 136.223 l 40.523 136.454 l 40.379 136.672
 l 39.363 138.192 37.301 139.512 34.652 139.512 c 34.652 138.59 l 36.445
 138.59 38.168 137.496 38.766 135.571 c 39.297 133.782 39.324 131.399 39.324
 128.52 c 39.324 126.067 39.324 123.606 38.898 121.528 c 38.234 118.516 
35.98 117.782 34.652 117.782 c 33.133 117.782 31.105 118.676 30.441 121.395
 c 29.977 123.352 29.977 126.067 29.977 128.52 c 29.977 130.934 29.977 133.45
 30.48 135.274 c 31.176 137.895 33.293 138.59 34.652 138.59 c 34.652 139.512
 l 26.965 139.512 26.965 130.465 26.965 128.082 c 26.965 125.7 26.965 116.852
 34.652 116.852 c 42.336 116.852 42.336 125.7 42.336 128.082 c h
42.34 128.082 m f*
350.98 147.883 m 350.98 147.914 l 350.988 147.926 l 350.988 147.965 l 351
 147.985 l 351 148.012 l 351.008 148.032 l 351.008 148.063 l 351.023 148.118
 l 351.023 148.137 l 351.031 148.168 l 351.039 148.223 l 351.062 148.282
 l 351.062 148.309 l 351.07 148.336 l 351.078 148.36 l 351.078 148.387 l
 351.086 148.407 l 351.086 148.434 l 351.094 148.454 l 351.094 148.473 l
 351.102 148.485 l 351.102 148.508 l 351.113 148.516 l 351.113 148.536 l
 351.113 148.582 351.113 149.008 350.543 149.008 c 350.066 149.008 350.02
 148.868 349.828 148.059 c 347.082 137.133 l 339.559 136.895 332.605 130.598
 332.605 124.164 c 332.605 119.672 335.922 115.926 341.688 115.594 c 341.926
 116.641 l 339.094 116.782 335.684 118.434 335.684 123.168 c 335.684 128.848
 339.75 135.469 346.809 136.086 c 341.926 116.641 l 341.688 115.594 l 341.309
 114.133 340.984 112.621 340.605 111.149 c 340.035 108.926 339.559 107.121
 339.559 106.989 c 339.559 106.512 339.891 106.465 340.129 106.465 c 340.367
 106.465 340.461 106.512 340.605 106.653 c 340.699 106.75 340.984 107.879
 341.125 108.543 c 342.922 115.594 l 343.16 116.641 l 348.035 136.086 l 
351.633 135.899 354.324 133.723 354.324 129.559 c 354.324 123.973 350.258
 117.211 343.16 116.641 c 342.922 115.594 l 350.543 115.832 357.402 122.227
 357.402 128.563 c 357.402 132.297 354.895 136.657 348.32 137.133 c h
350.98 147.883 m f*
368.949 130.59 m 368.949 130.883 l 368.938 130.914 l 368.938 131.008 l 
368.93 131.028 l 368.93 131.086 l 368.922 131.114 l 368.922 131.153 l 368.902
 131.204 l 368.895 131.239 l 368.887 131.278 l 368.867 131.305 l 368.844
 131.336 l 368.824 131.364 l 368.777 131.411 l 368.75 131.43 l 368.711 131.454
 l 368.684 131.461 l 368.645 131.469 l 368.598 131.489 l 368.551 131.489
 l 368.527 131.496 l 368.5 131.496 l 368.473 131.504 l 368.355 131.504 l
 368.328 131.512 l 367.957 131.512 l 365.828 129.434 362.816 129.395 361.461
 129.395 c 361.461 128.207 l 362.258 128.207 364.441 128.207 366.258 129.129
 c 366.258 112.239 l 366.258 111.145 366.258 110.707 362.949 110.707 c 361.688
 110.707 l 361.688 109.52 l 373.516 109.52 l 373.516 110.707 l 372.262 110.707
 l 368.945 110.707 368.945 111.145 368.945 112.239 c h
368.949 130.59 m f*
347.586 389.481 m 347.586 389.516 l 347.594 389.524 l 347.594 389.563 l
 347.602 389.582 l 347.602 389.614 l 347.609 389.633 l 347.609 389.661 l
 347.621 389.688 l 347.629 389.719 l 347.629 389.739 l 347.637 389.766 l
 347.645 389.825 l 347.664 389.879 l 347.664 389.911 l 347.672 389.938 l
 347.684 389.957 l 347.684 389.985 l 347.691 390.008 l 347.691 390.036 l
 347.699 390.055 l 347.699 390.075 l 347.707 390.082 l 347.707 390.11 l 
347.715 390.118 l 347.715 390.133 l 347.715 390.18 347.715 390.61 347.145
 390.61 c 346.672 390.61 346.625 390.465 346.434 389.661 c 343.688 378.735
 l 336.164 378.496 329.207 372.196 329.207 365.766 c 329.207 361.27 332.523
 357.528 338.293 357.196 c 338.527 358.239 l 335.699 358.383 332.285 360.036
 332.285 364.766 c 332.285 370.45 336.352 377.071 343.414 377.688 c 338.527
 358.239 l 338.293 357.196 l 337.91 355.731 337.59 354.219 337.207 352.746
 c 336.637 350.524 336.164 348.719 336.164 348.586 c 336.164 348.114 336.496
 348.063 336.734 348.063 c 336.969 348.063 337.066 348.114 337.207 348.254
 c 337.305 348.348 337.59 349.481 337.73 350.145 c 339.527 357.196 l 339.766
 358.239 l 344.637 377.688 l 348.238 377.496 350.926 375.321 350.926 371.161
 c 350.926 365.575 346.859 358.809 339.766 358.239 c 339.527 357.196 l 347.145
 357.43 354.004 363.825 354.004 370.164 c 354.004 373.899 351.496 378.258
 344.922 378.731 c h
347.586 389.481 m f*
371.188 357.149 m 370.055 357.149 l 369.961 356.418 369.629 354.461 369.199
 354.129 c 368.934 353.93 366.379 353.93 365.922 353.93 c 359.824 353.93
 l 363.301 357.016 364.461 357.938 366.445 359.496 c 368.895 361.454 371.188
 363.508 371.188 366.661 c 371.188 370.661 367.672 373.114 363.434 373.114
 c 359.32 373.114 356.543 370.235 356.543 367.184 c 356.543 365.493 357.969
 365.332 358.293 365.332 c 359.09 365.332 360.059 365.891 360.059 367.09
 c 360.059 367.676 359.824 368.844 358.102 368.844 c 359.129 371.192 361.379
 371.926 362.938 371.926 c 366.246 371.926 367.973 369.34 367.973 366.661
 c 367.973 363.774 365.922 361.485 364.859 360.297 c 356.879 352.411 l 356.543
 352.114 356.543 352.047 356.543 351.118 c 370.188 351.118 l h
371.188 357.149 m f*
19.391 389.481 m 19.391 389.516 l 19.398 389.524 l 19.398 389.563 l 19.406
 389.582 l 19.406 389.614 l 19.414 389.633 l 19.414 389.661 l 19.426 389.688
 l 19.434 389.719 l 19.434 389.739 l 19.441 389.766 l 19.449 389.825 l 19.469
 389.879 l 19.469 389.911 l 19.477 389.938 l 19.484 389.957 l 19.484 389.985
 l 19.496 390.008 l 19.496 390.036 l 19.504 390.055 l 19.504 390.075 l 19.512
 390.082 l 19.512 390.11 l 19.52 390.118 l 19.52 390.133 l 19.52 390.18 
19.52 390.61 18.949 390.61 c 18.477 390.61 18.426 390.465 18.238 389.661
 c 15.492 378.735 l 7.969 378.496 1.012 372.196 1.012 365.766 c 1.012 361.27
 4.328 357.528 10.094 357.196 c 10.332 358.239 l 7.5 358.383 4.09 360.036
 4.09 364.766 c 4.09 370.45 8.156 377.071 15.215 377.688 c 10.332 358.239
 l 10.094 357.196 l 9.715 355.731 9.391 354.219 9.012 352.746 c 8.441 350.524
 7.969 348.719 7.969 348.586 c 7.969 348.114 8.301 348.063 8.539 348.063
 c 8.773 348.063 8.871 348.114 9.012 348.254 c 9.105 348.348 9.391 349.481
 9.535 350.145 c 11.332 357.196 l 11.566 358.239 l 16.441 377.688 l 20.043
 377.496 22.73 375.321 22.73 371.161 c 22.73 365.575 18.664 358.809 11.566
 358.239 c 11.332 357.196 l 18.949 357.43 25.809 363.825 25.809 370.164 
c 25.809 373.899 23.301 378.258 16.727 378.731 c h
19.391 389.481 m f*
35.305 362.176 m 35.543 362.176 l 35.777 362.157 l 36.008 362.137 l 36.234
 362.098 l 36.453 362.051 l 36.672 361.993 l 36.879 361.926 l 37.09 361.84
 l 37.289 361.758 l 37.48 361.653 l 37.66 361.547 l 37.84 361.422 l 38.012
 361.301 l 38.184 361.157 l 38.344 361.004 l 38.484 360.844 l 38.637 360.672
 l 38.77 360.485 l 38.895 360.293 l 39.02 360.094 l 39.133 359.875 l 39.238
 359.657 l 39.324 359.418 l 39.406 359.172 l 39.484 358.914 l 39.551 358.649
 l 39.609 358.375 l 39.656 358.09 l 39.691 357.793 l 39.723 357.489 l 39.742
 357.176 l 39.742 356.844 l 39.742 352.739 37.355 351.516 35.438 351.516
 c 34.117 351.516 31.199 351.875 29.805 353.832 c 31.363 353.899 31.723 
354.993 31.723 355.684 c 31.723 356.75 30.934 357.508 29.91 357.508 c 28.977
 357.508 28.047 356.95 28.047 355.59 c 28.047 352.473 31.496 350.45 35.504
 350.45 c 40.102 350.45 43.285 353.539 43.285 356.844 c 43.285 359.43 41.168
 362.012 37.52 362.774 c 41.004 364.036 42.258 366.516 42.258 368.539 c 
42.258 371.161 39.246 373.11 35.57 373.11 c 31.895 373.11 29.082 371.325
 29.082 368.672 c 29.082 367.551 29.805 366.914 30.801 366.914 c 31.828 
366.914 32.484 367.676 32.484 368.606 c 32.484 369.567 31.828 370.27 30.801
 370.325 c 31.961 371.789 34.242 372.149 35.477 372.149 c 36.957 372.149
 39.047 371.43 39.047 368.539 c 39.047 367.153 38.582 365.621 37.727 364.598
 c 36.625 363.344 35.703 363.278 34.051 363.172 c 33.215 363.106 33.148 
363.106 32.988 363.079 c 32.922 363.079 32.652 363.012 32.652 362.641 c 
32.652 362.176 32.949 362.176 33.52 362.176 c h
35.305 362.176 m f*
607.445 156.403 m 607.445 156.438 l 607.453 156.446 l 607.453 156.485 l
 607.461 156.504 l 607.461 156.536 l 607.469 156.555 l 607.469 156.582 l
 607.48 156.61 l 607.488 156.641 l 607.488 156.661 l 607.496 156.688 l 607.504
 156.746 l 607.523 156.801 l 607.523 156.832 l 607.531 156.86 l 607.539 
156.879 l 607.539 156.907 l 607.551 156.926 l 607.551 156.957 l 607.559 
156.977 l 607.559 156.996 l 607.566 157.004 l 607.566 157.032 l 607.574 
157.039 l 607.574 157.055 l 607.574 157.102 607.574 157.532 607.004 157.532
 c 606.531 157.532 606.48 157.387 606.293 156.579 c 603.547 145.653 l 596.023
 145.418 589.066 139.118 589.066 132.684 c 589.066 128.192 592.383 124.45
 598.148 124.118 c 598.387 125.161 l 595.555 125.305 592.145 126.957 592.145
 131.688 c 592.145 137.371 596.211 143.993 603.27 144.61 c 598.387 125.161
 l 598.148 124.118 l 597.781 122.653 597.445 121.141 597.066 119.668 c 596.496
 117.446 596.023 115.641 596.023 115.508 c 596.023 115.032 596.355 114.985
 596.594 114.985 c 596.828 114.985 596.926 115.032 597.066 115.176 c 597.16
 115.27 597.445 116.403 597.59 117.067 c 599.387 124.118 l 599.621 125.161
 l 604.496 144.61 l 608.09 144.418 610.785 142.243 610.785 138.082 c 610.785
 132.496 606.719 125.731 599.621 125.161 c 599.387 124.118 l 607.004 124.352
 613.863 130.746 613.863 137.086 c 613.863 140.817 611.355 145.18 604.781
 145.653 c h
607.445 156.403 m f*
631.406 128.606 m 631.406 129.278 l 631.387 129.926 l 631.355 130.551 l
 631.32 131.161 l 631.262 131.75 l 631.188 132.309 l 631.102 132.86 l 630.996
 133.391 l 630.883 133.914 l 630.738 134.418 l 630.578 134.903 l 630.398
 135.379 l 630.199 135.844 l 629.969 136.301 l 629.723 136.746 l 629.59 
136.973 l 629.449 137.192 l 628.43 138.711 626.371 140.032 623.719 140.032
 c 623.719 139.114 l 625.516 139.114 627.234 138.02 627.832 136.09 c 628.363
 134.305 628.395 131.918 628.395 129.039 c 628.395 126.59 628.395 124.129
 627.965 122.047 c 627.301 119.036 625.047 118.305 623.719 118.305 c 622.199
 118.305 620.176 119.2 619.508 121.914 c 619.043 123.871 619.043 126.59 
619.043 129.039 c 619.043 131.454 619.043 133.973 619.547 135.797 c 620.242
 138.418 622.359 139.114 623.719 139.114 c 623.719 140.032 l 616.031 140.032
 616.031 130.989 616.031 128.602 c 616.031 126.219 616.031 117.375 623.719
 117.375 c 631.406 117.375 631.406 126.219 631.406 128.602 c h
631.406 128.606 m f*
940.047 148.403 m 940.047 148.438 l 940.059 148.446 l 940.059 148.485 l
 940.066 148.504 l 940.066 148.536 l 940.074 148.555 l 940.074 148.582 l
 940.082 148.61 l 940.09 148.641 l 940.09 148.661 l 940.102 148.688 l 940.109
 148.746 l 940.129 148.801 l 940.129 148.832 l 940.137 148.86 l 940.145 
148.879 l 940.145 148.907 l 940.152 148.926 l 940.152 148.957 l 940.164 
148.977 l 940.164 148.996 l 940.172 149.004 l 940.172 149.032 l 940.18 149.039
 l 940.18 149.055 l 940.18 149.102 940.18 149.532 939.609 149.532 c 939.133
 149.532 939.086 149.387 938.898 148.579 c 936.152 137.653 l 928.625 137.418
 921.672 131.118 921.672 124.684 c 921.672 120.192 924.988 116.45 930.754
 116.118 c 930.992 117.161 l 928.16 117.305 924.75 118.957 924.75 123.688
 c 924.75 129.371 928.816 135.993 935.875 136.61 c 930.992 117.161 l 930.754
 116.118 l 930.375 114.653 930.051 113.141 929.672 111.668 c 929.102 109.446
 928.625 107.641 928.625 107.508 c 928.625 107.032 928.957 106.985 929.195
 106.985 c 929.434 106.985 929.527 107.032 929.672 107.176 c 929.766 107.27
 930.051 108.403 930.195 109.067 c 931.988 116.118 l 932.227 117.161 l 937.102
 136.61 l 940.703 136.418 943.391 134.243 943.391 130.082 c 943.391 124.496
 939.324 117.731 932.227 117.161 c 931.988 116.118 l 939.609 116.352 946.469
 122.746 946.469 129.086 c 946.469 132.817 943.961 137.18 937.387 137.653
 c h
940.047 148.403 m f*
958.016 131.114 m 958.016 131.407 l 958.008 131.434 l 958.008 131.532 l
 957.996 131.551 l 957.996 131.606 l 957.988 131.637 l 957.988 131.676 l
 957.969 131.723 l 957.953 131.801 l 957.895 131.883 l 957.844 131.934 l
 957.816 131.954 l 957.777 131.973 l 957.75 131.981 l 957.711 131.989 l 
957.664 132.008 l 957.617 132.008 l 957.598 132.02 l 957.566 132.02 l 957.539
 132.028 l 957.426 132.028 l 957.395 132.036 l 957.023 132.036 l 954.898
 129.954 951.887 129.918 950.527 129.918 c 950.527 128.731 l 951.324 128.731
 953.508 128.731 955.324 129.649 c 955.324 112.758 l 955.324 111.664 955.324
 111.227 952.02 111.227 c 950.754 111.227 l 950.754 110.039 l 962.582 110.039
 l 962.582 111.227 l 961.328 111.227 l 958.012 111.227 958.012 111.664 958.012
 112.758 c h
958.016 131.114 m f*
936.652 390.004 m 936.652 390.036 l 936.66 390.047 l 936.66 390.086 l 936.672
 390.106 l 936.672 390.133 l 936.68 390.153 l 936.68 390.184 l 936.695 390.239
 l 936.695 390.258 l 936.703 390.289 l 936.711 390.344 l 936.73 390.403 
l 936.73 390.43 l 936.742 390.461 l 936.75 390.481 l 936.75 390.508 l 936.758
 390.528 l 936.758 390.555 l 936.766 390.575 l 936.766 390.594 l 936.773
 390.606 l 936.773 390.629 l 936.785 390.637 l 936.785 390.657 l 936.785
 390.704 936.785 391.129 936.215 391.129 c 935.738 391.129 935.691 390.989
 935.5 390.18 c 932.754 379.254 l 925.23 379.016 918.277 372.719 918.277
 366.286 c 918.277 361.793 921.59 358.047 927.359 357.715 c 927.598 358.762
 l 924.766 358.903 921.355 360.555 921.355 365.289 c 921.355 370.969 925.422
 377.59 932.48 378.207 c 927.598 358.762 l 927.359 357.715 l 926.98 356.254
 926.656 354.743 926.277 353.27 c 925.707 351.047 925.23 349.243 925.23 
349.11 c 925.23 348.633 925.562 348.586 925.801 348.586 c 926.039 348.586
 926.133 348.633 926.277 348.774 c 926.371 348.871 926.656 350 926.797 350.664
 c 928.594 357.715 l 928.832 358.762 l 933.707 378.207 l 937.305 378.02 
939.996 375.844 939.996 371.684 c 939.996 366.094 935.93 359.332 928.832
 358.762 c 928.594 357.715 l 936.215 357.954 943.074 364.348 943.074 370.684
 c 943.074 374.418 940.566 378.778 933.988 379.254 c h
936.652 390.004 m f*
960.254 357.672 m 959.121 357.672 l 959.027 356.942 958.695 354.985 958.266
 354.649 c 958 354.45 955.445 354.45 954.988 354.45 c 948.891 354.45 l 952.367
 357.539 953.527 358.461 955.512 360.02 c 957.965 361.977 960.254 364.028
 960.254 367.184 c 960.254 371.184 956.738 373.633 952.5 373.633 c 948.387
 373.633 945.613 370.754 945.613 367.704 c 945.613 366.012 947.039 365.852
 947.359 365.852 c 948.16 365.852 949.129 366.414 949.129 367.61 c 949.129
 368.2 948.891 369.368 947.172 369.368 c 948.195 371.715 950.449 372.446
 952.008 372.446 c 955.312 372.446 957.043 369.86 957.043 367.184 c 957.043
 364.293 954.988 362.004 953.926 360.817 c 945.945 352.93 l 945.613 352.637
 945.613 352.571 945.613 351.637 c 959.254 351.637 l h
960.254 357.672 m f*
608.457 390.004 m 608.457 390.036 l 608.465 390.047 l 608.465 390.086 l
 608.473 390.106 l 608.473 390.133 l 608.484 390.153 l 608.484 390.184 l
 608.5 390.239 l 608.5 390.258 l 608.508 390.289 l 608.516 390.344 l 608.535
 390.403 l 608.535 390.43 l 608.547 390.461 l 608.555 390.481 l 608.555 
390.508 l 608.562 390.528 l 608.562 390.555 l 608.57 390.575 l 608.57 390.594
 l 608.578 390.606 l 608.578 390.629 l 608.586 390.637 l 608.586 390.657
 l 608.586 390.704 608.586 391.129 608.02 391.129 c 607.543 391.129 607.496
 390.989 607.305 390.18 c 604.559 379.254 l 597.035 379.016 590.078 372.719
 590.078 366.286 c 590.078 361.793 593.395 358.047 599.164 357.715 c 599.398
 358.762 l 596.57 358.903 593.16 360.555 593.16 365.289 c 593.16 370.969
 597.227 377.59 604.285 378.207 c 599.398 358.762 l 599.164 357.715 l 598.781
 356.254 598.461 354.743 598.078 353.27 c 597.508 351.047 597.035 349.243
 597.035 349.11 c 597.035 348.633 597.367 348.586 597.605 348.586 c 597.844
 348.586 597.938 348.633 598.078 348.774 c 598.176 348.871 598.461 350 598.602
 350.664 c 600.398 357.715 l 600.637 358.762 l 605.508 378.207 l 609.109
 378.02 611.801 375.844 611.801 371.684 c 611.801 366.094 607.734 359.332
 600.637 358.762 c 600.398 357.715 l 608.02 357.954 614.879 364.348 614.879
 370.684 c 614.879 374.418 612.367 378.778 605.793 379.254 c h
608.457 390.004 m f*
624.371 362.7 m 624.609 362.7 l 624.848 362.676 l 625.074 362.657 l 625.301
 362.621 l 625.52 362.575 l 625.738 362.516 l 625.949 362.45 l 626.156 362.364
 l 626.355 362.278 l 626.547 362.172 l 626.727 362.067 l 626.906 361.946
 l 627.078 361.821 l 627.25 361.68 l 627.41 361.528 l 627.555 361.364 l 
627.707 361.196 l 627.84 361.004 l 627.961 360.813 l 628.086 360.614 l 628.199
 360.395 l 628.305 360.176 l 628.391 359.942 l 628.477 359.692 l 628.551
 359.438 l 628.617 359.172 l 628.676 358.895 l 628.723 358.61 l 628.762 
358.317 l 628.789 358.012 l 628.809 357.7 l 628.809 357.368 l 628.809 353.262
 626.426 352.036 624.504 352.036 c 623.184 352.036 620.27 352.399 618.871
 354.356 c 620.43 354.422 620.789 355.512 620.789 356.207 c 620.789 357.27
 620 358.032 618.977 358.032 c 618.043 358.032 617.113 357.469 617.113 356.114
 c 617.113 352.996 620.562 350.973 624.57 350.973 c 629.172 350.973 632.352
 354.059 632.352 357.368 c 632.352 359.95 630.234 362.536 626.586 363.293
 c 630.074 364.559 631.328 367.039 631.328 369.063 c 631.328 371.684 628.316
 373.633 624.637 373.633 c 620.961 373.633 618.148 371.844 618.148 369.196
 c 618.148 368.075 618.871 367.438 619.867 367.438 c 620.895 367.438 621.551
 368.196 621.551 369.129 c 621.551 370.086 620.895 370.789 619.867 370.848
 c 621.027 372.309 623.309 372.672 624.543 372.672 c 626.023 372.672 628.117
 371.95 628.117 369.063 c 628.117 367.676 627.648 366.145 626.793 365.118
 c 625.691 363.864 624.77 363.797 623.117 363.692 c 622.281 363.625 622.215
 363.625 622.055 363.598 c 621.988 363.598 621.723 363.532 621.723 363.161
 c 621.723 362.696 622.016 362.696 622.586 362.696 c h
624.371 362.7 m f*
3.350551 w
q 1 0 0 -1 0 423.969147 cm
71.277 99.266 m 207.039 299.52 l S Q
q 1 0 0 -1 0 423.969147 cm
657.328 162.059 m 751.23 294.426 l S Q
0.6 g
658.941 254.5 m 655.887 250.59 657.977 244.082 657.098 239.309 c 656.707
 207.93 656.953 176.551 656.883 145.168 c 662.84 144.715 669.027 140.168
 671.574 134.411 c 670.758 128.45 678.062 130.34 681.668 129.938 c 701.871
 129.481 722.082 129.727 742.289 129.661 c 746.793 135.547 738.887 141.618
 736.559 146.817 c 711.512 183.016 686.52 219.34 659.719 254.262 c 659.512
 254.446 659.227 254.551 658.941 254.5 c h
658.941 254.5 m f
0 g
[ 13.402205 3.350551] 0 d
q 1 0 0 -1 0 423.969147 cm
660.438 101.246 m 789.133 288.77 l S Q
Q Q
showpage
%%Trailer
end restore
%%EOF
