%!PS-Adobe-3.0 EPSF-3.0
%%Creator: cairo 1.14.0 (http://cairographics.org)
%%CreationDate: Thu Feb 16 16:57:38 2017
%%Pages: 1
%%DocumentData: Clean7Bit
%%LanguageLevel: 2
%%BoundingBox: 0 -1 260 175
%%EndComments
%%BeginProlog
save
50 dict begin
/q { gsave } bind def
/Q { grestore } bind def
/cm { 6 array astore concat } bind def
/w { setlinewidth } bind def
/J { setlinecap } bind def
/j { setlinejoin } bind def
/M { setmiterlimit } bind def
/d { setdash } bind def
/m { moveto } bind def
/l { lineto } bind def
/c { curveto } bind def
/h { closepath } bind def
/re { exch dup neg 3 1 roll 5 3 roll moveto 0 rlineto
      0 exch rlineto 0 rlineto closepath } bind def
/S { stroke } bind def
/f { fill } bind def
/f* { eofill } bind def
/n { newpath } bind def
/W { clip } bind def
/W* { eoclip } bind def
/BT { } bind def
/ET { } bind def
/pdfmark where { pop globaldict /?pdfmark /exec load put }
    { globaldict begin /?pdfmark /pop load def /pdfmark
    /cleartomark load def end } ifelse
/BDC { mark 3 1 roll /BDC pdfmark } bind def
/EMC { mark /EMC pdfmark } bind def
/cairo_store_point { /cairo_point_y exch def /cairo_point_x exch def } def
/Tj { show currentpoint cairo_store_point } bind def
/TJ {
  {
    dup
    type /stringtype eq
    { show } { -0.001 mul 0 cairo_font_matrix dtransform rmoveto } ifelse
  } forall
  currentpoint cairo_store_point
} bind def
/cairo_selectfont { cairo_font_matrix aload pop pop pop 0 0 6 array astore
    cairo_font exch selectfont cairo_point_x cairo_point_y moveto } bind def
/Tf { pop /cairo_font exch def /cairo_font_matrix where
      { pop cairo_selectfont } if } bind def
/Td { matrix translate cairo_font_matrix matrix concatmatrix dup
      /cairo_font_matrix exch def dup 4 get exch 5 get cairo_store_point
      /cairo_font where { pop cairo_selectfont } if } bind def
/Tm { 2 copy 8 2 roll 6 array astore /cairo_font_matrix exch def
      cairo_store_point /cairo_font where { pop cairo_selectfont } if } bind def
/g { setgray } bind def
/rg { setrgbcolor } bind def
/d1 { setcachedevice } bind def
%%EndProlog
%%BeginSetup
%%EndSetup
%%Page: 1 1
%%BeginPageSetup
%%PageBoundingBox: 0 -1 260 175
%%EndPageSetup
q 0 -1 260 176 rectclip q
0.777778 g
143.555 73.938 m 143.555 46.903 121.637 24.985 94.602 24.985 c 67.566 24.985
 45.648 46.903 45.648 73.938 c 45.648 100.973 67.566 122.891 94.602 122.891
 c 121.637 122.891 143.555 100.973 143.555 73.938 c h
143.555 73.938 m f
0 g
1.567776 w
0 J
0 j
[] 0.0 d
4 M q 1 0 0 -1 0 174.98497 cm
143.555 101.047 m 143.555 128.082 121.637 150 94.602 150 c 67.566 150 45.648
 128.082 45.648 101.047 c 45.648 74.012 67.566 52.094 94.602 52.094 c 121.637
 52.094 143.555 74.012 143.555 101.047 c h
143.555 101.047 m S Q
1.455792 w
q 1 0 0 -1 0 174.98497 cm
75.297 96.703 m 85.496 106.902 l S Q
q 1 0 0 -1 0 174.98497 cm
85.371 96.926 m 75.172 107.125 l S Q
q 1 0 0 -1 0 174.98497 cm
124.047 96.152 m 134.246 106.352 l S Q
q 1 0 0 -1 0 174.98497 cm
134.121 96.375 m 123.922 106.574 l S Q
q 1 0 0 -1 0 174.98497 cm
53.016 96.984 m 63.215 107.184 l S Q
q 1 0 0 -1 0 174.98497 cm
63.09 97.207 m 52.891 107.406 l S Q
89.594 121.942 m 89.594 120.192 88.176 118.774 86.43 118.774 c 84.68 118.774
 83.262 120.192 83.262 121.942 c 83.262 123.688 84.68 125.106 86.43 125.106
 c 88.176 125.106 89.594 123.688 89.594 121.942 c h
89.594 121.942 m f
1.567776 w
q 1 0 0 -1 0 174.98497 cm
19.66 174.984 m 19.66 14.812 l S Q
15.863 151.973 m 19.645 162.251 l 23.422 151.973 l 21.191 153.614 18.141
 153.606 15.863 151.973 c h
15.863 151.973 m f*
17.777 64.622 m 17.777 64.856 l 17.758 65.11 l 17.742 65.344 l 17.707 65.583
 l 17.656 65.801 l 17.605 66.036 l 17.539 66.239 l 17.473 66.458 l 17.387
 66.661 l 17.289 66.844 l 17.203 67.047 l 17.086 67.215 l 16.969 67.399 
l 16.848 67.567 l 16.582 67.872 l 16.445 68.024 l 16.277 68.157 l 16.125
 68.274 l 15.957 68.395 l 15.789 68.512 l 15.602 68.614 l 15.418 68.712 
l 15.234 68.797 l 15.031 68.864 l 14.828 68.934 l 14.625 68.981 l 14.406
 69.032 l 13.969 69.102 l 13.734 69.102 l 13.516 69.118 l 13.414 68.696 
l 14.777 68.696 16.293 67.755 16.293 65.262 c 16.293 64.067 15.84 61.458
 14.172 59.403 c 13.379 58.376 12 57.38 10.602 57.38 c 8.934 57.38 7.773
 58.747 7.773 60.95 c 7.773 61.692 7.992 64.133 9.289 66.087 c 10.449 67.821
 12.086 68.696 13.414 68.696 c 13.516 69.118 l 9.895 69.118 6.207 65.313
 6.207 61.422 c 6.207 58.645 8.078 56.962 10.5 56.962 c 14.055 56.962 17.777
 60.614 17.777 64.622 c h
17.777 64.622 m f
199.664 63.262 m 199.816 63.313 l 199.965 63.348 l 200.117 63.399 l 200.254
 63.45 l 200.402 63.501 l 200.539 63.551 l 200.672 63.618 l 200.809 63.684
 l 200.941 63.751 l 201.062 63.821 l 201.18 63.887 l 201.297 63.969 l 201.414
 64.04 l 201.531 64.122 l 201.633 64.208 l 201.734 64.29 l 201.836 64.376
 l 201.918 64.477 l 202.02 64.559 l 202.09 64.661 l 202.172 64.762 l 202.238
 64.864 l 202.309 64.965 l 202.359 65.083 l 202.426 65.184 l 202.457 65.301
 l 202.508 65.403 l 202.543 65.52 l 202.559 65.637 l 202.578 65.755 l 202.594
 65.876 l 202.594 65.993 l 202.594 67.61 200.691 69.005 198.215 69.005 c
 192.961 69.005 l 192.961 68.485 l 193.367 68.485 l 194.664 68.485 194.68
 68.297 194.68 67.708 c 194.68 58.887 l 194.68 58.278 194.664 58.094 193.367
 58.094 c 192.961 58.094 l 192.961 57.571 l 193.566 57.641 194.762 57.641
 195.402 57.641 c 196.059 57.641 197.254 57.641 197.844 57.571 c 197.844
 58.094 l 197.457 58.094 l 196.16 58.094 196.129 58.278 196.129 58.887 c
 196.129 67.829 l 196.129 68.196 196.129 68.399 196.496 68.45 c 196.668 
68.485 197.156 68.485 197.492 68.485 c 198.988 68.485 200.875 68.415 200.875
 65.993 c 200.875 64.848 200.473 63.481 197.98 63.481 c 196.129 63.481 l
 196.129 63.114 l 198.047 63.114 l 198.316 63.114 199.023 63.114 199.613
 62.555 c 200.254 61.95 200.254 61.43 200.254 60.301 c 200.254 59.223 200.254
 58.547 200.941 57.911 c 201.617 57.321 202.543 57.219 203.047 57.219 c 
204.359 57.219 204.629 58.583 204.629 59.055 c 204.629 59.157 204.629 59.34
 204.43 59.34 c 204.242 59.34 204.242 59.188 204.227 59.071 c 204.125 57.876
 203.535 57.571 203.117 57.571 c 202.289 57.571 202.156 58.43 201.918 59.981
 c 201.699 61.329 l 201.398 62.407 200.59 62.946 199.664 63.262 c h
199.664 63.262 m f
206.582 61.446 m 206.602 61.797 l 206.703 64.29 208.098 64.712 208.672 
64.712 c 210.406 64.712 210.574 62.458 210.574 61.797 c 206.602 61.797 l
 206.582 61.446 l 211.266 61.446 l 211.637 61.446 211.668 61.446 211.668
 61.797 c 211.668 63.45 210.777 65.083 208.672 65.083 c 206.734 65.083 205.188
 63.348 205.188 61.258 c 205.188 59.02 206.953 57.403 208.875 57.403 c 210.93
 57.403 211.668 59.258 211.668 59.575 c 211.668 59.747 211.551 59.778 211.449
 59.778 c 211.316 59.778 211.281 59.676 211.25 59.544 c 210.66 57.809 209.145
 57.809 208.977 57.809 c 208.133 57.809 207.477 58.313 207.09 58.938 c 206.582
 59.747 206.582 60.84 206.582 61.446 c h
206.582 61.446 m f
81.578 62.118 m 81.711 61.782 l 81.848 61.43 l 82.113 60.688 l 82.234 60.317
 l 82.367 59.946 l 82.504 59.594 l 82.555 59.426 l 82.621 59.239 l 82.672
 59.071 l 82.738 58.919 l 82.789 58.751 l 82.855 58.602 l 82.906 58.465 
l 82.957 58.313 l 83.008 58.18 l 83.059 58.063 l 83.094 57.942 l 83.141 
57.844 l 83.176 57.743 l 83.211 57.657 l 83.262 57.575 l 83.293 57.505 l
 83.312 57.454 l 83.344 57.403 l 83.613 57.051 83.781 57.051 84.238 57.051
 c 84.59 57.051 l 84.758 57.067 84.777 57.169 84.777 57.204 c 84.777 57.27
 84.742 57.286 84.691 57.356 c 84.539 57.54 84.438 57.794 84.32 58.13 c 
80.902 67.641 l 80.551 68.618 79.641 68.837 78.848 68.837 c 78.766 68.837
 78.547 68.837 78.547 68.653 c 78.547 68.516 78.68 68.485 78.695 68.485 
c 79.254 68.383 79.371 68.282 79.793 67.153 c 81.406 62.59 l 76.793 58.012
 l 76.594 57.809 76.492 57.708 76.492 57.489 c 76.492 57.204 76.727 57.016
 76.996 57.016 c 77.266 57.016 77.418 57.184 77.551 57.356 c h
81.578 62.118 m f
3.391 173.59 m 3.391 173.79 l 3.406 173.84 l 3.406 173.926 l 3.426 173.962
 l 3.426 173.993 l 3.441 174.028 l 3.457 174.059 l 3.477 174.094 l 3.492
 174.13 l 3.527 174.145 l 3.559 174.18 l 3.609 174.231 l 3.66 174.247 l 
3.676 174.247 l 3.695 174.262 l 3.727 174.262 l 3.746 174.278 l 3.777 174.278
 l 3.797 174.297 l 3.828 174.297 l 3.863 174.313 l 3.93 174.313 l 3.965 
174.329 l 4.062 174.329 l 4.098 174.348 l 4.234 174.348 l 4.285 174.364 
l 5.191 174.364 l 5.191 174.887 l 4.621 174.837 3.289 174.837 2.648 174.837
 c 2.012 174.837 0.68 174.837 0.09 174.887 c 0.09 174.364 l 0.527 174.364
 l 1.859 174.364 1.91 174.18 1.91 173.59 c 1.91 164.766 l 1.91 164.161 1.859
 163.973 0.527 163.973 c 0.09 163.973 l 0.09 163.454 l 0.68 163.52 2.012
 163.52 2.633 163.52 c 3.289 163.52 4.621 163.52 5.191 163.454 c 5.191 163.973
 l 4.773 163.973 l 3.441 163.973 3.391 164.161 3.391 164.766 c h
3.391 173.59 m f
7.516 169.212 m 7.516 164.731 l 7.516 163.973 7.332 163.973 6.219 163.973
 c 6.219 163.454 l 6.809 163.485 7.652 163.52 8.105 163.52 c 8.543 163.52
 9.418 163.485 9.992 163.454 c 9.992 163.973 l 8.863 163.973 8.68 163.973
 8.68 164.731 c 8.68 167.813 l 8.68 169.547 9.875 170.493 10.934 170.493
 c 11.996 170.493 12.18 169.583 12.18 168.637 c 12.18 164.731 l 12.18 163.973
 11.996 163.973 10.867 163.973 c 10.867 163.454 l 11.457 163.485 12.316 
163.52 12.77 163.52 c 13.207 163.52 14.066 163.485 14.641 163.454 c 14.641
 163.973 l 13.527 163.973 13.344 163.973 13.344 164.731 c 13.344 167.813
 l 13.344 169.547 14.52 170.493 15.598 170.493 c 16.66 170.493 16.844 169.583
 16.844 168.637 c 16.844 164.731 l 16.844 163.973 16.66 163.973 15.531 163.973
 c 15.531 163.454 l 16.121 163.485 16.98 163.52 17.418 163.52 c 17.855 163.52
 18.73 163.485 19.305 163.454 c 19.305 163.973 l 18.426 163.973 18.008 163.973
 17.988 164.481 c 17.988 167.68 l 17.988 169.11 17.988 169.633 17.469 170.239
 c 17.23 170.524 16.691 170.86 15.715 170.86 c 14.301 170.86 13.578 169.852
 13.293 169.212 c 13.055 170.676 11.809 170.86 11.051 170.86 c 9.84 170.86
 9.047 170.137 8.578 169.094 c 8.578 170.86 l 6.219 170.676 l 6.219 170.153
 l 7.383 170.153 7.516 170.036 7.516 169.212 c h
7.516 169.212 m f
129.164 139.809 m 129.164 139.825 l 129.148 139.84 l 129.148 139.86 l 129.133
 139.876 l 129.133 139.926 l 129.113 139.942 l 129.098 139.962 l 129.098
 139.977 l 129.082 139.993 l 129.082 140.008 l 129.047 140.044 l 129.047
 140.059 l 129.031 140.059 l 129.031 140.079 l 129.012 140.079 l 128.996
 140.094 l 128.98 140.094 l 128.98 140.11 l 128.965 140.11 l 128.945 140.13
 l 128.879 140.13 l 128.844 140.145 l 128.777 140.145 l 128.508 140.145 
128.457 140.044 128.375 139.809 c 124.922 129.805 l 124.617 128.946 123.945
 128.696 123.035 128.676 c 123.035 128.157 l 123.422 128.188 124.148 128.223
 124.738 128.223 c 125.258 128.223 126.133 128.188 126.672 128.157 c 126.672
 128.676 l 125.832 128.676 125.41 129.098 125.41 129.536 c 125.41 129.587
 125.426 129.755 125.445 129.79 c 126.219 131.977 l 126.402 132.501 l 128.273
 137.938 l 130.176 132.501 l 126.402 132.501 l 126.219 131.977 l 130.359
 131.977 l 131.254 129.419 l 131.254 129.352 131.285 129.251 131.285 129.184
 c 131.285 128.676 130.359 128.676 129.906 128.676 c 129.906 128.157 l 130.512
 128.223 131.676 128.223 132.312 128.223 c 133.039 128.223 133.812 128.208
 134.52 128.157 c 134.52 128.676 l 134.215 128.676 l 133.207 128.676 132.969
 128.797 132.785 129.352 c h
129.164 139.809 m f
136.926 133.915 m 136.926 129.434 l 136.926 128.676 136.742 128.676 135.613
 128.676 c 135.613 128.157 l 136.203 128.188 137.062 128.223 137.516 128.223
 c 137.938 128.223 138.812 128.188 139.387 128.157 c 139.387 128.676 l 138.258
 128.676 138.074 128.676 138.074 129.434 c 138.074 132.516 l 138.074 134.251
 139.27 135.196 140.348 135.196 c 141.391 135.196 141.574 134.286 141.574
 133.34 c 141.574 129.434 l 141.574 128.676 141.391 128.676 140.277 128.676
 c 140.277 128.157 l 140.867 128.188 141.711 128.223 142.164 128.223 c 142.602
 128.223 143.477 128.188 144.051 128.157 c 144.051 128.676 l 143.176 128.676
 142.754 128.676 142.738 129.184 c 142.738 132.383 l 142.738 133.813 142.738
 134.337 142.215 134.942 c 141.98 135.227 141.441 135.563 140.465 135.563
 c 139.234 135.563 138.441 134.84 137.973 133.797 c 137.973 135.563 l 135.613
 135.38 l 135.613 134.856 l 136.793 134.856 136.926 134.739 136.926 133.915
 c h
136.926 133.915 m f
152.957 135.563 m 150.602 135.38 l 150.602 134.856 l 151.695 134.856 151.848
 134.758 151.848 133.93 c 151.848 129.434 l 151.848 128.676 151.66 128.676
 150.551 128.676 c 150.551 128.157 l 151.07 128.188 151.98 128.223 152.387
 128.223 c 152.977 128.223 153.562 128.188 154.121 128.157 c 154.121 128.676
 l 153.023 128.676 152.957 128.762 152.957 129.419 c h
152.957 135.563 m f
153.023 138.462 m 153.023 138.563 l 153.008 138.614 l 153.008 138.665 l
 152.992 138.696 l 152.977 138.747 l 152.957 138.797 l 152.941 138.833 l
 152.926 138.864 l 152.906 138.915 l 152.891 138.95 l 152.855 138.985 l 
152.84 139.016 l 152.805 139.051 l 152.789 139.083 l 152.754 139.118 l 152.723
 139.133 l 152.688 139.169 l 152.656 139.184 l 152.621 139.219 l 152.586
 139.235 l 152.555 139.255 l 152.504 139.27 l 152.469 139.286 l 152.438 
139.301 l 152.387 139.321 l 152.352 139.337 l 152.301 139.337 l 152.266 
139.352 l 152.133 139.352 l 151.609 139.352 151.242 138.899 151.242 138.462
 c 151.242 138.024 151.609 137.587 152.133 137.587 c 152.605 137.587 153.023
 137.938 153.023 138.462 c h
153.023 138.462 m f
156.492 133.915 m 156.492 129.434 l 156.492 128.676 156.309 128.676 155.18
 128.676 c 155.18 128.157 l 155.77 128.188 156.629 128.223 157.082 128.223
 c 157.52 128.223 158.379 128.188 158.953 128.157 c 158.953 128.676 l 157.824
 128.676 157.641 128.676 157.641 129.434 c 157.641 132.516 l 157.641 134.251
 158.836 135.196 159.91 135.196 c 160.957 135.196 161.141 134.286 161.141
 133.34 c 161.141 129.434 l 161.141 128.676 160.957 128.676 159.844 128.676
 c 159.844 128.157 l 160.434 128.188 161.277 128.223 161.73 128.223 c 162.168
 128.223 163.043 128.188 163.617 128.157 c 163.617 128.676 l 162.742 128.676
 162.32 128.676 162.305 129.184 c 162.305 132.383 l 162.305 133.813 162.305
 134.337 161.781 134.942 c 161.547 135.227 160.988 135.563 160.031 135.563
 c 158.801 135.563 158.008 134.84 157.555 133.797 c 157.555 135.563 l 155.18
 135.38 l 155.18 134.856 l 156.359 134.856 156.492 134.739 156.492 133.915
 c h
156.492 133.915 m f
166.395 134.856 m 168.785 134.856 l 168.785 135.38 l 166.395 135.38 l 166.395
 138.446 l 165.973 138.446 l 165.957 137.079 165.469 135.297 163.82 135.227
 c 163.82 134.856 l 165.25 134.856 l 165.25 130.243 l 165.25 128.188 166.801
 127.989 167.406 127.989 c 168.582 127.989 169.055 129.165 169.055 130.243
 c 169.055 131.188 l 168.652 131.188 l 168.652 130.278 l 168.652 129.032
 168.145 128.391 167.523 128.391 c 166.395 128.391 166.395 129.922 166.395
 130.212 c h
166.395 134.856 m f
171.883 132.028 m 171.902 132.383 l 172.004 134.876 173.398 135.297 173.973
 135.297 c 175.707 135.297 175.875 133.04 175.875 132.383 c 171.902 132.383
 l 171.883 132.028 l 176.566 132.028 l 176.918 132.028 176.969 132.028 176.969
 132.383 c 176.969 134.032 176.078 135.665 173.973 135.665 c 172.035 135.665
 170.488 133.93 170.488 131.844 c 170.488 129.606 172.254 127.989 174.176
 127.989 c 176.227 127.989 176.969 129.84 176.969 130.161 c 176.969 130.329
 176.836 130.36 176.75 130.36 c 176.617 130.36 176.566 130.262 176.531 130.126
 c 175.961 128.391 174.445 128.391 174.273 128.391 c 173.434 128.391 172.777
 128.895 172.391 129.52 c 171.883 130.329 171.883 131.422 171.883 132.028
 c h
171.883 132.028 m f
179.277 130.395 m 179.277 130.563 l 179.293 130.583 l 179.293 130.649 l
 179.309 130.68 l 179.309 130.715 l 179.328 130.731 l 179.328 130.766 l 
179.344 130.801 l 179.344 130.833 l 179.359 130.848 l 179.379 130.883 l 
179.395 130.919 l 179.41 130.95 l 179.43 130.985 l 179.445 131.02 l 179.461
 131.051 l 179.477 131.087 l 179.512 131.118 l 179.527 131.137 l 179.562
 131.169 l 180.203 130.715 180.895 130.649 181.211 130.649 c 181.211 131.036
 l 179.746 131.036 179.746 132.719 179.746 133.09 c 179.746 133.544 179.781
 134.083 180.035 134.505 c 180.152 134.708 180.539 135.176 181.211 135.176
 c 182.676 135.176 182.676 133.493 182.676 133.122 c 182.676 132.669 182.66
 132.13 182.406 131.708 c 182.273 131.508 181.887 131.036 181.211 131.036
 c 181.211 130.649 l 182.777 130.649 183.922 131.809 183.922 133.09 c 183.922
 133.712 183.652 134.337 183.25 134.723 c 183.84 135.297 184.445 135.38 
184.75 135.38 c 184.781 135.38 184.867 135.38 184.918 135.364 c 184.73 135.297
 184.648 135.11 184.648 134.907 c 184.648 134.622 184.867 134.419 185.137
 134.419 c 185.305 134.419 185.625 134.54 185.625 134.926 c 185.625 135.212
 185.422 135.735 184.766 135.735 c 184.43 135.735 183.688 135.649 182.996
 134.958 c 182.289 135.516 181.582 135.563 181.211 135.563 c 179.664 135.563
 178.5 134.403 178.5 133.122 c 178.5 132.383 178.871 131.743 179.293 131.387
 c 179.074 131.137 178.77 130.598 178.77 130.008 c 178.77 129.485 178.988
 128.848 179.512 128.508 c 178.5 128.223 177.961 127.516 177.961 126.844
 c 177.961 125.63 179.629 124.719 181.668 124.719 c 181.684 125.11 l 180
 125.11 178.84 125.95 178.84 126.844 c 178.84 127.618 179.477 128.223 180.203
 128.274 c 181.195 128.274 l 182.645 128.274 184.512 128.274 184.512 126.844
 c 184.512 125.934 183.316 125.11 181.684 125.11 c 181.668 124.719 l 183.637
 124.719 185.387 125.579 185.387 126.876 c 185.387 127.465 185.152 128.309
 184.293 128.778 c 183.402 129.251 182.441 129.251 181.414 129.251 c 180.992
 129.251 180.27 129.251 180.152 129.266 c 179.629 129.337 179.277 129.856
 179.277 130.395 c h
179.277 130.395 m f
188.672 133.712 m 188.672 135.563 l 186.348 135.38 l 186.348 134.856 l 
187.527 134.856 187.66 134.739 187.66 133.915 c 187.66 129.434 l 187.66 
128.676 187.477 128.676 186.348 128.676 c 186.348 128.157 l 187.004 128.188
 187.797 128.223 188.27 128.223 c 188.926 128.223 189.715 128.223 190.391
 128.157 c 190.391 128.676 l 190.035 128.676 l 188.789 128.676 188.773 128.864
 188.773 129.469 c 188.773 132.047 l 188.773 133.696 189.465 135.196 190.742
 135.196 c 190.859 135.196 190.895 135.196 190.93 135.176 c 190.879 135.161
 190.543 134.958 190.543 134.52 c 190.543 134.051 190.895 133.797 191.266
 133.797 c 191.566 133.797 191.988 134.001 191.988 134.54 c 191.988 135.075
 191.469 135.563 190.742 135.563 c 189.516 135.563 188.906 134.438 188.672
 133.712 c h
188.672 133.712 m f
198.016 129.434 m 198.016 129.368 l 198.035 129.317 l 198.051 129.251 l
 198.051 129.184 l 198.066 129.118 l 198.102 129.067 l 198.117 128.997 l
 198.137 128.946 l 198.168 128.88 l 198.188 128.829 l 198.219 128.762 l 
198.254 128.712 l 198.285 128.661 l 198.32 128.594 l 198.355 128.544 l 198.406
 128.493 l 198.438 128.458 l 198.488 128.407 l 198.539 128.36 l 198.574 
128.325 l 198.625 128.29 l 198.691 128.239 l 198.742 128.208 l 198.793 128.188
 l 198.859 128.157 l 198.91 128.137 l 198.977 128.106 l 199.043 128.09 l
 199.113 128.09 l 199.18 128.071 l 199.312 128.071 l 199.668 128.071 200.695
 128.29 200.695 129.653 c 200.695 130.598 l 200.273 130.598 l 200.273 129.653
 l 200.273 128.676 199.852 128.579 199.668 128.579 c 199.129 128.579 199.062
 129.337 199.062 129.419 c 199.062 132.77 l 199.062 133.462 199.062 134.118
 198.457 134.739 c 197.797 135.395 196.957 135.665 196.148 135.665 c 194.785
 135.665 193.621 134.876 193.621 133.762 c 193.621 133.274 193.961 132.989
 194.398 132.989 c 194.867 132.989 195.172 133.309 195.172 133.747 c 195.172
 133.95 195.086 134.505 194.312 134.52 c 194.766 135.11 195.594 135.297 
196.113 135.297 c 196.941 135.297 197.898 134.637 197.898 133.157 c 197.898
 130.512 l 197.898 128.915 196.688 128.34 195.945 128.34 c 195.121 128.34
 194.43 128.93 194.43 129.774 c 194.43 130.68 195.137 132.079 197.898 132.18
 c 197.898 132.536 l 197.039 132.485 195.879 132.434 194.816 131.926 c 193.555
 131.356 193.133 130.497 193.133 129.755 c 193.133 128.391 194.766 127.989
 195.828 127.989 c 196.922 127.989 197.699 128.645 198.016 129.434 c h
198.016 129.434 m f
203.793 139.774 m 201.387 139.59 l 201.387 139.067 l 202.547 139.067 202.68
 138.95 202.68 138.141 c 202.68 129.434 l 202.68 128.676 202.496 128.676
 201.387 128.676 c 201.387 128.157 l 201.926 128.188 202.816 128.223 203.238
 128.223 c 203.66 128.223 204.484 128.188 205.09 128.157 c 205.09 128.676
 l 203.977 128.676 203.793 128.676 203.793 129.434 c h
203.793 139.774 m f
213.965 134.454 m 213.965 135.563 l 211.555 135.38 l 211.555 134.856 l 
212.75 134.856 212.867 134.758 212.867 134.016 c 212.867 126.184 l 212.867
 125.446 212.684 125.446 211.555 125.446 c 211.555 124.922 l 212.129 124.938
 213.004 124.973 213.426 124.973 c 213.879 124.973 214.738 124.938 215.328
 124.922 c 215.328 125.446 l 214.199 125.446 214.016 125.446 214.016 126.184
 c 214.016 129.149 l 214.25 129.368 l 214.016 129.723 214.016 129.739 214.016
 130.075 c 214.016 133.797 l 214.504 134.657 215.328 135.145 216.188 135.145
 c 217.398 135.145 218.426 133.661 218.426 131.778 c 218.426 129.755 217.246
 128.34 216.02 128.34 c 215.344 128.34 214.703 128.676 214.25 129.368 c 
214.016 129.149 l 214.098 128.88 214.805 127.989 216.086 127.989 c 218.07
 127.989 219.824 129.622 219.824 131.778 c 219.824 133.899 218.191 135.563
 216.32 135.563 c 215.008 135.563 214.301 134.825 213.965 134.454 c h
213.965 134.454 m f
225.984 129.434 m 226.004 129.368 l 226.004 129.317 l 226.035 129.184 l
 226.055 129.118 l 226.07 129.067 l 226.086 128.997 l 226.105 128.946 l 
226.137 128.88 l 226.156 128.829 l 226.188 128.762 l 226.223 128.712 l 226.254
 128.661 l 226.289 128.594 l 226.324 128.544 l 226.375 128.493 l 226.406
 128.458 l 226.457 128.407 l 226.508 128.36 l 226.609 128.29 l 226.66 128.239
 l 226.711 128.208 l 226.762 128.188 l 226.828 128.157 l 226.879 128.137
 l 226.945 128.106 l 227.012 128.09 l 227.082 128.09 l 227.148 128.071 l
 227.301 128.071 l 227.652 128.071 228.664 128.29 228.664 129.653 c 228.664
 130.598 l 228.242 130.598 l 228.242 129.653 l 228.242 128.676 227.82 128.579
 227.652 128.579 c 227.098 128.579 227.031 129.337 227.031 129.419 c 227.031
 132.77 l 227.031 133.462 227.031 134.118 226.422 134.739 c 225.766 135.395
 224.926 135.665 224.133 135.665 c 222.754 135.665 221.59 134.876 221.59
 133.762 c 221.59 133.274 221.93 132.989 222.367 132.989 c 222.836 132.989
 223.141 133.309 223.141 133.747 c 223.141 133.95 223.055 134.505 222.281
 134.52 c 222.734 135.11 223.562 135.297 224.102 135.297 c 224.91 135.297
 225.867 134.637 225.867 133.157 c 225.867 130.512 l 225.867 128.915 224.672
 128.34 223.914 128.34 c 223.09 128.34 222.398 128.93 222.398 129.774 c 
222.398 130.68 223.105 132.079 225.867 132.18 c 225.867 132.536 l 225.008
 132.485 223.848 132.434 222.785 131.926 c 221.523 131.356 221.102 130.497
 221.102 129.755 c 221.102 128.391 222.734 127.989 223.797 127.989 c 224.891
 127.989 225.664 128.645 225.984 129.434 c h
225.984 129.434 m f
231.695 134.856 m 234.086 134.856 l 234.086 135.38 l 231.695 135.38 l 231.695
 138.446 l 231.273 138.446 l 231.258 137.079 230.75 135.297 229.117 135.227
 c 229.117 134.856 l 230.531 134.856 l 230.531 130.243 l 230.531 128.188
 232.098 127.989 232.703 127.989 c 233.883 127.989 234.355 129.165 234.355
 130.243 c 234.355 131.188 l 233.934 131.188 l 233.934 130.278 l 233.934
 129.032 233.445 128.391 232.824 128.391 c 231.695 128.391 231.695 129.922
 231.695 130.212 c h
231.695 134.856 m f
237.168 129.434 m 237.168 129.301 l 237.148 129.251 l 237.148 129.133 l
 237.133 129.083 l 237.133 129.047 l 237.117 128.997 l 237.098 128.965 l
 237.066 128.895 l 237.047 128.864 l 237.016 128.848 l 237 128.813 l 236.965
 128.797 l 236.93 128.778 l 236.898 128.762 l 236.848 128.747 l 236.812 
128.727 l 236.762 128.727 l 236.711 128.712 l 236.66 128.712 l 236.594 128.696
 l 236.359 128.696 l 236.324 128.676 l 235.852 128.676 l 235.852 128.157
 l 236.441 128.188 237.301 128.223 237.758 128.223 c 238.195 128.223 239.051
 128.188 239.625 128.157 c 239.625 128.676 l 238.496 128.676 238.312 128.676
 238.312 129.434 c 238.312 132.516 l 238.312 134.251 239.508 135.196 240.586
 135.196 c 241.629 135.196 241.812 134.286 241.812 133.34 c 241.812 129.434
 l 241.812 128.676 241.629 128.676 240.516 128.676 c 240.516 128.157 l 241.105
 128.188 241.949 128.223 242.402 128.223 c 242.84 128.223 243.715 128.188
 244.289 128.157 c 244.289 128.676 l 243.414 128.676 242.992 128.676 242.977
 129.184 c 242.977 132.383 l 242.977 133.813 242.977 134.337 242.453 134.942
 c 242.219 135.227 241.664 135.563 240.703 135.563 c 239.289 135.563 238.547
 134.555 238.262 133.915 c 238.262 139.774 l 235.852 139.59 l 235.852 139.067
 l 237.031 139.067 237.168 138.95 237.168 138.141 c h
237.168 129.434 m f
250.922 132.415 m 250.941 132.501 l 250.973 132.583 l 251.008 132.669 l
 251.059 132.755 l 251.094 132.837 l 251.125 132.903 l 251.176 132.973 l
 251.211 133.055 l 251.262 133.122 l 251.293 133.192 l 251.344 133.243 l
 251.395 133.309 l 251.48 133.426 l 251.582 133.528 l 251.68 133.63 l 251.781
 133.712 l 251.883 133.797 l 252 133.88 l 252.102 133.95 l 252.203 134.001
 l 252.32 134.051 l 252.422 134.098 l 252.523 134.149 l 252.727 134.219 
l 252.828 134.251 l 252.926 134.27 l 253.098 134.301 l 253.18 134.317 l 
253.246 134.337 l 253.316 134.337 l 253.383 134.352 l 253.586 134.352 l 
256.109 134.352 256.297 131.422 256.297 130.11 c 256.297 129.083 256.211
 128.797 256.094 128.458 c 255.723 127.247 255.219 125.309 255.219 124.872
 c 255.219 124.688 255.301 124.571 255.438 124.571 c 255.656 124.571 255.789
 124.938 255.977 125.579 c 256.363 126.977 256.531 127.938 256.598 128.442
 c 256.633 128.661 256.664 128.88 256.734 129.098 c 257.273 130.751 258.332
 133.258 259.008 134.571 c 259.125 134.774 259.324 135.145 259.324 135.212
 c 259.324 135.38 259.156 135.38 259.125 135.38 c 259.074 135.38 258.973
 135.38 258.922 135.262 c 258.047 133.661 257.391 131.997 256.715 130.313
 c 256.699 130.817 256.684 132.094 256.027 133.712 c 255.621 134.739 254.949
 135.563 253.805 135.563 c 251.699 135.563 250.535 133.024 250.535 132.501
 c 250.535 132.333 250.688 132.333 250.84 132.333 c h
250.922 132.415 m f
78.645 131.297 m 78.715 131.38 l 78.797 131.465 l 78.965 131.633 l 79.035
 131.719 l 79.102 131.786 l 79.184 131.852 l 79.254 131.938 l 79.574 132.258
 l 79.621 132.309 l 79.742 132.426 l 79.859 132.528 l 79.977 132.626 l 80.078
 132.727 l 80.195 132.829 l 80.414 133.016 l 80.516 133.098 l 80.633 133.2
 l 80.633 133.215 81.676 134.11 82.266 134.715 c 83.867 136.266 84.238 137.071
 84.238 137.141 c 84.238 137.309 84.086 137.309 84.051 137.309 c 83.934 
137.309 83.883 137.274 83.801 137.122 c 83.293 136.313 82.941 136.044 82.535
 136.044 c 82.148 136.044 81.93 136.297 81.695 136.583 c 81.375 136.973 
81.09 137.309 80.531 137.309 c 79.27 137.309 78.512 135.743 78.512 135.387
 c 78.512 135.305 78.562 135.204 78.695 135.204 c 78.848 135.204 78.883 
135.286 78.914 135.387 c 79.234 136.165 80.211 136.18 80.348 136.18 c 80.699
 136.18 81.02 136.063 81.406 135.926 c 82.066 135.676 82.25 135.676 82.688
 135.676 c 82.082 134.95 80.684 133.755 80.363 133.485 c 78.848 132.087 
l 77.719 130.962 77.133 130.001 77.133 129.883 c 77.133 129.731 77.301 129.731
 77.332 129.731 c 77.469 129.731 77.5 129.766 77.602 129.95 c 77.988 130.524
 78.496 130.977 79.016 130.977 c 79.402 130.977 79.574 130.825 79.992 130.337
 c 80.281 129.985 80.582 129.731 81.07 129.731 c 82.723 129.731 83.699 131.852
 83.699 132.309 c 83.699 132.376 83.629 132.477 83.496 132.477 c 83.344 
132.477 83.312 132.376 83.262 132.258 c 82.871 131.161 81.812 130.84 81.258
 130.84 c 80.918 130.84 80.617 130.942 80.262 131.063 c 79.691 131.282 79.438
 131.348 79.086 131.348 c 79.051 131.348 78.797 131.348 78.645 131.297 c
 h
78.645 131.297 m f
q 1 0 0 -1 0 174.98497 cm
7.301 101.555 m 189.309 101.555 l S Q
181.109 77.223 m 191.387 73.442 l 181.109 69.665 l 182.75 71.895 182.742
 74.95 181.109 77.223 c h
181.109 77.223 m f*
Q Q
showpage
%%Trailer
end restore
%%EOF
