<?xml version="1.0" encoding="UTF-8" standalone="no"?>
<svg
   xmlns:dc="http://purl.org/dc/elements/1.1/"
   xmlns:cc="http://creativecommons.org/ns#"
   xmlns:rdf="http://www.w3.org/1999/02/22-rdf-syntax-ns#"
   xmlns:svg="http://www.w3.org/2000/svg"
   xmlns="http://www.w3.org/2000/svg"
   xmlns:xlink="http://www.w3.org/1999/xlink"
   xmlns:sodipodi="http://sodipodi.sourceforge.net/DTD/sodipodi-0.dtd"
   xmlns:inkscape="http://www.inkscape.org/namespaces/inkscape"
   width="444.26962"
   height="442.76181"
   viewBox="0 0 444.26962 442.76181"
   id="svg2"
   version="1.1"
   inkscape:version="0.91 r13725"
   sodipodi:docname="step68conf.svg">
  <metadata
     id="metadata206">
    <rdf:RDF>
      <cc:Work
         rdf:about="">
        <dc:format>image/svg+xml</dc:format>
        <dc:type
           rdf:resource="http://purl.org/dc/dcmitype/StillImage" />
        <dc:title>Gnuplot</dc:title>
      </cc:Work>
    </rdf:RDF>
  </metadata>
  <defs
     id="defs204" />
  <sodipodi:namedview
     pagecolor="#ffffff"
     bordercolor="#666666"
     borderopacity="1"
     objecttolerance="10"
     gridtolerance="10"
     guidetolerance="10"
     inkscape:pageopacity="0"
     inkscape:pageshadow="2"
     inkscape:window-width="1920"
     inkscape:window-height="1867"
     id="namedview202"
     showgrid="false"
     fit-margin-top="0"
     fit-margin-left="0"
     fit-margin-right="0"
     fit-margin-bottom="0"
     inkscape:zoom="1.7133333"
     inkscape:cx="202.98363"
     inkscape:cy="264.8377"
     inkscape:window-x="0"
     inkscape:window-y="0"
     inkscape:window-maximized="1"
     inkscape:current-layer="g151" />
  <title
     id="title4">Gnuplot</title>
  <desc
     id="desc6">Produced by GNUPLOT 5.0 patchlevel 3 </desc>
  <g
     id="gnuplot_canvas"
     transform="translate(-83.023437,-18.404199)">
    <rect
       x="0"
       y="0"
       width="600"
       height="480"
       id="rect9"
       style="fill:none" />
    <defs
       id="defs11">
      <circle
         id="gpDot"
         r="0.5"
         cx="0"
         cy="0"
         style="stroke-width:0.5" />
      <path
         id="gpPt0"
         d="M -1,0 1,0 M 0,-1 0,1"
         inkscape:connector-curvature="0"
         style="stroke:currentColor;stroke-width:0.15700001" />
      <path
         id="gpPt1"
         d="M -1,-1 1,1 M 1,-1 -1,1"
         inkscape:connector-curvature="0"
         style="stroke:currentColor;stroke-width:0.15700001" />
      <path
         id="gpPt2"
         d="M -1,0 1,0 M 0,-1 0,1 m -1,-2 2,2 m -2,0 2,-2"
         inkscape:connector-curvature="0"
         style="stroke:currentColor;stroke-width:0.15700001" />
      <rect
         id="gpPt3"
         x="-1"
         y="-1"
         width="2"
         height="2"
         style="stroke:currentColor;stroke-width:0.15700001" />
      <rect
         id="gpPt4"
         x="-1"
         y="-1"
         width="2"
         height="2"
         style="fill:currentColor;stroke:currentColor;stroke-width:0.15700001" />
      <circle
         id="gpPt5"
         cx="0"
         cy="0"
         r="1"
         style="stroke:currentColor;stroke-width:0.15700001" />
      <use
         xlink:href="#gpPt5"
         id="gpPt6"
         style="fill:currentColor;stroke:none"
         x="0"
         y="0"
         width="100%"
         height="100%" />
      <path
         id="gpPt7"
         d="m 0,-1.33 -1.33,2 2.66,0 z"
         inkscape:connector-curvature="0"
         style="stroke:currentColor;stroke-width:0.15700001" />
      <use
         xlink:href="#gpPt7"
         id="gpPt8"
         style="fill:currentColor;stroke:none"
         x="0"
         y="0"
         width="100%"
         height="100%" />
      <use
         xlink:href="#gpPt7"
         id="gpPt9"
         transform="scale(-1,-1)"
         style="stroke:currentColor"
         x="0"
         y="0"
         width="100%"
         height="100%" />
      <use
         xlink:href="#gpPt9"
         id="gpPt10"
         style="fill:currentColor;stroke:none"
         x="0"
         y="0"
         width="100%"
         height="100%" />
      <use
         xlink:href="#gpPt3"
         id="gpPt11"
         transform="matrix(0.70710678,0.70710678,-0.70710678,0.70710678,0,0)"
         style="stroke:currentColor"
         x="0"
         y="0"
         width="100%"
         height="100%" />
      <use
         xlink:href="#gpPt11"
         id="gpPt12"
         style="fill:currentColor;stroke:none"
         x="0"
         y="0"
         width="100%"
         height="100%" />
      <path
         id="gpPt13"
         d="M 0,1.33 1.265,0.411 0.782,-1.067 -0.782,-1.076 -1.265,0.411 Z"
         inkscape:connector-curvature="0"
         style="stroke:currentColor;stroke-width:0.15700001" />
      <use
         xlink:href="#gpPt13"
         id="gpPt14"
         style="fill:currentColor;stroke:none"
         x="0"
         y="0"
         width="100%"
         height="100%" />
      <filter
         id="textbox"
         filterUnits="objectBoundingBox"
         x="0"
         y="0"
         height="1"
         width="1">
        <feFlood
           flood-color="white"
           flood-opacity="1"
           result="bgnd"
           id="feFlood30" />
        <feComposite
           in="SourceGraphic"
           in2="bgnd"
           operator="atop"
           id="feComposite32" />
      </filter>
      <filter
         id="greybox"
         filterUnits="objectBoundingBox"
         x="0"
         y="0"
         height="1"
         width="1">
        <feFlood
           flood-color="lightgrey"
           flood-opacity="1"
           result="grey"
           id="feFlood35" />
        <feComposite
           in="SourceGraphic"
           in2="grey"
           operator="atop"
           id="feComposite37" />
      </filter>
    </defs>
    <g
       id="g39"
       style="color:#ffffff;fill:none;stroke:currentColor;stroke-width:1;stroke-linecap:butt;stroke-linejoin:miter" />
    <g
       id="g41"
       style="color:#000000;fill:none;stroke:currentColor;stroke-width:1;stroke-linecap:butt;stroke-linejoin:miter">
      <path
         d="m 117.8,429.2 12.7,0 m 392.9,0 -12.7,0"
         id="path43"
         inkscape:connector-curvature="0"
         style="stroke:#000000" />
      <g
         transform="translate(106,435.6)"
         font-size="17.00"
         id="g45"
         style="font-size:17px;font-family:Arial;text-anchor:end;fill:#000000;stroke:none">
        <text
           id="text47">
          <tspan
             id="tspan49"
             style="font-family:Arial">0</tspan>
        </text>
      </g>
    </g>
    <g
       id="g51"
       style="color:#000000;fill:none;stroke:currentColor;stroke-width:1;stroke-linecap:butt;stroke-linejoin:miter">
      <path
         d="m 117.8,348.1 12.7,0 m 392.9,0 -12.7,0"
         id="path53"
         inkscape:connector-curvature="0"
         style="stroke:#000000" />
      <g
         transform="translate(106,354.5)"
         font-size="17.00"
         id="g55"
         style="font-size:17px;font-family:Arial;text-anchor:end;fill:#000000;stroke:none">
        <text
           id="text57">
          <tspan
             id="tspan59"
             style="font-family:Arial">0.2</tspan>
        </text>
      </g>
    </g>
    <g
       id="g61"
       style="color:#000000;fill:none;stroke:currentColor;stroke-width:1;stroke-linecap:butt;stroke-linejoin:miter">
      <path
         d="m 117.8,267 12.7,0 m 392.9,0 -12.7,0"
         id="path63"
         inkscape:connector-curvature="0"
         style="stroke:#000000" />
      <g
         transform="translate(106,273.4)"
         font-size="17.00"
         id="g65"
         style="font-size:17px;font-family:Arial;text-anchor:end;fill:#000000;stroke:none">
        <text
           id="text67">
          <tspan
             id="tspan69"
             style="font-family:Arial">0.4</tspan>
        </text>
      </g>
    </g>
    <g
       id="g71"
       style="color:#000000;fill:none;stroke:currentColor;stroke-width:1;stroke-linecap:butt;stroke-linejoin:miter">
      <path
         d="m 117.8,185.9 12.7,0 m 392.9,0 -12.7,0"
         id="path73"
         inkscape:connector-curvature="0"
         style="stroke:#000000" />
      <g
         transform="translate(106,192.3)"
         font-size="17.00"
         id="g75"
         style="font-size:17px;font-family:Arial;text-anchor:end;fill:#000000;stroke:none">
        <text
           id="text77">
          <tspan
             id="tspan79"
             style="font-family:Arial">0.6</tspan>
        </text>
      </g>
    </g>
    <g
       id="g81"
       style="color:#000000;fill:none;stroke:currentColor;stroke-width:1;stroke-linecap:butt;stroke-linejoin:miter">
      <path
         d="m 117.8,104.8 12.7,0 m 392.9,0 -12.7,0"
         id="path83"
         inkscape:connector-curvature="0"
         style="stroke:#000000" />
      <g
         transform="translate(106,111.2)"
         font-size="17.00"
         id="g85"
         style="font-size:17px;font-family:Arial;text-anchor:end;fill:#000000;stroke:none">
        <text
           id="text87">
          <tspan
             id="tspan89"
             style="font-family:Arial">0.8</tspan>
        </text>
      </g>
    </g>
    <g
       id="g91"
       style="color:#000000;fill:none;stroke:currentColor;stroke-width:1;stroke-linecap:butt;stroke-linejoin:miter">
      <path
         d="m 117.8,23.7 12.7,0 m 392.9,0 -12.7,0"
         id="path93"
         inkscape:connector-curvature="0"
         style="stroke:#000000" />
      <g
         transform="translate(106,30.1)"
         font-size="17.00"
         id="g95"
         style="font-size:17px;font-family:Arial;text-anchor:end;fill:#000000;stroke:none">
        <text
           id="text97">
          <tspan
             id="tspan99"
             style="font-family:Arial">1</tspan>
        </text>
      </g>
    </g>
    <g
       id="g101"
       style="color:#000000;fill:none;stroke:currentColor;stroke-width:1;stroke-linecap:butt;stroke-linejoin:miter">
      <path
         d="m 117.8,429.2 0,-12.7 m 0,-392.8 0,12.7"
         id="path103"
         inkscape:connector-curvature="0"
         style="stroke:#000000" />
      <g
         transform="translate(117.8,461)"
         font-size="17.00"
         id="g105"
         style="font-size:17px;font-family:Arial;text-anchor:middle;fill:#000000;stroke:none">
        <text
           id="text107">
          <tspan
             id="tspan109"
             style="font-family:Arial">0</tspan>
        </text>
      </g>
    </g>
    <g
       id="g111"
       style="color:#000000;fill:none;stroke:currentColor;stroke-width:1;stroke-linecap:butt;stroke-linejoin:miter">
      <path
         d="m 198.9,429.2 0,-12.7 m 0,-392.8 0,12.7"
         id="path113"
         inkscape:connector-curvature="0"
         style="stroke:#000000" />
      <g
         transform="translate(198.9,461)"
         font-size="17.00"
         id="g115"
         style="font-size:17px;font-family:Arial;text-anchor:middle;fill:#000000;stroke:none">
        <text
           id="text117">
          <tspan
             id="tspan119"
             style="font-family:Arial">0.2</tspan>
        </text>
      </g>
    </g>
    <g
       id="g121"
       style="color:#000000;fill:none;stroke:currentColor;stroke-width:1;stroke-linecap:butt;stroke-linejoin:miter">
      <path
         d="m 280,429.2 0,-12.7 m 0,-392.8 0,12.7"
         id="path123"
         inkscape:connector-curvature="0"
         style="stroke:#000000" />
      <g
         transform="translate(280,461)"
         font-size="17.00"
         id="g125"
         style="font-size:17px;font-family:Arial;text-anchor:middle;fill:#000000;stroke:none">
        <text
           id="text127">
          <tspan
             id="tspan129"
             style="font-family:Arial">0.4</tspan>
        </text>
      </g>
    </g>
    <g
       id="g131"
       style="color:#000000;fill:none;stroke:currentColor;stroke-width:1;stroke-linecap:butt;stroke-linejoin:miter">
      <path
         d="m 361.2,429.2 0,-12.7 m 0,-392.8 0,12.7"
         id="path133"
         inkscape:connector-curvature="0"
         style="stroke:#000000" />
      <g
         transform="translate(361.2,461)"
         font-size="17.00"
         id="g135"
         style="font-size:17px;font-family:Arial;text-anchor:middle;fill:#000000;stroke:none">
        <text
           id="text137">
          <tspan
             id="tspan139"
             style="font-family:Arial">0.6</tspan>
        </text>
      </g>
    </g>
    <g
       id="g141"
       style="color:#000000;fill:none;stroke:currentColor;stroke-width:1;stroke-linecap:butt;stroke-linejoin:miter">
      <path
         d="m 442.3,429.2 0,-12.7 m 0,-392.8 0,12.7"
         id="path143"
         inkscape:connector-curvature="0"
         style="stroke:#000000" />
      <g
         transform="translate(442.3,461)"
         font-size="17.00"
         id="g145"
         style="font-size:17px;font-family:Arial;text-anchor:middle;fill:#000000;stroke:none">
        <text
           id="text147">
          <tspan
             id="tspan149"
             style="font-family:Arial">0.8</tspan>
        </text>
      </g>
    </g>
    <g
       id="g151"
       style="color:#000000;fill:none;stroke:currentColor;stroke-width:1;stroke-linecap:butt;stroke-linejoin:miter">
      <path
         d="m 523.4,429.2 0,-12.7 m 0,-392.8 0,12.7"
         id="path153"
         inkscape:connector-curvature="0"
         style="stroke:#000000" />
      <g
         transform="translate(523.4,461)"
         font-size="17.00"
         id="g155"
         style="font-size:17px;font-family:Arial;text-anchor:middle;fill:#000000;stroke:none">
        <text
           id="text157">
          <tspan
             id="tspan159"
             style="font-family:Arial">1</tspan>
        </text>
      </g>
    </g>
    <g
       id="g161"
       style="color:#000000;fill:none;stroke:currentColor;stroke-width:1;stroke-linecap:butt;stroke-linejoin:miter" />
    <g
       id="g163"
       style="color:#000000;fill:none;stroke:currentColor;stroke-width:1;stroke-linecap:butt;stroke-linejoin:miter">
      <path
         d="m 117.8,23.7 0,405.5 405.6,0 0,-405.5 -405.6,0 z"
         id="path165"
         inkscape:connector-curvature="0"
         style="stroke:#000000" />
    </g>
    <g
       id="g167"
       style="color:#000000;fill:none;stroke:currentColor;stroke-width:1;stroke-linecap:butt;stroke-linejoin:miter" />
    <g
       id="gnuplot_plot_1">
      <title
         id="title170">gnuplot_plot_1</title>
      <g
         id="g172"
         style="color:#000000;fill:none;stroke:currentColor;stroke-width:1;stroke-linecap:butt;stroke-linejoin:miter">
        <path
           d="m 131.3,422.3 -0.9,-0.6 -1.1,-0.8 -1.1,-1 -1.1,-1.1 -1,-1.1 -0.8,-1.1 -0.6,-0.9 m 13.4,6.3 -1.4,0.3 -1.4,0.3 -1.4,0.2 -1.3,-0.1 -1.3,-0.4 m 13.5,-3.1 -1.3,0.5 -1.3,0.6 -1.4,0.7 -1.4,0.6 -1.3,0.4 m 13.5,-4.8 -1.3,0.3 -1.4,0.4 -1.4,0.4 -1.4,0.4 -1.3,0.5 m 13.6,-3.1 -1.4,0.2 -1.4,0.1 -1.3,0.2 -1.4,0.3 -1.3,0.3 m 13.5,-1.3 -1.3,0 -1.4,0.1 -1.3,0 -1.4,0 -1.3,0.1 m 12.2,-0.9 -1.4,0.4 -1.3,0.2 -1.3,0 -1.5,0.1 m 311,0 -1.5,-0.1 -1.3,0 -1.3,-0.2 -1.4,-0.4 m 12.2,0.9 -1.3,-0.1 -1.4,0 -1.3,0 -1.4,-0.1 -1.3,0 m 13.5,1.3 -1.3,-0.3 -1.4,-0.3 -1.3,-0.2 -1.4,-0.1 -1.4,-0.2 m 13.6,3.1 -1.3,-0.5 -1.4,-0.4 -1.4,-0.4 -1.4,-0.4 -1.3,-0.3 m 13.5,4.8 -1.3,-0.4 -1.4,-0.6 -1.4,-0.7 -1.3,-0.6 -1.3,-0.5 m 13.5,3.1 -1.3,0.4 -1.3,0.1 -1.4,-0.2 -1.4,-0.3 -1.4,-0.3 m 13.4,-6.3 -0.6,0.9 -0.8,1.1 -1,1.1 -1.1,1.1 -1.1,1 -1.1,0.8 -0.9,0.6 m -385.2,-6.6 -0.4,-1.3 0,-1.3 0.1,-1.4 0.3,-1.4 0.3,-1.4 m 53.6,2.3 -1.1,0.7 -1.4,0.7 -1.4,0.8 -1.5,0.7 -1.4,0.7 -1.2,0.4 m 11.6,-6.3 -1.1,1.2 -1,0.4 -1.5,0.7 m 284,0 -1.5,-0.7 -1,-0.4 -1.1,-1.2 m 11.6,6.3 -1.2,-0.4 -1.4,-0.7 -1.5,-0.7 -1.4,-0.8 -1.4,-0.7 -1.1,-0.7 m 53.6,-2.3 0.3,1.4 0.3,1.4 0.1,1.4 0,1.3 -0.4,1.3 m -391.5,-6.8 0.4,-1.3 0.6,-1.4 0.7,-1.4 0.6,-1.3 0.5,-1.3 m 57.9,0.5 -0.5,1.2 -0.7,1.4 -0.7,1.3 -0.8,1.2 -0.8,1.1 m 276.8,0 -0.8,-1.1 -0.8,-1.2 -0.7,-1.3 -0.7,-1.4 -0.5,-1.2 m 57.9,-0.5 0.5,1.3 0.6,1.3 0.7,1.4 0.6,1.4 0.4,1.3 m -388.4,-6.7 0.5,-1.3 0.4,-1.4 0.4,-1.4 0.4,-1.3 0.4,-1.4 m 57.7,0 -0.1,1.4 -0.3,1.5 -0.5,1.5 -0.5,1.5 -0.5,1.4 m 269.8,0 -0.5,-1.4 -0.5,-1.5 -0.5,-1.5 -0.3,-1.5 -0.1,-1.4 m 57.7,0 0.4,1.4 0.4,1.3 0.4,1.4 0.4,1.4 0.5,1.3 m -383.5,-6.8 0.2,-1.3 0.3,-1.4 0.2,-1.3 0.1,-1.4 0.2,-1.4 m 55,0 0.3,1.4 0.5,1.3 0.4,1.4 0.4,1.4 0.1,1.3 m 266,0 0.1,-1.3 0.4,-1.4 0.4,-1.4 0.5,-1.3 0.3,-1.4 m 55,0 0.2,1.4 0.1,1.4 0.2,1.3 0.3,1.4 0.2,1.3 m -380.4,-6.8 0.1,-1.3 0,-1.4 0.1,-1.3 0,-1.4 0.1,-1.3 m 54.2,0 -0.1,1.3 0.1,1.4 0.1,1.4 0.2,1.3 0.2,1.3 m 269.4,0 0.2,-1.3 0.2,-1.3 0.1,-1.4 0.1,-1.4 -0.1,-1.3 m 54.2,0 0.1,1.3 0,1.4 0.1,1.3 0,1.4 0.1,1.3 m -379.1,-6.7 0,-1.5 0,-1.3 0.2,-1.2 0.4,-1.5 m 55.7,-1.3 -0.5,1.3 -0.5,1.4 -0.5,1.3 -0.4,1.4 -0.2,1.4 m 270.4,0 -0.2,-1.4 -0.4,-1.4 -0.5,-1.3 -0.5,-1.4 -0.5,-1.3 m 55.7,1.3 0.4,1.5 0.2,1.2 0,1.3 0,1.5 m -378.2,-5.5 0.4,-1.2 0.7,-1.4 0.7,-1.5 0.8,-1.4 0.7,-1.4 0.7,-1.1 m 55.2,0 -0.5,1.3 -0.8,1.4 -0.8,1.4 -0.8,1.3 -0.6,1.3 m 266.2,0 -0.6,-1.3 -0.8,-1.3 -0.8,-1.4 -0.8,-1.4 -0.5,-1.3 m 55.2,0 0.7,1.1 0.7,1.4 0.8,1.4 0.7,1.5 0.7,1.4 0.4,1.2 m -373.6,-8 0.7,-1.5 0.4,-1 1.2,-1.1 1.1,-0.8 1.2,-0.8 1.3,-0.7 1.4,-0.6 1.3,-0.6 m 47.6,1.6 -0.6,1.3 0,1.3 -0.1,1.4 -0.3,1.5 m 259.2,0 -0.3,-1.5 -0.1,-1.4 0,-1.3 -0.6,-1.3 m 47.6,-1.6 1.3,0.6 1.4,0.6 1.3,0.7 1.2,0.8 1.1,0.8 1.2,1.1 0.4,1 0.7,1.5 m -361,-7.1 1.3,-0.5 1.5,-0.5 1.5,-0.4 1.5,-0.4 1.4,-0.1 1.4,0.1 1.3,0.4 1.4,0.5 1.3,0.4 1.4,0.3 1.3,0.2 1.4,0.2 1.3,0.2 1.4,0 1.3,-0.1 1.4,-0.2 1.4,-0.4 1.3,-0.4 1.4,-0.5 1.3,-0.6 1.3,-0.6 1.3,-0.8 1.4,-0.8 1.4,-0.7 1.3,-0.6 1.5,-0.3 1.4,0 1.3,-0.1 1.3,-0.6 m 14.8,2.2 -1,0.8 -1.3,0.9 -1.3,1 -1.3,1 -1.1,1 -0.9,1 m 10.9,-8 -1.4,0.9 -1.1,0.5 -1.5,0.9 m 243.4,0 -1.5,-0.9 -1.1,-0.5 -1.4,-0.9 m 10.9,8 -0.9,-1 -1.1,-1 -1.3,-1 -1.3,-1 -1.3,-0.9 -1,-0.8 m 14.8,-2.2 1.3,0.6 1.3,0.1 1.4,0 1.5,0.3 1.3,0.6 1.4,0.7 1.4,0.8 1.3,0.8 1.3,0.6 1.3,0.6 1.4,0.5 1.3,0.4 1.4,0.4 1.4,0.2 1.3,0.1 1.4,0 1.3,-0.2 1.4,-0.2 1.3,-0.2 1.4,-0.3 1.3,-0.4 1.4,-0.5 1.3,-0.4 1.4,-0.1 1.4,0.1 1.5,0.4 1.5,0.4 1.5,0.5 1.3,0.5 m -312.7,-6.3 1,-0.9 1,-1.1 1.1,-1.3 1,-1.3 0.9,-1.3 0.7,-1 m 15.9,4 -1,1.1 -0.6,0.7 -1.2,1 m 5.9,-6.8 -1.2,1.4 -0.8,1.2 -1.1,1.4 m 229.8,0 -1.1,-1.4 -0.8,-1.2 -1.2,-1.4 m 5.9,6.8 -1.2,-1 -0.6,-0.7 -1,-1.1 m 15.9,-4 0.7,1 0.9,1.3 1,1.3 1.1,1.3 1,1.1 1,0.9 m -267.3,-6.9 0.9,-1.4 0.5,-1.1 1,-1.5 0.9,-1.1 0.7,-0.7 1.2,-1 m 17.4,3.1 -1,1.1 -0.8,0.7 -0.8,0.8 -1,1.1 m 6.1,-6.8 -1,1.2 -0.5,0.7 -1,1.2 m 216.4,0 -1,-1.2 -0.5,-0.7 -1,-1.2 m 6.1,6.8 -1,-1.1 -0.8,-0.8 -0.8,-0.7 -1,-1.1 m 17.4,-3.1 1.2,1 0.7,0.7 0.9,1.1 1,1.5 0.5,1.1 0.9,1.4 m -256.4,-6.8 1.4,-1.1 1.1,-0.8 1.4,-1.2 1.1,-0.9 0.8,-0.9 0.8,-0.8 1,-1 m 16.6,3 -1.1,1 -1.1,0.9 -1,0.8 -1.1,1 m 6.8,-6.7 -1,1.2 -0.5,0.7 -1,1.1 m 202.8,0 -1,-1.1 -0.5,-0.7 -1,-1.2 m 6.8,6.7 -1.1,-1 -1,-0.8 -1.1,-0.9 -1.1,-1 m 16.6,-3 1,1 0.8,0.8 0.8,0.9 1.1,0.9 1.4,1.2 1.1,0.8 1.4,1.1 m -243.6,-6.7 1.2,-1 0.7,-0.5 1.2,-1 1,-1.1 0.9,-1 0.8,-1.1 1,-1.1 m 17.4,1.1 -1,1.1 -1,1.1 -1.1,1.2 -1,1.2 -1,1.1 m 197.8,0 -1,-1.1 -1,-1.2 -1.1,-1.2 -1,-1.1 -1,-1.1 m 17.4,-1.1 1,1.1 0.8,1.1 0.9,1 1,1.1 1.2,1 0.7,0.5 1.2,1 m -229.2,-6.8 1.2,-1 0.7,-0.5 1.1,-1 1.1,-0.9 1.2,-1.1 1.2,-1.1 1.2,-1 1.1,-0.9 m 14.4,0.7 -0.7,0.8 -0.9,1.1 -0.9,1.3 -0.9,1.3 -0.9,1.3 -0.9,1.2 -0.6,0.9"
           id="path174"
           inkscape:connector-curvature="0"
           style="stroke:#808080" />
        <path
           d="m 414.4,328.9 -0.6,-0.9 -0.9,-1.2 -0.9,-1.3 -0.9,-1.3 -0.9,-1.3 -0.9,-1.1 -0.7,-0.8 m 14.4,-0.7 1.1,0.9 1.2,1 1.2,1.1 1.2,1.1 1.1,0.9 1.1,1 0.7,0.5 1.2,1 m -213.6,-7.5 0.9,-0.7 1.1,-0.8 1.3,-0.9 1.3,-1 1.3,-0.9 1.1,-0.8 0.9,-0.8 m 14,0.5 -0.8,0.7 -1.1,0.9 -1.2,0.9 -1.3,1 -1.2,0.9 -1.1,0.9 -0.8,0.8 m 176,0 -0.8,-0.8 -1.1,-0.9 -1.2,-0.9 -1.3,-1 -1.2,-0.9 -1.1,-0.9 -0.8,-0.7 m 14,-0.5 0.9,0.8 1.1,0.8 1.3,0.9 1.3,1 1.3,0.9 1.1,0.8 0.9,0.7 m -196.9,-5.9 0.7,-0.8 0.9,-1.1 1,-1.2 0.9,-1.2 1,-1.3 0.8,-1 0.8,-0.9 m 14.7,0.7 -0.9,0.7 -1,1 -1,1.2 -1.1,1.3 -1,1.2 -1,1 -0.8,0.9 m 161,0 -0.8,-0.9 -1,-1 -1,-1.2 -1.1,-1.3 -1,-1.2 -1,-1 -0.9,-0.7 m 14.7,-0.7 0.8,0.9 0.8,1 1,1.3 0.9,1.2 1,1.2 0.9,1.1 0.7,0.8 m -182.9,-7.5 0.8,-0.8 1.1,-0.9 1.2,-1.1 1.2,-1 1.2,-1.1 1,-1 0.8,-0.8 m 13.5,5.6 -1.6,0.4 -1.6,0.3 -1.5,0.3 -1.4,0.8 m 12.9,-4.1 -1.4,0.5 -1.3,0.5 -1.4,0.4 -1.4,0.5 -1.3,0.4 m 13.9,-4.7 -1.3,0.5 -1.5,0.5 -1.5,0.5 -1.5,0.5 -1.3,0.4 m 121.6,0 -1.3,-0.4 -1.5,-0.5 -1.5,-0.5 -1.5,-0.5 -1.3,-0.5 m 13.9,4.7 -1.3,-0.4 -1.4,-0.5 -1.4,-0.4 -1.3,-0.5 -1.4,-0.5 m 12.9,4.1 -1.4,-0.8 -1.5,-0.3 -1.6,-0.3 -1.6,-0.4 m 13.5,-5.6 0.8,0.8 1,1 1.2,1.1 1.2,1 1.2,1.1 1.1,0.9 0.8,0.8 m -169.5,-6.7 0.7,-1.5 0.4,-1.5 0.2,-1.6 0.4,-1.6 m 32.1,3.4 -1.2,0.8 -1.2,0.8 -1.4,0.8 -1.3,0.7 -1.3,0.6 m 8.8,-7.1 -0.8,1.4 -0.5,0.9 -1.1,1.1 m 94.6,0 -1.1,-1.1 -0.5,-0.9 -0.8,-1.4 m 8.8,7.1 -1.3,-0.6 -1.3,-0.7 -1.4,-0.8 -1.2,-0.8 -1.2,-0.8 m 32.1,-3.4 0.4,1.6 0.2,1.6 0.4,1.5 0.7,1.5 m -160.5,-6.2 0.4,-1.3 0.5,-1.4 0.5,-1.3 0.5,-1.4 0.4,-1.3 m 36.5,-0.3 -0.8,0.9 -0.8,1.1 -0.7,1.3 -0.7,1.4 -0.6,1.3 -0.7,1 m 24.6,-4.1 -1.3,-0.4 -1.2,-0.6 -1.3,-0.7 -1.2,-0.7 -1.2,-0.5 m 13,2.6 -1.4,0.1 -1.3,0.2 -1.4,0.1 -1.3,0 -1.4,-0.1 m 13.5,-0.6 -1.3,0 -1.4,0.1 -1.3,0.1 -1.4,0.1 -1.3,0 m 13.5,-0.4 -1.4,0 -1.3,0 -1.4,0 -1.3,0 -1.4,0.1 m 13.6,0 -1.4,-0.1 -1.3,0 -1.4,0 -1.3,0 -1.4,0 m 13.5,0.4 -1.3,0 -1.4,-0.1 -1.3,-0.1 -1.4,-0.1 -1.3,0 m 13.5,0.6 -1.4,0.1 -1.3,0 -1.4,-0.1 -1.3,-0.2 -1.4,-0.1 m 13,-2.6 -1.2,0.5 -1.2,0.7 -1.3,0.7 -1.2,0.6 -1.3,0.4 m 24.6,4.1 -0.7,-1 -0.6,-1.3 -0.7,-1.4 -0.7,-1.3 -0.8,-1.1 -0.8,-0.9 m 36.5,0.3 0.4,1.3 0.5,1.4 0.5,1.3 0.5,1.4 0.4,1.3 m -156.5,-6.7 0.5,-1.4 0.4,-1.5 0.5,-1.5 0.5,-1.5 0.6,-1.3 m 40.8,5 -1.4,0.1 -1.4,0.2 -1.5,0.3 -1.3,0.6 -1.2,0.7 m 14.1,0 -1.4,-0.5 -1.5,-0.5 -1.5,-0.5 -1.5,-0.3 -1.4,-0.1 m 67.6,0 -1.4,0.1 -1.5,0.3 -1.5,0.5 -1.5,0.5 -1.4,0.5 m 14.1,0 -1.2,-0.7 -1.3,-0.6 -1.5,-0.3 -1.4,-0.2 -1.4,-0.1 m 40.8,-5 0.6,1.3 0.5,1.5 0.5,1.5 0.4,1.5 0.5,1.4 m -151.7,-7.2 0.6,-1.3 0.7,-1.3 0.7,-1.3 0.8,-1.3 0.8,-1.1 m 142,0 0.8,1.1 0.8,1.3 0.7,1.3 0.7,1.3 0.6,1.3 m -145.6,-6.3 1.1,-1.2 0.9,-0.5 1.4,-0.8 1.1,-0.6 1.2,-0.7 1.4,-0.7 1.3,-0.7 1.1,-0.8 0.9,-0.8 m 121.2,0 0.9,0.8 1.1,0.8 1.3,0.7 1.4,0.7 1.2,0.7 1.1,0.6 1.4,0.8 0.9,0.5 1.1,1.2 M 260,267 l 0.8,-1.2 0.5,-1.3 0.4,-1.4 0.2,-1.5 0,-1.4 m 117.4,0 0,1.4 0.2,1.5 0.4,1.4 0.5,1.3 0.8,1.2 m -119.3,-6.8 -0.1,-1.4 -0.3,-1.5 -0.5,-1.5 -0.5,-1.5 -0.5,-1.3 m 121.2,0 -0.5,1.3 -0.5,1.5 -0.5,1.5 -0.3,1.5 -0.1,1.4 M 260,253 l -0.5,-1.3 -0.7,-1.2 -0.6,-1.2 -0.6,-1.3 -0.4,-1.3 m 126.8,0 -0.4,1.3 -0.6,1.3 -0.6,1.2 -0.7,1.2 -0.5,1.3 m -124,-6.3 -0.2,-1.3 0,-1.4 0.1,-1.3 0.2,-1.4 0.1,-1.3 m 126.4,0 0.1,1.3 0.2,1.4 0.1,1.3 0,1.4 -0.2,1.3 m -126.6,-6.7 0.1,-1.4 0,-1.3 0.1,-1.4 0.1,-1.3 0,-1.4 m 125.8,0 0,1.4 0.1,1.3 0.1,1.4 0,1.3 0.1,1.4 m -126.1,-6.8 0.1,-1.3 0,-1.4 0,-1.3 0.1,-1.4 0,-1.4 m 125.4,0 0,1.4 0.1,1.4 0,1.3 0,1.4 0.1,1.3 m -125.6,-6.8 0,-1.3 -0.1,-1.4 0,-1.3 0,-1.4 -0.1,-1.3 m 125.8,0 -0.1,1.3 0,1.4 0,1.3 -0.1,1.4 0,1.3 m -125.6,-6.7 0,-1.4 -0.1,-1.3 -0.1,-1.4 0,-1.3 -0.1,-1.4 m 126.4,0 -0.1,1.4 0,1.3 -0.1,1.4 -0.1,1.3 0,1.4 m -126.1,-6.8 -0.1,-1.3 -0.2,-1.4 -0.1,-1.3 0,-1.4 0.2,-1.3 m 126.8,0 0.2,1.3 0,1.4 -0.1,1.3 -0.2,1.4 -0.1,1.3 m -126.6,-6.7 0.4,-1.3 0.6,-1.3 0.6,-1.2 0.7,-1.2 0.5,-1.3 m 121.2,0 0.5,1.3 0.7,1.2 0.6,1.2 0.6,1.3 0.4,1.3 m -124,-6.3 0.5,-1.3 0.5,-1.5 0.5,-1.5 0.3,-1.5 0.1,-1.4 m 117.4,0 0.1,1.4 0.3,1.5 0.5,1.5 0.5,1.5 0.5,1.3 m -119.3,-7.2 0,-1.4 -0.2,-1.5 -0.4,-1.4 -0.5,-1.3 -0.8,-1.2 m 121.2,0 -0.8,1.2 -0.5,1.3 -0.4,1.4 -0.2,1.5 0,1.4 M 253,181.6 l -1.4,-0.8 -0.9,-0.5 -1.1,-1.2 m 10.4,6.8 -0.9,-0.8 -1.1,-0.8 -1.3,-0.7 -1.4,-0.7 -1.2,-0.7 -1.1,-0.6 m 135.2,0 -1.1,0.6 -1.2,0.7 -1.4,0.7 -1.3,0.7 -1.1,0.8 -0.9,0.8 m 10.4,-6.8 -1.1,1.2 -0.9,0.5 -1.4,0.8 m -138.6,-2.5 -0.8,-1.1 -0.8,-1.3 -0.7,-1.3 -0.7,-1.3 -0.6,-1.3 m 149.2,0 -0.6,1.3 -0.7,1.3 -0.7,1.3 -0.8,1.3 -0.8,1.1 m -145.6,-6.3 -0.6,-1.3 -0.5,-1.5 -0.5,-1.5 -0.4,-1.5 -0.5,-1.4 m 36.5,0.3 1.2,0.7 1.3,0.6 1.5,0.3 1.4,0.2 1.4,0.1 1.4,-0.1 1.5,-0.3 1.5,-0.5 1.5,-0.5 1.4,-0.5 m 53,0 1.4,0.5 1.5,0.5 1.5,0.5 1.5,0.3 1.4,0.1 1.4,-0.1 1.4,-0.2 1.5,-0.3 1.3,-0.6 1.2,-0.7 m 36.5,-0.3 -0.5,1.4 -0.4,1.5 -0.5,1.5 -0.5,1.5 -0.6,1.3"
           id="path176"
           inkscape:connector-curvature="0"
           style="stroke:#808080" />
        <path
           d="m 243.5,165.6 -0.4,-1.3 -0.5,-1.4 -0.5,-1.3 -0.5,-1.4 -0.4,-1.3 m 34.5,0 0.7,1 0.6,1.3 0.7,1.4 0.7,1.3 0.8,1.1 0.8,0.9 m 14.1,0 1.2,-0.5 1.2,-0.7 1.3,-0.7 1.2,-0.6 1.3,-0.4 1.4,-0.1 1.3,0 1.4,0.1 1.3,0.2 1.4,0.1 1.3,0 1.4,0.1 1.3,0.1 1.4,0.1 1.3,0 1.4,0.1 1.3,0 1.4,0 1.3,0 1.4,0 1.4,0 1.3,0 1.4,0 1.3,0 1.4,-0.1 1.3,0 1.4,-0.1 1.3,-0.1 1.4,-0.1 1.3,0 1.4,-0.1 1.3,-0.2 1.4,-0.1 1.3,0 1.4,0.1 1.3,0.4 1.2,0.6 1.3,0.7 1.2,0.7 1.2,0.5 m 14.1,0 0.8,-0.9 0.8,-1.1 0.7,-1.3 0.7,-1.4 0.6,-1.3 0.7,-1 m 34.5,0 -0.4,1.3 -0.5,1.4 -0.5,1.3 -0.5,1.4 -0.4,1.3 m -156.5,-6.7 -0.4,-1.6 -0.2,-1.6 -0.4,-1.5 -0.7,-1.5 m 27.4,-0.9 1.3,0.6 1.3,0.7 1.4,0.8 1.2,0.8 1.2,0.8 1.1,1.1 0.5,0.9 0.8,1.4 m 89.8,0 0.8,-1.4 0.5,-0.9 1.1,-1.1 1.2,-0.8 1.2,-0.8 1.4,-0.8 1.3,-0.7 1.3,-0.6 m 27.4,0.9 -0.7,1.5 -0.4,1.5 -0.2,1.6 -0.4,1.6 m -160.5,-6.2 -0.8,-0.8 -1,-1 -1.2,-1.1 -1.2,-1 -1.2,-1.1 -1.1,-0.9 -0.8,-0.8 m 14.7,-0.7 1.4,0.8 1.5,0.3 1.6,0.3 1.6,0.4 1.3,0.4 1.4,0.5 1.4,0.4 1.3,0.5 1.4,0.5 1.3,0.4 1.5,0.5 1.5,0.5 1.5,0.5 1.3,0.5 m 107.4,0 1.3,-0.5 1.5,-0.5 1.5,-0.5 1.5,-0.5 1.3,-0.4 1.4,-0.5 1.3,-0.5 1.4,-0.4 1.4,-0.5 1.3,-0.4 1.6,-0.4 1.6,-0.3 1.5,-0.3 1.4,-0.8 m 14.7,0.7 -0.8,0.8 -1.1,0.9 -1.2,1.1 -1.2,1 -1.2,1.1 -1,1 -0.8,0.8 m -169.5,-6.7 -0.8,-0.9 -0.8,-1 -1,-1.3 -0.9,-1.2 -1,-1.2 -0.9,-1.1 -0.7,-0.8 m 14,-0.5 0.8,0.9 1,1 1,1.2 1.1,1.3 1,1.2 1,1 0.9,0.7 m 147.4,0 0.9,-0.7 1,-1 1,-1.2 1.1,-1.3 1,-1.2 1,-1 0.8,-0.9 m 14,0.5 -0.7,0.8 -0.9,1.1 -1,1.2 -0.9,1.2 -1,1.3 -0.8,1 -0.8,0.9 m -182.9,-7.5 -0.9,-0.8 -1.1,-0.8 -1.3,-0.9 -1.3,-1 -1.3,-0.9 -1.1,-0.8 -0.9,-0.7 m 14.4,-0.7 0.8,0.8 1.1,0.9 1.2,0.9 1.3,1 1.2,0.9 1.1,0.9 0.8,0.7 m 161,0 0.8,-0.7 1.1,-0.9 1.2,-0.9 1.3,-1 1.2,-0.9 1.1,-0.9 0.8,-0.8 m 14.4,0.7 -0.9,0.7 -1.1,0.8 -1.3,0.9 -1.3,1 -1.3,0.9 -1.1,0.8 -0.9,0.8 m -202.7,-10.9 -1.1,-1 -0.7,-0.5 -1.2,-1 m 8.8,7.5 -1.1,-0.9 -1.2,-1 -1.2,-1.1 -1.2,-1.1 -1.1,-0.9 m 14.4,-3.6 0.6,0.9 0.9,1.2 0.9,1.3 0.9,1.3 0.9,1.3 0.9,1.1 0.7,0.8 m 176,0 0.7,-0.8 0.9,-1.1 0.9,-1.3 0.9,-1.3 0.9,-1.3 0.9,-1.2 0.6,-0.9 m 14.4,3.6 -1.1,0.9 -1.2,1.1 -1.2,1.1 -1.2,1 -1.1,0.9 m 8.8,-7.5 -1.2,1 -0.7,0.5 -1.1,1 m -223.1,-6.8 -1.2,-1 -0.7,-0.5 -1.2,-1 m 6.8,6.8 -1,-1.1 -0.8,-1.1 -0.9,-1 -1,-1.1 m 16,-2.5 1,1.1 1,1.2 1.1,1.2 1,1.1 1,1.1 m 187.6,0 1,-1.1 1,-1.1 1.1,-1.2 1,-1.2 1,-1.1 m 16,2.5 -1,1.1 -0.9,1 -0.8,1.1 -1,1.1 m 6.8,-6.8 -1.2,1 -0.7,0.5 -1.2,1 m -236.6,-6.1 -1.4,-1.2 -1.1,-0.8 -1.4,-1.1 m 7.6,6.7 -1,-1 -0.8,-0.8 -0.8,-0.9 -1.1,-0.9 m 16,-3.1 1.1,1 1,0.8 1.1,0.9 1.1,1 1,1.1 0.5,0.7 1,1.2 m 197.8,0 1,-1.2 0.5,-0.7 1,-1.1 1.1,-1 1.1,-0.9 1,-0.8 1.1,-1 m 16,3.1 -1.1,0.9 -0.8,0.9 -0.8,0.8 -1,1 m 7.6,-6.7 -1.4,1.1 -1.1,0.8 -1.4,1.2 m -250.1,-5.9 -1,-1.5 -0.5,-1.1 -0.9,-1.4 m 5.2,6.8 -1.2,-1 -0.7,-0.7 -0.9,-1.1 m 16.6,-4 1,1.1 0.8,0.8 0.8,0.7 1,1.1 1,1.2 0.5,0.7 1,1.2 m 211.4,0 1,-1.2 0.5,-0.7 1,-1.2 1,-1.1 0.8,-0.7 0.8,-0.8 1,-1.1 m 16.6,4 -0.9,1.1 -0.7,0.7 -1.2,1 m 5.2,-6.8 -0.9,1.4 -0.5,1.1 -1,1.5 m -259.2,-4 -0.7,-1 -0.9,-1.3 -1,-1.3 -1.1,-1.3 -1,-1.1 -1,-0.9 m 18.8,0.1 1.2,1 0.6,0.7 1,1.1 1.1,1.4 0.8,1.2 1.2,1.4 m 223.6,0 1.2,-1.4 0.8,-1.2 1.1,-1.4 1,-1.1 0.6,-0.7 1.2,-1 m 18.8,-0.1 -1,0.9 -1,1.1 -1.1,1.3 -1,1.3 -0.9,1.3 -0.7,1 m -299.8,-11.3 -1.4,-0.1 -1.5,-0.4 -1.5,-0.4 -1.5,-0.5 -1.3,-0.5 m 14,0.2 -1.4,0.3 -1.3,0.4 -1.4,0.5 -1.3,0.4 -1.4,0.1 m 13.5,-2.2 -1.3,-0.1 -1.4,0 -1.3,0.2 -1.4,0.2 -1.3,0.2 m 13.5,1.6 -1.3,-0.6 -1.4,-0.5 -1.3,-0.4 -1.4,-0.4 -1.4,-0.2 m 13.5,5.6 -1.3,-0.6 -1.4,-0.7 -1.4,-0.8 -1.3,-0.8 -1.3,-0.6 m 12.2,4.5 -1.3,-0.6 -1.3,-0.1 -1.4,0 -1.5,-0.3 M 192,90 l 0.9,1 1.1,1 1.3,1 1.3,1 1.3,0.9 1,0.8 1.5,0.9 1.1,0.5 1.4,0.9 m 235.4,0 1.4,-0.9 1.1,-0.5 1.5,-0.9 1,-0.8 1.3,-0.9 1.3,-1 1.3,-1 1.1,-1 0.9,-1 m 13.4,6.9 -1.5,0.3 -1.4,0 -1.3,0.1 -1.3,0.6 m 12.2,-4.5 -1.3,0.6 -1.3,0.8 -1.4,0.8 -1.4,0.7 -1.3,0.6 m 13.5,-5.6 -1.4,0.2 -1.4,0.4 -1.3,0.4 -1.4,0.5 -1.3,0.6 m 13.5,-1.6 -1.3,-0.2 -1.4,-0.2 -1.3,-0.2 -1.4,0 -1.3,0.1 m 13.5,2.2 -1.4,-0.1 -1.3,-0.4 -1.4,-0.5 -1.3,-0.4 -1.4,-0.3 m 14,-0.2 -1.3,0.5 -1.5,0.5 -1.5,0.4 -1.5,0.4 -1.4,0.1 m -351.5,-5.4 -1.2,-1.1 -0.4,-1 -0.7,-1.5 m 8.6,7.1 -1.3,-0.6 -1.4,-0.6 -1.3,-0.7 -1.2,-0.8 -1.1,-0.8 m 52.9,-3.6 0.3,1.5 0.1,1.4 0,1.3 0.6,1.3 m 257.2,0 0.6,-1.3 0,-1.3 0.1,-1.4 0.3,-1.5 m 52.9,3.6 -1.1,0.8 -1.2,0.8 -1.3,0.7 -1.4,0.6 -1.3,0.6 m 8.6,-7.1 -0.7,1.5 -0.4,1 -1.2,1.1 m -367.3,-3.6 -0.7,-1.1 -0.7,-1.4 -0.8,-1.4 -0.7,-1.5 -0.7,-1.4 -0.4,-1.2 m 55.7,1.3 0.6,1.3 0.8,1.3 0.8,1.4 0.8,1.4 0.5,1.3 m 259.2,0 0.5,-1.3 0.8,-1.4 0.8,-1.4 0.8,-1.3 0.6,-1.3 m 55.7,-1.3 -0.4,1.2 -0.7,1.4 -0.7,1.5 -0.8,1.4 -0.7,1.4 -0.7,1.1 m -373.6,-8 -0.4,-1.5 -0.2,-1.2 0,-1.3 0,-1.5"
           id="path178"
           inkscape:connector-curvature="0"
           style="stroke:#808080" />
        <path
           d="m 185.4,71 0.2,1.4 0.4,1.4 0.5,1.3 0.5,1.4 0.5,1.3 m 266.2,0 0.5,-1.3 0.5,-1.4 0.5,-1.3 0.4,-1.4 0.2,-1.4 m 54.2,0 0,1.5 0,1.3 -0.2,1.2 -0.4,1.5 M 131.2,71 l -0.1,-1.3 0,-1.4 -0.1,-1.3 0,-1.4 -0.1,-1.4 m 55,0 -0.2,1.4 -0.2,1.3 -0.1,1.4 -0.1,1.4 0.1,1.3 m 270.4,0 0.1,-1.3 -0.1,-1.4 -0.1,-1.4 -0.2,-1.3 -0.2,-1.4 m 55,0 -0.1,1.4 0,1.4 -0.1,1.3 0,1.4 -0.1,1.3 m -379.1,-6.8 -0.2,-1.3 -0.1,-1.4 -0.2,-1.3 -0.3,-1.4 -0.2,-1.3 m 57.7,0 -0.1,1.3 -0.4,1.4 -0.4,1.4 -0.5,1.3 -0.3,1.3 m 269.4,0 -0.3,-1.3 -0.5,-1.3 -0.4,-1.4 -0.4,-1.4 -0.1,-1.3 m 57.7,0 -0.2,1.3 -0.3,1.4 -0.2,1.3 -0.1,1.4 -0.2,1.3 m -380.4,-6.7 -0.4,-1.4 -0.4,-1.3 -0.4,-1.4 -0.4,-1.4 -0.5,-1.3 m 57.9,-0.5 0.5,1.4 0.5,1.5 0.5,1.5 0.3,1.5 0.1,1.4 m 266,0 0.1,-1.4 0.3,-1.5 0.5,-1.5 0.5,-1.5 0.5,-1.4 m 57.9,0.5 -0.5,1.3 -0.4,1.4 -0.4,1.4 -0.4,1.3 -0.4,1.4 M 127.8,50.7 127.3,49.4 126.7,48.1 126,46.7 125.4,45.3 125,44 m 57.2,0 0.8,1.1 0.8,1.2 0.7,1.3 0.7,1.4 0.5,1.2 m 269.8,0 0.5,-1.2 0.7,-1.4 0.7,-1.3 0.8,-1.2 0.8,-1.1 m 57.2,0 -0.4,1.3 -0.6,1.4 -0.7,1.4 -0.6,1.3 -0.5,1.3 M 125,44 l -0.3,-1.4 -0.3,-1.4 -0.1,-1.4 0,-1.3 0.4,-1.3 m 45.9,0.5 1.2,0.4 1.4,0.7 1.5,0.7 1.4,0.8 1.4,0.7 1.1,0.7 1.5,0.7 1,0.4 1.1,1.2 m 276.8,0 1.1,-1.2 1,-0.4 1.5,-0.7 1.1,-0.7 1.4,-0.7 1.4,-0.8 1.5,-0.7 1.4,-0.7 1.2,-0.4 m 45.9,-0.5 0.4,1.3 0,1.3 -0.1,1.4 -0.3,1.4 -0.3,1.4 m -391.5,-6.8 0.6,-0.9 0.8,-1.1 1,-1.1 1.1,-1.1 1.1,-1 1.1,-0.8 0.9,-0.6 1.3,-0.4 1.3,-0.1 1.4,0.2 1.4,0.3 1.4,0.3 1.3,0.4 1.4,0.6 1.4,0.7 1.3,0.6 1.3,0.5 1.3,0.5 1.4,0.4 1.4,0.4 1.4,0.4 1.3,0.3 1.3,0.3 1.4,0.3 1.3,0.2 1.4,0.1 1.4,0.2 1.3,0.1 1.4,0 1.3,0 1.4,0.1 1.3,0 1.5,0.1 1.3,0 1.3,0.2 1.4,0.4 m 300,0 1.4,-0.4 1.3,-0.2 1.3,0 1.5,-0.1 1.3,0 1.4,-0.1 1.3,0 1.4,0 1.3,-0.1 1.4,-0.2 1.4,-0.1 1.3,-0.2 1.4,-0.3 1.3,-0.3 1.3,-0.3 1.4,-0.4 1.4,-0.4 1.4,-0.4 1.3,-0.5 1.3,-0.5 1.3,-0.6 1.4,-0.7 1.4,-0.6 1.3,-0.4 1.4,-0.3 1.4,-0.3 1.4,-0.2 1.3,0.1 1.3,0.4 0.9,0.6 1.1,0.8 1.1,1 1.1,1.1 1,1.1 0.8,1.1 0.6,0.9 m -398.7,392 0.1,0 0.1,0 0.1,0 0.1,0 0.1,0 0.1,0 0.1,0 0.1,0 0.1,0 0.2,0 0.1,0 0.2,0 0.1,0 0.2,0 0.2,0 0.2,0 0.2,0 0.2,0 0.2,0 0.2,0 0.3,0 0.2,0 0.3,0 0.2,0 0.3,0 0.3,0 0.3,0 0.3,0 0.3,0 0.3,0 0.3,0 0.4,0 0.3,0 0.4,0 0.4,0 0.3,0 0.4,0 0.4,0 0.4,0 0.4,0 0.4,0 0.5,0 0.4,0 0.5,0 0.4,0 0.5,0 0.4,0 0.5,0 0.5,0 0.5,0 0.5,0 0.5,0 0.6,0 0.5,0 0.5,0 0.6,0 0.6,0 0.5,0 0.6,0 0.6,0 0.6,0 0.6,0 0.6,0 0.6,0 0.6,0 0.7,0 0.6,0 0.7,0 0.6,0 0.7,0 0.7,0 0.7,0 0.7,0 0.7,0 0.7,0 0.7,0 0.7,0 0.8,0 0.7,0 0.7,0 0.8,0 0.8,0 0.7,0 0.8,0 0.8,0 0.8,0 0.8,0 0.8,0 0.8,0 0.9,0 0.8,0 0.8,0 0.9,0 0.8,0 0.9,0 0.9,0 0.9,0 0.8,0 0.9,0 0.9,0 0.9,0 1,0 0.9,0 0.9,0 0.9,0 1,0 0.9,0 1,0 0.9,0 1,0 1,0 1,0 1,0 1,0 1,0 1,0 1,0 1,0 1,0 1.1,0 1,0 1,0 1.1,0 1,0 1.1,0 1.1,0 1.1,0 1,0 1.1,0 1.1,0 1.1,0 1.1,0 1.1,0 1.1,0 1.2,0 1.1,0 1.1,0 1.2,0 1.1,0 1.1,0 1.2,0 1.2,0 1.1,0 1.2,0 1.2,0 1.1,0 1.2,0 1.2,0 1.2,0 1.2,0 1.2,0 1.2,0 1.2,0 1.2,0 1.2,0 1.3,0 1.2,0 1.2,0 1.3,0 1.2,0 1.3,0 1.2,0 1.3,0 1.2,0 1.3,0 1.2,0 1.3,0 1.3,0 1.2,0 1.3,0 1.3,0 1.3,0 1.3,0 1.3,0 1.3,0 1.3,0 1.3,0 1.3,0 1.3,0 1.3,0 1.3,0 1.3,0 1.3,0 1.4,0 1.3,0 1.3,0 1.3,0 1.4,0 1.3,0 1.3,0 1.4,0 1.3,0 1.4,0 1.3,0 1.4,0 1.3,0 1.4,0 1.3,0 1.4,0 1.3,0 1.4,0 1.3,0 1.4,0 1.4,0 1.3,0 1.4,0 1.4,0 1.3,0 1.4,0 1.4,0 1.4,0 1.3,0 1.4,0 1.4,0 1.3,0 1.4,0 1.4,0 1.4,0 1.4,0 1.3,0 1.4,0 1.4,0 1.4,0 1.3,0 1.4,0 1.4,0 1.4,0 1.4,0 1.3,0 1.4,0 1.4,0 1.4,0 1.3,0 1.4,0 1.4,0 1.4,0 1.4,0 1.3,0 1.4,0 1.4,0 1.3,0 1.4,0 1.4,0 1.4,0 1.3,0 1.4,0 1.4,0 1.3,0 1.4,0 1.4,0 1.3,0 1.4,0 1.3,0 1.4,0 1.3,0 1.4,0 1.3,0 1.4,0 1.3,0 1.4,0 1.3,0 1.4,0 1.3,0 1.3,0 1.4,0 1.3,0 1.3,0 1.3,0 1.4,0 1.3,0 1.3,0 1.3,0 1.3,0 1.3,0 1.3,0 1.3,0 1.3,0 1.3,0 1.3,0 1.3,0 1.3,0 1.3,0 1.3,0 1.2,0 1.3,0 1.3,0 1.2,0 1.3,0 1.2,0 1.3,0 1.2,0 1.3,0 1.2,0 1.3,0 1.2,0 1.2,0 1.3,0 1.2,0 1.2,0 1.2,0 1.2,0 1.2,0 1.2,0 1.2,0 1.2,0 1.2,0 1.1,0 1.2,0 1.2,0 1.1,0 1.2,0 1.2,0 1.1,0 1.1,0 1.2,0 1.1,0 1.1,0 1.2,0 1.1,0 1.1,0 1.1,0 1.1,0 1.1,0 1.1,0 1,0 1.1,0 1.1,0 1.1,0 1,0 1.1,0 1,0 1,0 1.1,0 1,0 1,0 1,0 1,0 1,0 1,0 1,0 1,0 1,0 1,0 0.9,0 1,0 0.9,0 1,0 0.9,0 0.9,0 0.9,0 1,0 0.9,0 0.9,0 0.9,0 0.8,0 0.9,0 0.9,0 0.9,0 0.8,0 0.9,0 0.8,0 0.8,0 0.9,0 0.8,0 0.8,0 0.8,0 0.8,0 0.8,0 0.8,0 0.7,0 0.8,0 0.8,0 0.7,0 0.7,0 0.8,0 0.7,0 0.7,0 0.7,0 0.7,0 0.7,0 0.7,0 0.7,0 0.7,0 0.6,0 0.7,0 0.6,0 0.7,0 0.6,0 0.6,0 0.6,0 0.6,0 0.6,0 0.6,0 0.6,0 0.5,0 0.6,0 0.6,0 0.5,0 0.5,0 0.6,0 0.5,0 0.5,0 0.5,0 0.5,0 0.5,0 0.4,0 0.5,0 0.4,0 0.5,0 0.4,0 0.5,0 0.4,0 0.4,0 0.4,0 0.4,0 0.4,0 0.3,0 0.4,0 0.4,0 0.3,0 0.4,0 0.3,0 0.3,0 0.3,0 0.3,0 0.3,0 0.3,0 0.3,0 0.2,0 0.3,0 0.2,0 0.3,0 0.2,0 0.2,0 0.2,0 0.2,0 0.2,0 0.2,0 0.2,0 0.1,0 0.2,0 0.1,0 0.2,0 0.1,0 0.1,0 0.1,0 0.1,0 0.1,0 0.1,0 0.1,0 0.1,0 0.1,0"
           id="path180"
           inkscape:connector-curvature="0"
           style="stroke:#808080" />
        <path
           d="m 117.8,429.2 m 0,-0.1 0,0.1 m 0,-0.1 m 0,-0.1 0,0.1 m 0,-0.1 m 0,-0.1 0,0.1 m 0,-0.2 0,0.1 m 0,-0.2 0,0.1 m 0,-0.2 0,0.1 m 0,-0.2 0,0.1 m 0,-0.2 0,0.1 m 0,-0.2 0,0.1 m 0,-0.3 0,0.2 m 0,-0.3 0,0.1 m 0,-0.3 0,0.2 m 0,-0.3 0,0.1 m 0,-0.3 0,0.2 m 0,-0.4 0,0.2 m 0,-0.4 0,0.2 m 0,-0.4 0,0.2 m 0,-0.4 0,0.2 m 0,-0.4 0,0.2 m 0,-0.4 0,0.2 m 0,-0.5 0,0.3 m 0,-0.5 0,0.2 m 0,-0.5 0,0.3 m 0,-0.5 0,0.2 m 0,-0.5 0,0.3 m 0,-0.6 0,0.3 m 0,-0.6 0,0.3 m 0,-0.6 0,0.3 m 0,-0.6 0,0.3 m 0,-0.6 0,0.3 m 0,-0.6 0,0.3 m 0,-0.7 0,0.4 m 0,-0.7 0,0.3 m 0,-0.7 0,0.4 m 0,-0.8 0,0.4 m 0,-0.7 0,0.3 m 0,-0.7 0,0.4 m 0,-0.8 0,0.4 m 0,-0.8 0,0.4 m 0,-0.8 0,0.4 m 0,-0.8 0,0.4 m 0,-0.9 0,0.5 m 0,-0.9 0,0.4 m 0,-0.9 0,0.5 m 0,-0.9 0,0.4 m 0,-0.9 0,0.5 m 0,-0.9 0,0.4 m 0,-0.9 0,0.5 m 0,-1 0,0.5 m 0,-1 0,0.5 m 0,-1 0,0.5 m 0,-1 0,0.5 m 0,-1.1 0,0.6 m 0,-1.1 0,0.5 m 0,-1 0,0.5 m 0,-1.1 0,0.6 m 0,-1.2 0,0.6 m 0,-1.1 0,0.5 m 0,-1.1 0,0.6 m 0,-1.2 0,0.6 m 0,-1.2 0,0.6 m 0,-1.2 0,0.6 m 0,-1.2 0,0.6 m 0,-1.2 0,0.6 m 0,-1.2 0,0.6 m 0,-1.3 0,0.7 m 0,-1.3 0,0.6 m 0,-1.3 0,0.7 m 0,-1.3 0,0.6 m 0,-1.3 0,0.7 m 0,-1.4 0,0.7 m 0,-1.4 0,0.7 m 0,-1.4 0,0.7 m 0,-1.4 0,0.7 m 0,-1.4 0,0.7 m 0,-1.4 0,0.7 m 0,-1.4 0,0.7 m 0,-1.4 0,0.7 m 0,-1.5 0,0.8 m 0,-1.5 0,0.7 m 0,-1.5 0,0.8 m 0,-1.6 0,0.8 m 0,-1.5 0,0.7 m 0,-1.5 0,0.8 m 0,-1.6 0,0.8 m 0,-1.6 0,0.8 m 0,-1.6 0,0.8 m 0,-1.6 0,0.8 m 0,-1.6 0,0.8 m 0,-1.7 0,0.9 m 0,-1.7 0,0.8 m 0,-1.6 0,0.8 m 0,-1.7 0,0.9 m 0,-1.7 0,0.8 m 0,-1.7 0,0.9 m 0,-1.8 0,0.9 m 0,-1.7 0,0.8 m 0,-1.7 0,0.9 m 0,-1.8 0,0.9 m 0,-1.8 0,0.9 m 0,-1.8 0,0.9 m 0,-1.8 0,0.9 m 0,-1.9 0,1 m 0,-1.9 0,0.9 m 0,-1.8 0,0.9 m 0,-1.9 0,1 m 0,-1.9 0,0.9 m 0,-1.9 0,1 m 0,-1.9 0,0.9 m 0,-1.9 0,1 m 0,-2 0,1 m 0,-2 0,1 m 0,-1.9 0,0.9 m 0,-1.9 0,1 m 0,-2 0,1 m 0,-2 0,1 m 0,-2.1 0,1.1 m 0,-2.1 0,1 m 0,-2 0,1 m 0,-2 0,1 m 0,-2.1 0,1.1 m 0,-2.1 0,1 m 0,-2.1 0,1.1 m 0,-2.1 0,1 m 0,-2.1 0,1.1 m 0,-2.2 0,1.1 m 0,-2.1 0,1 m 0,-2.1 0,1.1 m 0,-2.2 0,1.1 m 0,-2.2 0,1.1 m 0,-2.2 0,1.1 m 0,-2.2 0,1.1 m 0,-2.2 0,1.1 m 0,-2.2 0,1.1 m 0,-2.2 0,1.1 m 0,-2.3 0,1.2 m 0,-2.3 0,1.1 m 0,-2.2 0,1.1 m 0,-2.3 0,1.2 m 0,-2.3 0,1.1 m 0,-2.3 0,1.2 m 0,-2.3 0,1.1 m 0,-2.3 0,1.2 m 0,-2.4 0,1.2 m 0,-2.3 0,1.1 m 0,-2.3 0,1.2 m 0,-2.4 0,1.2 m 0,-2.4 0,1.2 m 0,-2.4 0,1.2 m 0,-2.4 0,1.2 m 0,-2.4 0,1.2 m 0,-2.4 0,1.2 m 0,-2.4 0,1.2 m 0,-2.4 0,1.2 m 0,-2.4 0,1.2 m 0,-2.4 0,1.2 m 0,-2.5 0,1.3 m 0,-2.5 0,1.2 m 0,-2.4 0,1.2 m 0,-2.5 0,1.3 m 0,-2.5 0,1.2 m 0,-2.5 0,1.3 m 0,-2.5 0,1.2 m 0,-2.5 0,1.3 m 0,-2.5 0,1.2 m 0,-2.5 0,1.3 m 0,-2.6 0,1.3 m 0,-2.5 0,1.2 m 0,-2.5 0,1.3 m 0,-2.6 0,1.3 m 0,-2.6 0,1.3 m 0,-2.6 0,1.3 m 0,-2.6 0,1.3 m 0,-2.5 0,1.2 m 0,-2.5 0,1.3 m 0,-2.6 0,1.3 m 0,-2.6 0,1.3 m 0,-2.6 0,1.3 m 0,-2.6 0,1.3 m 0,-2.7 0,1.4 m 0,-2.7 0,1.3 m 0,-2.6 0,1.3 m 0,-2.6 0,1.3 m 0,-2.6 0,1.3 m 0,-2.7 0,1.4 m 0,-2.7 0,1.3 m 0,-2.6 0,1.3 m 0,-2.6 0,1.3 m 0,-2.7 0,1.4 m 0,-2.7 0,1.3 m 0,-2.6 0,1.3 m 0,-2.7 0,1.4 m 0,-2.7 0,1.3 m 0,-2.7 0,1.4 m 0,-2.7 0,1.3 m 0,-2.7 0,1.4 m 0,-2.7 0,1.3 m 0,-2.7 0,1.4 m 0,-2.7 0,1.3 m 0,-2.7 0,1.4 m 0,-2.7 0,1.3 m 0,-2.7 0,1.4 m 0,-2.8 0,1.4 m 0,-2.7 0,1.3 m 0,-2.7 0,1.4 m 0,-2.8 0,1.4 m 0,-2.7 0,1.3 m 0,-2.7 0,1.4 m 0,-2.8 0,1.4 m 0,-2.7 0,1.3 m 0,-2.7 0,1.4 m 0,-2.8 0,1.4 m 0,-2.8 0,1.4 m 0,-2.7 0,1.3 m 0,-2.7 0,1.4 m 0,-2.8 0,1.4 m 0,-2.7 0,1.3 m 0,-2.7 0,1.4 m 0,-2.8 0,1.4 m 0,-2.8 0,1.4 m 0,-2.8 0,1.4 m 0,-2.7 0,1.3 m 0,-2.7 0,1.4 m 0,-2.8 0,1.4 m 0,-2.8 0,1.4 m 0,-2.8 0,1.4 m 0,-2.7 0,1.3 m 0,-2.7 0,1.4 m 0,-2.8 0,1.4 m 0,-2.8 0,1.4 m 0,-2.7 0,1.3 m 0,-2.7 0,1.4 m 0,-2.8 0,1.4 m 0,-2.8 0,1.4 m 0,-2.8 0,1.4 m 0,-2.7 0,1.3 m 0,-2.7 0,1.4 m 0,-2.8 0,1.4 m 0,-2.7 0,1.3 m 0,-2.7 0,1.4 m 0,-2.8 0,1.4 m 0,-2.8 0,1.4 m 0,-2.7 0,1.3 m 0,-2.7 0,1.4 m 0,-2.8 0,1.4 m 0,-2.7 0,1.3 m 0,-2.7 0,1.4 m 0,-2.8 0,1.4 m 0,-2.7 0,1.3 m 0,-2.7 0,1.4 m 0,-2.8 0,1.4 m 0,-2.7 0,1.3 m 0,-2.7 0,1.4 m 0,-2.7 0,1.3 m 0,-2.7 0,1.4"
           id="path182"
           inkscape:connector-curvature="0"
           style="stroke:#808080" />
        <path
           d="m 117.8,185.4 0,1.3 m 0,-2.7 0,1.4 m 0,-2.7 0,1.3 m 0,-2.7 0,1.4 m 0,-2.7 0,1.3 m 0,-2.7 0,1.4 m 0,-2.7 0,1.3 m 0,-2.6 0,1.3 m 0,-2.7 0,1.4 m 0,-2.7 0,1.3 m 0,-2.6 0,1.3 m 0,-2.6 0,1.3 m 0,-2.7 0,1.4 m 0,-2.7 0,1.3 m 0,-2.6 0,1.3 m 0,-2.6 0,1.3 m 0,-2.6 0,1.3 m 0,-2.7 0,1.4 m 0,-2.7 0,1.3 m 0,-2.6 0,1.3 m 0,-2.6 0,1.3 m 0,-2.6 0,1.3 m 0,-2.6 0,1.3 m 0,-2.5 0,1.2 m 0,-2.5 0,1.3 m 0,-2.6 0,1.3 m 0,-2.6 0,1.3 m 0,-2.6 0,1.3 m 0,-2.6 0,1.3 m 0,-2.5 0,1.2 m 0,-2.5 0,1.3 m 0,-2.6 0,1.3 m 0,-2.5 0,1.2 m 0,-2.5 0,1.3 m 0,-2.5 0,1.2 m 0,-2.5 0,1.3 m 0,-2.5 0,1.2 m 0,-2.5 0,1.3 m 0,-2.5 0,1.2 m 0,-2.4 0,1.2 m 0,-2.5 0,1.3 m 0,-2.5 0,1.2 m 0,-2.4 0,1.2 m 0,-2.4 0,1.2 m 0,-2.4 0,1.2 m 0,-2.4 0,1.2 m 0,-2.4 0,1.2 m 0,-2.4 0,1.2 m 0,-2.4 0,1.2 m 0,-2.4 0,1.2 m 0,-2.4 0,1.2 m 0,-2.4 0,1.2 m 0,-2.3 0,1.1 m 0,-2.3 0,1.2 m 0,-2.4 0,1.2 m 0,-2.3 0,1.1 m 0,-2.3 0,1.2 m 0,-2.3 0,1.1 m 0,-2.3 0,1.2 m 0,-2.3 0,1.1 m 0,-2.2 0,1.1 m 0,-2.3 0,1.2 m 0,-2.3 0,1.1 m 0,-2.2 0,1.1 m 0,-2.2 0,1.1 m 0,-2.2 0,1.1 m 0,-2.2 0,1.1 m 0,-2.2 0,1.1 m 0,-2.2 0,1.1 m 0,-2.2 0,1.1 m 0,-2.1 0,1 m 0,-2.1 0,1.1 m 0,-2.2 0,1.1 m 0,-2.1 0,1 m 0,-2.1 0,1.1 m 0,-2.1 0,1 m 0,-2.1 0,1.1 m 0,-2.1 0,1 m 0,-2 0,1 m 0,-2 0,1 m 0,-2.1 0,1.1 m 0,-2.1 0,1 m 0,-2 0,1 m 0,-2 0,1 m 0,-1.9 0,0.9 m 0,-1.9 0,1 m 0,-2 0,1 m 0,-2 0,1 m 0,-1.9 0,0.9 m 0,-1.9 0,1 m 0,-1.9 0,0.9 m 0,-1.9 0,1 m 0,-1.9 0,0.9 m 0,-1.8 0,0.9 m 0,-1.9 0,1 m 0,-1.9 0,0.9 m 0,-1.8 0,0.9 m 0,-1.8 0,0.9 m 0,-1.8 0,0.9 m 0,-1.8 0,0.9 m 0,-1.7 0,0.8 m 0,-1.7 0,0.9 m 0,-1.8 0,0.9 m 0,-1.7 0,0.8 m 0,-1.7 0,0.9 m 0,-1.7 0,0.8 m 0,-1.6 0,0.8 m 0,-1.7 0,0.9 m 0,-1.7 0,0.8 m 0,-1.6 0,0.8 m 0,-1.6 0,0.8 m 0,-1.6 0,0.8 m 0,-1.6 0,0.8 m 0,-1.6 0,0.8 m 0,-1.5 0,0.7 m 0,-1.5 0,0.8 m 0,-1.6 0,0.8 m 0,-1.5 0,0.7 m 0,-1.5 0,0.8 m 0,-1.5 0,0.7 m 0,-1.4 0,0.7 m 0,-1.4 0,0.7 m 0,-1.4 0,0.7 m 0,-1.4 0,0.7 m 0,-1.4 0,0.7 m 0,-1.4 0,0.7 m 0,-1.4 0,0.7 m 0,-1.4 0,0.7 m 0,-1.3 0,0.6 m 0,-1.3 0,0.7 m 0,-1.3 0,0.6 m 0,-1.3 0,0.7 m 0,-1.3 0,0.6 m 0,-1.2 0,0.6 m 0,-1.2 0,0.6 m 0,-1.2 0,0.6 m 0,-1.2 0,0.6 m 0,-1.2 0,0.6 m 0,-1.2 0,0.6 m 0,-1.1 0,0.5 m 0,-1.1 0,0.6 m 0,-1.2 0,0.6 m 0,-1.1 0,0.5 m 0,-1 0,0.5 m 0,-1.1 0,0.6 m 0,-1.1 0,0.5 m 0,-1 0,0.5 m 0,-1 0,0.5 m 0,-1 0,0.5 m 0,-1 0,0.5 m 0,-0.9 0,0.4 m 0,-0.9 0,0.5 m 0,-0.9 0,0.4 m 0,-0.9 0,0.5 m 0,-0.9 0,0.4 m 0,-0.9 0,0.5 m 0,-0.9 0,0.4 m 0,-0.8 0,0.4 m 0,-0.8 0,0.4 m 0,-0.8 0,0.4 m 0,-0.8 0,0.4 m 0,-0.7 0,0.3 m 0,-0.7 0,0.4 m 0,-0.8 0,0.4 m 0,-0.7 0,0.3 m 0,-0.7 0,0.4 m 0,-0.7 0,0.3 m 0,-0.6 0,0.3 m 0,-0.6 0,0.3 m 0,-0.6 0,0.3 m 0,-0.6 0,0.3 m 0,-0.6 0,0.3 m 0,-0.6 0,0.3 m 0,-0.5 0,0.2 m 0,-0.5 0,0.3 m 0,-0.5 0,0.2 m 0,-0.5 0,0.3 m 0,-0.5 0,0.2 m 0,-0.4 0,0.2 m 0,-0.4 0,0.2 m 0,-0.4 0,0.2 m 0,-0.4 0,0.2 m 0,-0.4 0,0.2 m 0,-0.4 0,0.2 m 0,-0.3 0,0.1 m 0,-0.3 0,0.2 m 0,-0.3 0,0.1 m 0,-0.3 0,0.2 m 0,-0.3 0,0.1 m 0,-0.2 0,0.1 m 0,-0.2 0,0.1 m 0,-0.2 0,0.1 m 0,-0.2 0,0.1 m 0,-0.2 0,0.1 m 0,-0.2 0,0.1 m 0,-0.1 m 0,-0.1 0,0.1 m 0,-0.1 m 0,-0.1 0,0.1 m 0,-0.1 m 0.1,0 -0.1,0 m 0.1,0 m 0.1,0 -0.1,0 m 0.1,0 m 0.1,0 -0.1,0 m 0.2,0 -0.1,0 m 0.2,0 -0.1,0 m 0.2,0 -0.1,0 m 0.2,0 -0.1,0 m 0.2,0 -0.1,0 m 0.2,0 -0.1,0 m 0.3,0 -0.2,0 m 0.3,0 -0.1,0 m 0.3,0 -0.2,0 m 0.3,0 -0.1,0 m 0.3,0 -0.2,0 m 0.4,0 -0.2,0 m 0.4,0 -0.2,0 m 0.4,0 -0.2,0 m 0.4,0 -0.2,0 m 0.4,0 -0.2,0 m 0.4,0 -0.2,0 m 0.5,0 -0.3,0 m 0.5,0 -0.2,0 m 0.5,0 -0.3,0 m 0.5,0 -0.2,0 m 0.5,0 -0.3,0 m 0.6,0 -0.3,0 m 0.6,0 -0.3,0 m 0.6,0 -0.3,0 m 0.6,0 -0.3,0 m 0.6,0 -0.3,0 m 0.6,0 -0.3,0 m 0.7,0 -0.4,0 m 0.7,0 -0.3,0 m 0.7,0 -0.4,0 m 0.8,0 -0.4,0 m 0.7,0 -0.3,0 m 0.7,0 -0.4,0 m 0.8,0 -0.4,0 m 0.8,0 -0.4,0 m 0.8,0 -0.4,0 m 0.8,0 -0.4,0 m 0.9,0 -0.5,0 m 0.9,0 -0.4,0 m 0.9,0 -0.5,0 m 0.9,0 -0.4,0 m 0.9,0 -0.5,0 m 0.9,0 -0.4,0 m 0.9,0 -0.5,0 m 1,0 -0.5,0 m 1,0 -0.5,0 m 1,0 -0.5,0 m 1,0 -0.5,0 m 1.1,0 -0.6,0 m 1.1,0 -0.5,0 m 1,0 -0.5,0 m 1.1,0 -0.6,0 m 1.2,0 -0.6,0"
           id="path184"
           inkscape:connector-curvature="0"
           style="stroke:#808080" />
        <path
           d="m 136.1,23.7 -0.5,0 m 1.1,0 -0.6,0 m 1.2,0 -0.6,0 m 1.2,0 -0.6,0 m 1.2,0 -0.6,0 m 1.2,0 -0.6,0 m 1.2,0 -0.6,0 m 1.2,0 -0.6,0 m 1.3,0 -0.7,0 m 1.3,0 -0.6,0 m 1.3,0 -0.7,0 m 1.3,0 -0.6,0 m 1.3,0 -0.7,0 m 1.4,0 -0.7,0 m 1.4,0 -0.7,0 m 1.4,0 -0.7,0 m 1.4,0 -0.7,0 m 1.4,0 -0.7,0 m 1.4,0 -0.7,0 m 1.4,0 -0.7,0 m 1.5,0 -0.8,0 m 1.5,0 -0.7,0 m 1.4,0 -0.7,0 m 1.5,0 -0.8,0 m 1.6,0 -0.8,0 m 1.5,0 -0.7,0 m 1.5,0 -0.8,0 m 1.6,0 -0.8,0 m 1.6,0 -0.8,0 m 1.6,0 -0.8,0 m 1.6,0 -0.8,0 m 1.6,0 -0.8,0 m 1.7,0 -0.9,0 m 1.7,0 -0.8,0 m 1.6,0 -0.8,0 m 1.7,0 -0.9,0 m 1.7,0 -0.8,0 m 1.7,0 -0.9,0 m 1.8,0 -0.9,0 m 1.8,0 -0.9,0 m 1.7,0 -0.8,0 m 1.7,0 -0.9,0 m 1.8,0 -0.9,0 m 1.8,0 -0.9,0 m 1.9,0 -1,0 m 1.9,0 -0.9,0 m 1.8,0 -0.9,0 m 1.8,0 -0.9,0 m 1.9,0 -1,0 m 1.9,0 -0.9,0 m 1.9,0 -1,0 m 1.9,0 -0.9,0 m 1.9,0 -1,0 m 2,0 -1,0 m 2,0 -1,0 m 2,0 -1,0 m 2,0 -1,0 m 2,0 -1,0 m 2,0 -1,0 m 2,0 -1,0 m 2,0 -1,0 m 2,0 -1,0 m 2.1,0 -1.1,0 m 2.1,0 -1,0 m 2,0 -1,0 m 2.1,0 -1.1,0 m 2.1,0 -1,0 m 2.1,0 -1.1,0 m 2.2,0 -1.1,0 m 2.2,0 -1.1,0 m 2.1,0 -1,0 m 2.1,0 -1.1,0 m 2.2,0 -1.1,0 m 2.2,0 -1.1,0 m 2.2,0 -1.1,0 m 2.2,0 -1.1,0 m 2.2,0 -1.1,0 m 2.3,0 -1.2,0 m 2.3,0 -1.1,0 m 2.2,0 -1.1,0 m 2.3,0 -1.2,0 m 2.3,0 -1.1,0 m 2.2,0 -1.1,0 m 2.3,0 -1.2,0 m 2.4,0 -1.2,0 m 2.3,0 -1.1,0 m 2.3,0 -1.2,0 m 2.4,0 -1.2,0 m 2.3,0 -1.1,0 m 2.3,0 -1.2,0 m 2.4,0 -1.2,0 m 2.4,0 -1.2,0 m 2.4,0 -1.2,0 m 2.4,0 -1.2,0 m 2.4,0 -1.2,0 m 2.4,0 -1.2,0 m 2.4,0 -1.2,0 m 2.4,0 -1.2,0 m 2.5,0 -1.3,0 m 2.5,0 -1.2,0 m 2.4,0 -1.2,0 m 2.5,0 -1.3,0 m 2.5,0 -1.2,0 m 2.5,0 -1.3,0 m 2.5,0 -1.2,0 m 2.5,0 -1.3,0 m 2.5,0 -1.2,0 m 2.5,0 -1.3,0 m 2.5,0 -1.2,0 m 2.5,0 -1.3,0 m 2.6,0 -1.3,0 m 2.5,0 -1.2,0 m 2.5,0 -1.3,0 m 2.6,0 -1.3,0 m 2.6,0 -1.3,0 m 2.6,0 -1.3,0 m 2.6,0 -1.3,0 m 2.6,0 -1.3,0 m 2.6,0 -1.3,0 m 2.6,0 -1.3,0 m 2.6,0 -1.3,0 m 2.6,0 -1.3,0 m 2.6,0 -1.3,0 m 2.6,0 -1.3,0 m 2.6,0 -1.3,0 m 2.6,0 -1.3,0 m 2.7,0 -1.4,0 m 2.7,0 -1.3,0 m 2.6,0 -1.3,0 m 2.6,0 -1.3,0 m 2.7,0 -1.4,0 m 2.7,0 -1.3,0 m 2.6,0 -1.3,0 m 2.7,0 -1.4,0 m 2.7,0 -1.3,0 m 2.7,0 -1.4,0 m 2.7,0 -1.3,0 m 2.7,0 -1.4,0 m 2.7,0 -1.3,0 m 2.7,0 -1.4,0 m 2.7,0 -1.3,0 m 2.7,0 -1.4,0 m 2.7,0 -1.3,0 m 2.7,0 -1.4,0 m 2.7,0 -1.3,0 m 2.7,0 -1.4,0 m 2.8,0 -1.4,0 m 2.7,0 -1.3,0 m 2.7,0 -1.4,0 m 2.8,0 -1.4,0 m 2.7,0 -1.3,0 m 2.7,0 -1.4,0 m 2.8,0 -1.4,0 m 2.8,0 -1.4,0 m 2.7,0 -1.3,0 m 2.7,0 -1.4,0 m 2.8,0 -1.4,0 m 2.7,0 -1.3,0 m 2.7,0 -1.4,0 m 2.8,0 -1.4,0 m 2.8,0 -1.4,0 m 2.8,0 -1.4,0 m 2.7,0 -1.3,0 m 2.7,0 -1.4,0 m 2.8,0 -1.4,0 m 2.8,0 -1.4,0 m 2.7,0 -1.3,0 m 2.7,0 -1.4,0 m 2.8,0 -1.4,0 m 2.8,0 -1.4,0 m 2.8,0 -1.4,0 m 2.7,0 -1.3,0 m 2.7,0 -1.4,0 m 2.8,0 -1.4,0 m 2.8,0 -1.4,0 m 2.7,0 -1.3,0 m 2.7,0 -1.4,0 m 2.8,0 -1.4,0 m 2.8,0 -1.4,0 m 2.8,0 -1.4,0 m 2.7,0 -1.3,0 m 2.7,0 -1.4,0 m 2.8,0 -1.4,0 m 2.7,0 -1.3,0 m 2.7,0 -1.4,0 m 2.8,0 -1.4,0 m 2.8,0 -1.4,0 m 2.7,0 -1.3,0 m 2.7,0 -1.4,0 m 2.8,0 -1.4,0 m 2.7,0 -1.3,0 m 2.7,0 -1.4,0 m 2.8,0 -1.4,0 m 2.7,0 -1.3,0 m 2.7,0 -1.4,0 m 2.7,0 -1.3,0 m 2.7,0 -1.4,0 m 2.7,0 -1.3,0 m 2.7,0 -1.4,0 m 2.7,0 -1.3,0 m 2.7,0 -1.4,0 m 2.7,0 -1.3,0 m 2.7,0 -1.4,0 m 2.7,0 -1.3,0 m 2.7,0 -1.4,0 m 2.7,0 -1.3,0 m 2.6,0 -1.3,0 m 2.7,0 -1.4,0 m 2.7,0 -1.3,0 m 2.6,0 -1.3,0 m 2.6,0 -1.3,0 m 2.7,0 -1.4,0 m 2.7,0 -1.3,0 m 2.6,0 -1.3,0 m 2.6,0 -1.3,0 m 2.6,0 -1.3,0 m 2.6,0 -1.3,0 m 2.6,0 -1.3,0 m 2.6,0 -1.3,0 m 2.6,0 -1.3,0 m 2.6,0 -1.3,0 m 2.6,0 -1.3,0 m 2.6,0 -1.3,0 m 2.6,0 -1.3,0 m 2.6,0 -1.3,0 m 2.6,0 -1.3,0 m 2.5,0 -1.2,0 m 2.5,0 -1.3,0 m 2.6,0 -1.3,0 m 2.5,0 -1.2,0 m 2.5,0 -1.3,0 m 2.5,0 -1.2,0 m 2.5,0 -1.3,0 m 2.5,0 -1.2,0 m 2.5,0 -1.3,0 m 2.5,0 -1.2,0 m 2.5,0 -1.3,0 m 2.5,0 -1.2,0 m 2.4,0 -1.2,0 m 2.5,0 -1.3,0 m 2.5,0 -1.2,0 m 2.4,0 -1.2,0 m 2.4,0 -1.2,0 m 2.4,0 -1.2,0 m 2.4,0 -1.2,0 m 2.4,0 -1.2,0 m 2.4,0 -1.2,0 m 2.4,0 -1.2,0 m 2.4,0 -1.2,0 m 2.3,0 -1.1,0 m 2.3,0 -1.2,0 m 2.4,0 -1.2,0 m 2.3,0 -1.1,0 m 2.3,0 -1.2,0 m 2.4,0 -1.2,0 m 2.3,0 -1.1,0 m 2.2,0 -1.1,0"
           id="path186"
           inkscape:connector-curvature="0"
           style="stroke:#808080" />
        <path
           d="m 436,23.7 -1.2,0 m 2.3,0 -1.1,0 m 2.2,0 -1.1,0 m 2.3,0 -1.2,0 m 2.3,0 -1.1,0 m 2.2,0 -1.1,0 m 2.2,0 -1.1,0 m 2.2,0 -1.1,0 m 2.2,0 -1.1,0 m 2.2,0 -1.1,0 m 2.1,0 -1,0 m 2.1,0 -1.1,0 m 2.2,0 -1.1,0 m 2.2,0 -1.1,0 m 2.1,0 -1,0 m 2.1,0 -1.1,0 m 2.1,0 -1,0 m 2,0 -1,0 m 2.1,0 -1.1,0 m 2.1,0 -1,0 m 2,0 -1,0 m 2,0 -1,0 m 2,0 -1,0 m 2,0 -1,0 m 2,0 -1,0 m 2,0 -1,0 m 2,0 -1,0 m 2,0 -1,0 m 2,0 -1,0 m 1.9,0 -0.9,0 m 1.9,0 -1,0 m 1.9,0 -0.9,0 m 1.9,0 -1,0 m 1.9,0 -0.9,0 m 1.8,0 -0.9,0 m 1.8,0 -0.9,0 m 1.9,0 -1,0 m 1.9,0 -0.9,0 m 1.8,0 -0.9,0 m 1.8,0 -0.9,0 m 1.7,0 -0.8,0 m 1.7,0 -0.9,0 m 1.8,0 -0.9,0 m 1.8,0 -0.9,0 m 1.7,0 -0.8,0 m 1.7,0 -0.9,0 m 1.7,0 -0.8,0 m 1.6,0 -0.8,0 m 1.7,0 -0.9,0 m 1.7,0 -0.8,0 m 1.6,0 -0.8,0 m 1.6,0 -0.8,0 m 1.6,0 -0.8,0 m 1.6,0 -0.8,0 m 1.6,0 -0.8,0 m 1.5,0 -0.7,0 m 1.5,0 -0.8,0 m 1.6,0 -0.8,0 m 1.5,0 -0.7,0 m 1.4,0 -0.7,0 m 1.5,0 -0.8,0 m 1.5,0 -0.7,0 m 1.4,0 -0.7,0 m 1.4,0 -0.7,0 m 1.4,0 -0.7,0 m 1.4,0 -0.7,0 m 1.4,0 -0.7,0 m 1.4,0 -0.7,0 m 1.4,0 -0.7,0 m 1.3,0 -0.6,0 m 1.3,0 -0.7,0 m 1.3,0 -0.6,0 m 1.3,0 -0.7,0 m 1.3,0 -0.6,0 m 1.2,0 -0.6,0 m 1.2,0 -0.6,0 m 1.2,0 -0.6,0 m 1.2,0 -0.6,0 m 1.2,0 -0.6,0 m 1.2,0 -0.6,0 m 1.1,0 -0.5,0 m 1.1,0 -0.6,0 m 1.2,0 -0.6,0 m 1.1,0 -0.5,0 m 1,0 -0.5,0 m 1.1,0 -0.6,0 m 1.1,0 -0.5,0 m 1,0 -0.5,0 m 1,0 -0.5,0 m 1,0 -0.5,0 m 1,0 -0.5,0 m 0.9,0 -0.4,0 m 0.9,0 -0.5,0 m 0.9,0 -0.4,0 m 0.9,0 -0.5,0 m 0.9,0 -0.4,0 m 0.9,0 -0.5,0 m 0.9,0 -0.4,0 m 0.8,0 -0.4,0 m 0.8,0 -0.4,0 m 0.8,0 -0.4,0 m 0.8,0 -0.4,0 m 0.7,0 -0.3,0 m 0.7,0 -0.4,0 m 0.8,0 -0.4,0 m 0.7,0 -0.3,0 m 0.7,0 -0.4,0 m 0.7,0 -0.3,0 m 0.6,0 -0.3,0 m 0.6,0 -0.3,0 m 0.6,0 -0.3,0 m 0.6,0 -0.3,0 m 0.6,0 -0.3,0 m 0.6,0 -0.3,0 m 0.5,0 -0.2,0 m 0.5,0 -0.3,0 m 0.5,0 -0.2,0 m 0.5,0 -0.3,0 m 0.5,0 -0.2,0 m 0.4,0 -0.2,0 m 0.4,0 -0.2,0 m 0.4,0 -0.2,0 m 0.4,0 -0.2,0 m 0.4,0 -0.2,0 m 0.4,0 -0.2,0 m 0.3,0 -0.1,0 m 0.3,0 -0.2,0 m 0.3,0 -0.1,0 m 0.3,0 -0.2,0 m 0.3,0 -0.1,0 m 0.2,0 -0.1,0 m 0.2,0 -0.1,0 m 0.2,0 -0.1,0 m 0.2,0 -0.1,0 m 0.2,0 -0.1,0 m 0.2,0 -0.1,0 m 0.1,0 m 0.1,0 -0.1,0 m 0.1,0 m 0.1,0 -0.1,0 m 0.1,0 m 0,405.5 0,-0.1 0,-0.1 0,-0.1 0,-0.1 0,-0.1 0,-0.1 0,-0.1 0,-0.1 0,-0.1 0,-0.2 0,-0.1 0,-0.2 0,-0.1 0,-0.2 0,-0.2 0,-0.2 0,-0.2 0,-0.2 0,-0.2 0,-0.2 0,-0.3 0,-0.2 0,-0.3 0,-0.2 0,-0.3 0,-0.3 0,-0.3 0,-0.3 0,-0.3 0,-0.3 0,-0.3 0,-0.4 0,-0.3 0,-0.4 0,-0.4 0,-0.3 0,-0.4 0,-0.4 0,-0.4 0,-0.4 0,-0.4 0,-0.5 0,-0.4 0,-0.5 0,-0.4 0,-0.5 0,-0.4 0,-0.5 0,-0.5 0,-0.5 0,-0.5 0,-0.5 0,-0.6 0,-0.5 0,-0.5 0,-0.6 0,-0.6 0,-0.5 0,-0.6 0,-0.6 0,-0.6 0,-0.6 0,-0.6 0,-0.6 0,-0.6 0,-0.7 0,-0.6 0,-0.7 0,-0.6 0,-0.7 0,-0.7 0,-0.7 0,-0.7 0,-0.7 0,-0.7 0,-0.7 0,-0.7 0,-0.7 0,-0.8 0,-0.7 0,-0.8 0,-0.8 0,-0.7 0,-0.8 0,-0.8 0,-0.8 0,-0.8 0,-0.8 0,-0.8 0,-0.9 0,-0.8 0,-0.8 0,-0.9 0,-0.8 0,-0.9 0,-0.9 0,-0.8 0,-0.9 0,-0.9 0,-0.9 0,-0.9 0,-0.9 0,-1 0,-0.9 0,-0.9 0,-1 0,-0.9 0,-1 0,-0.9 0,-1 0,-1 0,-1 0,-0.9 0,-1 0,-1 0,-1 0,-1.1 0,-1 0,-1 0,-1 0,-1.1 0,-1 0,-1.1 0,-1 0,-1.1 0,-1.1 0,-1 0,-1.1 0,-1.1 0,-1.1 0,-1.1 0,-1.1 0,-1.1 0,-1.1 0,-1.1 0,-1.2 0,-1.1 0,-1.1 0,-1.2 0,-1.1 0,-1.2 0,-1.1 0,-1.2 0,-1.2 0,-1.1 0,-1.2 0,-1.2 0,-1.2 0,-1.2 0,-1.2 0,-1.2 0,-1.2 0,-1.2 0,-1.2 0,-1.2 0,-1.2 0,-1.3 0,-1.2 0,-1.2 0,-1.3 0,-1.2 0,-1.3 0,-1.2 0,-1.3 0,-1.2 0,-1.3 0,-1.3 0,-1.2 0,-1.3 0,-1.3 0,-1.3 0,-1.3 0,-1.3 0,-1.2 0,-1.3 0,-1.3 0,-1.3 0,-1.3 0,-1.3 0,-1.4 0,-1.3 0,-1.3 0,-1.3 0,-1.3 0,-1.4 0,-1.3 0,-1.3 0,-1.3 0,-1.4 0,-1.3 0,-1.3 0,-1.4 0,-1.3 0,-1.4 0,-1.3 0,-1.4 0,-1.3 0,-1.4 0,-1.3 0,-1.4 0,-1.3 0,-1.4 0,-1.4 0,-1.3 0,-1.4 0,-1.4 0,-1.3 0,-1.4 0,-1.4 0,-1.3 0,-1.4 0,-1.4 0,-1.4 0,-1.3 0,-1.4 0,-1.4 0,-1.3 0,-1.4 0,-1.4 0,-1.4 0,-1.4 0,-1.3 0,-1.4 0,-1.4 0,-1.4 0,-1.4 0,-1.3 0,-1.4 0,-1.4 0,-1.4 0,-1.3 0,-1.4 0,-1.4 0,-1.4 0,-1.4 0,-1.3 0,-1.4 0,-1.4 0,-1.3 0,-1.4 0,-1.4 0,-1.4 0,-1.3 0,-1.4 0,-1.4 0,-1.3 0,-1.4 0,-1.4 0,-1.3 0,-1.4 0,-1.4 0,-1.3 0,-1.4 0,-1.3 0,-1.4 0,-1.3 0,-1.4 0,-1.3 0,-1.4 0,-1.3 0,-1.4 0,-1.3 0,-1.3 0,-1.4 0,-1.3 0,-1.3 0,-1.3 0,-1.4 0,-1.3 0,-1.3 0,-1.3 0,-1.3 0,-1.4 0,-1.3 0,-1.3 0,-1.3 0,-1.3 0,-1.3 0,-1.2 0,-1.3 0,-1.3 0,-1.3 0,-1.3 0,-1.3 0,-1.2 0,-1.3 0,-1.3 0,-1.2 0,-1.3 0,-1.2 0,-1.3 0,-1.2 0,-1.3 0,-1.2 0,-1.2 0,-1.3 0,-1.2 0,-1.2 0,-1.2 0,-1.2 0,-1.2 0,-1.2 0,-1.2 0,-1.2 0,-1.2 0,-1.2 0,-1.2 0,-1.1 0,-1.2 0,-1.2 0,-1.1 0,-1.2 0,-1.1 0,-1.2 0,-1.1 0,-1.1 0,-1.2 0,-1.1 0,-1.1 0,-1.1 0,-1.1 0,-1.1 0,-1.1 0,-1.1 0,-1.1 0,-1 0,-1.1 0,-1.1 0,-1 0,-1.1 0,-1 0,-1.1 0,-1 0,-1 0,-1 0,-1.1 0,-1 0,-1 0,-1 0,-0.9 0,-1 0,-1 0,-1 0,-0.9 0,-1 0,-0.9 0,-1 0,-0.9 0,-0.9 0,-1 0,-0.9 0,-0.9 0,-0.9 0,-0.9 0,-0.9 0,-0.8 0,-0.9 0,-0.9 0,-0.8 0,-0.9 0,-0.8 0,-0.8 0,-0.9 0,-0.8 0,-0.8 0,-0.8 0,-0.8 0,-0.8 0,-0.8 0,-0.7 0,-0.8 0,-0.8 0,-0.7 0,-0.8 0,-0.7 0,-0.7 0,-0.7 0,-0.7 0,-0.7 0,-0.7 0,-0.7 0,-0.7 0,-0.7 0,-0.6 0,-0.7 0,-0.6 0,-0.7 0,-0.6 0,-0.6 0,-0.6 0,-0.6 0,-0.6 0,-0.6 0,-0.6 0,-0.5 0,-0.6 0,-0.6 0,-0.5 0,-0.5 0,-0.6 0,-0.5 0,-0.5 0,-0.5 0,-0.5 0,-0.5 0,-0.4 0,-0.5 0,-0.4 0,-0.5 0,-0.4 0,-0.5 0,-0.4 0,-0.4 0,-0.4 0,-0.4 0,-0.4 0,-0.3 0,-0.4 0,-0.4 0,-0.3 0,-0.4 0,-0.3 0,-0.3 0,-0.3 0,-0.3 0,-0.3 0,-0.3 0,-0.3 0,-0.2 0,-0.3 0,-0.2 0,-0.3 0,-0.2 0,-0.2 0,-0.2 0,-0.2 0,-0.2 0,-0.2 0,-0.2 0,-0.1 0,-0.2 0,-0.1 0,-0.2 0,-0.1 0,-0.1 0,-0.1 0,-0.1 0,-0.1 0,-0.1 0,-0.1 0,-0.1 0,-0.1"
           id="path188"
           inkscape:connector-curvature="0"
           style="stroke:#808080" />
      </g>
    </g>
    <g
       id="g190"
       style="color:#ffffff;fill:none;stroke:#808080;stroke-width:2;stroke-linecap:butt;stroke-linejoin:miter" />
    <g
       id="g192"
       style="color:#000000;fill:none;stroke:currentColor;stroke-width:2;stroke-linecap:butt;stroke-linejoin:miter" />
    <g
       id="g194"
       style="color:#000000;fill:none;stroke:#000000;stroke-width:1;stroke-linecap:butt;stroke-linejoin:miter" />
    <g
       id="g196"
       style="color:#000000;fill:none;stroke:currentColor;stroke-width:1;stroke-linecap:butt;stroke-linejoin:miter">
      <path
         d="m 117.8,23.7 0,405.5 405.6,0 0,-405.5 -405.6,0 z"
         id="path198"
         inkscape:connector-curvature="0"
         style="stroke:#000000" />
    </g>
    <g
       id="g200"
       style="color:#000000;fill:none;stroke:currentColor;stroke-width:1;stroke-linecap:butt;stroke-linejoin:miter" />
  </g>
  <path
     style="opacity:1;fill:#4d4d4d;fill-opacity:0.58823529;stroke:none;stroke-width:1;stroke-linecap:round;stroke-linejoin:miter;stroke-miterlimit:4;stroke-dasharray:1, 2;stroke-dashoffset:0;stroke-opacity:1"
     d="m 34.843322,5.1169078 c -0.72103,2.442419 -0.10034,5.1727632 -0.307209,7.7254842 0,24.319065 0,48.638133 0,72.957199 0.212149,1.51146 -0.14631,3.3029 0,4.96109 0,25.389099 0,50.778209 0,76.167309 0.212149,1.51146 -0.14631,3.30291 0,4.96109 0,25.38911 0,50.77821 0,76.16732 0.212149,1.51146 -0.14631,3.3029 0,4.96109 0,25.3891 0,50.77821 0,76.16731 0.212149,1.51147 -0.14631,3.30289 0,4.96109 0,25.29184 0,50.58365 0,75.87549 0.608909,1.82122 3.0578,0.68329 4.501679,0.99975 25.38911,0 50.77821,0 76.167318,0 1.27234,-0.49713 2.8526,0.33023 4.37743,0 25.58366,0 51.16732,0 76.75097,0 1.51146,-0.21216 3.30291,0.14629 4.96109,0 25.38911,0 50.77821,0 76.16732,0 1.27234,-0.49713 2.8526,0.33023 4.37743,0 25.58366,0 51.16731,0 76.75097,0 1.27235,-0.49713 2.8526,0.33023 4.37744,0 25.58366,0 51.1673,0 76.75097,0 1.82121,-0.60893 0.68329,-3.05781 0.99975,-4.5017 0,-25.3891 0,-50.77821 0,-76.16731 -0.21216,-1.51147 0.14629,-3.30289 0,-4.96109 0,-25.38911 0,-50.77821 0,-76.16732 -0.21216,-1.51146 0.14629,-3.3029 0,-4.96109 0,-25.3891 0,-50.77821 0,-76.16731 -0.21216,-1.51146 0.14629,-3.3029 0,-4.96109 0,-25.38911 0,-50.77821 0,-76.167319 -0.21216,-1.51146 0.14629,-3.3029 0,-4.96109 0,-25.3891 0,-50.778205 0,-76.1673102 -0.60893,-1.821231 -3.05782,-0.683279 -4.5017,-0.999742 -25.3891,0 -50.77821,0 -76.16731,0 -1.27235,0.497114 -2.8526,-0.330249 -4.37743,0 -25.58367,0 -51.16732,0 -76.75098,0 -1.27234,0.497114 -2.8526,-0.330249 -4.37743,0 -25.68093,0 -51.36187,0 -77.0428,0 -1.51146,0.212155 -3.3029,-0.146311 -4.96109,0 -25.29183,0 -50.58366,0 -75.87549,0 -1.27234,0.497114 -2.8526,-0.330249 -4.37743,0 -25.583658,0 -51.167308,0 -76.750968,0 -0.23084,0.09272 -0.46168,0.185433 -0.69253,0.278149 z M 424.71861,12.09629 c 3.40853,0.397197 5.62007,3.49186 7.74438,5.875631 1.87237,2.359863 0.77177,5.634069 0.0712,8.251847 -1.77333,4.786001 -4.12144,9.417605 -4.85245,14.531671 -1.16104,5.584956 -0.55467,11.359007 -1.5604,16.949361 -1.39462,3.742325 -3.30978,7.31876 -5.37602,10.733828 -2.88825,3.126453 -7.16471,4.568986 -11.15524,5.719547 -3.99394,1.380023 -7.79921,-1.028516 -11.73338,-1.366626 -5.86229,-1.20729 -11.38273,1.703496 -16.38809,4.345255 -1.72894,1.198777 -3.78029,1.223376 -5.77891,1.404114 -3.21604,0.877296 -4.81062,4.215003 -6.79129,6.610033 -1.92438,2.6889 -3.23484,5.88226 -6.02697,7.85316 -5.69509,4.45557 -10.76871,9.618829 -15.85806,14.730279 -4.55609,4.30257 -9.75143,7.8696 -14.56173,11.88394 -3.46964,3.22174 -5.90839,7.39244 -9.63836,10.36721 -2.15918,2.12683 -5.1418,3.97305 -5.4962,7.26711 -1.62706,6.52781 -3.76636,12.88789 -6.46626,19.05667 -1.22913,2.95515 -3.39216,5.46204 -6.29221,6.8618 -3.07376,1.87561 -7.31315,3.3051 -8.14491,7.29131 -1.50047,5.85661 1.59999,11.56251 4.12208,16.65533 -0.0185,10.40375 -0.97309,20.80233 -0.22643,31.20971 0.0624,3.63531 0.37245,7.35741 0.0976,10.95522 -2.6223,5.26246 -5.84977,11.38998 -3.66096,17.36928 1.86201,4.11841 6.76303,5.20009 10.12338,7.72492 2.43367,1.74784 3.57063,4.74896 4.9629,7.30331 2.27201,6.05139 4.38018,12.28901 5.8416,18.63354 1.6075,3.56792 5.36871,5.43272 7.82295,8.34733 3.40418,3.61046 6.11869,7.95265 10.42112,10.62742 6.04506,4.3802 11.65424,9.38341 16.79705,14.80614 3.70897,3.73727 8.03481,7.11563 11.83389,10.56741 3.47212,3.90359 5.36513,9.29571 9.82185,12.29557 2.13172,1.26078 4.83957,0.32439 6.88556,1.84211 4.97801,2.61496 10.39967,5.76309 16.25328,4.56831 3.26408,-0.20121 6.25249,-1.96117 9.51237,-1.9589 4.71219,0.77825 9.34549,2.54633 13.14026,5.50313 2.07712,2.39901 2.97911,5.58526 4.6198,8.28278 2.75778,4.8199 1.55757,10.51724 2.33792,15.80279 0.45561,6.06925 2.33356,11.93253 4.90582,17.40143 1.16665,3.25512 2.5777,7.49337 -0.0536,10.42377 -1.98802,2.07631 -3.96954,4.79376 -7.01699,5.15659 -6.26633,-0.16879 -11.51352,-4.17771 -17.57986,-5.29567 -6.37298,-1.87535 -13.12176,-0.89338 -19.55766,-2.21037 -3.67278,-1.39961 -7.13667,-3.34144 -10.55428,-5.25064 -3.44338,-3.11029 -4.79498,-7.78766 -6.03094,-12.09038 -0.92889,-4.00103 1.60894,-7.68902 1.74356,-11.64809 0.79486,-4.74525 -1.18322,-9.38469 -3.38159,-13.47262 -1.66059,-2.31307 -2.37966,-5.07216 -2.58835,-7.86791 -0.49071,-2.96122 -3.60335,-4.39086 -5.66559,-6.1683 -3.12312,-2.29465 -6.86787,-3.85981 -9.13418,-7.16168 -2.5585,-3.56994 -5.81869,-6.53676 -8.64914,-9.88068 -2.61948,-2.52561 -5.46379,-4.82808 -7.63085,-7.78988 -3.83887,-3.97967 -6.71548,-8.65777 -10.31091,-12.82794 -3.20016,-3.10918 -7.22314,-5.38869 -9.93301,-8.96404 -2.09854,-2.69263 -4.68179,-5.40785 -8.27152,-5.8115 -6.17938,-1.6767 -12.35489,-3.72789 -18.16242,-6.23929 -3.30721,-1.44298 -5.95862,-4.08661 -7.39654,-7.398 -1.41657,-3.05918 -3.3761,-6.5909 -7.08588,-7.07038 -2.79614,-0.91463 -5.73735,-0.42748 -8.39794,0.68315 -3.01048,0.84258 -5.60762,2.77012 -8.60915,3.55215 -7.25241,0.10568 -14.50982,-0.89058 -21.80908,-0.64065 -6.35528,-0.15774 -12.68975,0.92352 -19.01219,0.59107 -4.31862,-1.7608 -8.4697,-4.60957 -13.3335,-4.52392 -3.44788,-0.21835 -7.10158,1.26669 -8.70185,4.47661 -1.89075,3.28241 -3.22758,7.24003 -6.81523,9.07747 -5.22088,3.22928 -11.31321,4.61443 -17.06545,6.59049 -3.14577,1.0941 -6.99308,1.12613 -9.1415,4.06596 -3.01439,3.46498 -6.14222,6.85789 -9.92825,9.50413 -4.91661,3.8637 -7.65868,9.68201 -11.98116,14.1157 -5.90282,6.7294 -12.74422,12.61387 -18.13477,19.79446 -2.78632,3.12569 -6.89593,4.54909 -9.9668,7.35741 -1.95478,1.46455 -4.07424,3.34521 -3.87824,6.04016 -0.20371,4.27491 -3.57213,7.43492 -4.68979,11.44401 -2.19079,4.80452 -1.22121,10.23525 0.37049,15.05541 1.35686,4.42279 -0.80003,9.01991 -2.63216,13.01831 -1.542687,3.54318 -5.014257,5.51087 -8.371837,7.02099 -2.71408,1.4171 -5.48774,2.94511 -8.6477,2.85958 -8.22068,0.49298 -16.88018,0.78796 -24.47945,4.52778 -3.16617,1.28673 -6.57087,2.86056 -10.06009,2.44135 -3.14954,-1.18258 -5.57993,-3.87496 -7.34645,-6.6602 -1.23853,-2.27116 -0.0764,-4.94983 0.44835,-7.27927 2.5029,-6.20457 5.19237,-12.56387 5.52094,-19.37293 0.60646,-4.09144 -0.0739,-8.34327 1.02663,-12.35028 1.66665,-3.79571 3.32182,-7.62243 5.61998,-11.10543 3.66352,-2.92702 8.18175,-4.87702 12.81311,-5.58809 3.98479,-0.37193 7.55673,2.0503 11.53464,1.99095 6.02612,0.57043 11.16482,-3.07778 16.40284,-5.4188 2.05348,-0.58374 4.544957,-0.0967 6.196227,-1.8131 3.55348,-3.05624 5.64204,-7.32537 8.3224,-11.06822 3.32603,-3.29574 7.22441,-5.97163 10.52164,-9.31304 1.88224,-1.47453 3.47526,-3.20679 5.04716,-5.00213 5.29255,-5.27795 11.24588,-9.77915 17.13012,-14.33039 3.69715,-3.69366 6.48891,-8.24252 10.68481,-11.46055 1.96099,-1.80407 4.26612,-3.66556 4.50494,-6.53164 1.50134,-6.45527 3.84193,-12.97401 6.58342,-19.11396 1.32463,-3.00225 3.64271,-5.48891 6.63511,-6.87108 3.23403,-1.72081 7.43079,-3.66043 7.81155,-7.82011 0.80087,-4.67798 -1.01859,-9.19292 -3.06529,-13.29343 -2.44415,-4.23051 -1.06717,-9.20374 -0.98669,-13.7704 0.41463,-9.38442 0.22791,-18.80099 -0.52779,-28.15849 0.19925,-3.88094 2.96072,-6.9899 3.95003,-10.66863 0.95213,-2.92419 1.12573,-6.23965 0.21024,-9.18656 -1.47487,-4.09017 -6.19167,-5.23763 -9.48782,-7.41366 -3.50141,-2.21969 -4.9492,-6.44112 -6.50685,-10.08227 -1.78108,-5.30939 -3.90263,-10.63058 -5.02442,-16.17667 -0.94282,-2.72075 -3.60539,-4.36472 -5.553,-6.34099 -4.65871,-3.94452 -7.49503,-9.72744 -12.80941,-12.95961 -6.43944,-4.58491 -12.15011,-9.919 -17.58788,-15.64918 -3.67374,-3.742869 -8.10124,-6.667149 -11.69304,-10.481459 -2.9944,-3.95911 -5.10206,-8.98622 -9.4679,-11.686837 -2.117977,-0.929933 -4.638377,-0.185804 -6.614597,-1.616457 -4.89571,-2.842436 -10.42227,-5.630784 -16.27059,-4.544437 -3.89249,0.258566 -7.57451,2.76481 -11.53978,1.512152 -4.00728,-1.147068 -8.27294,-2.523975 -11.28614,-5.526508 -2.33898,-3.605623 -4.41893,-7.470773 -5.7431,-11.572263 -0.81458,-3.930079 -0.27504,-8.006119 -0.88179,-11.974947 -0.41659,-6.478097 -2.70603,-12.621626 -5.30418,-18.501214 -0.96736,-3.041508 -2.05009,-7.041486 0.51865,-9.608133 2.18903,-2.520741 5.04266,-5.681777 8.77142,-4.807753 5.22549,0.794315 9.74673,3.842746 14.90392,4.936542 6.65951,2.114272 13.78431,1.108821 20.56297,2.447524 3.64046,1.405253 7.05574,3.374188 10.4591,5.246079 3.374587,3.304134 4.863807,7.985742 6.040057,12.424384 0.71338,3.676296 -1.56836,7.062055 -1.73306,10.700702 -1.1453,5.938565 1.82412,11.575985 4.6822,16.562131 1.63924,2.553829 0.22917,6.260142 2.84013,8.29183 3.10327,2.91741 6.83036,5.016931 10.30862,7.412566 3.17913,2.837859 5.36474,6.590219 8.44633,9.538559 4.46573,4.8481 9.51452,9.14203 13.53374,14.399949 3.59153,4.10836 6.09242,9.23566 10.73838,12.34174 3.77691,2.65714 6.6243,6.3125 9.80648,9.59216 2.66592,2.57021 6.63014,2.41207 9.88285,3.76812 6.15906,2.16216 12.99082,3.45294 17.98281,7.94835 2.86473,3.02286 3.55883,7.58305 6.93093,10.18665 4.52988,2.81326 10.22106,1.41716 14.69512,-0.77936 2.43368,-0.91719 4.5796,-3.03 7.33544,-2.35608 9.44651,0.5886 18.96142,1.08887 28.44239,0.44657 4.42788,-0.002 9.36632,-1.59678 13.36754,1.06397 4.71144,2.58257 10.75931,4.60413 15.87494,1.94808 4.63768,-2.72087 4.70606,-9.39559 9.45366,-11.99576 4.70283,-3.33702 10.4179,-4.48152 15.77192,-6.38113 3.15353,-1.28525 6.88755,-1.28715 9.66791,-3.38602 3.35209,-3.32556 6.19918,-7.18684 10.13527,-9.89471 5.15346,-3.6638 8.07994,-9.48657 12.20705,-14.08969 4.76705,-5.849309 10.74688,-10.556429 15.47754,-16.444579 2.42779,-2.84586 4.49612,-6.210531 8.05938,-7.789457 3.0785,-2.019405 6.38691,-4.016854 8.65115,-6.970832 1.11222,-2.09086 0.19943,-4.682218 1.59251,-6.713773 2.61061,-4.942266 5.8444,-10.285237 4.81176,-16.1167 -0.18616,-4.136507 -2.90507,-8.088482 -1.56972,-12.259089 1.29453,-4.301462 2.70283,-9.133018 6.49649,-11.884468 3.24709,-1.73243 6.48333,-3.599445 9.9354,-4.875169 8.06285,-1.012582 16.55857,-0.597885 24.36703,-3.515286 4.11963,-1.482603 8.02185,-3.880789 12.52252,-3.975367 z M 122.2546,314.36025 c -0.0232,0.0108 0.0413,-0.0215 0,0 z"
     id="path4351"
     inkscape:connector-curvature="0" />
</svg>
