<?xml version="1.0" encoding="UTF-8" standalone="no"?>
<svg
   xmlns:dc="http://purl.org/dc/elements/1.1/"
   xmlns:cc="http://creativecommons.org/ns#"
   xmlns:rdf="http://www.w3.org/1999/02/22-rdf-syntax-ns#"
   xmlns:svg="http://www.w3.org/2000/svg"
   xmlns="http://www.w3.org/2000/svg"
   xmlns:xlink="http://www.w3.org/1999/xlink"
   xmlns:sodipodi="http://sodipodi.sourceforge.net/DTD/sodipodi-0.dtd"
   xmlns:inkscape="http://www.inkscape.org/namespaces/inkscape"
   width="444.26962"
   height="442.76181"
   viewBox="0 0 444.26962 442.76181"
   id="svg2"
   version="1.1"
   inkscape:version="0.91 r13725"
   sodipodi:docname="step68conf_prop.svg">
  <metadata
     id="metadata200">
    <rdf:RDF>
      <cc:Work
         rdf:about="">
        <dc:format>image/svg+xml</dc:format>
        <dc:type
           rdf:resource="http://purl.org/dc/dcmitype/StillImage" />
        <dc:title>Gnuplot</dc:title>
      </cc:Work>
    </rdf:RDF>
  </metadata>
  <defs
     id="defs198" />
  <sodipodi:namedview
     pagecolor="#ffffff"
     bordercolor="#666666"
     borderopacity="1"
     objecttolerance="10"
     gridtolerance="10"
     guidetolerance="10"
     inkscape:pageopacity="0"
     inkscape:pageshadow="2"
     inkscape:window-width="1920"
     inkscape:window-height="1867"
     id="namedview196"
     showgrid="false"
     fit-margin-top="0"
     fit-margin-left="0"
     fit-margin-right="0"
     fit-margin-bottom="0"
     inkscape:zoom="1.2115096"
     inkscape:cx="189.14669"
     inkscape:cy="225.00172"
     inkscape:window-x="0"
     inkscape:window-y="0"
     inkscape:window-maximized="1"
     inkscape:current-layer="gnuplot_canvas" />
  <title
     id="title4">Gnuplot</title>
  <desc
     id="desc6">Produced by GNUPLOT 5.0 patchlevel 3 </desc>
  <g
     id="gnuplot_canvas"
     transform="translate(-83.023437,-18.404199)">
    <rect
       x="0"
       y="0"
       width="600"
       height="480"
       id="rect9"
       style="fill:none" />
    <defs
       id="defs11">
      <circle
         id="gpDot"
         r="0.5"
         cx="0"
         cy="0"
         style="stroke-width:0.5" />
      <path
         id="gpPt0"
         d="M -1,0 1,0 M 0,-1 0,1"
         inkscape:connector-curvature="0"
         style="stroke:currentColor;stroke-width:0.15700001" />
      <path
         id="gpPt1"
         d="M -1,-1 1,1 M 1,-1 -1,1"
         inkscape:connector-curvature="0"
         style="stroke:currentColor;stroke-width:0.15700001" />
      <path
         id="gpPt2"
         d="M -1,0 1,0 M 0,-1 0,1 m -1,-2 2,2 m -2,0 2,-2"
         inkscape:connector-curvature="0"
         style="stroke:currentColor;stroke-width:0.15700001" />
      <rect
         id="gpPt3"
         x="-1"
         y="-1"
         width="2"
         height="2"
         style="stroke:currentColor;stroke-width:0.15700001" />
      <rect
         id="gpPt4"
         x="-1"
         y="-1"
         width="2"
         height="2"
         style="fill:currentColor;stroke:currentColor;stroke-width:0.15700001" />
      <circle
         id="gpPt5"
         cx="0"
         cy="0"
         r="1"
         style="stroke:currentColor;stroke-width:0.15700001" />
      <use
         xlink:href="#gpPt5"
         id="gpPt6"
         style="fill:currentColor;stroke:none"
         x="0"
         y="0"
         width="100%"
         height="100%" />
      <path
         id="gpPt7"
         d="m 0,-1.33 -1.33,2 2.66,0 z"
         inkscape:connector-curvature="0"
         style="stroke:currentColor;stroke-width:0.15700001" />
      <use
         xlink:href="#gpPt7"
         id="gpPt8"
         style="fill:currentColor;stroke:none"
         x="0"
         y="0"
         width="100%"
         height="100%" />
      <use
         xlink:href="#gpPt7"
         id="gpPt9"
         transform="scale(-1,-1)"
         style="stroke:currentColor"
         x="0"
         y="0"
         width="100%"
         height="100%" />
      <use
         xlink:href="#gpPt9"
         id="gpPt10"
         style="fill:currentColor;stroke:none"
         x="0"
         y="0"
         width="100%"
         height="100%" />
      <use
         xlink:href="#gpPt3"
         id="gpPt11"
         transform="matrix(0.70710678,0.70710678,-0.70710678,0.70710678,0,0)"
         style="stroke:currentColor"
         x="0"
         y="0"
         width="100%"
         height="100%" />
      <use
         xlink:href="#gpPt11"
         id="gpPt12"
         style="fill:currentColor;stroke:none"
         x="0"
         y="0"
         width="100%"
         height="100%" />
      <path
         id="gpPt13"
         d="M 0,1.33 1.265,0.411 0.782,-1.067 -0.782,-1.076 -1.265,0.411 Z"
         inkscape:connector-curvature="0"
         style="stroke:currentColor;stroke-width:0.15700001" />
      <use
         xlink:href="#gpPt13"
         id="gpPt14"
         style="fill:currentColor;stroke:none"
         x="0"
         y="0"
         width="100%"
         height="100%" />
      <filter
         id="textbox"
         filterUnits="objectBoundingBox"
         x="0"
         y="0"
         height="1"
         width="1">
        <feFlood
           flood-color="white"
           flood-opacity="1"
           result="bgnd"
           id="feFlood30" />
        <feComposite
           in="SourceGraphic"
           in2="bgnd"
           operator="atop"
           id="feComposite32" />
      </filter>
      <filter
         id="greybox"
         filterUnits="objectBoundingBox"
         x="0"
         y="0"
         height="1"
         width="1">
        <feFlood
           flood-color="lightgrey"
           flood-opacity="1"
           result="grey"
           id="feFlood35" />
        <feComposite
           in="SourceGraphic"
           in2="grey"
           operator="atop"
           id="feComposite37" />
      </filter>
    </defs>
    <g
       id="g39"
       style="color:#ffffff;fill:none;stroke:currentColor;stroke-width:1;stroke-linecap:butt;stroke-linejoin:miter" />
    <g
       id="g41"
       style="color:#000000;fill:none;stroke:currentColor;stroke-width:1;stroke-linecap:butt;stroke-linejoin:miter">
      <path
         d="m 117.8,429.2 12.7,0 m 392.9,0 -12.7,0"
         id="path43"
         inkscape:connector-curvature="0"
         style="stroke:#000000" />
      <g
         transform="translate(106,435.6)"
         font-size="17.00"
         id="g45"
         style="font-size:17px;font-family:Arial;text-anchor:end;fill:#000000;stroke:none">
        <text
           id="text47">
          <tspan
             id="tspan49"
             style="font-family:Arial">0</tspan>
        </text>
      </g>
    </g>
    <g
       id="g51"
       style="color:#000000;fill:none;stroke:currentColor;stroke-width:1;stroke-linecap:butt;stroke-linejoin:miter">
      <path
         d="m 117.8,348.1 12.7,0 m 392.9,0 -12.7,0"
         id="path53"
         inkscape:connector-curvature="0"
         style="stroke:#000000" />
      <g
         transform="translate(106,354.5)"
         font-size="17.00"
         id="g55"
         style="font-size:17px;font-family:Arial;text-anchor:end;fill:#000000;stroke:none">
        <text
           id="text57">
          <tspan
             id="tspan59"
             style="font-family:Arial">0.2</tspan>
        </text>
      </g>
    </g>
    <g
       id="g61"
       style="color:#000000;fill:none;stroke:currentColor;stroke-width:1;stroke-linecap:butt;stroke-linejoin:miter">
      <path
         d="m 117.8,267 12.7,0 m 392.9,0 -12.7,0"
         id="path63"
         inkscape:connector-curvature="0"
         style="stroke:#000000" />
      <g
         transform="translate(106,273.4)"
         font-size="17.00"
         id="g65"
         style="font-size:17px;font-family:Arial;text-anchor:end;fill:#000000;stroke:none">
        <text
           id="text67">
          <tspan
             id="tspan69"
             style="font-family:Arial">0.4</tspan>
        </text>
      </g>
    </g>
    <g
       id="g71"
       style="color:#000000;fill:none;stroke:currentColor;stroke-width:1;stroke-linecap:butt;stroke-linejoin:miter">
      <path
         d="m 117.8,185.9 12.7,0 m 392.9,0 -12.7,0"
         id="path73"
         inkscape:connector-curvature="0"
         style="stroke:#000000" />
      <g
         transform="translate(106,192.3)"
         font-size="17.00"
         id="g75"
         style="font-size:17px;font-family:Arial;text-anchor:end;fill:#000000;stroke:none">
        <text
           id="text77">
          <tspan
             id="tspan79"
             style="font-family:Arial">0.6</tspan>
        </text>
      </g>
    </g>
    <g
       id="g81"
       style="color:#000000;fill:none;stroke:currentColor;stroke-width:1;stroke-linecap:butt;stroke-linejoin:miter">
      <path
         d="m 117.8,104.8 12.7,0 m 392.9,0 -12.7,0"
         id="path83"
         inkscape:connector-curvature="0"
         style="stroke:#000000" />
      <g
         transform="translate(106,111.2)"
         font-size="17.00"
         id="g85"
         style="font-size:17px;font-family:Arial;text-anchor:end;fill:#000000;stroke:none">
        <text
           id="text87">
          <tspan
             id="tspan89"
             style="font-family:Arial">0.8</tspan>
        </text>
      </g>
    </g>
    <g
       id="g91"
       style="color:#000000;fill:none;stroke:currentColor;stroke-width:1;stroke-linecap:butt;stroke-linejoin:miter">
      <path
         d="m 117.8,23.7 12.7,0 m 392.9,0 -12.7,0"
         id="path93"
         inkscape:connector-curvature="0"
         style="stroke:#000000" />
      <g
         transform="translate(106,30.1)"
         font-size="17.00"
         id="g95"
         style="font-size:17px;font-family:Arial;text-anchor:end;fill:#000000;stroke:none">
        <text
           id="text97">
          <tspan
             id="tspan99"
             style="font-family:Arial">1</tspan>
        </text>
      </g>
    </g>
    <g
       id="g101"
       style="color:#000000;fill:none;stroke:currentColor;stroke-width:1;stroke-linecap:butt;stroke-linejoin:miter">
      <path
         d="m 117.8,429.2 0,-12.7 m 0,-392.8 0,12.7"
         id="path103"
         inkscape:connector-curvature="0"
         style="stroke:#000000" />
      <g
         transform="translate(117.8,461)"
         font-size="17.00"
         id="g105"
         style="font-size:17px;font-family:Arial;text-anchor:middle;fill:#000000;stroke:none">
        <text
           id="text107">
          <tspan
             id="tspan109"
             style="font-family:Arial">0</tspan>
        </text>
      </g>
    </g>
    <g
       id="g111"
       style="color:#000000;fill:none;stroke:currentColor;stroke-width:1;stroke-linecap:butt;stroke-linejoin:miter">
      <path
         d="m 198.9,429.2 0,-12.7 m 0,-392.8 0,12.7"
         id="path113"
         inkscape:connector-curvature="0"
         style="stroke:#000000" />
      <g
         transform="translate(198.9,461)"
         font-size="17.00"
         id="g115"
         style="font-size:17px;font-family:Arial;text-anchor:middle;fill:#000000;stroke:none">
        <text
           id="text117">
          <tspan
             id="tspan119"
             style="font-family:Arial">0.2</tspan>
        </text>
      </g>
    </g>
    <g
       id="g121"
       style="color:#000000;fill:none;stroke:currentColor;stroke-width:1;stroke-linecap:butt;stroke-linejoin:miter">
      <path
         d="m 280,429.2 0,-12.7 m 0,-392.8 0,12.7"
         id="path123"
         inkscape:connector-curvature="0"
         style="stroke:#000000" />
      <g
         transform="translate(280,461)"
         font-size="17.00"
         id="g125"
         style="font-size:17px;font-family:Arial;text-anchor:middle;fill:#000000;stroke:none">
        <text
           id="text127">
          <tspan
             id="tspan129"
             style="font-family:Arial">0.4</tspan>
        </text>
      </g>
    </g>
    <g
       id="g131"
       style="color:#000000;fill:none;stroke:currentColor;stroke-width:1;stroke-linecap:butt;stroke-linejoin:miter">
      <path
         d="m 361.2,429.2 0,-12.7 m 0,-392.8 0,12.7"
         id="path133"
         inkscape:connector-curvature="0"
         style="stroke:#000000" />
      <g
         transform="translate(361.2,461)"
         font-size="17.00"
         id="g135"
         style="font-size:17px;font-family:Arial;text-anchor:middle;fill:#000000;stroke:none">
        <text
           id="text137">
          <tspan
             id="tspan139"
             style="font-family:Arial">0.6</tspan>
        </text>
      </g>
    </g>
    <g
       id="g141"
       style="color:#000000;fill:none;stroke:currentColor;stroke-width:1;stroke-linecap:butt;stroke-linejoin:miter">
      <path
         d="m 442.3,429.2 0,-12.7 m 0,-392.8 0,12.7"
         id="path143"
         inkscape:connector-curvature="0"
         style="stroke:#000000" />
      <g
         transform="translate(442.3,461)"
         font-size="17.00"
         id="g145"
         style="font-size:17px;font-family:Arial;text-anchor:middle;fill:#000000;stroke:none">
        <text
           id="text147">
          <tspan
             id="tspan149"
             style="font-family:Arial">0.8</tspan>
        </text>
      </g>
    </g>
    <g
       id="g151"
       style="color:#000000;fill:none;stroke:currentColor;stroke-width:1;stroke-linecap:butt;stroke-linejoin:miter">
      <path
         d="m 523.4,429.2 0,-12.7 m 0,-392.8 0,12.7"
         id="path153"
         inkscape:connector-curvature="0"
         style="stroke:#000000" />
      <g
         transform="translate(523.4,461)"
         font-size="17.00"
         id="g155"
         style="font-size:17px;font-family:Arial;text-anchor:middle;fill:#000000;stroke:none">
        <text
           id="text157">
          <tspan
             id="tspan159"
             style="font-family:Arial">1</tspan>
        </text>
      </g>
    </g>
    <g
       id="g161"
       style="color:#000000;fill:none;stroke:currentColor;stroke-width:1;stroke-linecap:butt;stroke-linejoin:miter" />
    <g
       id="g163"
       style="color:#000000;fill:none;stroke:currentColor;stroke-width:1;stroke-linecap:butt;stroke-linejoin:miter">
      <path
         d="m 117.8,23.7 0,405.5 405.6,0 0,-405.5 -405.6,0 z"
         id="path165"
         inkscape:connector-curvature="0"
         style="stroke:#000000" />
    </g>
    <g
       id="g167"
       style="color:#000000;fill:none;stroke:currentColor;stroke-width:1;stroke-linecap:butt;stroke-linejoin:miter" />
    <g
       id="gnuplot_plot_1">
      <title
         id="title170">gnuplot_plot_1</title>
      <g
         id="g172"
         style="color:#000000;fill:none;stroke:currentColor;stroke-width:1;stroke-linecap:butt;stroke-linejoin:miter">
        <path
           d="m 131.3,421.7 -1.6,-1.1 -1.8,-1.5 -1.5,-1.8 -1.1,-1.6 m 12.8,6.5 -2.3,0.1 -2.3,0 -2.2,-0.6 m 13.5,0 -2.2,0.4 -2.2,0.1 -2.3,0 m 13.5,-4.2 -1.6,0.8 -1.8,1.1 -1.7,1 -1.7,0.8 m 13.6,-5.2 -2.3,0.4 -2.3,0.4 -2.2,0.7 m 13.5,-2.2 -2.2,0.2 -2.3,0.2 -2.2,0.3 m 12.6,-1 -2,0.2 -1.9,0 -2,0.1 m 311,0 -2,-0.1 -1.9,0 -2,-0.2 m 12.6,1 -2.2,-0.3 -2.3,-0.2 -2.2,-0.2 m 13.5,2.2 -2.2,-0.7 -2.3,-0.4 -2.3,-0.4 m 13.6,5.2 -1.7,-0.8 -1.7,-1 -1.8,-1.1 -1.6,-0.8 m 13.5,4.2 -2.3,0 -2.2,-0.1 -2.2,-0.4 m 13.5,0 -2.2,0.6 -2.3,0 -2.3,-0.1 m 12.8,-6.5 -1.1,1.6 -1.5,1.8 -1.8,1.5 -1.6,1.1 m -384.6,-6 -0.6,-2.2 0,-2.3 0.1,-2.3 m 53.8,5 -1.7,0.6 -2,0.4 -2,0.3 -1.9,0.3 m 14.7,-6.4 -1.4,1.3 -1.9,1.4 -2,1.2 -1.8,0.9 m 284,0 -1.8,-0.9 -2,-1.2 -1.9,-1.4 -1.4,-1.3 m 14.7,6.4 -1.9,-0.3 -2,-0.3 -2,-0.4 -1.7,-0.6 m 53.8,-5 0.1,2.3 0,2.3 -0.6,2.2 m -391.1,-6.8 0,-2.3 0.1,-2.2 0.4,-2.2 m 62.5,0 -0.6,2.3 -0.5,2.4 -1,2.2 m 269.8,0 -1,-2.2 -0.5,-2.4 -0.6,-2.3 m 62.5,0 0.4,2.2 0.1,2.2 0,2.3 m -391.1,-6.7 0.8,-1.7 1,-1.7 1.1,-1.7 0.8,-1.7 m 63.2,-1.3 -0.6,1.5 -1,1.7 -1,1.8 -1,1.6 -0.8,1.5 m 265.6,0 -0.8,-1.5 -1,-1.6 -1,-1.8 -1,-1.7 -0.6,-1.5 m 63.2,1.3 0.8,1.7 1.1,1.7 1,1.7 0.8,1.7 m -386.9,-6.8 0.7,-2.2 0.4,-2.3 0.4,-2.3 m 61.8,0 -0.1,2 0.3,1.6 -0.3,1.9 m 256.8,0 -0.3,-1.9 0.3,-1.6 -0.1,-2 m 61.8,0 0.4,2.3 0.4,2.3 0.7,2.2 m -381.7,-6.8 0.3,-2.2 0.2,-2.3 0.2,-2.2 m 63.4,0 -0.5,2.3 -1,2.2 -0.8,2.2 m 256.6,0 -0.8,-2.2 -1,-2.2 -0.5,-2.3 m 63.4,0 0.2,2.2 0.2,2.3 0.3,2.2 m -379.5,-6.7 0.1,-2 0,-1.9 0.2,-2 m 61.1,-0.9 0.3,2.2 1.1,2.3 0.6,2.3 m 252,0 0.6,-2.3 1.1,-2.3 0.3,-2.2 m 61.1,0.9 0.2,2 0,1.9 0.1,2 m -378.5,-5.9 0.3,-1.8 0.3,-2.1 0.4,-2 0.6,-1.7 m 66,0.1 -1.2,1.1 -1.5,1.4 -1.6,1.4 -1.4,1.4 -0.8,1.3 m 256,0 -0.8,-1.3 -1.4,-1.4 -1.6,-1.4 -1.5,-1.4 -1.2,-1.1 m 66,-0.1 0.6,1.7 0.4,2 0.3,2.1 0.3,1.8 m -376.6,-7.6 0.9,-1.8 1.2,-2 1.4,-1.9 1.3,-1.4 m 67,-0.5 -0.9,1.3 -1.3,1.7 -1.3,1.8 -1.2,1.6 -1.1,1.3 m 243,0 -1.1,-1.3 -1.2,-1.6 -1.3,-1.8 -1.3,-1.7 -0.9,-1.3 m 67,0.5 1.3,1.4 1.4,1.9 1.2,2 0.9,1.8 m -370.2,-7.1 2.2,-1 2.4,-0.5 2.3,-0.6 1.5,-0.7 1.6,-1 1.8,-1.1 1.7,-1 1.5,-0.6 m 55.3,0.1 -1.1,1.9 -1.1,2 -1.1,2 m 231.4,0 -1.1,-2 -1.1,-2 -1.1,-1.9 m 55.3,-0.1 1.5,0.6 1.7,1 1.8,1.1 1.6,1 1.5,0.7 2.3,0.6 2.4,0.5 2.2,1 m -350.4,-6.5 1.9,-0.2 1.6,0.2 2,0 2.2,-0.8 2.3,-1.1 2.2,-0.5 2.3,0.6 2.3,1.2 2.2,0.2 1.3,-0.8 1.4,-1.4 1.5,-1.6 1.3,-1.5 1.1,-1.2 m 34.1,0.6 -1.1,1.5 -1.2,1.6 -1.1,1.7 -1,1.6 m 224.8,0 -1,-1.6 -1.1,-1.7 -1.2,-1.6 -1.1,-1.5 m 34.1,-0.6 1.1,1.2 1.3,1.5 1.5,1.6 1.4,1.4 1.3,0.8 2.2,-0.2 2.3,-1.2 2.3,-0.6 2.2,0.5 2.3,1.1 2.2,0.8 2,0 1.6,-0.2 1.9,0.2 m -309.8,-6.9 1.3,-1 1.6,-1.3 1.8,-1.3 1.7,-1.2 1.3,-1 m 32.5,-1.2 -1.1,1.3 -1.3,1.6 -1.4,1.7 -1.3,1.7 -1,1.3 m 216,0 -1,-1.3 -1.3,-1.7 -1.4,-1.7 -1.3,-1.6 -1.1,-1.3 m 32.5,1.2 1.3,1 1.7,1.2 1.8,1.3 1.6,1.3 1.3,1 m -276.5,-5.8 2,-1.1 2,-1.1 2,-1.1 1.5,-1 1.7,-1.1 1.6,-1.2 1.5,-1 m 26.5,-0.8 -1.1,1.2 -1.3,1.6 -1.5,1.6 -1.4,1.5 -1,1.3 m 203.8,0 -1,-1.3 -1.4,-1.5 -1.5,-1.6 -1.3,-1.6 -1.1,-1.2 m 26.5,0.8 1.5,1 1.6,1.2 1.7,1.1 1.5,1 2,1.1 2,1.1 2,1.1 m -256.5,-7.6 1.3,-1.1 1.7,-1.3 1.7,-1.4 1.7,-1.3 1.2,-1 m 25.5,-1.9 -1.2,1.2 -1.4,1.6 -1.5,1.6 -1.4,1.6 -1.1,1.2 m 191.2,0 -1.1,-1.2 -1.4,-1.6 -1.5,-1.6 -1.4,-1.6 -1.2,-1.2 m 25.5,1.9 1.2,1 1.7,1.3 1.7,1.4 1.7,1.3 1.3,1.1 m -236.6,-6.1 1.3,-1.1 1.5,-1.4 1.7,-1.4 1.5,-1.4 1.2,-1.1 m 25.3,-1.6 -1.2,1 -1.6,1.3 -1.6,1.4 -1.4,1.3 -1.2,1.1 m 178,0 -1.2,-1.1 -1.4,-1.3 -1.6,-1.4 -1.6,-1.3 -1.2,-1 m 25.3,1.6 1.2,1.1 1.5,1.4 1.7,1.4 1.5,1.4 1.3,1.1 m -221.8,-6.4 1.3,-1.1 1.5,-1.4 1.7,-1.5 1.5,-1.4 1.2,-1.2 m 26.1,-0.9 -1.4,0.9 -1.7,1.3 -1.9,1.4 -1.7,1.2 -1.3,1.1 m 164,0 -1.3,-1.1 -1.7,-1.2 -1.9,-1.4 -1.7,-1.3 -1.4,-0.9 m 26.1,0.9 1.2,1.2 1.5,1.4 1.7,1.5 1.5,1.4 1.3,1.1 m -207.4,-6.6 1.1,-1.1 1.3,-1.5 1.4,-1.6 1.3,-1.5 1.1,-1.3 m 26.3,1.8 -1.6,0.9 -1.7,1.2 -1.6,1.1 -1.5,1.1 m 12.4,-7.4 -2,1 -2,1 -2,1.1 m 135.2,0 -2,-1.1 -2,-1 -2,-1 m 12.4,7.4 -1.5,-1.1 -1.6,-1.1 -1.7,-1.2 -1.6,-0.9 m 26.3,-1.8 1.1,1.3 1.3,1.5 1.4,1.6 1.3,1.5 1.1,1.1 m -194,-7 1,-1.3 1.3,-1.7 1.3,-1.8 1.3,-1.8 1,-1.3 m 33.9,2.2 -1.7,1 -2.1,1.2 -2,1.2 -1.7,1 m 13.5,-6.8 -2,0.8 -2,0.8 -2,0.8 m 108.2,0 -2,-0.8 -2,-0.8 -2,-0.8 m 13.5,6.8 -1.7,-1 -2,-1.2 -2.1,-1.2 -1.7,-1 m 33.9,-2.2 1,1.3 1.3,1.8 1.3,1.8 1.3,1.7 1,1.3 m -181.9,-7.9 1,-1.5 1.2,-1.7 1.1,-1.7 1,-1.6 m 43.1,3.4 -1.7,0.7 -2,0.7 -2,0.8 -1.8,0.7 m 14.9,-5.8 -1.7,0.8 -1.9,0.7 -2,0.7 -1.8,0.7 m 81.2,0 -1.8,-0.7 -2,-0.7 -1.9,-0.7 -1.7,-0.8 m 14.9,5.8 -1.8,-0.7 -2,-0.8 -2,-0.7 -1.7,-0.7 m 43.1,-3.4 1,1.6 1.1,1.7 1.2,1.7 1,1.5 m -171.7,-6.5 1,-1.9 1,-2 1,-2 m 53.7,2.6 -2.2,0.9 -2,1.6 -2,1.3 m 12.9,-2.4 -2.2,-0.6 -2.3,-0.7 -2.2,-0.1 m 13.5,1 -2.3,0.2 -2.2,0.2 -2.3,0"
           id="path174"
           inkscape:connector-curvature="0"
           style="stroke:#808080" />
        <path
           d="m 313.8,291.2 -2.2,0.1 -2.3,0.2 -2.2,0.2 m 13.5,-0.7 -2.3,0 -2.2,0.1 -2.3,0.1 m 13.6,0 -2.3,-0.1 -2.2,-0.1 -2.3,0 m 13.5,0.7 -2.2,-0.2 -2.3,-0.2 -2.2,-0.1 m 13.5,0.9 -2.3,0 -2.2,-0.2 -2.3,-0.2 m 13.5,-1 -2.2,0.1 -2.3,0.7 -2.2,0.6 m 12.9,2.4 -2,-1.3 -2,-1.6 -2.2,-0.9 m 53.7,-2.6 1,2 1,2 1,1.9 m -164.4,-5.9 1,-1.8 1.2,-2 1.2,-2 1,-1.8 m 152.6,0 1,1.8 1.2,2 1.2,2 1,1.8 m -157,-7.6 0.9,-2 0.7,-1.9 0.8,-2.1 m 147.8,0 0.8,2.1 0.7,1.9 0.9,2 m -150.2,-6 0.7,-1.7 0.8,-2 0.8,-2 0.7,-1.8 m 141.8,0 0.7,1.8 0.8,2 0.8,2 0.7,1.7 m -144.8,-7.5 0.6,-1.8 0.7,-1.9 0.8,-2 0.7,-1.7 m 136.2,0 0.7,1.7 0.8,2 0.7,1.9 0.6,1.8 m -139,-7.4 1.4,-2 1.5,-2 1,-2.1 m 128.4,0 1,2.1 1.5,2 1.4,2 m -132.3,-6.1 -0.2,-2.3 -0.7,-2.2 -0.5,-2.3 m 131.2,0 -0.5,2.3 -0.7,2.2 -0.2,2.3 m -129.8,-6.8 0,-2.2 0.1,-2.3 0.2,-2.2 m 130.6,0 0.2,2.2 0.1,2.3 0,2.2 m -130.9,-6.7 0.2,-2.3 0.2,-2.2 0.1,-2.3 m 129.6,0 0.1,2.3 0.2,2.2 0.2,2.3 m -130.1,-6.8 0.1,-2.2 0.1,-2.3 0,-2.3 m 129.2,0 0,2.3 0.1,2.3 0.1,2.2 m -129.4,-6.8 0,-2.2 -0.1,-2.3 -0.1,-2.2 m 129.6,0 -0.1,2.2 -0.1,2.3 0,2.2 m -129.4,-6.7 -0.1,-2.3 -0.2,-2.2 -0.2,-2.3 m 130.6,0 -0.2,2.3 -0.2,2.2 -0.1,2.3 m -130.1,-6.8 -0.2,-2.2 -0.1,-2.3 0,-2.2 m 131.2,0 0,2.2 -0.1,2.3 -0.2,2.2 m -130.9,-6.7 0.5,-2.3 0.7,-2.2 0.2,-2.3 m 128.4,0 0.2,2.3 0.7,2.2 0.5,2.3 m -129.8,-6.8 -1,-2.1 -1.5,-2 -1.4,-2 m 136.2,0 -1.4,2 -1.5,2 -1,2.1 m -132.3,-6.1 -0.7,-1.7 -0.8,-2 -0.7,-1.9 -0.6,-1.8 m 141.8,0 -0.6,1.8 -0.7,1.9 -0.8,2 -0.7,1.7 m -139,-7.4 -0.7,-1.8 -0.8,-2 -0.8,-2 -0.7,-1.7 m 147.8,0 -0.7,1.7 -0.8,2 -0.8,2 -0.7,1.8 m -144.8,-7.5 -0.8,-2.1 -0.7,-1.9 -0.9,-2 m 152.6,0 -0.9,2 -0.7,1.9 -0.8,2.1 m -150.2,-6 -1,-1.8 -1.2,-2 -1.2,-2 -1,-1.8 m 161.4,0 -1,1.8 -1.2,2 -1.2,2 -1,1.8 m -157,-7.6 -1,-2 -1,-2 -1,-1.9 m 50.5,-0.5 2,1.3 2,1.6 2.2,0.9 2.2,-0.1 2.3,-0.7 2.2,-0.6 2.3,0 2.2,0.2 2.3,0.2 2.2,0.2 2.3,0.2 2.2,0.1 2.3,0.1 2.2,0.1 2.3,0 2.3,0 2.2,-0.1 2.3,-0.1 2.2,-0.1 2.3,-0.2 2.2,-0.2 2.3,-0.2 2.2,-0.2 2.3,0 2.2,0.6 2.3,0.7 2.2,0.1 2.2,-0.9 2,-1.6 2,-1.3 m 50.5,0.5 -1,1.9 -1,2 -1,2 m -164.4,-5.9 -1,-1.6 -1.1,-1.7 -1.2,-1.7 -1,-1.5 m 39.9,0.2 1.8,0.7 2,0.8 2,0.7 1.7,0.7 1.8,0.7 2,0.7 1.9,0.7 1.7,0.8 m 66.4,0 1.7,-0.8 1.9,-0.7 2,-0.7 1.8,-0.7 1.7,-0.7 2,-0.7 2,-0.8 1.8,-0.7 m 39.9,-0.2 -1,1.5 -1.2,1.7 -1.1,1.7 -1,1.6 m -171.7,-6.5 -1,-1.3 -1.3,-1.8 -1.3,-1.8 -1.3,-1.7 -1,-1.3 m 32.3,1.3 1.7,1 2,1.2 2.1,1.2 1.7,1 2,0.8 2,0.8 2,0.8 m 96.2,0 2,-0.8 2,-0.8 2,-0.8 1.7,-1 2.1,-1.2 2,-1.2 1.7,-1 m 32.3,-1.3 -1,1.3 -1.3,1.7 -1.3,1.8 -1.3,1.8 -1,1.3 m -181.9,-7.9 -1.1,-1.3 -1.3,-1.5 -1.4,-1.6 -1.3,-1.5 -1.1,-1.1 m 26.1,0.9 1.5,1.1 1.6,1.1 1.7,1.2 1.6,0.9 2,1.1 2,1 2,1 m 123.2,0 2,-1 2,-1 2,-1.1 1.6,-0.9 1.7,-1.2 1.6,-1.1 1.5,-1.1 m 26.1,-0.9 -1.1,1.1 -1.3,1.5 -1.4,1.6 -1.3,1.5 -1.1,1.3 m -194,-7 -1.2,-1.2 -1.5,-1.4 -1.7,-1.5 -1.5,-1.4 -1.3,-1.1 m 25.3,1.6 1.3,1.1 1.7,1.2 1.9,1.4 1.7,1.3 1.4,0.9 m 148,0 1.4,-0.9 1.7,-1.3 1.9,-1.4 1.7,-1.2 1.3,-1.1 m 25.3,-1.6 -1.3,1.1 -1.5,1.4 -1.7,1.5 -1.5,1.4 -1.2,1.2 m -207.4,-6.6 -1.2,-1.1 -1.5,-1.4 -1.7,-1.4 -1.5,-1.4 -1.3,-1.1 m 25.5,1.9 1.2,1.1 1.4,1.3 1.6,1.4 1.6,1.3 1.2,1 m 164,0 1.2,-1 1.6,-1.3 1.6,-1.4 1.4,-1.3 1.2,-1.1 m 25.5,-1.9 -1.3,1.1 -1.5,1.4 -1.7,1.4 -1.5,1.4 -1.2,1.1 m -221.8,-6.4 -1.2,-1 -1.7,-1.3 -1.7,-1.4 -1.7,-1.3 -1.3,-1.1 m 26.5,0.8 1.1,1.2 1.4,1.6 1.5,1.6 1.4,1.6 1.2,1.2 m 178,0 1.2,-1.2 1.4,-1.6 1.5,-1.6 1.4,-1.6 1.1,-1.2 m 26.5,-0.8 -1.3,1.1 -1.7,1.3 -1.7,1.4 -1.7,1.3 -1.2,1 m -242.9,-10.4 -2,-1.1 -2,-1.1 -2,-1.1 m 12.3,7.6 -1.5,-1 -1.6,-1.2 -1.7,-1.1 -1.5,-1 m 26.5,-2.1 1,1.3 1.4,1.5 1.5,1.6 1.3,1.6 1.1,1.2 m 191.2,0 1.1,-1.2 1.3,-1.6 1.5,-1.6 1.4,-1.5 1,-1.3 m 26.5,2.1 -1.5,1 -1.7,1.1 -1.6,1.2 -1.5,1 m 12.3,-7.6 -2,1.1 -2,1.1 -2,1.1 m -262.8,-3.3 -1.3,-1 -1.7,-1.2 -1.8,-1.3 -1.6,-1.3 -1.3,-1 m 34.1,-0.6 1,1.3 1.3,1.7 1.4,1.7 1.3,1.6 1.1,1.3 m 203.8,0 1.1,-1.3 1.3,-1.6 1.4,-1.7 1.3,-1.7 1,-1.3 m 34.1,0.6 -1.3,1 -1.6,1.3 -1.8,1.3 -1.7,1.2 -1.3,1 m -296.6,-12.7 -2,0 -1.6,0.2 -1.9,-0.2 m 12.2,2.4 -2.2,-0.5 -2.3,-1.1 -2.2,-0.8 m 13.5,0.4 -2.2,0.2 -2.3,1.2 -2.3,0.6 m 13.4,4.5 -1.1,-1.2 -1.3,-1.5 -1.5,-1.6 -1.4,-1.4 -1.3,-0.8 m 36.3,-0.5 1,1.6 1.1,1.7 1.2,1.6 1.1,1.5 m 216,0 1.1,-1.5 1.2,-1.6 1.1,-1.7 1,-1.6 m 36.3,0.5 -1.3,0.8 -1.4,1.4 -1.5,1.6 -1.3,1.5 -1.1,1.2 m 13.4,-4.5 -2.3,-0.6 -2.3,-1.2 -2.2,-0.2 m 13.5,-0.4 -2.2,0.8 -2.3,1.1 -2.2,0.5 m 12.2,-2.4 -1.9,0.2 -1.6,-0.2 -2,0 m -338,-4.4 -2.3,-0.6 -2.4,-0.5 -2.2,-1 m 15,6.5 -1.5,-0.6 -1.7,-1 -1.8,-1.1 -1.6,-1 -1.5,-0.7 m 60.1,-1.6 1.1,2 1.1,2 1.1,1.9 m 224.8,0 1.1,-1.9 1.1,-2 1.1,-2 m 60.1,1.6 -1.5,0.7 -1.6,1 -1.8,1.1 -1.7,1 -1.5,0.6 m 15,-6.5 -2.2,1 -2.4,0.5 -2.3,0.6 m -358.5,-2.1 -1.3,-1.4 -1.4,-1.9 -1.2,-2 -0.9,-1.8"
           id="path176"
           inkscape:connector-curvature="0"
           style="stroke:#808080" />
        <path
           d="m 199.1,84.4 1.1,1.3 1.2,1.6 1.3,1.8 1.3,1.7 0.9,1.3 m 231.4,0 0.9,-1.3 1.3,-1.7 1.3,-1.8 1.2,-1.6 1.1,-1.3 m 66,0.1 -0.9,1.8 -1.2,2 -1.4,1.9 -1.3,1.4 m -370.2,-7.1 -0.6,-1.7 -0.4,-2 -0.3,-2.1 -0.3,-1.8 m 61.1,0.9 0.8,1.3 1.4,1.4 1.6,1.4 1.5,1.4 1.2,1.1 m 243,0 1.2,-1.1 1.5,-1.4 1.6,-1.4 1.4,-1.4 0.8,-1.3 m 61.1,-0.9 -0.3,1.8 -0.3,2.1 -0.4,2 -0.6,1.7 m -376.6,-7.6 -0.2,-2 0,-1.9 -0.1,-2 m 63.4,0 -0.6,2.3 -1.1,2.3 -0.3,2.2 m 256,0 -0.3,-2.2 -1.1,-2.3 -0.6,-2.3 m 63.4,0 -0.1,2 0,1.9 -0.2,2 M 131.2,71 131,68.8 l -0.2,-2.3 -0.3,-2.3 m 61.8,0 0.8,2.3 1,2.2 0.5,2.3 m 252,0 0.5,-2.3 1,-2.2 0.8,-2.3 m 61.8,0 -0.3,2.3 -0.2,2.3 L 510,71 M 130.5,64.2 130.1,62 129.7,59.7 129,57.5 m 63.2,1.3 0.3,1.9 -0.3,1.6 0.1,1.9 m 256.6,0 0.1,-1.9 -0.3,-1.6 0.3,-1.9 m 63.2,-1.3 -0.7,2.2 -0.4,2.3 -0.4,2.2 M 129,57.5 l -0.8,-1.7 -1.1,-1.7 -1,-1.7 -0.8,-1.7 m 62.5,0 0.8,1.5 1,1.6 1,1.8 1,1.7 0.6,1.5 m 256.8,0 0.6,-1.5 1,-1.7 1,-1.8 1,-1.6 0.8,-1.5 m 62.5,0 -0.8,1.7 -1,1.7 -1.1,1.7 -0.8,1.7 m -386.9,-6.8 -0.4,-2.2 -0.1,-2.2 0,-2.3 m 60.9,-0.2 1,2.2 0.5,2.4 0.6,2.3 m 265.6,0 0.6,-2.3 0.5,-2.4 1,-2.2 m 60.9,0.2 0,2.3 -0.1,2.2 -0.4,2.2 M 124.8,44 l -0.1,-2.3 0,-2.3 0.6,-2.2 m 45.7,0.2 1.9,0.3 2,0.3 2,0.4 1.7,0.6 1.8,0.9 2,1.2 1.9,1.4 1.4,1.3 m 269.8,0 1.4,-1.3 1.9,-1.4 2,-1.2 1.8,-0.9 1.7,-0.6 2,-0.4 2,-0.3 1.9,-0.3 m 45.7,-0.2 0.6,2.2 0,2.3 -0.1,2.3 m -391.1,-6.8 1.1,-1.6 1.5,-1.8 1.8,-1.5 1.6,-1.1 2.2,-0.6 2.3,0 2.3,0.1 2.3,0 2.2,0.1 2.2,0.4 1.7,0.8 1.7,1 1.8,1.1 1.6,0.8 2.2,0.7 2.3,0.4 2.3,0.4 2.2,0.3 2.3,0.2 2.2,0.2 2,0.1 1.9,0 2,0.2 m 299.2,0 2,-0.2 1.9,0 2,-0.1 2.2,-0.2 2.3,-0.2 2.2,-0.3 2.3,-0.4 2.3,-0.4 2.2,-0.7 1.6,-0.8 1.8,-1.1 1.7,-1 1.7,-0.8 2.2,-0.4 2.2,-0.1 2.3,0 2.3,-0.1 2.3,0 2.2,0.6 1.6,1.1 1.8,1.5 1.5,1.8 1.1,1.6 m -398.1,392 0.1,0 0.1,0 0.2,0 0.1,0 0.2,0 0.3,0 0.2,0 0.3,0 0.3,0 0.4,0 0.3,0 0.4,0 0.5,0 0.4,0 0.5,0 0.6,0 0.5,0 0.6,0 0.6,0 0.6,0 0.7,0 0.7,0 0.7,0 0.8,0 0.8,0 0.8,0 0.8,0 0.9,0 0.9,0 0.9,0 1,0 0.9,0 1,0 1.1,0 1,0 1.1,0 1.1,0 1.2,0 1.2,0 1.1,0 1.3,0 1.2,0 1.3,0 1.3,0 1.3,0 1.4,0 1.3,0 1.4,0 1.5,0 1.4,0 1.5,0 1.5,0 1.5,0 1.6,0 1.5,0 1.6,0 1.6,0 1.7,0 1.6,0 1.7,0 1.7,0 1.7,0 1.8,0 1.7,0 1.8,0 1.8,0 1.9,0 1.8,0 1.9,0 1.9,0 1.9,0 1.9,0 2,0 1.9,0 2,0 2,0 2,0 2.1,0 2,0 2.1,0 2.1,0 2.1,0 2.1,0 2.1,0 2.1,0 2.2,0 2.2,0 2.2,0 2.2,0 2.2,0 2.2,0 2.3,0 2.2,0 2.3,0 2.3,0 2.3,0 2.3,0 2.3,0 2.3,0 2.3,0 2.4,0 2.3,0 2.4,0 2.3,0 2.4,0 2.4,0 2.4,0 2.4,0 2.4,0 2.4,0 2.4,0 2.5,0 2.4,0 2.4,0 2.5,0 2.4,0 2.5,0 2.4,0 2.5,0 2.4,0 2.5,0 2.5,0 2.4,0 2.5,0 2.5,0 2.4,0 2.5,0 2.5,0 2.4,0 2.5,0 2.5,0 2.4,0 2.5,0 2.5,0 2.4,0 2.5,0 2.4,0 2.5,0 2.4,0 2.5,0 2.4,0 2.4,0 2.5,0 2.4,0 2.4,0 2.4,0 2.4,0 2.4,0 2.4,0 2.4,0 2.3,0 2.4,0 2.3,0 2.4,0 2.3,0 2.3,0 2.3,0 2.3,0 2.3,0 2.3,0 2.3,0 2.2,0 2.3,0 2.2,0 2.2,0 2.2,0 2.2,0 2.2,0 2.2,0 2.1,0 2.1,0 2.1,0 2.1,0 2.1,0 2.1,0 2,0 2.1,0 2,0 2,0 2,0 1.9,0 2,0 1.9,0 1.9,0 1.9,0 1.9,0 1.8,0 1.9,0 1.8,0 1.8,0 1.7,0 1.8,0 1.7,0 1.7,0 1.7,0 1.6,0 1.7,0 1.6,0 1.6,0 1.5,0 1.6,0 1.5,0 1.5,0 1.5,0 1.4,0 1.5,0 1.4,0 1.3,0 1.4,0 1.3,0 1.3,0 1.3,0 1.2,0 1.3,0 1.1,0 1.2,0 1.2,0 1.1,0 1.1,0 1,0 1.1,0 1,0 0.9,0 1,0 0.9,0 0.9,0 0.9,0 0.8,0 0.8,0 0.8,0 0.8,0 0.7,0 0.7,0 0.7,0 0.6,0 0.6,0 0.6,0 0.5,0 0.6,0 0.5,0 0.4,0 0.5,0 0.4,0 0.3,0 0.4,0 0.3,0 0.3,0 0.2,0 0.3,0 0.2,0 0.1,0 0.2,0 0.1,0 0.1,0 m -405.6,0 m 0,-0.1 0,0.1 m 0,-0.1 m 0,-0.1 0,0.1 m 0,-0.3 0,0.2 m 0,-0.3 0,0.1 m 0,-0.3 0,0.2 m 0,-0.5 0,0.3 m 0,-0.5 0,0.2 m 0,-0.5 0,0.3 m 0,-0.6 0,0.3 m 0,-0.7 0,0.4 m 0,-0.7 0,0.3 m 0,-0.7 0,0.4 m 0,-0.9 0,0.5 m 0,-0.9 0,0.4 m 0,-0.9 0,0.5 m 0,-1.1 0,0.6 m 0,-1.1 0,0.5 m 0,-1.1 0,0.6 m 0,-1.2 0,0.6 m 0,-1.2 0,0.6 m 0,-1.3 0,0.7 m 0,-1.4 0,0.7 m 0,-1.4 0,0.7 m 0,-1.5 0,0.8 m 0,-1.6 0,0.8 m 0,-1.6 0,0.8 m 0,-1.6 0,0.8 m 0,-1.7 0,0.9 m 0,-1.8 0,0.9"
           id="path178"
           inkscape:connector-curvature="0"
           style="stroke:#808080" />
        <path
           d="m 117.8,414 0,0.9 m 0,-1.8 0,0.9 m 0,-1.9 0,1 m 0,-2 0,1 m 0,-2.1 0,1.1 m 0,-2.1 0,1 m 0,-2.1 0,1.1 m 0,-2.2 0,1.1 m 0,-2.3 0,1.2 m 0,-2.3 0,1.1 m 0,-2.3 0,1.2 m 0,-2.5 0,1.3 m 0,-2.5 0,1.2 m 0,-2.5 0,1.3 m 0,-2.6 0,1.3 m 0,-2.6 0,1.3 m 0,-2.7 0,1.4 m 0,-2.7 0,1.3 m 0,-2.7 0,1.4 m 0,-2.9 0,1.5 m 0,-2.9 0,1.4 m 0,-2.9 0,1.5 m 0,-3 0,1.5 m 0,-3 0,1.5 m 0,-3 0,1.5 m 0,-3.1 0,1.6 m 0,-3.2 0,1.6 m 0,-3.2 0,1.6 m 0,-3.2 0,1.6 m 0,-3.3 0,1.7 m 0,-3.4 0,1.7 m 0,-3.4 0,1.7 m 0,-3.4 0,1.7 m 0,-3.5 0,1.8 m 0,-3.5 0,1.7 m 0,-3.5 0,1.8 m 0,-3.6 0,1.8 m 0,-3.7 0,1.9 m 0,-3.7 0,1.8 m 0,-3.7 0,1.9 m 0,-3.8 0,1.9 m 0,-3.8 0,1.9 m 0,-3.8 0,1.9 m 0,-3.8 0,1.9 m 0,-3.9 0,2 m 0,-4 0,2 m 0,-4 0,2 m 0,-4 0,2 m 0,-4 0,2 m 0,-4.1 0,2.1 m 0,-4.1 0,2 m 0,-4.1 0,2.1 m 0,-4.2 0,2.1 m 0,-4.2 0,2.1 m 0,-4.3 0,2.2 m 0,-4.3 0,2.1 m 0,-4.3 0,2.2 m 0,-4.4 0,2.2 m 0,-4.3 0,2.1 m 0,-4.3 0,2.2 m 0,-4.5 0,2.3 m 0,-4.5 0,2.2 m 0,-4.4 0,2.2 m 0,-4.5 0,2.3 m 0,-4.6 0,2.3 m 0,-4.5 0,2.2 m 0,-4.5 0,2.3 m 0,-4.6 0,2.3 m 0,-4.6 0,2.3 m 0,-4.7 0,2.4 m 0,-4.7 0,2.3 m 0,-4.6 0,2.3 m 0,-4.7 0,2.4 m 0,-4.7 0,2.3 m 0,-4.7 0,2.4 m 0,-4.8 0,2.4 m 0,-4.8 0,2.4 m 0,-4.8 0,2.4 m 0,-4.8 0,2.4 m 0,-4.8 0,2.4 m 0,-4.8 0,2.4 m 0,-4.8 0,2.4 m 0,-4.8 0,2.4 m 0,-4.9 0,2.5 m 0,-4.9 0,2.4 m 0,-4.8 0,2.4 m 0,-4.9 0,2.5 m 0,-4.9 0,2.4 m 0,-4.9 0,2.5 m 0,-4.9 0,2.4 m 0,-4.9 0,2.5 m 0,-5 0,2.5 m 0,-4.9 0,2.4 m 0,-4.9 0,2.5 m 0,-4.9 0,2.4 m 0,-4.9 0,2.5 m 0,-5 0,2.5 m 0,-5 0,2.5 m 0,-4.9 0,2.4 m 0,-4.9 0,2.5 m 0,-5 0,2.5 m 0,-4.9 0,2.4 m 0,-4.9 0,2.5 m 0,-4.9 0,2.4 m 0,-4.9 0,2.5 m 0,-5 0,2.5 m 0,-4.9 0,2.4 m 0,-4.9 0,2.5 m 0,-4.9 0,2.4 m 0,-4.9 0,2.5 m 0,-4.9 0,2.4 m 0,-4.8 0,2.4 m 0,-4.9 0,2.5 m 0,-4.9 0,2.4 m 0,-4.8 0,2.4 m 0,-4.8 0,2.4 m 0,-4.8 0,2.4 m 0,-4.8 0,2.4 m 0,-4.8 0,2.4 m 0,-4.8 0,2.4 m 0,-4.8 0,2.4 m 0,-4.8 0,2.4 m 0,-4.7 0,2.3 m 0,-4.7 0,2.4 m 0,-4.7 0,2.3 m 0,-4.6 0,2.3 m 0,-4.7 0,2.4 m 0,-4.7 0,2.3 m 0,-4.6 0,2.3 m 0,-4.6 0,2.3 m 0,-4.5 0,2.2 m 0,-4.5 0,2.3 m 0,-4.6 0,2.3 m 0,-4.5 0,2.2 m 0,-4.4 0,2.2 m 0,-4.5 0,2.3 m 0,-4.5 0,2.2 m 0,-4.3 0,2.1 m 0,-4.3 0,2.2 m 0,-4.4 0,2.2 m 0,-4.3 0,2.1 m 0,-4.3 0,2.2 m 0,-4.3 0,2.1 m 0,-4.2 0,2.1 m 0,-4.2 0,2.1 m 0,-4.1 0,2 m 0,-4.1 0,2.1 m 0,-4.1 0,2 m 0,-4 0,2 m 0,-4 0,2 m 0,-4 0,2 m 0,-4 0,2 m 0,-3.9 0,1.9 m 0,-3.8 0,1.9 m 0,-3.8 0,1.9 m 0,-3.8 0,1.9 m 0,-3.8 0,1.9 m 0,-3.7 0,1.8 m 0,-3.7 0,1.9 m 0,-3.7 0,1.8 m 0,-3.6 0,1.8 m 0,-3.5 0,1.7 m 0,-3.5 0,1.8 m 0,-3.5 0,1.7 m 0,-3.4 0,1.7 m 0,-3.4 0,1.7 m 0,-3.4 0,1.7 m 0,-3.3 0,1.6 m 0,-3.2 0,1.6 m 0,-3.2 0,1.6 m 0,-3.2 0,1.6 m 0,-3.1 0,1.5 m 0,-3 0,1.5 m 0,-3 0,1.5 m 0,-3 0,1.5 m 0,-2.9 0,1.4 m 0,-2.9 0,1.5 m 0,-2.9 0,1.4 m 0,-2.7 0,1.3 m 0,-2.7 0,1.4 m 0,-2.7 0,1.3 m 0,-2.6 0,1.3 m 0,-2.6 0,1.3 m 0,-2.5 0,1.2 m 0,-2.5 0,1.3 m 0,-2.5 0,1.2 m 0,-2.3 0,1.1 m 0,-2.3 0,1.2 m 0,-2.3 0,1.1 m 0,-2.2 0,1.1 m 0,-2.1 0,1 m 0,-2.1 0,1.1 m 0,-2.1 0,1 m 0,-2 0,1 m 0,-1.9 0,0.9 m 0,-1.8 0,0.9 m 0,-1.8 0,0.9 m 0,-1.8 0,0.9 m 0,-1.7 0,0.8 m 0,-1.6 0,0.8 m 0,-1.6 0,0.8 m 0,-1.6 0,0.8 m 0,-1.5 0,0.7 m 0,-1.4 0,0.7 m 0,-1.4 0,0.7 m 0,-1.3 0,0.6 m 0,-1.2 0,0.6 m 0,-1.2 0,0.6 m 0,-1.1 0,0.5 m 0,-1.1 0,0.6 m 0,-1.1 0,0.5 m 0,-0.9 0,0.4 m 0,-0.9 0,0.5 m 0,-0.9 0,0.4 m 0,-0.7 0,0.3 m 0,-0.7 0,0.4 m 0,-0.7 0,0.3 m 0,-0.6 0,0.3 m 0,-0.5 0,0.2 m 0,-0.5 0,0.3 m 0,-0.5 0,0.2 m 0,-0.3 0,0.1 m 0,-0.3 0,0.2 m 0,-0.3 0,0.1 m 0,-0.1 m 0,-0.1 0,0.1 m 0,-0.1 m 0.1,0 -0.1,0 m 0.1,0 m 0.1,0 -0.1,0 m 0.3,0 -0.2,0 m 0.3,0 -0.1,0 m 0.3,0 -0.2,0 m 0.5,0 -0.3,0 m 0.5,0 -0.2,0 m 0.5,0 -0.3,0 m 0.6,0 -0.3,0 m 0.7,0 -0.4,0 m 0.7,0 -0.3,0 m 0.7,0 -0.4,0 m 0.9,0 -0.5,0 m 0.9,0 -0.4,0 m 0.9,0 -0.5,0 m 1.1,0 -0.6,0 m 1.1,0 -0.5,0 m 1.1,0 -0.6,0 m 1.2,0 -0.6,0 m 1.2,0 -0.6,0 m 1.3,0 -0.7,0 m 1.4,0 -0.7,0 m 1.4,0 -0.7,0 m 1.5,0 -0.8,0 m 1.6,0 -0.8,0 m 1.6,0 -0.8,0 m 1.6,0 -0.8,0 m 1.7,0 -0.9,0 m 1.8,0 -0.9,0 m 1.8,0 -0.9,0"
           id="path180"
           inkscape:connector-curvature="0"
           style="stroke:#808080" />
        <path
           d="m 134,23.7 -1,0 m 1.9,0 -0.9,0 m 1.9,0 -1,0 m 2.1,0 -1.1,0 m 2.1,0 -1,0 m 2.1,0 -1.1,0 m 2.2,0 -1.1,0 m 2.3,0 -1.2,0 m 2.4,0 -1.2,0 m 2.3,0 -1.1,0 m 2.4,0 -1.3,0 m 2.5,0 -1.2,0 m 2.5,0 -1.3,0 m 2.6,0 -1.3,0 m 2.6,0 -1.3,0 m 2.7,0 -1.4,0 m 2.7,0 -1.3,0 m 2.7,0 -1.4,0 m 2.9,0 -1.5,0 m 2.9,0 -1.4,0 m 2.9,0 -1.5,0 m 3,0 -1.5,0 m 3,0 -1.5,0 m 3.1,0 -1.6,0 m 3.1,0 -1.5,0 m 3.1,0 -1.6,0 m 3.2,0 -1.6,0 m 3.3,0 -1.7,0 m 3.3,0 -1.6,0 m 3.3,0 -1.7,0 m 3.4,0 -1.7,0 m 3.4,0 -1.7,0 m 3.5,0 -1.8,0 m 3.5,0 -1.7,0 m 3.5,0 -1.8,0 m 3.6,0 -1.8,0 m 3.7,0 -1.9,0 m 3.7,0 -1.8,0 m 3.7,0 -1.9,0 m 3.8,0 -1.9,0 m 3.8,0 -1.9,0 m 3.8,0 -1.9,0 m 3.9,0 -2,0 m 3.9,0 -1.9,0 m 3.9,0 -2,0 m 4,0 -2,0 m 4,0 -2,0 m 4.1,0 -2.1,0 m 4.1,0 -2,0 m 4.1,0 -2.1,0 m 4.2,0 -2.1,0 m 4.2,0 -2.1,0 m 4.2,0 -2.1,0 m 4.2,0 -2.1,0 m 4.2,0 -2.1,0 m 4.3,0 -2.2,0 m 4.4,0 -2.2,0 m 4.4,0 -2.2,0 m 4.4,0 -2.2,0 m 4.4,0 -2.2,0 m 4.4,0 -2.2,0 m 4.5,0 -2.3,0 m 4.5,0 -2.2,0 m 4.5,0 -2.3,0 m 4.6,0 -2.3,0 m 4.6,0 -2.3,0 m 4.6,0 -2.3,0 m 4.6,0 -2.3,0 m 4.6,0 -2.3,0 m 4.6,0 -2.3,0 m 4.7,0 -2.4,0 m 4.7,0 -2.3,0 m 4.7,0 -2.4,0 m 4.7,0 -2.3,0 m 4.7,0 -2.4,0 m 4.8,0 -2.4,0 m 4.8,0 -2.4,0 m 4.8,0 -2.4,0 m 4.8,0 -2.4,0 m 4.8,0 -2.4,0 m 4.8,0 -2.4,0 m 4.9,0 -2.5,0 m 4.9,0 -2.4,0 m 4.8,0 -2.4,0 m 4.9,0 -2.5,0 m 4.9,0 -2.4,0 m 4.9,0 -2.5,0 m 4.9,0 -2.4,0 m 4.9,0 -2.5,0 m 4.9,0 -2.4,0 m 4.9,0 -2.5,0 m 5,0 -2.5,0 m 4.9,0 -2.4,0 m 4.9,0 -2.5,0 m 5,0 -2.5,0 m 4.9,0 -2.4,0 m 4.9,0 -2.5,0 m 5,0 -2.5,0 m 4.9,0 -2.4,0 m 4.9,0 -2.5,0 m 5,0 -2.5,0 m 4.9,0 -2.4,0 m 4.9,0 -2.5,0 m 5,0 -2.5,0 m 4.9,0 -2.4,0 m 4.9,0 -2.5,0 m 4.9,0 -2.4,0 m 4.9,0 -2.5,0 m 4.9,0 -2.4,0 m 4.9,0 -2.5,0 m 4.9,0 -2.4,0 m 4.8,0 -2.4,0 m 4.9,0 -2.5,0 m 4.9,0 -2.4,0 m 4.8,0 -2.4,0 m 4.8,0 -2.4,0 m 4.8,0 -2.4,0 m 4.8,0 -2.4,0 m 4.8,0 -2.4,0 m 4.8,0 -2.4,0 m 4.7,0 -2.3,0 m 4.7,0 -2.4,0 m 4.7,0 -2.3,0 m 4.7,0 -2.4,0 m 4.7,0 -2.3,0 m 4.6,0 -2.3,0 m 4.6,0 -2.3,0 m 4.6,0 -2.3,0 m 4.6,0 -2.3,0 m 4.6,0 -2.3,0 m 4.6,0 -2.3,0 m 4.5,0 -2.2,0 m 4.5,0 -2.3,0 m 4.5,0 -2.2,0 m 4.4,0 -2.2,0 m 4.4,0 -2.2,0 m 4.4,0 -2.2,0 m 4.4,0 -2.2,0 m 4.4,0 -2.2,0 m 4.3,0 -2.1,0 m 4.2,0 -2.1,0 m 4.2,0 -2.1,0 m 4.2,0 -2.1,0 m 4.2,0 -2.1,0 m 4.2,0 -2.1,0 m 4.1,0 -2,0 m 4.1,0 -2.1,0 m 4.1,0 -2,0 m 4,0 -2,0 m 4,0 -2,0 m 3.9,0 -1.9,0 m 3.9,0 -2,0 m 3.9,0 -1.9,0 m 3.8,0 -1.9,0 m 3.8,0 -1.9,0 m 3.8,0 -1.9,0 m 3.7,0 -1.8,0 m 3.7,0 -1.9,0 m 3.7,0 -1.8,0 m 3.6,0 -1.8,0 m 3.5,0 -1.7,0 m 3.5,0 -1.8,0 m 3.5,0 -1.7,0 m 3.4,0 -1.7,0 m 3.4,0 -1.7,0 m 3.3,0 -1.6,0 m 3.3,0 -1.7,0 m 3.3,0 -1.6,0 m 3.2,0 -1.6,0 m 3.1,0 -1.5,0 m 3.1,0 -1.6,0 m 3.1,0 -1.5,0 m 3,0 -1.5,0 m 3,0 -1.5,0 m 2.9,0 -1.4,0 m 2.9,0 -1.5,0 m 2.9,0 -1.4,0 m 2.7,0 -1.3,0 m 2.7,0 -1.4,0 m 2.7,0 -1.3,0 m 2.6,0 -1.3,0 m 2.6,0 -1.3,0 m 2.5,0 -1.2,0 m 2.5,0 -1.3,0 m 2.4,0 -1.1,0 m 2.3,0 -1.2,0 m 2.4,0 -1.2,0 m 2.3,0 -1.1,0 m 2.2,0 -1.1,0 m 2.1,0 -1,0 m 2.1,0 -1.1,0 m 2.1,0 -1,0 m 1.9,0 -0.9,0 m 1.9,0 -1,0 m 1.9,0 -0.9,0 m 1.8,0 -0.9,0 m 1.8,0 -0.9,0 m 1.7,0 -0.8,0 m 1.6,0 -0.8,0 m 1.6,0 -0.8,0 m 1.6,0 -0.8,0 m 1.5,0 -0.7,0 m 1.4,0 -0.7,0 m 1.4,0 -0.7,0 m 1.3,0 -0.6,0 m 1.2,0 -0.6,0 m 1.2,0 -0.6,0 m 1.1,0 -0.5,0 m 1.1,0 -0.6,0 m 1.1,0 -0.5,0 m 0.9,0 -0.4,0 m 0.9,0 -0.5,0 m 0.9,0 -0.4,0 m 0.7,0 -0.3,0 m 0.7,0 -0.4,0 m 0.7,0 -0.3,0 m 0.6,0 -0.3,0 m 0.5,0 -0.2,0 m 0.5,0 -0.3,0 m 0.5,0 -0.2,0 m 0.3,0 -0.1,0 m 0.3,0 -0.2,0 m 0.3,0 -0.1,0 m 0.1,0 m 0.1,0 -0.1,0 m 0.1,0 m 0,405.5 0,-0.1 0,-0.1 0,-0.2 0,-0.1 0,-0.2 0,-0.3 0,-0.2 0,-0.3 0,-0.3 0,-0.4 0,-0.3 0,-0.4 0,-0.5 0,-0.4 0,-0.5 0,-0.6 0,-0.5 0,-0.6 0,-0.6 0,-0.6 0,-0.7 0,-0.7 0,-0.7 0,-0.8 0,-0.8 0,-0.8 0,-0.8 0,-0.9 0,-0.9 0,-0.9 0,-0.9 0,-1 0,-1 0,-1.1 0,-1 0,-1.1 0,-1.1 0,-1.2 0,-1.1 0,-1.2 0,-1.3 0,-1.2 0,-1.3 0,-1.3 0,-1.3 0,-1.4 0,-1.3 0,-1.4 0,-1.5 0,-1.4 0,-1.5 0,-1.5 0,-1.5 0,-1.5 0,-1.6 0,-1.6 0,-1.6 0,-1.6 0,-1.7 0,-1.7 0,-1.7 0,-1.7 0,-1.8 0,-1.7 0,-1.8 0,-1.8 0,-1.9 0,-1.8 0,-1.9 0,-1.9 0,-1.9 0,-1.9 0,-1.9 0,-2 0,-2 0,-2 0,-2 0,-2 0,-2.1 0,-2 0,-2.1 0,-2.1 0,-2.1 0,-2.2 0,-2.1 0,-2.2 0,-2.2 0,-2.1 0,-2.2 0,-2.3 0,-2.2 0,-2.2 0,-2.3 0,-2.3 0,-2.2 0,-2.3 0,-2.3 0,-2.3 0,-2.4 0,-2.3 0,-2.3 0,-2.4 0,-2.3 0,-2.4 0,-2.4 0,-2.4 0,-2.4 0,-2.4 0,-2.4 0,-2.4 0,-2.4 0,-2.4 0,-2.5 0,-2.4 0,-2.4 0,-2.5 0,-2.4 0,-2.5 0,-2.4 0,-2.5 0,-2.5 0,-2.4 0,-2.5 0,-2.4 0,-2.5 0,-2.5 0,-2.5 0,-2.4 0,-2.5 0,-2.5 0,-2.4 0,-2.5 0,-2.4 0,-2.5 0,-2.5 0,-2.4 0,-2.5 0,-2.4 0,-2.5 0,-2.4 0,-2.4 0,-2.5 0,-2.4 0,-2.4 0,-2.4 0,-2.4 0,-2.4 0,-2.4 0,-2.4 0,-2.4 0,-2.4 0,-2.3 0,-2.4 0,-2.3 0,-2.3 0,-2.4 0,-2.3 0,-2.3 0,-2.3 0,-2.2 0,-2.3 0,-2.3 0,-2.2 0,-2.2 0,-2.3 0,-2.2 0,-2.1 0,-2.2 0,-2.2 0,-2.1 0,-2.2 0,-2.1 0,-2.1 0,-2.1 0,-2 0,-2.1 0,-2 0,-2 0,-2 0,-2 0,-2 0,-1.9 0,-1.9 0,-1.9 0,-1.9 0,-1.9 0,-1.8 0,-1.9 0,-1.8 0,-1.8 0,-1.7 0,-1.8 0,-1.7 0,-1.7 0,-1.7 0,-1.7 0,-1.6 0,-1.6 0,-1.6 0,-1.6 0,-1.5 0,-1.5 0,-1.5 0,-1.5 0,-1.4 0,-1.5 0,-1.4 0,-1.3 0,-1.4 0,-1.3 0,-1.3 0,-1.3 0,-1.2 0,-1.3 0,-1.2 0,-1.1 0,-1.2 0,-1.1 0,-1.1 0,-1 0,-1.1 0,-1 0,-1 0,-0.9 0,-0.9 0,-0.9 0,-0.9 0,-0.8 0,-0.8 0,-0.8 0,-0.8 0,-0.7 0,-0.7 0,-0.7 0,-0.6 0,-0.6 0,-0.6 0,-0.5 0,-0.6 0,-0.5 0,-0.4 0,-0.5 0,-0.4 0,-0.3 0,-0.4 0,-0.3 0,-0.3 0,-0.2 0,-0.3 0,-0.2 0,-0.1 0,-0.2 0,-0.1 0,-0.1"
           id="path182"
           inkscape:connector-curvature="0"
           style="stroke:#808080" />
      </g>
    </g>
    <g
       id="g184"
       style="color:#ffffff;fill:none;stroke:#808080;stroke-width:2;stroke-linecap:butt;stroke-linejoin:miter" />
    <g
       id="g186"
       style="color:#000000;fill:none;stroke:currentColor;stroke-width:2;stroke-linecap:butt;stroke-linejoin:miter" />
    <g
       id="g188"
       style="color:#000000;fill:none;stroke:#000000;stroke-width:1;stroke-linecap:butt;stroke-linejoin:miter" />
    <g
       id="g190"
       style="color:#000000;fill:none;stroke:currentColor;stroke-width:1;stroke-linecap:butt;stroke-linejoin:miter">
      <path
         d="m 117.8,23.7 0,405.5 405.6,0 0,-405.5 -405.6,0 z"
         id="path192"
         inkscape:connector-curvature="0"
         style="stroke:#000000" />
    </g>
    <g
       id="g194"
       style="color:#000000;fill:none;stroke:currentColor;stroke-width:1;stroke-linecap:butt;stroke-linejoin:miter" />
  </g>
  <path
     style="opacity:1;fill:#4d4d4d;fill-opacity:0.58823529;stroke:none;stroke-width:1;stroke-linecap:round;stroke-linejoin:miter;stroke-miterlimit:4;stroke-dasharray:1, 2;stroke-dashoffset:0;stroke-opacity:1"
     d="m 34.499103,5.5106938 c -0.48901,26.5478172 -0.0699,53.2466832 -0.20957,79.8525972 0.358009,3.78498 -0.25547,9.4497 0,14.03208 0,22.286239 0,44.572489 0,66.858729 2.82903,2.3351 7.90227,0.2902 11.646109,1.17687 -0.117709,0.3898 -3.92788,0.26365 -5.28944,0.29985 -6.753029,-2.17693 -7.110759,3.27807 -6.356669,8.42828 0,23.93708 0,47.87416 0,71.81123 0.358009,3.78498 -0.25547,9.44971 0,14.03208 0,22.28625 0,44.57249 0,66.85874 0.358009,3.78498 -0.25547,9.44971 0,14.03208 0,22.28624 0,44.57249 0,66.85873 3.62863,2.37142 9.68343,0.30585 14.206189,0.99953 22.28624,0 44.572491,0 66.858728,0 3.78498,-0.35801 9.44971,0.25546 14.03208,0 22.28625,0 44.57249,0 66.85874,0 3.78498,-0.35801 9.4497,0.25546 14.03208,0 22.28624,0 44.57249,0 66.85873,0 3.78498,-0.35801 9.44971,0.25546 14.03208,0 22.28625,0 44.57249,0 66.85874,0 2.33509,-2.82903 0.2902,-7.90227 1.17686,-11.64611 0.3898,0.1177 0.26365,3.92788 0.29986,5.28944 -2.17693,6.75303 3.27806,7.11076 8.42827,6.35667 23.93708,0 47.87416,0 71.81124,0 2.37141,-3.62863 0.30584,-9.68343 0.99953,-14.20619 0,-22.01111 0,-44.02221 0,-66.03332 -0.35802,-3.78498 0.25545,-9.4497 0,-14.03208 0,-22.28624 0,-44.57249 0,-66.85873 -0.35802,-3.78498 0.25545,-9.44971 0,-14.03208 0,-22.28625 0,-44.57249 0,-66.85874 -2.82904,-2.33509 -7.90228,-0.2902 -11.64612,-1.17686 0.11771,-0.3898 3.92788,-0.26365 5.28944,-0.29986 6.75303,2.17693 7.11076,-3.27806 6.35668,-8.42828 0,-23.93707 0,-47.87415 0,-71.811229 -0.35802,-3.78498 0.25545,-9.449707 0,-14.032079 0,-22.286245 0,-44.57249 0,-66.8587342 -3.62864,-2.371411 -9.68343,-0.305839 -14.2062,-0.999528 -22.01111,0 -44.02221,0 -66.03332,0 -2.33509,2.829032 -0.29019,7.9022732 -1.17686,11.6461112 -0.3898,-0.117705 -0.26365,-3.927878 -0.29985,-5.289437 2.17692,-6.7530302 -3.27807,-7.1107572 -8.42828,-6.3566742 -23.93708,0 -47.87416,0 -71.81124,0 -3.78498,0.358013 -9.4497,-0.255462 -14.03208,0 -22.28624,0 -44.57249,0 -66.85873,0 -3.78498,0.358013 -9.44971,-0.255462 -14.03208,0 -22.28625,0 -44.57249,0 -66.85874,0 -3.78498,0.358013 -9.4497,-0.255462 -14.03208,0 -22.561377,0 -45.122757,0 -67.684147,0 l -0.74127,0.363074 -0.0487,0.02384 z m 19.95993,6.9773482 c 8.433889,-1.223377 14.857509,5.902018 23.15358,5.792425 8.8348,1.118598 20.65225,-0.04526 25.839397,8.910307 0.48959,4.1024 2.83896,7.588154 4.60589,11.154407 1.7111,5.692118 3.51748,11.950534 2.20863,17.838347 -2.36301,4.708164 4.12197,7.349614 6.21803,10.677212 7.4942,9.198612 12.77941,20.016891 20.99542,28.689101 12.44919,15.123529 28.01132,27.605169 45.88535,35.735749 9.01125,4.33358 18.68589,7.33989 27.28603,12.44528 16.40594,-1.13843 33.16877,-0.9242 49.64268,-0.29985 5.47885,1.83193 9.51706,-3.64183 14.46574,-4.8864 22.13874,-8.02429 42.97198,-20.37028 58.69325,-38.12555 9.09445,-9.241179 15.72479,-20.509619 23.16646,-30.914417 2.44509,-4.123494 7.98881,-6.720366 8.64753,-11.678354 -2.22475,-6.437887 -0.17335,-13.642521 2.01841,-19.871257 3.4442,-5.157166 3.62325,-12.529879 9.48422,-15.890879 7.44908,-4.324878 16.6798,-2.46034 24.82215,-4.37374 6.39898,-1.289419 11.80826,-6.303722 18.71696,-5.202381 5.58862,-0.883905 12.31718,2.291996 12.78589,8.457295 0.55849,6.559 -0.3973,13.180302 -3.9046,18.837874 -3.98222,10.736196 0.38212,24.553358 -8.8297,33.074696 -4.29584,2.064797 -9.04627,3.239948 -13.15991,5.798873 -4.04966,1.135369 -8.63609,0.944574 -12.53118,3.058231 -3.9088,0.60677 -8.5139,-3.790284 -11.1152,1.009 -6.05566,6.7114 -14.22574,10.88769 -21.65802,15.89914 -20.95841,15.243179 -39.24407,34.931399 -49.37829,59.054359 -3.19346,7.94338 -6.46289,15.9208 -10.44022,23.45666 0.68274,5.94569 1.32869,12.03418 0.45206,18.03142 -1.34956,10.60771 1.37545,21.22024 -0.0603,31.73861 -2.24925,5.38192 3.48263,9.31181 4.61072,14.17557 8.60807,23.28441 21.59335,45.6874 41.23606,61.45089 8.72795,8.13407 19.12532,14.16664 28.74056,20.99886 3.46103,2.32784 5.62926,6.35652 9.05378,8.44924 4.23564,-1.54331 8.77804,-2.31757 12.91648,-0.1 4.60868,0.42922 9.11376,1.38407 13.04706,4.00134 4.15665,1.89566 9.6103,2.53844 11.47845,7.41423 5.48695,10.50801 1.61007,23.41135 7.75924,33.76953 2.44852,6.53831 4.20291,16.3532 -2.66648,20.97881 -7.25895,3.69388 -15.65186,1.28304 -22.52968,-2.21993 -10.72558,-3.81289 -23.81509,-0.59691 -32.90865,-8.50081 -2.22383,-4.50208 -3.70812,-9.44098 -6.25834,-13.84992 -1.66349,-5.65999 -3.47989,-11.85506 -2.21185,-17.70614 2.27051,-4.87422 -4.52175,-7.59954 -6.61569,-11.06108 -7.18764,-8.83193 -12.15033,-19.32726 -19.98085,-27.7191 -15.89415,-20.03166 -38.16572,-34.19889 -62.00038,-42.79788 -5.12598,-1.75463 -9.41283,-5.97675 -15.22338,-5.16 -17.39567,0.0662 -34.88962,-0.77596 -52.23016,0.62713 -12.58687,6.31105 -26.32,10.49476 -38.28353,18.16077 -19.02415,11.01497 -33.73703,28.04067 -45.95732,46.02503 -3.64996,6.93914 -8.85958,12.84013 -14.29325,18.36552 -0.93535,2.98566 1.19073,6.19847 0.28696,9.38588 -0.0802,6.67604 -2.2405,12.91776 -5.41354,18.6725 -1.12979,4.58312 -3.65807,8.77914 -8.297717,10.45729 -9.36961,3.94948 -20.25022,1.60899 -29.64729,5.82144 -6.1841,3.37077 -14.54543,4.95444 -20.81436,1.29939 -5.83155,-3.9084 -4.31174,-11.81933 -3.65633,-17.76258 2.82457,-5.98368 5.31993,-12.19777 5.33562,-18.95829 0.89134,-7.75771 0.68283,-18.03451 8.237,-22.64302 6.40541,-1.51737 11.67241,-6.46836 18.49449,-6.26479 3.80401,-0.4689 7.60476,-3.43375 11.30272,-0.89151 5.94436,1.40071 8.4476,-6.2289 12.94872,-8.51533 9.443647,-6.23481 19.326277,-12.23709 27.692117,-20.07457 13.77002,-11.40687 25.04017,-25.6606 32.897,-41.71398 4.97275,-9.65289 8.06142,-20.27795 13.37593,-29.69242 -0.0601,-5.68128 -1.16675,-11.46062 -0.25794,-17.21445 1.34555,-12.20756 -1.50984,-24.54927 0.50138,-36.6601 -2.15778,-5.35956 -5.65184,-10.27069 -7.3288,-15.92957 -9.03157,-24.21581 -24.5821,-46.07662 -45.50707,-61.4208 -9.44777,-7.889229 -21.101657,-12.822329 -29.297907,-22.225159 -3.8178,-3.897913 -9.19533,2.52845 -13.37594,-1.23168 -4.48839,-1.627056 -9.66635,-0.989029 -13.69191,-4.056148 -4.76696,-2.256338 -11.33018,-2.972122 -12.9052,-9.007035 -4.16912,-11.063483 -1.42106,-24.007021 -8.12841,-34.158055 -1.48426,-4.701656 -0.55455,-9.749773 -0.83509,-14.589881 3.23047,-3.655694 6.15718,-8.012872 11.70092,-6.34539 l 0.69161,0 z"
     id="path4330"
     inkscape:connector-curvature="0" />
</svg>
