%!PS-Adobe-3.0 EPSF-3.0
%%Creator: cairo 1.14.6 (http://cairographics.org)
%%CreationDate: Fri Aug  4 11:01:23 2017
%%Pages: 1
%%DocumentData: Clean7Bit
%%LanguageLevel: 2
%%BoundingBox: 0 -1 452 382
%%EndComments
%%BeginProlog
save
50 dict begin
/q { gsave } bind def
/Q { grestore } bind def
/cm { 6 array astore concat } bind def
/w { setlinewidth } bind def
/J { setlinecap } bind def
/j { setlinejoin } bind def
/M { setmiterlimit } bind def
/d { setdash } bind def
/m { moveto } bind def
/l { lineto } bind def
/c { curveto } bind def
/h { closepath } bind def
/re { exch dup neg 3 1 roll 5 3 roll moveto 0 rlineto
      0 exch rlineto 0 rlineto closepath } bind def
/S { stroke } bind def
/f { fill } bind def
/f* { eofill } bind def
/n { newpath } bind def
/W { clip } bind def
/W* { eoclip } bind def
/BT { } bind def
/ET { } bind def
/pdfmark where { pop globaldict /?pdfmark /exec load put }
    { globaldict begin /?pdfmark /pop load def /pdfmark
    /cleartomark load def end } ifelse
/BDC { mark 3 1 roll /BDC pdfmark } bind def
/EMC { mark /EMC pdfmark } bind def
/cairo_store_point { /cairo_point_y exch def /cairo_point_x exch def } def
/Tj { show currentpoint cairo_store_point } bind def
/TJ {
  {
    dup
    type /stringtype eq
    { show } { -0.001 mul 0 cairo_font_matrix dtransform rmoveto } ifelse
  } forall
  currentpoint cairo_store_point
} bind def
/cairo_selectfont { cairo_font_matrix aload pop pop pop 0 0 6 array astore
    cairo_font exch selectfont cairo_point_x cairo_point_y moveto } bind def
/Tf { pop /cairo_font exch def /cairo_font_matrix where
      { pop cairo_selectfont } if } bind def
/Td { matrix translate cairo_font_matrix matrix concatmatrix dup
      /cairo_font_matrix exch def dup 4 get exch 5 get cairo_store_point
      /cairo_font where { pop cairo_selectfont } if } bind def
/Tm { 2 copy 8 2 roll 6 array astore /cairo_font_matrix exch def
      cairo_store_point /cairo_font where { pop cairo_selectfont } if } bind def
/g { setgray } bind def
/rg { setrgbcolor } bind def
/d1 { setcachedevice } bind def
%%EndProlog
%%BeginSetup
%%EndSetup
%%Page: 1 1
%%BeginPageSetup
%%PageBoundingBox: 0 -1 452 382
%%EndPageSetup
q 0 -1 452 383 rectclip q
0 g
0.8 w
0 J
0 j
[] 0.0 d
4 M q 1 0 0 -1 0 381.134827 cm
76.062 334.008 m 86.223 334.008 l 437.984 334.008 m 427.824 334.008 l S Q
q 1 0 0 -1 0 381.134827 cm
76.062 314.488 m 81.105 314.488 l 437.984 314.488 m 432.945 314.488 l 76.062
 288.648 m 81.105 288.648 l 437.984 288.648 m 432.945 288.648 l 76.062 275.445
 m 81.105 275.445 l 437.984 275.445 m 432.945 275.445 l 76.062 269.129 m
 86.223 269.129 l 437.984 269.129 m 427.824 269.129 l S Q
q 1 0 0 -1 0 381.134827 cm
76.062 249.605 m 81.105 249.605 l 437.984 249.605 m 432.945 249.605 l 76.062
 223.766 m 81.105 223.766 l 437.984 223.766 m 432.945 223.766 l 76.062 210.566
 m 81.105 210.566 l 437.984 210.566 m 432.945 210.566 l 76.062 204.246 m
 86.223 204.246 l 437.984 204.246 m 427.824 204.246 l S Q
q 1 0 0 -1 0 381.134827 cm
76.062 184.727 m 81.105 184.727 l 437.984 184.727 m 432.945 184.727 l 76.062
 158.887 m 81.105 158.887 l 437.984 158.887 m 432.945 158.887 l 76.062 145.688
 m 81.105 145.688 l 437.984 145.688 m 432.945 145.688 l 76.062 139.367 m
 86.223 139.367 l 437.984 139.367 m 427.824 139.367 l S Q
q 1 0 0 -1 0 381.134827 cm
76.062 119.848 m 81.105 119.848 l 437.984 119.848 m 432.945 119.848 l 76.062
 94.008 m 81.105 94.008 l 437.984 94.008 m 432.945 94.008 l 76.062 80.809
 m 81.105 80.809 l 437.984 80.809 m 432.945 80.809 l 76.062 74.488 m 86.223
 74.488 l 437.984 74.488 m 427.824 74.488 l S Q
q 1 0 0 -1 0 381.134827 cm
76.062 54.969 m 81.105 54.969 l 437.984 54.969 m 432.945 54.969 l 76.062
 29.129 m 81.105 29.129 l 437.984 29.129 m 432.945 29.129 l 76.062 15.926
 m 81.105 15.926 l 437.984 15.926 m 432.945 15.926 l 76.062 9.605 m 86.223
 9.605 l 437.984 9.605 m 427.824 9.605 l S Q
q 1 0 0 -1 0 381.134827 cm
76.062 334.008 m 76.062 323.848 l 76.062 9.605 m 76.062 19.766 l S Q
q 1 0 0 -1 0 381.134827 cm
112.383 334.008 m 112.383 328.969 l 112.383 9.605 m 112.383 14.648 l 133.586
 334.008 m 133.586 328.969 l 133.586 9.605 m 133.586 14.648 l 148.703 334.008
 m 148.703 328.969 l 148.703 9.605 m 148.703 14.648 l 160.383 334.008 m 
160.383 328.969 l 160.383 9.605 m 160.383 14.648 l 169.902 334.008 m 169.902
 328.969 l 169.902 9.605 m 169.902 14.648 l 177.984 334.008 m 177.984 328.969
 l 177.984 9.605 m 177.984 14.648 l 185.023 334.008 m 185.023 328.969 l 
185.023 9.605 m 185.023 14.648 l 191.184 334.008 m 191.184 328.969 l 191.184
 9.605 m 191.184 14.648 l 196.703 334.008 m 196.703 323.848 l 196.703 9.605
 m 196.703 19.766 l S Q
q 1 0 0 -1 0 381.134827 cm
233.023 334.008 m 233.023 328.969 l 233.023 9.605 m 233.023 14.648 l 254.223
 334.008 m 254.223 328.969 l 254.223 9.605 m 254.223 14.648 l 269.344 334.008
 m 269.344 328.969 l 269.344 9.605 m 269.344 14.648 l 281.023 334.008 m 
281.023 328.969 l 281.023 9.605 m 281.023 14.648 l 290.543 334.008 m 290.543
 328.969 l 290.543 9.605 m 290.543 14.648 l 298.625 334.008 m 298.625 328.969
 l 298.625 9.605 m 298.625 14.648 l 305.664 334.008 m 305.664 328.969 l 
305.664 9.605 m 305.664 14.648 l 311.824 334.008 m 311.824 328.969 l 311.824
 9.605 m 311.824 14.648 l 317.344 334.008 m 317.344 323.848 l 317.344 9.605
 m 317.344 19.766 l S Q
q 1 0 0 -1 0 381.134827 cm
353.664 334.008 m 353.664 328.969 l 353.664 9.605 m 353.664 14.648 l 374.863
 334.008 m 374.863 328.969 l 374.863 9.605 m 374.863 14.648 l 389.984 334.008
 m 389.984 328.969 l 389.984 9.605 m 389.984 14.648 l 401.664 334.008 m 
401.664 328.969 l 401.664 9.605 m 401.664 14.648 l 411.184 334.008 m 411.184
 328.969 l 411.184 9.605 m 411.184 14.648 l 419.266 334.008 m 419.266 328.969
 l 419.266 9.605 m 419.266 14.648 l 426.305 334.008 m 426.305 328.969 l 
426.305 9.605 m 426.305 14.648 l 432.465 334.008 m 432.465 328.969 l 432.465
 9.605 m 432.465 14.648 l 437.984 334.008 m 437.984 323.848 l 437.984 9.605
 m 437.984 19.766 l S Q
q 1 0 0 -1 0 381.134827 cm
76.062 9.605 361.922 324.402 re S Q
0.580392 0 0.827451 rg
q 1 0 0 -1 0 381.134827 cm
378.449 254.77 m 410.52 254.77 l 114.465 313.766 m 151.984 272.648 l 188.305
 230.969 l 224.625 187.367 l 260.945 141.047 l 297.344 91.207 l 333.664 
38.328 l S Q
0.79756 w
q 1 0 0 -1 0 381.134827 cm
109.383 313.766 m 119.543 313.766 l 114.465 308.688 m 114.465 318.848 l
 S Q
q 1 0 0 -1 0 381.134827 cm
146.902 272.648 m 157.063 272.648 l 151.984 267.566 m 151.984 277.727 l
 S Q
q 1 0 0 -1 0 381.134827 cm
183.223 230.969 m 193.383 230.969 l 188.305 225.887 m 188.305 236.047 l
 S Q
q 1 0 0 -1 0 381.134827 cm
219.543 187.367 m 229.703 187.367 l 224.625 182.289 m 224.625 192.445 l
 S Q
q 1 0 0 -1 0 381.134827 cm
255.863 141.047 m 266.023 141.047 l 260.945 135.969 m 260.945 146.129 l
 S Q
q 1 0 0 -1 0 381.134827 cm
292.266 91.207 m 302.426 91.207 l 297.344 86.129 m 297.344 96.289 l S Q
q 1 0 0 -1 0 381.134827 cm
328.586 38.328 m 338.746 38.328 l 333.664 33.246 m 333.664 43.406 l S Q
q 1 0 0 -1 0 381.134827 cm
390.023 254.258 m 400.184 254.258 l 395.105 249.176 m 395.105 259.336 l
 S Q
0 0.619608 0.45098 rg
0.8 w
q 1 0 0 -1 0 381.134827 cm
378.449 274.617 m 410.52 274.43 l 114.465 313.047 m 151.984 274.168 l 188.305
 234.488 l 224.625 193.367 l 260.945 150.727 l 297.344 105.207 l 333.664
 56.566 l S Q
0.79756 w
q 1 0 0 -1 0 381.134827 cm
109.383 307.969 m 119.543 318.129 l 119.543 307.969 m 109.383 318.129 l
 S Q
q 1 0 0 -1 0 381.134827 cm
146.902 269.086 m 157.063 279.246 l 157.063 269.086 m 146.902 279.246 l
 S Q
q 1 0 0 -1 0 381.134827 cm
183.223 229.406 m 193.383 239.566 l 193.383 229.406 m 183.223 239.566 l
 S Q
q 1 0 0 -1 0 381.134827 cm
219.543 188.289 m 229.703 198.445 l 229.703 188.289 m 219.543 198.445 l
 S Q
q 1 0 0 -1 0 381.134827 cm
255.863 145.648 m 266.023 155.809 l 266.023 145.648 m 255.863 155.809 l
 S Q
q 1 0 0 -1 0 381.134827 cm
292.266 100.129 m 302.426 110.289 l 302.426 100.129 m 292.266 110.289 l
 S Q
q 1 0 0 -1 0 381.134827 cm
328.586 51.488 m 338.746 61.648 l 338.746 51.488 m 328.586 61.648 l S Q
q 1 0 0 -1 0 381.134827 cm
390.023 269.496 m 400.184 279.656 l 400.184 269.496 m 390.023 279.656 l
 S Q
0.337255 0.705882 0.913725 rg
0.8 w
q 1 0 0 -1 0 381.134827 cm
378.777 294.914 m 410.191 294.75 l 114.465 287.445 m 151.984 234.648 l 
188.305 182.086 l 224.625 144.488 l 260.945 117.926 l 297.344 97.605 l 333.664
 76.809 l 370.062 54.727 l S Q
0.79756 w
q 1 0 0 -1 0 381.134827 cm
109.383 287.445 m 119.543 287.445 l 114.465 282.367 m 114.465 292.527 l
 109.383 282.367 m 119.543 292.527 l 109.383 292.527 m 119.543 282.367 l
 S Q
q 1 0 0 -1 0 381.134827 cm
146.902 234.648 m 157.063 234.648 l 151.984 229.566 m 151.984 239.727 l
 146.902 229.566 m 157.063 239.727 l 146.902 239.727 m 157.063 229.566 l
 S Q
q 1 0 0 -1 0 381.134827 cm
183.223 182.086 m 193.383 182.086 l 188.305 177.008 m 188.305 187.168 l
 183.223 177.008 m 193.383 187.168 l 183.223 187.168 m 193.383 177.008 l
 S Q
q 1 0 0 -1 0 381.134827 cm
219.543 144.488 m 229.703 144.488 l 224.625 139.406 m 224.625 149.566 l
 219.543 139.406 m 229.703 149.566 l 219.543 149.566 m 229.703 139.406 l
 S Q
q 1 0 0 -1 0 381.134827 cm
255.863 117.926 m 266.023 117.926 l 260.945 112.848 m 260.945 123.008 l
 255.863 112.848 m 266.023 123.008 l 255.863 123.008 m 266.023 112.848 l
 S Q
q 1 0 0 -1 0 381.134827 cm
292.266 97.605 m 302.426 97.605 l 297.344 92.527 m 297.344 102.688 l 292.266
 92.527 m 302.426 102.688 l 292.266 102.688 m 302.426 92.527 l S Q
q 1 0 0 -1 0 381.134827 cm
328.586 76.809 m 338.746 76.809 l 333.664 71.727 m 333.664 81.887 l 328.586
 71.727 m 338.746 81.887 l 328.586 81.887 m 338.746 71.727 l S Q
q 1 0 0 -1 0 381.134827 cm
364.984 54.727 m 375.145 54.727 l 370.063 49.648 m 370.063 59.809 l 364.984
 49.648 m 375.145 59.809 l 364.984 59.809 m 375.145 49.648 l S Q
q 1 0 0 -1 0 381.134827 cm
390.023 294.898 m 400.184 294.898 l 395.105 289.816 m 395.105 299.977 l
 390.023 289.816 m 400.184 299.977 l 390.023 299.977 m 400.184 289.816 l
 S Q
0.901961 0.623529 0 rg
0.8 w
q 1 0 0 -1 0 381.134827 cm
378.312 314.645 m 410.402 314.664 l 114.465 297.129 m 151.984 247.129 l
 188.305 202.887 l 224.625 171.926 l 260.945 145.605 l 297.344 120.727 l
 333.664 97.527 l 370.062 73.047 l S Q
0.79756 w
q 1 0 0 -1 0 381.134827 cm
109.383 292.047 10.16 10.16 re S Q
q 1 0 0 -1 0 381.134827 cm
146.902 242.047 10.16 10.16 re S Q
q 1 0 0 -1 0 381.134827 cm
183.223 197.809 10.16 10.16 re S Q
q 1 0 0 -1 0 381.134827 cm
219.543 166.848 10.16 10.16 re S Q
q 1 0 0 -1 0 381.134827 cm
255.863 140.527 10.16 10.16 re S Q
q 1 0 0 -1 0 381.134827 cm
292.266 115.648 10.16 10.16 re S Q
q 1 0 0 -1 0 381.134827 cm
328.586 92.445 10.16 10.16 re S Q
q 1 0 0 -1 0 381.134827 cm
364.984 67.969 10.16 10.16 re S Q
q 1 0 0 -1 0 381.134827 cm
390.023 310.137 10.16 10.16 re S Q
0 g
0.8 w
q 1 0 0 -1 0 381.134827 cm
76.062 9.605 361.922 324.402 re S Q
297.008 132.436 m 296.816 132.881 296.754 132.881 296.273 132.881 c 292.871
 132.881 l 292.871 132.244 l 293.348 132.244 l 294.906 132.244 294.938 132.022
 294.938 131.287 c 294.938 121.139 l 294.938 120.596 294.938 119.643 292.871
 119.643 c 292.871 119.006 l 293.57 119.037 294.559 119.068 295.227 119.068
 c 295.895 119.068 296.91 119.037 297.613 119.006 c 297.613 119.643 l 295.512
 119.643 295.512 120.596 295.512 121.139 c 295.512 132.084 l 295.543 132.084
 l 300.445 119.451 l 300.539 119.197 300.633 119.006 300.824 119.006 c 301.047
 119.006 301.113 119.166 301.207 119.389 c 306.203 132.244 l 306.203 120.596
 l 306.203 119.865 306.172 119.643 304.613 119.643 c 304.137 119.643 l 304.137
 119.006 l 304.867 119.068 306.266 119.068 307.062 119.068 c 307.828 119.068
 309.195 119.068 309.957 119.006 c 309.957 119.643 l 309.449 119.643 l 307.891
 119.643 307.859 119.865 307.859 120.596 c 307.859 131.287 l 307.859 132.022
 307.891 132.244 309.449 132.244 c 309.957 132.244 l 309.957 132.881 l 306.523
 132.881 l 305.98 132.881 305.98 132.85 305.852 132.498 c 301.398 121.041
 l h
297.008 132.436 m f
312.965 124.131 m 313.094 127.15 314.812 127.662 315.512 127.662 c 317.578
 127.662 317.801 124.924 317.801 124.131 c h
312.965 123.686 m 318.629 123.686 l 319.074 123.686 319.141 123.686 319.141
 124.131 c 319.141 126.135 318.023 128.107 315.512 128.107 c 313.156 128.107
 311.277 126.006 311.277 123.463 c 311.277 120.756 313.41 118.783 315.734
 118.783 c 318.215 118.783 319.141 121.041 319.141 121.424 c 319.141 121.615
 318.98 121.678 318.852 121.678 c 318.691 121.678 318.629 121.553 318.598
 121.393 c 317.898 119.291 316.051 119.291 315.859 119.291 c 314.844 119.291
 314.047 119.897 313.57 120.662 c 312.965 121.615 312.965 122.951 312.965
 123.686 c h
312.965 123.686 m f
323.223 127.119 m 326.152 127.119 l 326.152 127.756 l 323.223 127.756 l
 323.223 131.479 l 322.715 131.479 l 322.715 129.826 322.109 127.662 320.105
 127.565 c 320.105 127.119 l 321.824 127.119 l 321.824 121.522 l 321.824
 119.037 323.73 118.783 324.465 118.783 c 325.895 118.783 326.469 120.217
 326.469 121.522 c 326.469 122.666 l 325.961 122.666 l 325.961 121.553 l
 325.961 120.057 325.355 119.291 324.59 119.291 c 323.223 119.291 323.223
 121.139 323.223 121.486 c h
323.223 127.119 m f
329.84 120.533 m 329.84 119.643 329.617 119.643 328.25 119.643 c 328.25
 119.006 l 328.98 119.037 330 119.068 330.574 119.068 c 331.082 119.068 
332.133 119.037 332.832 119.006 c 332.832 119.643 l 331.465 119.643 331.242
 119.643 331.242 120.533 c 331.242 124.287 l 331.242 126.389 332.703 127.533
 333.977 127.533 c 335.281 127.533 335.504 126.451 335.504 125.275 c 335.504
 120.533 l 335.504 119.643 335.281 119.643 333.914 119.643 c 333.914 119.006
 l 334.613 119.037 335.664 119.068 336.207 119.068 c 336.715 119.068 337.797
 119.037 338.465 119.006 c 338.465 119.643 l 337.414 119.643 336.906 119.643
 336.906 120.248 c 336.906 124.131 l 336.906 125.881 336.906 126.482 336.27
 127.217 c 335.98 127.565 335.312 127.979 334.137 127.979 c 332.418 127.979
 331.527 126.772 331.176 125.975 c 331.176 133.104 l 328.25 132.881 l 328.25
 132.244 l 329.684 132.244 329.84 132.115 329.84 131.1 c h
329.84 120.533 m f
348.434 123.365 m 348.434 125.943 346.43 128.107 343.977 128.107 c 341.434
 128.107 339.457 125.881 339.457 123.365 c 339.457 120.725 341.559 118.783
 343.945 118.783 c 346.395 118.783 348.434 120.787 348.434 123.365 c h
343.977 119.291 m 343.086 119.291 342.195 119.705 341.656 120.662 c 341.145
 121.553 341.145 122.791 341.145 123.525 c 341.145 124.318 341.145 125.4
 341.621 126.295 c 342.164 127.217 343.117 127.662 343.945 127.662 c 344.836
 127.662 345.695 127.217 346.238 126.326 c 346.777 125.467 346.777 124.287
 346.777 123.525 c 346.777 122.791 346.777 121.678 346.332 120.787 c 345.855
 119.865 344.965 119.291 343.977 119.291 c h
343.977 119.291 m f
357.301 120.119 m 357.301 118.783 l 360.293 119.006 l 360.293 119.643 l
 358.891 119.643 358.699 119.772 358.699 120.787 c 358.699 133.104 l 355.805
 132.881 l 355.805 132.244 l 357.203 132.244 357.363 132.115 357.363 131.1
 c 357.363 126.705 l 356.789 127.44 355.898 127.979 354.816 127.979 c 352.43
 127.979 350.301 125.975 350.301 123.365 c 350.301 120.787 352.273 118.783
 354.594 118.783 c 355.898 118.783 356.789 119.482 357.301 120.119 c h
357.301 125.561 m 357.301 121.393 l 357.301 121.041 357.301 121.01 357.078
 120.662 c 356.473 119.674 355.582 119.229 354.691 119.229 c 353.77 119.229
 353.035 119.772 352.559 120.533 c 352.051 121.361 351.984 122.506 351.984
 123.365 c 351.984 124.096 352.016 125.307 352.59 126.229 c 353.035 126.865
 353.801 127.533 354.914 127.533 c 355.613 127.533 356.473 127.217 357.078
 126.326 c 357.301 125.975 357.301 125.943 357.301 125.561 c h
357.301 125.561 m f
373.609 131.99 m 373.609 132.498 373.609 132.529 373.133 132.529 c 371.859
 131.225 370.078 131.225 369.441 131.225 c 369.441 130.588 l 369.855 130.588
 371.035 130.588 372.082 131.131 c 372.082 120.596 l 372.082 119.865 372.02
 119.643 370.207 119.643 c 369.57 119.643 l 369.57 119.006 l 370.27 119.068
 372.02 119.068 372.848 119.068 c 373.645 119.068 375.426 119.068 376.125
 119.006 c 376.125 119.643 l 375.488 119.643 l 373.645 119.643 373.609 119.865
 373.609 120.596 c h
373.609 131.99 m f
297.008 112.65 m 296.816 113.096 296.754 113.096 296.273 113.096 c 292.871
 113.096 l 292.871 112.459 l 293.348 112.459 l 294.906 112.459 294.938 112.236
 294.938 111.506 c 294.938 101.354 l 294.938 100.815 294.938 99.861 292.871
 99.861 c 292.871 99.225 l 293.57 99.256 294.559 99.287 295.227 99.287 c
 295.895 99.287 296.91 99.256 297.613 99.225 c 297.613 99.861 l 295.512 
99.861 295.512 100.815 295.512 101.354 c 295.512 112.303 l 295.543 112.303
 l 300.445 99.67 l 300.539 99.416 300.633 99.225 300.824 99.225 c 301.047
 99.225 301.113 99.381 301.207 99.604 c 306.203 112.459 l 306.203 100.815
 l 306.203 100.084 306.172 99.861 304.613 99.861 c 304.137 99.861 l 304.137
 99.225 l 304.867 99.287 306.266 99.287 307.062 99.287 c 307.828 99.287 
309.195 99.287 309.957 99.225 c 309.957 99.861 l 309.449 99.861 l 307.891
 99.861 307.859 100.084 307.859 100.815 c 307.859 111.506 l 307.859 112.236
 307.891 112.459 309.449 112.459 c 309.957 112.459 l 309.957 113.096 l 306.523
 113.096 l 305.98 113.096 305.98 113.065 305.852 112.717 c 301.398 101.26
 l h
297.008 112.65 m f
312.965 104.346 m 313.094 107.369 314.812 107.877 315.512 107.877 c 317.578
 107.877 317.801 105.143 317.801 104.346 c h
312.965 103.9 m 318.629 103.9 l 319.074 103.9 319.141 103.9 319.141 104.346
 c 319.141 106.35 318.023 108.322 315.512 108.322 c 313.156 108.322 311.277
 106.225 311.277 103.678 c 311.277 100.975 313.41 99.002 315.734 99.002 
c 318.215 99.002 319.141 101.26 319.141 101.643 c 319.141 101.834 318.98
 101.897 318.852 101.897 c 318.691 101.897 318.629 101.768 318.598 101.611
 c 317.898 99.51 316.051 99.51 315.859 99.51 c 314.844 99.51 314.047 100.115
 313.57 100.877 c 312.965 101.834 312.965 103.17 312.965 103.9 c h
312.965 103.9 m f
323.223 107.338 m 326.152 107.338 l 326.152 107.975 l 323.223 107.975 l
 323.223 111.697 l 322.715 111.697 l 322.715 110.041 322.109 107.877 320.105
 107.783 c 320.105 107.338 l 321.824 107.338 l 321.824 101.736 l 321.824
 99.256 323.73 99.002 324.465 99.002 c 325.895 99.002 326.469 100.432 326.469
 101.736 c 326.469 102.881 l 325.961 102.881 l 325.961 101.768 l 325.961
 100.272 325.355 99.51 324.59 99.51 c 323.223 99.51 323.223 101.354 323.223
 101.705 c h
323.223 107.338 m f
329.84 100.752 m 329.84 99.861 329.617 99.861 328.25 99.861 c 328.25 99.225
 l 328.98 99.256 330 99.287 330.574 99.287 c 331.082 99.287 332.133 99.256
 332.832 99.225 c 332.832 99.861 l 331.465 99.861 331.242 99.861 331.242
 100.752 c 331.242 104.506 l 331.242 106.607 332.703 107.752 333.977 107.752
 c 335.281 107.752 335.504 106.67 335.504 105.49 c 335.504 100.752 l 335.504
 99.861 335.281 99.861 333.914 99.861 c 333.914 99.225 l 334.613 99.256 
335.664 99.287 336.207 99.287 c 336.715 99.287 337.797 99.256 338.465 99.225
 c 338.465 99.861 l 337.414 99.861 336.906 99.861 336.906 100.463 c 336.906
 104.346 l 336.906 106.096 336.906 106.701 336.27 107.432 c 335.98 107.783
 335.312 108.197 334.137 108.197 c 332.418 108.197 331.527 106.986 331.176
 106.193 c 331.176 113.318 l 328.25 113.096 l 328.25 112.459 l 329.684 112.459
 329.84 112.334 329.84 111.315 c h
329.84 100.752 m f
348.434 103.584 m 348.434 106.162 346.43 108.322 343.977 108.322 c 341.434
 108.322 339.457 106.096 339.457 103.584 c 339.457 100.943 341.559 99.002
 343.945 99.002 c 346.395 99.002 348.434 101.006 348.434 103.584 c h
343.977 99.51 m 343.086 99.51 342.195 99.924 341.656 100.877 c 341.145 
101.768 341.145 103.01 341.145 103.74 c 341.145 104.537 341.145 105.619 
341.621 106.51 c 342.164 107.432 343.117 107.877 343.945 107.877 c 344.836
 107.877 345.695 107.432 346.238 106.541 c 346.777 105.682 346.777 104.506
 346.777 103.74 c 346.777 103.01 346.777 101.897 346.332 101.006 c 345.855
 100.084 344.965 99.51 343.977 99.51 c h
343.977 99.51 m f
357.301 100.338 m 357.301 99.002 l 360.293 99.225 l 360.293 99.861 l 358.891
 99.861 358.699 99.986 358.699 101.006 c 358.699 113.318 l 355.805 113.096
 l 355.805 112.459 l 357.203 112.459 357.363 112.334 357.363 111.315 c 357.363
 106.924 l 356.789 107.654 355.898 108.197 354.816 108.197 c 352.43 108.197
 350.301 106.193 350.301 103.584 c 350.301 101.006 352.273 99.002 354.594
 99.002 c 355.898 99.002 356.789 99.701 357.301 100.338 c h
357.301 105.779 m 357.301 101.611 l 357.301 101.26 357.301 101.229 357.078
 100.877 c 356.473 99.893 355.582 99.447 354.691 99.447 c 353.77 99.447 
353.035 99.986 352.559 100.752 c 352.051 101.576 351.984 102.725 351.984
 103.584 c 351.984 104.315 352.016 105.525 352.59 106.447 c 353.035 107.084
 353.801 107.752 354.914 107.752 c 355.613 107.752 356.473 107.432 357.078
 106.541 c 357.301 106.193 357.301 106.162 357.301 105.779 c h
357.301 105.779 m f
370.207 100.783 m 372.371 102.881 l 375.52 105.682 376.73 106.764 376.73
 108.803 c 376.73 111.123 374.914 112.748 372.434 112.748 c 370.141 112.748
 368.648 110.869 368.648 109.057 c 368.648 107.943 369.664 107.943 369.73
 107.943 c 370.078 107.943 370.777 108.166 370.777 109.025 c 370.777 109.533
 370.398 110.076 369.695 110.076 c 369.539 110.076 369.508 110.076 369.441
 110.041 c 369.887 111.381 371 112.111 372.18 112.111 c 374.023 112.111 
374.883 110.455 374.883 108.803 c 374.883 107.178 373.898 105.588 372.75
 104.315 c 368.871 99.986 l 368.648 99.764 368.648 99.701 368.648 99.225
 c 376.188 99.225 l 376.73 102.756 l 376.254 102.756 l 376.125 102.15 375.996
 101.26 375.773 100.943 c 375.648 100.783 374.312 100.783 373.867 100.783
 c h
370.207 100.783 m f
297.008 92.869 m 296.816 93.315 296.754 93.315 296.273 93.315 c 292.871
 93.315 l 292.871 92.678 l 293.348 92.678 l 294.906 92.678 294.938 92.455
 294.938 91.725 c 294.938 81.572 l 294.938 81.033 294.938 80.076 292.871
 80.076 c 292.871 79.44 l 293.57 79.471 294.559 79.506 295.227 79.506 c 
295.895 79.506 296.91 79.471 297.613 79.44 c 297.613 80.076 l 295.512 80.076
 295.512 81.033 295.512 81.572 c 295.512 92.518 l 295.543 92.518 l 300.445
 79.885 l 300.539 79.631 300.633 79.44 300.824 79.44 c 301.047 79.44 301.113
 79.6 301.207 79.822 c 306.203 92.678 l 306.203 81.033 l 306.203 80.299 
306.172 80.076 304.613 80.076 c 304.137 80.076 l 304.137 79.44 l 304.867
 79.506 306.266 79.506 307.062 79.506 c 307.828 79.506 309.195 79.506 309.957
 79.44 c 309.957 80.076 l 309.449 80.076 l 307.891 80.076 307.859 80.299
 307.859 81.033 c 307.859 91.725 l 307.859 92.455 307.891 92.678 309.449
 92.678 c 309.957 92.678 l 309.957 93.315 l 306.523 93.315 l 305.98 93.315
 305.98 93.283 305.852 92.932 c 301.398 81.479 l h
297.008 92.869 m f
312.965 84.565 m 313.094 87.588 314.812 88.096 315.512 88.096 c 317.578
 88.096 317.801 85.357 317.801 84.565 c h
312.965 84.119 m 318.629 84.119 l 319.074 84.119 319.141 84.119 319.141
 84.565 c 319.141 86.568 318.023 88.541 315.512 88.541 c 313.156 88.541 
311.277 86.44 311.277 83.897 c 311.277 81.19 313.41 79.217 315.734 79.217
 c 318.215 79.217 319.141 81.479 319.141 81.857 c 319.141 82.049 318.98 
82.115 318.852 82.115 c 318.691 82.115 318.629 81.986 318.598 81.826 c 317.898
 79.729 316.051 79.729 315.859 79.729 c 314.844 79.729 314.047 80.33 313.57
 81.096 c 312.965 82.049 312.965 83.385 312.965 84.119 c h
312.965 84.119 m f
323.223 87.557 m 326.152 87.557 l 326.152 88.19 l 323.223 88.19 l 323.223
 91.916 l 322.715 91.916 l 322.715 90.26 322.109 88.096 320.105 88.002 c
 320.105 87.557 l 321.824 87.557 l 321.824 81.955 l 321.824 79.471 323.73
 79.217 324.465 79.217 c 325.895 79.217 326.469 80.65 326.469 81.955 c 326.469
 83.1 l 325.961 83.1 l 325.961 81.986 l 325.961 80.49 325.355 79.729 324.59
 79.729 c 323.223 79.729 323.223 81.572 323.223 81.924 c h
323.223 87.557 m f
329.84 80.967 m 329.84 80.076 329.617 80.076 328.25 80.076 c 328.25 79.44
 l 328.98 79.471 330 79.506 330.574 79.506 c 331.082 79.506 332.133 79.471
 332.832 79.44 c 332.832 80.076 l 331.465 80.076 331.242 80.076 331.242 
80.967 c 331.242 84.725 l 331.242 86.822 332.703 87.967 333.977 87.967 c
 335.281 87.967 335.504 86.885 335.504 85.709 c 335.504 80.967 l 335.504
 80.076 335.281 80.076 333.914 80.076 c 333.914 79.44 l 334.613 79.471 335.664
 79.506 336.207 79.506 c 336.715 79.506 337.797 79.471 338.465 79.44 c 338.465
 80.076 l 337.414 80.076 336.906 80.076 336.906 80.682 c 336.906 84.565 
l 336.906 86.315 336.906 86.92 336.27 87.65 c 335.98 88.002 335.312 88.416
 334.137 88.416 c 332.418 88.416 331.527 87.205 331.176 86.408 c 331.176
 93.537 l 328.25 93.315 l 328.25 92.678 l 329.684 92.678 329.84 92.553 329.84
 91.533 c h
329.84 80.967 m f
348.434 83.799 m 348.434 86.377 346.43 88.541 343.977 88.541 c 341.434 
88.541 339.457 86.315 339.457 83.799 c 339.457 81.158 341.559 79.217 343.945
 79.217 c 346.395 79.217 348.434 81.221 348.434 83.799 c h
343.977 79.729 m 343.086 79.729 342.195 80.139 341.656 81.096 c 341.145
 81.986 341.145 83.229 341.145 83.959 c 341.145 84.756 341.145 85.838 341.621
 86.729 c 342.164 87.65 343.117 88.096 343.945 88.096 c 344.836 88.096 345.695
 87.65 346.238 86.76 c 346.777 85.9 346.777 84.725 346.777 83.959 c 346.777
 83.229 346.777 82.115 346.332 81.221 c 345.855 80.299 344.965 79.729 343.977
 79.729 c h
343.977 79.729 m f
357.301 80.553 m 357.301 79.217 l 360.293 79.44 l 360.293 80.076 l 358.891
 80.076 358.699 80.205 358.699 81.221 c 358.699 93.537 l 355.805 93.315 
l 355.805 92.678 l 357.203 92.678 357.363 92.553 357.363 91.533 c 357.363
 87.143 l 356.789 87.873 355.898 88.416 354.816 88.416 c 352.43 88.416 350.301
 86.408 350.301 83.799 c 350.301 81.221 352.273 79.217 354.594 79.217 c 
355.898 79.217 356.789 79.916 357.301 80.553 c h
357.301 85.994 m 357.301 81.826 l 357.301 81.479 357.301 81.443 357.078
 81.096 c 356.473 80.107 355.582 79.662 354.691 79.662 c 353.77 79.662 353.035
 80.205 352.559 80.967 c 352.051 81.795 351.984 82.94 351.984 83.799 c 351.984
 84.533 352.016 85.74 352.59 86.662 c 353.035 87.299 353.801 87.967 354.914
 87.967 c 355.613 87.967 356.473 87.65 357.078 86.76 c 357.301 86.408 357.301
 86.377 357.301 85.994 c h
357.301 85.994 m f
373.516 86.6 m 375.172 87.143 376.348 88.541 376.348 90.166 c 376.348 91.818
 374.566 92.963 372.625 92.963 c 370.586 92.963 369.027 91.756 369.027 90.197
 c 369.027 89.529 369.473 89.147 370.078 89.147 c 370.684 89.147 371.098
 89.592 371.098 90.197 c 371.098 91.182 370.141 91.182 369.855 91.182 c 
370.461 92.201 371.797 92.455 372.527 92.455 c 373.387 92.455 374.5 92.01
 374.5 90.197 c 374.5 89.943 374.438 88.764 373.93 87.873 c 373.324 86.885
 372.625 86.822 372.113 86.822 c 371.957 86.791 371.48 86.76 371.32 86.76
 c 371.16 86.729 371.035 86.697 371.035 86.506 c 371.035 86.283 371.16 86.283
 371.512 86.283 c 372.402 86.283 l 374.055 86.283 374.82 84.912 374.82 82.908
 c 374.82 80.139 373.418 79.568 372.527 79.568 c 371.637 79.568 370.109 
79.916 369.41 81.096 c 370.109 80.998 370.746 81.443 370.746 82.209 c 370.746
 82.94 370.207 83.354 369.633 83.354 c 369.125 83.354 368.488 83.068 368.488
 82.178 c 368.488 80.33 370.363 78.994 372.594 78.994 c 375.074 78.994 376.922
 80.842 376.922 82.908 c 376.922 84.565 375.617 86.154 373.516 86.6 c h
373.516 86.6 m f
297.008 73.088 m 296.816 73.533 296.754 73.533 296.273 73.533 c 292.871
 73.533 l 292.871 72.897 l 293.348 72.897 l 294.906 72.897 294.938 72.674
 294.938 71.94 c 294.938 61.791 l 294.938 61.248 294.938 60.295 292.871 
60.295 c 292.871 59.658 l 293.57 59.69 294.559 59.721 295.227 59.721 c 295.895
 59.721 296.91 59.69 297.613 59.658 c 297.613 60.295 l 295.512 60.295 295.512
 61.248 295.512 61.791 c 295.512 72.736 l 295.543 72.736 l 300.445 60.104
 l 300.539 59.85 300.633 59.658 300.824 59.658 c 301.047 59.658 301.113 
59.818 301.207 60.041 c 306.203 72.897 l 306.203 61.248 l 306.203 60.518
 306.172 60.295 304.613 60.295 c 304.137 60.295 l 304.137 59.658 l 304.867
 59.721 306.266 59.721 307.062 59.721 c 307.828 59.721 309.195 59.721 309.957
 59.658 c 309.957 60.295 l 309.449 60.295 l 307.891 60.295 307.859 60.518
 307.859 61.248 c 307.859 71.94 l 307.859 72.674 307.891 72.897 309.449 
72.897 c 309.957 72.897 l 309.957 73.533 l 306.523 73.533 l 305.98 73.533
 305.98 73.502 305.852 73.15 c 301.398 61.693 l h
297.008 73.088 m f
312.965 64.779 m 313.094 67.803 314.812 68.315 315.512 68.315 c 317.578
 68.315 317.801 65.576 317.801 64.779 c h
312.965 64.334 m 318.629 64.334 l 319.074 64.334 319.141 64.334 319.141
 64.779 c 319.141 66.787 318.023 68.76 315.512 68.76 c 313.156 68.76 311.277
 66.658 311.277 64.111 c 311.277 61.408 313.41 59.436 315.734 59.436 c 318.215
 59.436 319.141 61.693 319.141 62.076 c 319.141 62.268 318.98 62.33 318.852
 62.33 c 318.691 62.33 318.629 62.205 318.598 62.045 c 317.898 59.943 316.051
 59.943 315.859 59.943 c 314.844 59.943 314.047 60.549 313.57 61.311 c 312.965
 62.268 312.965 63.604 312.965 64.334 c h
312.965 64.334 m f
323.223 67.772 m 326.152 67.772 l 326.152 68.408 l 323.223 68.408 l 323.223
 72.131 l 322.715 72.131 l 322.715 70.479 322.109 68.315 320.105 68.217 
c 320.105 67.772 l 321.824 67.772 l 321.824 62.17 l 321.824 59.69 323.73
 59.436 324.465 59.436 c 325.895 59.436 326.469 60.865 326.469 62.17 c 326.469
 63.318 l 325.961 63.318 l 325.961 62.205 l 325.961 60.709 325.355 59.943
 324.59 59.943 c 323.223 59.943 323.223 61.791 323.223 62.139 c h
323.223 67.772 m f
329.84 61.186 m 329.84 60.295 329.617 60.295 328.25 60.295 c 328.25 59.658
 l 328.98 59.69 330 59.721 330.574 59.721 c 331.082 59.721 332.133 59.69
 332.832 59.658 c 332.832 60.295 l 331.465 60.295 331.242 60.295 331.242
 61.186 c 331.242 64.94 l 331.242 67.041 332.703 68.186 333.977 68.186 c
 335.281 68.186 335.504 67.104 335.504 65.928 c 335.504 61.186 l 335.504
 60.295 335.281 60.295 333.914 60.295 c 333.914 59.658 l 334.613 59.69 335.664
 59.721 336.207 59.721 c 336.715 59.721 337.797 59.69 338.465 59.658 c 338.465
 60.295 l 337.414 60.295 336.906 60.295 336.906 60.9 c 336.906 64.779 l 
336.906 66.529 336.906 67.135 336.27 67.869 c 335.98 68.217 335.312 68.631
 334.137 68.631 c 332.418 68.631 331.527 67.424 331.176 66.627 c 331.176
 73.756 l 328.25 73.533 l 328.25 72.897 l 329.684 72.897 329.84 72.768 329.84
 71.748 c h
329.84 61.186 m f
348.434 64.018 m 348.434 66.596 346.43 68.76 343.977 68.76 c 341.434 68.76
 339.457 66.529 339.457 64.018 c 339.457 61.377 341.559 59.436 343.945 59.436
 c 346.395 59.436 348.434 61.44 348.434 64.018 c h
343.977 59.943 m 343.086 59.943 342.195 60.357 341.656 61.311 c 341.145
 62.205 341.145 63.443 341.145 64.178 c 341.145 64.971 341.145 66.053 341.621
 66.943 c 342.164 67.869 343.117 68.315 343.945 68.315 c 344.836 68.315 
345.695 67.869 346.238 66.979 c 346.777 66.119 346.777 64.94 346.777 64.178
 c 346.777 63.443 346.777 62.33 346.332 61.44 c 345.855 60.518 344.965 59.943
 343.977 59.943 c h
343.977 59.943 m f
357.301 60.772 m 357.301 59.436 l 360.293 59.658 l 360.293 60.295 l 358.891
 60.295 358.699 60.42 358.699 61.44 c 358.699 73.756 l 355.805 73.533 l 
355.805 72.897 l 357.203 72.897 357.363 72.768 357.363 71.748 c 357.363 
67.357 l 356.789 68.092 355.898 68.631 354.816 68.631 c 352.43 68.631 350.301
 66.627 350.301 64.018 c 350.301 61.44 352.273 59.436 354.594 59.436 c 355.898
 59.436 356.789 60.135 357.301 60.772 c h
357.301 66.213 m 357.301 62.045 l 357.301 61.693 357.301 61.662 357.078
 61.311 c 356.473 60.326 355.582 59.881 354.691 59.881 c 353.77 59.881 353.035
 60.42 352.559 61.186 c 352.051 62.014 351.984 63.158 351.984 64.018 c 351.984
 64.748 352.016 65.959 352.59 66.881 c 353.035 67.518 353.801 68.186 354.914
 68.186 c 355.613 68.186 356.473 67.869 357.078 66.979 c 357.301 66.627 
357.301 66.596 357.301 66.213 c h
357.301 66.213 m f
373.609 62.998 m 373.609 61.248 l 373.609 60.518 373.547 60.295 372.051
 60.295 c 371.637 60.295 l 371.637 59.658 l 372.465 59.721 373.516 59.721
 374.375 59.721 c 375.234 59.721 376.285 59.721 377.145 59.658 c 377.145
 60.295 l 376.699 60.295 l 375.203 60.295 375.172 60.518 375.172 61.248 
c 375.172 62.998 l 377.176 62.998 l 377.176 63.635 l 375.172 63.635 l 375.172
 72.865 l 375.172 73.275 375.172 73.404 374.82 73.404 c 374.66 73.404 374.598
 73.404 374.438 73.15 c 368.203 63.635 l 368.203 62.998 l h
373.707 63.635 m 368.773 63.635 l 373.707 71.209 l h
373.707 63.635 m f
174.434 13.811 m 174.242 14.065 174.242 14.096 173.859 14.096 c 170.391
 14.096 l 170.391 13.459 l 170.996 13.459 l 171.281 13.459 171.695 13.428
 171.98 13.428 c 172.461 13.365 172.492 13.334 172.492 12.951 c 172.492 
2.354 l 172.492 1.815 172.492 0.857 170.391 0.857 c 170.391 0.225 l 171.09
 0.256 172.109 0.287 172.777 0.287 c 173.445 0.287 174.434 0.256 175.133
 0.225 c 175.133 0.857 l 173.062 0.857 173.062 1.815 173.062 2.354 c 173.062
 12.92 l 173.16 12.822 173.16 12.791 173.254 12.666 c 181.527 0.479 l 181.719
 0.256 181.75 0.225 181.879 0.225 c 182.164 0.225 182.164 0.35 182.164 0.764
 c 182.164 11.963 l 182.164 12.506 182.164 13.459 184.266 13.459 c 184.266
 14.096 l 183.531 14.065 182.547 14.033 181.879 14.033 c 181.211 14.033 
180.223 14.065 179.523 14.096 c 179.523 13.459 l 181.594 13.459 181.594 
12.506 181.594 11.963 c 181.594 3.279 l h
174.434 13.811 m f
192.863 1.815 m 192.863 -0.002 l 195.789 0.225 l 195.789 0.857 l 194.391
 0.857 194.23 0.986 194.23 2.006 c 194.23 9.197 l 191.242 8.975 l 191.242
 8.338 l 192.641 8.338 192.832 8.209 192.832 7.193 c 192.832 3.596 l 192.832
 1.815 191.844 0.447 190.348 0.447 c 188.664 0.447 188.566 1.4 188.566 2.451
 c 188.566 9.197 l 185.578 8.975 l 185.578 8.338 l 187.168 8.338 187.168
 8.275 187.168 6.49 c 187.168 3.436 l 187.168 1.846 187.168 -0.002 190.254
 -0.002 c 191.398 -0.002 192.289 0.572 192.863 1.815 c h
192.863 1.815 m f
198.441 7.193 m 198.441 1.752 l 198.441 0.857 198.219 0.857 196.848 0.857
 c 196.848 0.225 l 197.582 0.256 198.598 0.287 199.172 0.287 c 199.68 0.287
 200.73 0.256 201.43 0.225 c 201.43 0.857 l 200.062 0.857 199.84 0.857 199.84
 1.752 c 199.84 5.506 l 199.84 7.604 201.305 8.752 202.578 8.752 c 203.883
 8.752 204.105 7.67 204.105 6.49 c 204.105 1.752 l 204.105 0.857 203.883
 0.857 202.512 0.857 c 202.512 0.225 l 203.215 0.256 204.262 0.287 204.805
 0.287 c 205.312 0.287 206.395 0.256 207.062 0.225 c 207.062 0.857 l 205.727
 0.857 205.504 0.857 205.504 1.752 c 205.504 5.506 l 205.504 7.604 206.938
 8.752 208.242 8.752 c 209.516 8.752 209.738 7.67 209.738 6.49 c 209.738
 1.752 l 209.738 0.857 209.516 0.857 208.145 0.857 c 208.145 0.225 l 208.848
 0.256 209.895 0.287 210.438 0.287 c 210.977 0.287 212.027 0.256 212.727
 0.225 c 212.727 0.857 l 211.68 0.857 211.168 0.857 211.137 1.463 c 211.137
 5.346 l 211.137 7.096 211.137 7.701 210.5 8.432 c 210.215 8.783 209.547
 9.197 208.367 9.197 c 206.684 9.197 205.758 7.986 205.441 7.193 c 205.156
 8.975 203.66 9.197 202.734 9.197 c 201.242 9.197 200.285 8.338 199.715 
7.065 c 199.715 9.197 l 196.848 8.975 l 196.848 8.338 l 198.281 8.338 198.441
 8.209 198.441 7.193 c h
198.441 7.193 m f
216.051 7.893 m 216.051 14.318 l 213.125 14.096 l 213.125 13.459 l 214.555
 13.459 214.715 13.334 214.715 12.315 c 214.715 0.225 l 215.227 0.225 l 
215.227 0.256 215.383 0.541 215.957 1.494 c 216.242 1.018 217.102 -0.002
 218.598 -0.002 c 221.016 -0.002 223.117 2.006 223.117 4.615 c 223.117 7.193
 221.145 9.197 218.82 9.197 c 217.23 9.197 216.371 8.24 216.051 7.893 c 
h
216.117 2.545 m 216.117 6.713 l 216.117 7.096 216.117 7.127 216.34 7.447
 c 217.133 8.592 218.246 8.752 218.727 8.752 c 219.648 8.752 220.379 8.209
 220.855 7.447 c 221.398 6.619 221.43 5.475 221.43 4.615 c 221.43 3.881 
221.398 2.674 220.824 1.752 c 220.379 1.115 219.617 0.447 218.535 0.447 
c 217.613 0.447 216.879 0.924 216.402 1.686 c 216.117 2.1 216.117 2.162 
216.117 2.545 c h
216.117 2.545 m f
226.652 5.346 m 226.781 8.369 228.496 8.877 229.199 8.877 c 231.266 8.877
 231.488 6.143 231.488 5.346 c h
226.652 4.9 m 232.316 4.9 l 232.762 4.9 232.824 4.9 232.824 5.346 c 232.824
 7.35 231.711 9.322 229.199 9.322 c 226.844 9.322 224.965 7.225 224.965 
4.678 c 224.965 1.975 227.098 -0.002 229.422 -0.002 c 231.902 -0.002 232.824
 2.26 232.824 2.643 c 232.824 2.834 232.668 2.897 232.539 2.897 c 232.379
 2.897 232.316 2.768 232.285 2.607 c 231.586 0.51 229.738 0.51 229.547 0.51
 c 228.531 0.51 227.734 1.115 227.258 1.877 c 226.652 2.834 226.652 4.17
 226.652 4.9 c h
226.652 4.9 m f
236.812 6.971 m 236.812 9.197 l 233.98 8.975 l 233.98 8.338 l 235.414 8.338
 235.574 8.209 235.574 7.193 c 235.574 1.752 l 235.574 0.857 235.352 0.857
 233.98 0.857 c 233.98 0.225 l 234.777 0.256 235.734 0.287 236.305 0.287
 c 237.102 0.287 238.055 0.287 238.883 0.225 c 238.883 0.857 l 238.438 0.857
 l 236.941 0.857 236.91 1.08 236.91 1.815 c 236.91 4.932 l 236.91 6.936 
237.77 8.752 239.297 8.752 c 239.422 8.752 239.488 8.752 239.52 8.721 c 
239.457 8.721 239.043 8.463 239.043 7.924 c 239.043 7.381 239.488 7.065 
239.934 7.065 c 240.281 7.065 240.793 7.318 240.793 7.955 c 240.793 8.592
 240.156 9.197 239.297 9.197 c 237.801 9.197 237.07 7.826 236.812 6.971 
c h
236.812 6.971 m f
257.66 4.584 m 257.66 7.158 255.656 9.322 253.203 9.322 c 250.66 9.322 
248.688 7.096 248.688 4.584 c 248.688 1.94 250.785 -0.002 253.172 -0.002
 c 255.625 -0.002 257.66 2.006 257.66 4.584 c h
253.203 0.51 m 252.312 0.51 251.422 0.924 250.883 1.877 c 250.371 2.768
 250.371 4.01 250.371 4.74 c 250.371 5.537 250.371 6.619 250.852 7.51 c 
251.391 8.432 252.344 8.877 253.172 8.877 c 254.062 8.877 254.922 8.432 
255.465 7.541 c 256.004 6.682 256.004 5.506 256.004 4.74 c 256.004 4.01 
256.004 2.897 255.559 2.006 c 255.082 1.08 254.191 0.51 253.203 0.51 c h
253.203 0.51 m f
261.82 8.975 m 261.82 11.33 l 261.82 13.111 262.777 14.096 263.668 14.096
 c 263.73 14.096 264.051 14.096 264.336 13.94 c 264.113 13.873 263.73 13.588
 263.73 13.08 c 263.73 12.635 264.051 12.221 264.621 12.221 c 265.195 12.221
 265.512 12.635 265.512 13.111 c 265.512 13.873 264.75 14.541 263.668 14.541
 c 262.27 14.541 260.516 13.459 260.516 11.295 c 260.516 8.975 l 258.926
 8.975 l 258.926 8.338 l 260.516 8.338 l 260.516 1.752 l 260.516 0.857 260.293
 0.857 258.957 0.857 c 258.957 0.225 l 259.754 0.256 260.707 0.287 261.25
 0.287 c 262.078 0.287 263.031 0.287 263.828 0.225 c 263.828 0.857 l 263.414
 0.857 l 261.918 0.857 261.887 1.08 261.887 1.815 c 261.887 8.338 l 264.176
 8.338 l 264.176 8.975 l h
261.82 8.975 m f
273.496 5.346 m 273.621 8.369 275.34 8.877 276.039 8.877 c 278.109 8.877
 278.332 6.143 278.332 5.346 c h
273.496 4.9 m 279.16 4.9 l 279.605 4.9 279.668 4.9 279.668 5.346 c 279.668
 7.35 278.555 9.322 276.039 9.322 c 273.688 9.322 271.809 7.225 271.809 
4.678 c 271.809 1.975 273.941 -0.002 276.262 -0.002 c 278.746 -0.002 279.668
 2.26 279.668 2.643 c 279.668 2.834 279.508 2.897 279.383 2.897 c 279.223
 2.897 279.16 2.768 279.129 2.607 c 278.426 0.51 276.582 0.51 276.391 0.51
 c 275.371 0.51 274.578 1.115 274.098 1.877 c 273.496 2.834 273.496 4.17
 273.496 4.9 c h
273.496 4.9 m f
283.848 14.318 m 280.922 14.096 l 280.922 13.459 l 282.352 13.459 282.512
 13.334 282.512 12.315 c 282.512 1.752 l 282.512 0.857 282.289 0.857 280.922
 0.857 c 280.922 0.225 l 281.59 0.256 282.672 0.287 283.18 0.287 c 283.688
 0.287 284.676 0.256 285.438 0.225 c 285.438 0.857 l 284.07 0.857 283.848
 0.857 283.848 1.752 c h
283.848 14.318 m f
288.148 5.346 m 288.273 8.369 289.992 8.877 290.695 8.877 c 292.762 8.877
 292.984 6.143 292.984 5.346 c h
288.148 4.9 m 293.812 4.9 l 294.258 4.9 294.32 4.9 294.32 5.346 c 294.32
 7.35 293.207 9.322 290.695 9.322 c 288.34 9.322 286.461 7.225 286.461 4.678
 c 286.461 1.975 288.594 -0.002 290.918 -0.002 c 293.398 -0.002 294.32 2.26
 294.32 2.643 c 294.32 2.834 294.16 2.897 294.035 2.897 c 293.875 2.897 
293.812 2.768 293.781 2.607 c 293.082 0.51 291.234 0.51 291.043 0.51 c 290.023
 0.51 289.23 1.115 288.754 1.877 c 288.148 2.834 288.148 4.17 288.148 4.9
 c h
288.148 4.9 m f
297.133 7.193 m 297.133 1.752 l 297.133 0.857 296.91 0.857 295.543 0.857
 c 295.543 0.225 l 296.273 0.256 297.293 0.287 297.863 0.287 c 298.375 0.287
 299.422 0.256 300.125 0.225 c 300.125 0.857 l 298.754 0.857 298.531 0.857
 298.531 1.752 c 298.531 5.506 l 298.531 7.604 299.996 8.752 301.27 8.752
 c 302.574 8.752 302.797 7.67 302.797 6.49 c 302.797 1.752 l 302.797 0.857
 302.574 0.857 301.207 0.857 c 301.207 0.225 l 301.906 0.256 302.957 0.287
 303.496 0.287 c 304.008 0.287 305.09 0.256 305.758 0.225 c 305.758 0.857
 l 304.418 0.857 304.195 0.857 304.195 1.752 c 304.195 5.506 l 304.195 7.604
 305.629 8.752 306.934 8.752 c 308.207 8.752 308.43 7.67 308.43 6.49 c 308.43
 1.752 l 308.43 0.857 308.207 0.857 306.84 0.857 c 306.84 0.225 l 307.539
 0.256 308.59 0.287 309.129 0.287 c 309.672 0.287 310.719 0.256 311.422 
0.225 c 311.422 0.857 l 310.371 0.857 309.859 0.857 309.828 1.463 c 309.828
 5.346 l 309.828 7.096 309.828 7.701 309.191 8.432 c 308.906 8.783 308.238
 9.197 307.062 9.197 c 305.375 9.197 304.453 7.986 304.133 7.193 c 303.848
 8.975 302.352 9.197 301.43 9.197 c 299.934 9.197 298.977 8.338 298.406 
7.065 c 298.406 9.197 l 295.543 8.975 l 295.543 8.338 l 296.973 8.338 297.133
 8.209 297.133 7.193 c h
297.133 7.193 m f
314.07 5.346 m 314.199 8.369 315.918 8.877 316.617 8.877 c 318.688 8.877
 318.91 6.143 318.91 5.346 c h
314.07 4.9 m 319.734 4.9 l 320.18 4.9 320.246 4.9 320.246 5.346 c 320.246
 7.35 319.133 9.322 316.617 9.322 c 314.262 9.322 312.387 7.225 312.387 
4.678 c 312.387 1.975 314.516 -0.002 316.84 -0.002 c 319.324 -0.002 320.246
 2.26 320.246 2.643 c 320.246 2.834 320.086 2.897 319.957 2.897 c 319.801
 2.897 319.734 2.768 319.703 2.607 c 319.004 0.51 317.16 0.51 316.969 0.51
 c 315.949 0.51 315.152 1.115 314.676 1.877 c 314.07 2.834 314.07 4.17 314.07
 4.9 c h
314.07 4.9 m f
323.055 7.193 m 323.055 1.752 l 323.055 0.857 322.832 0.857 321.465 0.857
 c 321.465 0.225 l 322.199 0.256 323.215 0.287 323.789 0.287 c 324.297 0.287
 325.348 0.256 326.047 0.225 c 326.047 0.857 l 324.68 0.857 324.457 0.857
 324.457 1.752 c 324.457 5.506 l 324.457 7.604 325.922 8.752 327.191 8.752
 c 328.496 8.752 328.723 7.67 328.723 6.49 c 328.723 1.752 l 328.723 0.857
 328.496 0.857 327.129 0.857 c 327.129 0.225 l 327.828 0.256 328.879 0.287
 329.422 0.287 c 329.93 0.287 331.012 0.256 331.68 0.225 c 331.68 0.857 
l 330.629 0.857 330.121 0.857 330.121 1.463 c 330.121 5.346 l 330.121 7.096
 330.121 7.701 329.484 8.432 c 329.199 8.783 328.531 9.197 327.352 9.197
 c 325.855 9.197 324.902 8.338 324.328 7.065 c 324.328 9.197 l 321.465 8.975
 l 321.465 8.338 l 322.898 8.338 323.055 8.209 323.055 7.193 c h
323.055 7.193 m f
335.035 8.338 m 337.961 8.338 l 337.961 8.975 l 335.035 8.975 l 335.035
 12.697 l 334.523 12.697 l 334.523 11.041 333.922 8.877 331.914 8.783 c 
331.914 8.338 l 333.633 8.338 l 333.633 2.736 l 333.633 0.256 335.543 -0.002
 336.273 -0.002 c 337.707 -0.002 338.281 1.432 338.281 2.736 c 338.281 3.881
 l 337.77 3.881 l 337.77 2.768 l 337.77 1.272 337.168 0.51 336.402 0.51 
c 335.035 0.51 335.035 2.354 335.035 2.705 c h
335.035 8.338 m f
343.656 4.17 m 344.102 4.072 345.758 3.756 345.758 2.291 c 345.758 1.272
 345.059 0.447 343.465 0.447 c 341.746 0.447 341.016 1.592 340.633 3.342
 c 340.57 3.596 340.57 3.658 340.348 3.658 c 340.094 3.658 340.094 3.533
 340.094 3.182 c 340.094 0.479 l 340.094 0.127 340.094 -0.002 340.316 -0.002
 c 340.41 -0.002 340.441 0.033 340.824 0.412 c 340.855 0.447 340.855 0.479
 341.238 0.857 c 342.129 0.033 343.051 -0.002 343.465 -0.002 c 345.789 -0.002
 346.742 1.369 346.742 2.834 c 346.742 3.881 346.141 4.518 345.883 4.74 
c 345.215 5.408 344.422 5.568 343.562 5.729 c 342.414 5.951 341.078 6.205
 341.078 7.381 c 341.078 8.115 341.59 8.943 343.34 8.943 c 345.566 8.943
 345.691 7.096 345.727 6.49 c 345.727 6.299 345.918 6.299 345.949 6.299 
c 346.234 6.299 346.234 6.397 346.234 6.779 c 346.234 8.846 l 346.234 9.166
 346.234 9.322 346.012 9.322 c 345.918 9.322 345.852 9.322 345.598 9.068
 c 345.535 9.006 345.344 8.815 345.246 8.752 c 344.484 9.322 343.656 9.322
 343.34 9.322 c 340.855 9.322 340.094 7.955 340.094 6.811 c 340.094 6.111
 340.41 5.537 340.953 5.092 c 341.621 4.584 342.191 4.455 343.656 4.17 c
 h
343.656 4.17 m f
50.098 182.022 m 50.098 182.529 50.098 182.561 49.621 182.561 c 48.348 
181.256 46.566 181.256 45.93 181.256 c 45.93 180.619 l 46.344 180.619 47.52
 180.619 48.57 181.162 c 48.57 170.627 l 48.57 169.897 48.508 169.674 46.691
 169.674 c 46.055 169.674 l 46.055 169.037 l 46.758 169.1 48.508 169.1 49.332
 169.1 c 50.129 169.1 51.91 169.1 52.609 169.037 c 52.609 169.674 l 51.977
 169.674 l 50.129 169.674 50.098 169.897 50.098 170.627 c h
50.098 182.022 m f
63.582 175.529 m 63.582 177.15 63.488 178.775 62.789 180.272 c 61.863 182.244
 60.18 182.561 59.352 182.561 c 58.109 182.561 56.645 182.022 55.789 180.143
 c 55.152 178.744 55.055 177.15 55.055 175.529 c 55.055 174.002 55.117 172.19
 55.977 170.627 c 56.836 169.006 58.332 168.592 59.32 168.592 c 60.402 168.592
 61.961 169.006 62.852 170.947 c 63.488 172.346 63.582 173.94 63.582 175.529
 c h
59.32 169.037 m 58.523 169.037 57.316 169.545 56.965 171.486 c 56.742 172.697
 56.742 174.576 56.742 175.783 c 56.742 177.088 56.742 178.424 56.902 179.506
 c 57.281 181.924 58.809 182.115 59.32 182.115 c 59.988 182.115 61.324 181.732
 61.707 179.729 c 61.93 178.584 61.93 177.057 61.93 175.783 c 61.93 174.256
 61.93 172.889 61.707 171.584 c 61.387 169.643 60.242 169.037 59.32 169.037
 c h
59.32 169.037 m f
71.566 178.979 m 71.086 178.979 l 71.055 178.658 70.898 177.83 70.707 177.705
 c 70.609 177.607 69.527 177.607 69.305 177.607 c 66.695 177.607 l 68.191
 178.912 68.703 179.326 69.527 179.994 c 70.578 180.822 71.566 181.713 71.566
 183.049 c 71.566 184.768 70.07 185.818 68.254 185.818 c 66.504 185.818 
65.297 184.576 65.297 183.272 c 65.297 182.572 65.902 182.479 66.059 182.479
 c 66.379 182.479 66.793 182.732 66.793 183.24 c 66.793 183.494 66.695 184.006
 65.965 184.006 c 66.41 184.99 67.363 185.311 68.031 185.311 c 69.465 185.311
 70.195 184.197 70.195 183.049 c 70.195 181.811 69.305 180.854 68.859 180.346
 c 65.457 176.94 l 65.297 176.815 65.297 176.783 65.297 176.4 c 71.152 176.4
 l h
71.566 178.979 m f
67.164 34.236 m 67.164 34.744 67.164 34.775 66.684 34.775 c 65.414 33.471
 63.629 33.471 62.992 33.471 c 62.992 32.834 l 63.406 32.834 64.586 32.834
 65.637 33.377 c 65.637 22.842 l 65.637 22.111 65.57 21.889 63.758 21.889
 c 63.121 21.889 l 63.121 21.252 l 63.82 21.315 65.57 21.315 66.398 21.315
 c 67.195 21.315 68.977 21.315 69.676 21.252 c 69.676 21.889 l 69.039 21.889
 l 67.195 21.889 67.164 22.111 67.164 22.842 c h
67.164 34.236 m f
80.648 27.744 m 80.648 29.365 80.555 30.99 79.852 32.486 c 78.93 34.459
 77.242 34.775 76.418 34.775 c 75.176 34.775 73.711 34.236 72.852 32.357
 c 72.215 30.959 72.121 29.365 72.121 27.744 c 72.121 26.217 72.184 24.4
 73.043 22.842 c 73.902 21.221 75.398 20.807 76.383 20.807 c 77.465 20.807
 79.027 21.221 79.918 23.162 c 80.555 24.561 80.648 26.15 80.648 27.744 
c h
76.383 21.252 m 75.59 21.252 74.379 21.76 74.031 23.701 c 73.809 24.912
 73.809 26.787 73.809 27.998 c 73.809 29.303 73.809 30.639 73.965 31.721
 c 74.348 34.139 75.875 34.33 76.383 34.33 c 77.051 34.33 78.391 33.947 
78.77 31.943 c 78.992 30.799 78.992 29.272 78.992 27.998 c 78.992 26.471
 78.992 25.104 78.77 23.799 c 78.453 21.857 77.309 21.252 76.383 21.252 
c h
76.383 21.252 m f
88.629 31.193 m 88.152 31.193 l 88.121 30.873 87.961 30.045 87.77 29.92
 c 87.676 29.822 86.594 29.822 86.371 29.822 c 83.762 29.822 l 85.258 31.127
 85.766 31.541 86.594 32.209 c 87.645 33.037 88.629 33.928 88.629 35.264
 c 88.629 36.982 87.133 38.033 85.32 38.033 c 83.57 38.033 82.363 36.791
 82.363 35.486 c 82.363 34.787 82.965 34.693 83.125 34.693 c 83.445 34.693
 83.855 34.947 83.855 35.455 c 83.855 35.709 83.762 36.221 83.031 36.221
 c 83.477 37.205 84.43 37.525 85.098 37.525 c 86.531 37.525 87.262 36.412
 87.262 35.264 c 87.262 34.025 86.371 33.068 85.926 32.561 c 82.52 29.154
 l 82.363 29.029 82.363 28.994 82.363 28.615 c 88.215 28.615 l h
88.629 31.193 m f
50.098 377.338 m 50.098 377.846 50.098 377.877 49.621 377.877 c 48.348 
376.572 46.566 376.572 45.93 376.572 c 45.93 375.936 l 46.344 375.936 47.52
 375.936 48.57 376.479 c 48.57 365.943 l 48.57 365.213 48.508 364.99 46.691
 364.99 c 46.055 364.99 l 46.055 364.354 l 46.758 364.416 48.508 364.416
 49.332 364.416 c 50.129 364.416 51.91 364.416 52.609 364.354 c 52.609 364.99
 l 51.977 364.99 l 50.129 364.99 50.098 365.213 50.098 365.943 c h
50.098 377.338 m f
63.582 370.846 m 63.582 372.467 63.488 374.092 62.789 375.588 c 61.863 
377.561 60.18 377.877 59.352 377.877 c 58.109 377.877 56.645 377.338 55.789
 375.459 c 55.152 374.061 55.055 372.467 55.055 370.846 c 55.055 369.318
 55.117 367.502 55.977 365.943 c 56.836 364.322 58.332 363.908 59.32 363.908
 c 60.402 363.908 61.961 364.322 62.852 366.264 c 63.488 367.662 63.582 
369.252 63.582 370.846 c h
59.32 364.354 m 58.523 364.354 57.316 364.861 56.965 366.803 c 56.742 368.014
 56.742 369.889 56.742 371.1 c 56.742 372.404 56.742 373.74 56.902 374.822
 c 57.281 377.24 58.809 377.432 59.32 377.432 c 59.988 377.432 61.324 377.049
 61.707 375.045 c 61.93 373.9 61.93 372.373 61.93 371.1 c 61.93 369.572 
61.93 368.205 61.707 366.9 c 61.387 364.959 60.242 364.354 59.32 364.354
 c h
59.32 364.354 m f
66.602 379.639 m 67.332 379.447 67.746 379.447 67.969 379.447 c 69.848 
379.447 70.961 380.721 70.961 380.943 c 70.961 381.104 70.863 381.135 70.801
 381.135 c 70.77 381.135 70.738 381.135 70.676 381.104 c 70.324 380.975 
69.594 380.69 68.543 380.69 c 68.129 380.69 67.398 380.721 66.473 381.072
 c 66.316 381.135 66.281 381.135 66.281 381.135 c 66.094 381.135 66.094 
380.975 66.094 380.752 c 66.094 376.584 l 66.094 376.33 66.094 376.17 66.316
 376.17 c 66.441 376.17 66.473 376.17 66.602 376.361 c 67.207 377.127 68.098
 377.252 68.574 377.252 c 69.434 377.252 69.816 376.584 69.879 376.455 c
 70.133 375.979 70.23 375.44 70.23 374.611 c 70.23 374.197 70.23 373.369
 69.781 372.732 c 69.434 372.225 68.828 371.873 68.129 371.873 c 67.207 
371.873 66.25 372.385 65.902 373.338 c 66.441 373.307 66.727 373.658 66.727
 374.037 c 66.727 374.643 66.188 374.74 65.996 374.74 c 65.996 374.74 65.297
 374.74 65.297 373.975 c 65.297 372.701 66.473 371.428 68.16 371.428 c 69.973
 371.428 71.566 372.768 71.566 374.58 c 71.566 376.17 70.355 377.635 68.605
 377.635 c 67.969 377.635 67.238 377.506 66.602 376.967 c h
66.602 379.639 m f
50.098 311.822 m 50.098 312.33 50.098 312.361 49.621 312.361 c 48.348 311.057
 46.566 311.057 45.93 311.057 c 45.93 310.42 l 46.344 310.42 47.52 310.42
 48.57 310.963 c 48.57 300.428 l 48.57 299.697 48.508 299.475 46.691 299.475
 c 46.055 299.475 l 46.055 298.838 l 46.758 298.9 48.508 298.9 49.332 298.9
 c 50.129 298.9 51.91 298.9 52.609 298.838 c 52.609 299.475 l 51.977 299.475
 l 50.129 299.475 50.098 299.697 50.098 300.428 c h
50.098 311.822 m f
63.582 305.33 m 63.582 306.951 63.488 308.576 62.789 310.072 c 61.863 312.045
 60.18 312.361 59.352 312.361 c 58.109 312.361 56.645 311.822 55.789 309.943
 c 55.152 308.545 55.055 306.951 55.055 305.33 c 55.055 303.803 55.117 301.99
 55.977 300.428 c 56.836 298.807 58.332 298.393 59.32 298.393 c 60.402 298.393
 61.961 298.807 62.852 300.748 c 63.488 302.147 63.582 303.74 63.582 305.33
 c h
59.32 298.838 m 58.523 298.838 57.316 299.346 56.965 301.287 c 56.742 302.498
 56.742 304.377 56.742 305.584 c 56.742 306.889 56.742 308.225 56.902 309.307
 c 57.281 311.725 58.809 311.916 59.32 311.916 c 59.988 311.916 61.324 311.533
 61.707 309.529 c 61.93 308.385 61.93 306.857 61.93 305.584 c 61.93 304.057
 61.93 302.69 61.707 301.385 c 61.387 299.443 60.242 298.838 59.32 298.838
 c h
59.32 298.838 m f
71.914 308.525 m 71.914 309.033 l 70.324 309.033 l 70.324 315.365 l 70.324
 315.65 70.324 315.779 70.039 315.779 c 69.848 315.779 69.781 315.779 69.656
 315.557 c 64.945 309.033 l 64.945 308.525 l 69.148 308.525 l 69.148 307.377
 l 69.148 306.869 69.148 306.709 67.969 306.709 c 67.586 306.709 l 67.586
 306.201 l 68.32 306.232 69.211 306.264 69.719 306.264 c 70.262 306.264 
71.152 306.232 71.883 306.201 c 71.883 306.709 l 71.5 306.709 l 70.324 306.709
 70.324 306.869 70.324 307.377 c 70.324 308.525 l h
69.242 314.221 m 69.242 309.033 l 65.488 309.033 l h
69.242 314.221 m f
187.965 34.236 m 187.965 34.744 187.965 34.775 187.488 34.775 c 186.215
 33.471 184.434 33.471 183.797 33.471 c 183.797 32.834 l 184.211 32.834 
185.387 32.834 186.438 33.377 c 186.438 22.842 l 186.438 22.111 186.375 
21.889 184.562 21.889 c 183.926 21.889 l 183.926 21.252 l 184.625 21.315
 186.375 21.315 187.203 21.315 c 187.996 21.315 189.781 21.315 190.48 21.252
 c 190.48 21.889 l 189.844 21.889 l 187.996 21.889 187.965 22.111 187.965
 22.842 c h
187.965 34.236 m f
201.453 27.744 m 201.453 29.365 201.355 30.99 200.656 32.486 c 199.734 
34.459 198.047 34.775 197.219 34.775 c 195.98 34.775 194.516 34.236 193.656
 32.357 c 193.02 30.959 192.922 29.365 192.922 27.744 c 192.922 26.217 192.988
 24.4 193.848 22.842 c 194.707 21.221 196.203 20.807 197.188 20.807 c 198.27
 20.807 199.828 21.221 200.719 23.162 c 201.355 24.561 201.453 26.15 201.453
 27.744 c h
197.188 21.252 m 196.391 21.252 195.184 21.76 194.832 23.701 c 194.609 
24.912 194.609 26.787 194.609 27.998 c 194.609 29.303 194.609 30.639 194.77
 31.721 c 195.152 34.139 196.68 34.33 197.188 34.33 c 197.855 34.33 199.191
 33.947 199.574 31.943 c 199.797 30.799 199.797 29.272 199.797 27.998 c 
199.797 26.471 199.797 25.104 199.574 23.799 c 199.258 21.857 198.109 21.252
 197.188 21.252 c h
197.188 21.252 m f
206.156 33.354 m 207.27 33.354 208.066 32.592 208.066 31.065 c 208.066 
29.315 207.016 28.772 206.219 28.772 c 205.648 28.772 204.375 28.932 203.801
 29.791 c 204.469 29.791 204.629 30.268 204.629 30.588 c 204.629 31.033 
204.277 31.35 203.832 31.35 c 203.453 31.35 203.039 31.096 203.039 30.522
 c 203.039 29.186 204.5 28.326 206.219 28.326 c 208.191 28.326 209.562 29.662
 209.562 31.065 c 209.562 32.178 208.672 33.291 207.109 33.611 c 208.574
 34.15 209.117 35.201 209.117 36.092 c 209.117 37.205 207.844 38.033 206.25
 38.033 c 204.691 38.033 203.484 37.268 203.484 36.123 c 203.484 35.647 
203.801 35.393 204.215 35.393 c 204.66 35.393 204.945 35.709 204.945 36.092
 c 204.945 36.506 204.66 36.822 204.215 36.857 c 204.723 37.459 205.68 37.619
 206.219 37.619 c 206.855 37.619 207.746 37.303 207.746 36.092 c 207.746
 35.486 207.555 34.818 207.176 34.404 c 206.73 33.865 206.316 33.834 205.613
 33.768 c 205.266 33.736 205.234 33.736 205.168 33.736 c 205.137 33.736 
205.012 33.705 205.012 33.545 c 205.012 33.354 205.137 33.354 205.391 33.354
 c h
206.156 33.354 m f
50.098 118.822 m 50.098 119.334 50.098 119.365 49.621 119.365 c 48.348 
118.061 46.566 118.061 45.93 118.061 c 45.93 117.424 l 46.344 117.424 47.52
 117.424 48.57 117.963 c 48.57 107.432 l 48.57 106.697 48.508 106.475 46.691
 106.475 c 46.055 106.475 l 46.055 105.842 l 46.758 105.904 48.508 105.904
 49.332 105.904 c 50.129 105.904 51.91 105.904 52.609 105.842 c 52.609 106.475
 l 51.977 106.475 l 50.129 106.475 50.098 106.697 50.098 107.432 c h
50.098 118.822 m f
63.582 112.33 m 63.582 113.955 63.488 115.576 62.789 117.072 c 61.863 119.045
 60.18 119.365 59.352 119.365 c 58.109 119.365 56.645 118.822 55.789 116.947
 c 55.152 115.545 55.055 113.955 55.055 112.33 c 55.055 110.803 55.117 108.99
 55.977 107.432 c 56.836 105.807 58.332 105.393 59.32 105.393 c 60.402 105.393
 61.961 105.807 62.852 107.748 c 63.488 109.15 63.582 110.74 63.582 112.33
 c h
59.32 105.842 m 58.523 105.842 57.316 106.35 56.965 108.291 c 56.742 109.498
 56.742 111.377 56.742 112.588 c 56.742 113.893 56.742 115.229 56.902 116.311
 c 57.281 118.729 58.809 118.92 59.32 118.92 c 59.988 118.92 61.324 118.537
 61.707 116.533 c 61.93 115.385 61.93 113.857 61.93 112.588 c 61.93 111.061
 61.93 109.69 61.707 108.385 c 61.387 106.443 60.242 105.842 59.32 105.842
 c h
59.32 105.842 m f
50.098 53.166 m 50.098 53.674 50.098 53.705 49.621 53.705 c 48.348 52.4
 46.566 52.4 45.93 52.4 c 45.93 51.764 l 46.344 51.764 47.52 51.764 48.57
 52.307 c 48.57 41.772 l 48.57 41.041 48.508 40.818 46.691 40.818 c 46.055
 40.818 l 46.055 40.182 l 46.758 40.244 48.508 40.244 49.332 40.244 c 50.129
 40.244 51.91 40.244 52.609 40.182 c 52.609 40.818 l 51.977 40.818 l 50.129
 40.818 50.098 41.041 50.098 41.772 c h
50.098 53.166 m f
429.766 34.236 m 429.766 34.744 429.766 34.775 429.285 34.775 c 428.012
 33.471 426.23 33.471 425.594 33.471 c 425.594 32.834 l 426.008 32.834 427.188
 32.834 428.234 33.377 c 428.234 22.842 l 428.234 22.111 428.172 21.889 
426.359 21.889 c 425.723 21.889 l 425.723 21.252 l 426.422 21.315 428.172
 21.315 429 21.315 c 429.797 21.315 431.578 21.315 432.277 21.252 c 432.277
 21.889 l 431.641 21.889 l 429.797 21.889 429.766 22.111 429.766 22.842 
c h
429.766 34.236 m f
443.25 27.744 m 443.25 29.365 443.152 30.99 442.453 32.486 c 441.531 34.459
 439.844 34.775 439.016 34.775 c 437.777 34.775 436.312 34.236 435.453 32.357
 c 434.816 30.959 434.723 29.365 434.723 27.744 c 434.723 26.217 434.785
 24.4 435.645 22.842 c 436.504 21.221 438 20.807 438.984 20.807 c 440.066
 20.807 441.625 21.221 442.52 23.162 c 443.152 24.561 443.25 26.15 443.25
 27.744 c h
438.984 21.252 m 438.191 21.252 436.98 21.76 436.633 23.701 c 436.406 24.912
 436.406 26.787 436.406 27.998 c 436.406 29.303 436.406 30.639 436.566 31.721
 c 436.949 34.139 438.477 34.33 438.984 34.33 c 439.652 34.33 440.992 33.947
 441.371 31.943 c 441.594 30.799 441.594 29.272 441.594 27.998 c 441.594
 26.471 441.594 25.104 441.371 23.799 c 441.055 21.857 439.91 21.252 438.984
 21.252 c h
438.984 21.252 m f
446.266 36.537 m 447 36.346 447.414 36.346 447.637 36.346 c 449.512 36.346
 450.625 37.619 450.625 37.842 c 450.625 38.002 450.531 38.033 450.469 38.033
 c 450.438 38.033 450.402 38.033 450.34 38.002 c 449.992 37.873 449.258 
37.588 448.207 37.588 c 447.793 37.588 447.062 37.619 446.141 37.971 c 445.98
 38.033 445.949 38.033 445.949 38.033 c 445.758 38.033 445.758 37.873 445.758
 37.65 c 445.758 33.482 l 445.758 33.229 445.758 33.068 445.98 33.068 c 
446.109 33.068 446.141 33.068 446.266 33.26 c 446.871 34.025 447.762 34.15
 448.242 34.15 c 449.098 34.15 449.48 33.482 449.547 33.354 c 449.801 32.877
 449.895 32.338 449.895 31.51 c 449.895 31.096 449.895 30.268 449.449 29.631
 c 449.098 29.123 448.496 28.772 447.793 28.772 c 446.871 28.772 445.918
 29.283 445.566 30.236 c 446.109 30.205 446.395 30.557 446.395 30.936 c 
446.395 31.541 445.855 31.639 445.664 31.639 c 445.664 31.639 444.961 31.639
 444.961 30.873 c 444.961 29.6 446.141 28.326 447.828 28.326 c 449.641 28.326
 451.23 29.662 451.23 31.479 c 451.23 33.068 450.023 34.533 448.273 34.533
 c 447.637 34.533 446.902 34.404 446.266 33.865 c h
446.266 36.537 m f
308.723 34.076 m 308.723 34.584 308.723 34.615 308.246 34.615 c 306.973
 33.311 305.188 33.311 304.555 33.311 c 304.555 32.674 l 304.965 32.674 
306.145 32.674 307.195 33.217 c 307.195 22.686 l 307.195 21.951 307.129 
21.729 305.316 21.729 c 304.68 21.729 l 304.68 21.092 l 305.379 21.154 307.129
 21.154 307.957 21.154 c 308.754 21.154 310.535 21.154 311.234 21.092 c 
311.234 21.729 l 310.598 21.729 l 308.754 21.729 308.723 21.951 308.723 
22.686 c h
308.723 34.076 m f
322.207 27.584 m 322.207 29.209 322.113 30.83 321.41 32.326 c 320.488 34.299
 318.805 34.615 317.977 34.615 c 316.734 34.615 315.27 34.076 314.41 32.197
 c 313.773 30.799 313.68 29.209 313.68 27.584 c 313.68 26.057 313.742 24.244
 314.602 22.686 c 315.461 21.061 316.957 20.647 317.945 20.647 c 319.027
 20.647 320.586 21.061 321.477 23.002 c 322.113 24.4 322.207 25.994 322.207
 27.584 c h
317.945 21.092 m 317.148 21.092 315.938 21.604 315.59 23.541 c 315.367 
24.752 315.367 26.631 315.367 27.838 c 315.367 29.143 315.367 30.479 315.523
 31.561 c 315.906 33.979 317.434 34.17 317.945 34.17 c 318.613 34.17 319.949
 33.791 320.332 31.783 c 320.555 30.639 320.555 29.111 320.555 27.838 c 
320.555 26.311 320.555 24.943 320.332 23.639 c 320.012 21.697 318.867 21.092
 317.945 21.092 c h
317.945 21.092 m f
330.539 30.779 m 330.539 31.287 l 328.949 31.287 l 328.949 37.619 l 328.949
 37.904 328.949 38.033 328.66 38.033 c 328.473 38.033 328.406 38.033 328.281
 37.811 c 323.57 31.287 l 323.57 30.779 l 327.77 30.779 l 327.77 29.631 
l 327.77 29.123 327.77 28.963 326.594 28.963 c 326.211 28.963 l 326.211 
28.455 l 326.945 28.486 327.836 28.518 328.344 28.518 c 328.883 28.518 329.777
 28.486 330.508 28.455 c 330.508 28.963 l 330.125 28.963 l 328.949 28.963
 328.949 29.123 328.949 29.631 c 328.949 30.779 l h
327.867 36.475 m 327.867 31.287 l 324.113 31.287 l h
327.867 36.475 m f
50.098 247.404 m 50.098 247.916 50.098 247.947 49.621 247.947 c 48.348 
246.643 46.566 246.643 45.93 246.643 c 45.93 246.006 l 46.344 246.006 47.52
 246.006 48.57 246.545 c 48.57 236.014 l 48.57 235.279 48.508 235.057 46.691
 235.057 c 46.055 235.057 l 46.055 234.424 l 46.758 234.486 48.508 234.486
 49.332 234.486 c 50.129 234.486 51.91 234.486 52.609 234.424 c 52.609 235.057
 l 51.977 235.057 l 50.129 235.057 50.098 235.279 50.098 236.014 c h
50.098 247.404 m f
63.582 240.912 m 63.582 242.537 63.488 244.158 62.789 245.654 c 61.863 
247.627 60.18 247.947 59.352 247.947 c 58.109 247.947 56.645 247.404 55.789
 245.529 c 55.152 244.127 55.055 242.537 55.055 240.912 c 55.055 239.385
 55.117 237.572 55.977 236.014 c 56.836 234.389 58.332 233.975 59.32 233.975
 c 60.402 233.975 61.961 234.389 62.852 236.33 c 63.488 237.732 63.582 239.322
 63.582 240.912 c h
59.32 234.424 m 58.523 234.424 57.316 234.932 56.965 236.873 c 56.742 238.08
 56.742 239.959 56.742 241.17 c 56.742 242.475 56.742 243.811 56.902 244.893
 c 57.281 247.311 58.809 247.502 59.32 247.502 c 59.988 247.502 61.324 247.119
 61.707 245.115 c 61.93 243.967 61.93 242.44 61.93 241.17 c 61.93 239.643
 61.93 238.272 61.707 236.967 c 61.387 235.025 60.242 234.424 59.32 234.424
 c h
59.32 234.424 m f
68.289 246.525 m 69.402 246.525 70.195 245.764 70.195 244.236 c 70.195 
242.482 69.148 241.943 68.352 241.943 c 67.777 241.943 66.504 242.104 65.934
 242.963 c 66.602 242.963 66.762 243.44 66.762 243.756 c 66.762 244.201 
66.41 244.522 65.965 244.522 c 65.582 244.522 65.168 244.268 65.168 243.693
 c 65.168 242.357 66.633 241.498 68.352 241.498 c 70.324 241.498 71.691 
242.834 71.691 244.236 c 71.691 245.35 70.801 246.463 69.242 246.779 c 70.707
 247.322 71.246 248.373 71.246 249.264 c 71.246 250.377 69.973 251.205 68.383
 251.205 c 66.824 251.205 65.613 250.44 65.613 249.295 c 65.613 248.818 
65.934 248.561 66.348 248.561 c 66.793 248.561 67.078 248.881 67.078 249.264
 c 67.078 249.678 66.793 249.994 66.348 250.025 c 66.855 250.631 67.809 
250.791 68.352 250.791 c 68.988 250.791 69.879 250.471 69.879 249.264 c 
69.879 248.658 69.688 247.99 69.305 247.576 c 68.859 247.033 68.445 247.002
 67.746 246.94 c 67.398 246.908 67.363 246.908 67.301 246.908 c 67.27 246.908
 67.141 246.877 67.141 246.717 c 67.141 246.525 67.27 246.525 67.523 246.525
 c h
68.289 246.525 m f
8.305 108.768 m 12.504 108.768 15.688 112.045 15.688 115.83 c 15.688 119.143
 12.855 121.115 10.5 121.115 c 10.309 121.115 10.152 121.115 10.152 120.861
 c 10.152 120.639 10.277 120.639 10.5 120.604 c 13.398 120.447 15.051 118.283
 15.051 116.053 c 15.051 114.815 14.383 110.834 8.305 110.834 c 2.258 110.834
 1.559 114.815 1.559 116.053 c 1.559 118.252 3.406 120.065 6.363 120.479
 c 6.652 120.51 6.715 120.51 6.715 120.795 c 6.715 121.115 6.652 121.115
 6.238 121.115 c 1.434 121.115 l 1.082 121.115 0.922 121.115 0.922 120.893
 c 0.922 120.826 0.922 120.732 1.176 120.572 c 2.672 119.557 l 1.941 118.822
 0.922 117.772 0.922 115.83 c 0.922 112.014 4.168 108.768 8.305 108.768 
c h
8.305 108.768 m f
10.883 131.822 m 8.305 131.822 6.141 129.818 6.141 127.365 c 6.141 124.822
 8.367 122.85 10.883 122.85 c 13.523 122.85 15.465 124.947 15.465 127.334
 c 15.465 129.783 13.461 131.822 10.883 131.822 c h
14.957 127.365 m 14.957 126.475 14.543 125.584 13.586 125.045 c 12.695 
124.533 11.457 124.533 10.723 124.533 c 9.93 124.533 8.848 124.533 7.957
 125.01 c 7.031 125.553 6.586 126.506 6.586 127.334 c 6.586 128.225 7.031
 129.084 7.922 129.627 c 8.781 130.166 9.961 130.166 10.723 130.166 c 11.457
 130.166 12.57 130.166 13.461 129.721 c 14.383 129.244 14.957 128.354 14.957
 127.365 c h
14.957 127.365 m f
8.273 134.647 m 13.715 134.647 l 14.605 134.647 14.605 134.424 14.605 133.057
 c 15.242 133.057 l 15.211 133.787 15.18 134.807 15.18 135.381 c 15.18 135.889
 15.211 136.94 15.242 137.639 c 14.605 137.639 l 14.605 136.272 14.605 136.049
 13.715 136.049 c 9.961 136.049 l 7.859 136.049 6.715 137.51 6.715 138.783
 c 6.715 140.088 7.797 140.311 8.973 140.311 c 13.715 140.311 l 14.605 140.311
 14.605 140.088 14.605 138.721 c 15.242 138.721 l 15.211 139.42 15.18 140.471
 15.18 141.01 c 15.18 141.522 15.211 142.604 15.242 143.272 c 14.605 143.272
 l 14.605 141.936 14.605 141.713 13.715 141.713 c 9.961 141.713 l 7.859 
141.713 6.715 143.143 6.715 144.447 c 6.715 145.721 7.797 145.943 8.973 
145.943 c 13.715 145.943 l 14.605 145.943 14.605 145.721 14.605 144.354 
c 15.242 144.354 l 15.211 145.053 15.18 146.104 15.18 146.643 c 15.18 147.186
 15.211 148.236 15.242 148.936 c 14.605 148.936 l 14.605 147.885 14.605 
147.377 14 147.346 c 10.121 147.346 l 8.367 147.346 7.766 147.346 7.031 
146.709 c 6.684 146.42 6.27 145.752 6.27 144.576 c 6.27 142.889 7.477 141.967
 8.273 141.647 c 6.492 141.361 6.27 139.865 6.27 138.943 c 6.27 137.447 
7.129 136.494 8.402 135.92 c 6.27 135.92 l 6.492 133.057 l 7.129 133.057
 l 7.129 134.486 7.254 134.647 8.273 134.647 c h
8.273 134.647 m f
7.605 152.826 m 6.27 152.826 l 6.492 149.9 l 7.129 149.9 l 7.129 151.33
 7.254 151.49 8.145 151.49 c 17.629 151.49 l 18.551 151.49 18.551 151.268
 18.551 149.9 c 19.188 149.9 l 19.156 150.6 19.125 151.65 19.125 152.158
 c 19.125 152.732 19.156 153.752 19.188 154.451 c 18.551 154.451 l 18.551
 153.115 18.551 152.893 17.629 152.893 c 14.035 152.893 l 14.383 152.986
 15.465 153.846 15.465 155.373 c 15.465 157.791 13.461 159.893 10.852 159.893
 c 8.273 159.893 6.27 157.951 6.27 155.658 c 6.27 154.068 7.16 153.209 7.605
 152.826 c h
12.918 152.893 m 8.402 152.893 l 7.352 153.463 6.777 154.451 6.777 155.502
 c 6.777 156.994 8.559 158.205 10.852 158.205 c 13.301 158.205 15.02 156.807
 15.02 155.311 c 15.02 154.482 14.605 153.717 13.777 153.178 c 13.363 152.893
 13.332 152.893 12.918 152.893 c h
12.918 152.893 m f
13.652 168.525 m 15.465 168.525 l 15.242 171.451 l 14.605 171.451 l 14.605
 170.053 14.48 169.893 13.461 169.893 c 6.27 169.893 l 6.492 166.9 l 7.129
 166.9 l 7.129 168.299 7.254 168.49 8.273 168.49 c 11.871 168.49 l 13.652
 168.49 15.02 167.506 15.02 166.01 c 15.02 164.322 14.066 164.229 13.016
 164.229 c 6.27 164.229 l 6.492 161.236 l 7.129 161.236 l 7.129 162.826 
7.191 162.826 8.973 162.826 c 12.027 162.826 l 13.621 162.826 15.465 162.826
 15.465 165.916 c 15.465 167.061 14.891 167.951 13.652 168.525 c h
13.652 168.525 m f
7.129 175.373 m 7.129 178.299 l 6.492 178.299 l 6.492 175.373 l 2.77 175.373
 l 2.77 174.865 l 4.422 174.865 6.586 174.26 6.684 172.256 c 7.129 172.256
 l 7.129 173.975 l 12.73 173.975 l 15.211 173.975 15.465 175.881 15.465 
176.615 c 15.465 178.045 14.035 178.619 12.73 178.619 c 11.582 178.619 l
 11.582 178.111 l 12.695 178.111 l 14.191 178.111 14.957 177.506 14.957 
176.74 c 14.957 175.373 13.109 175.373 12.762 175.373 c h
7.129 175.373 m f
13.715 186.51 m 14.512 186.604 15.371 187.147 15.371 188.1 c 15.371 188.545
 15.082 189.787 13.43 189.787 c 12.281 189.787 l 12.281 189.279 l 13.43 
189.279 l 14.605 189.279 14.734 188.768 14.734 188.545 c 14.734 187.877 
13.809 187.783 13.715 187.783 c 9.672 187.783 l 8.816 187.783 8.02 187.783
 7.254 187.049 c 6.461 186.256 6.141 185.236 6.141 184.283 c 6.141 182.596
 7.098 181.197 8.434 181.197 c 9.039 181.197 9.387 181.607 9.387 182.15 
c 9.387 182.725 8.973 183.072 8.465 183.072 c 8.211 183.072 7.543 182.979
 7.543 182.022 c 6.809 182.596 6.586 183.58 6.586 184.217 c 6.586 185.236
 7.383 186.381 9.195 186.381 c 9.93 186.381 l 9.992 185.334 10.055 183.932
 10.66 182.658 c 11.359 181.131 12.41 180.623 13.301 180.623 c 14.957 180.623
 15.465 182.596 15.465 183.869 c 15.465 185.205 14.637 186.127 13.715 186.51
 c h
10.375 186.381 m 12.41 186.381 l 14.32 186.381 15.02 184.92 15.02 183.994
 c 15.02 183.01 14.32 182.182 13.301 182.182 c 12.188 182.182 10.5 183.041
 10.375 186.381 c h
10.375 186.381 m f
7.129 193.408 m 7.129 196.338 l 6.492 196.338 l 6.492 193.408 l 2.77 193.408
 l 2.77 192.9 l 4.422 192.9 6.586 192.295 6.684 190.291 c 7.129 190.291 
l 7.129 192.01 l 12.73 192.01 l 15.211 192.01 15.465 193.916 15.465 194.65
 c 15.465 196.08 14.035 196.654 12.73 196.654 c 11.582 196.654 l 11.582 
196.147 l 12.695 196.147 l 14.191 196.147 14.957 195.541 14.957 194.775 
c 14.957 193.408 13.109 193.408 12.762 193.408 c h
7.129 193.408 m f
6.27 201.397 m 6.492 198.565 l 7.129 198.565 l 7.129 199.869 7.254 200.057
 8.242 200.057 c 13.715 200.057 l 14.605 200.057 14.605 199.834 14.605 198.467
 c 15.242 198.467 l 15.211 199.104 15.18 200.217 15.18 200.693 c 15.18 201.428
 15.211 202.127 15.242 202.826 c 14.605 202.826 l 14.605 201.459 14.512 
201.397 13.715 201.397 c h
2.738 201.459 m 2.102 201.459 1.656 200.982 1.656 200.408 c 1.656 199.772
 2.195 199.326 2.738 199.326 c 3.277 199.326 3.82 199.772 3.82 200.408 c
 3.82 200.982 3.375 201.459 2.738 201.459 c h
2.738 201.459 m f
10.883 212.982 m 8.305 212.982 6.141 210.979 6.141 208.525 c 6.141 205.982
 8.367 204.01 10.883 204.01 c 13.523 204.01 15.465 206.107 15.465 208.494
 c 15.465 210.943 13.461 212.982 10.883 212.982 c h
14.957 208.525 m 14.957 207.635 14.543 206.744 13.586 206.205 c 12.695 
205.693 11.457 205.693 10.723 205.693 c 9.93 205.693 8.848 205.693 7.957
 206.174 c 7.031 206.713 6.586 207.666 6.586 208.494 c 6.586 209.385 7.031
 210.244 7.922 210.787 c 8.781 211.326 9.961 211.326 10.723 211.326 c 11.457
 211.326 12.57 211.326 13.461 210.881 c 14.383 210.404 14.957 209.514 14.957
 208.525 c h
14.957 208.525 m f
8.273 215.807 m 13.715 215.807 l 14.605 215.807 14.605 215.584 14.605 214.217
 c 15.242 214.217 l 15.211 214.947 15.18 215.967 15.18 216.541 c 15.18 217.049
 15.211 218.1 15.242 218.799 c 14.605 218.799 l 14.605 217.432 14.605 217.209
 13.715 217.209 c 9.961 217.209 l 7.859 217.209 6.715 218.67 6.715 219.943
 c 6.715 221.248 7.797 221.471 8.973 221.471 c 13.715 221.471 l 14.605 221.471
 14.605 221.248 14.605 219.881 c 15.242 219.881 l 15.211 220.58 15.18 221.631
 15.18 222.17 c 15.18 222.682 15.211 223.764 15.242 224.432 c 14.605 224.432
 l 14.605 223.381 14.605 222.873 14 222.873 c 10.121 222.873 l 8.367 222.873
 7.766 222.873 7.031 222.236 c 6.684 221.947 6.27 221.279 6.27 220.104 c
 6.27 218.607 7.129 217.654 8.402 217.08 c 6.27 217.08 l 6.492 214.217 l
 7.129 214.217 l 7.129 215.647 7.254 215.807 8.273 215.807 c h
8.273 215.807 m f
13.715 231.6 m 14.512 231.693 15.371 232.236 15.371 233.19 c 15.371 233.635
 15.082 234.877 13.43 234.877 c 12.281 234.877 l 12.281 234.369 l 13.43 
234.369 l 14.605 234.369 14.734 233.857 14.734 233.635 c 14.734 232.967 
13.809 232.873 13.715 232.873 c 9.672 232.873 l 8.816 232.873 8.02 232.873
 7.254 232.139 c 6.461 231.346 6.141 230.326 6.141 229.373 c 6.141 227.686
 7.098 226.283 8.434 226.283 c 9.039 226.283 9.387 226.697 9.387 227.24 
c 9.387 227.811 8.973 228.162 8.465 228.162 c 8.211 228.162 7.543 228.068
 7.543 227.111 c 6.809 227.686 6.586 228.67 6.586 229.307 c 6.586 230.326
 7.383 231.471 9.195 231.471 c 9.93 231.471 l 9.992 230.42 10.055 229.022
 10.66 227.748 c 11.359 226.221 12.41 225.713 13.301 225.713 c 14.957 225.713
 15.465 227.686 15.465 228.959 c 15.465 230.295 14.637 231.217 13.715 231.6
 c h
10.375 231.471 m 12.41 231.471 l 14.32 231.471 15.02 230.01 15.02 229.084
 c 15.02 228.1 14.32 227.272 13.301 227.272 c 12.188 227.272 10.5 228.131
 10.375 231.471 c h
10.375 231.471 m f
1.145 238.592 m 1.367 235.666 l 2.004 235.666 l 2.004 237.1 2.133 237.256
 3.148 237.256 c 13.715 237.256 l 14.605 237.256 14.605 237.033 14.605 235.666
 c 15.242 235.666 l 15.211 236.334 15.18 237.416 15.18 237.924 c 15.18 238.436
 15.211 239.42 15.242 240.186 c 14.605 240.186 l 14.605 238.815 14.605 238.592
 13.715 238.592 c h
1.145 238.592 m f
7.129 250.893 m 7.129 253.818 l 6.492 253.818 l 6.492 250.893 l 2.77 250.893
 l 2.77 250.381 l 4.422 250.381 6.586 249.775 6.684 247.772 c 7.129 247.772
 l 7.129 249.49 l 12.73 249.49 l 15.211 249.49 15.465 251.4 15.465 252.131
 c 15.465 253.565 14.035 254.135 12.73 254.135 c 11.582 254.135 l 11.582
 253.627 l 12.695 253.627 l 14.191 253.627 14.957 253.022 14.957 252.26 
c 14.957 250.893 13.109 250.893 12.762 250.893 c h
7.129 250.893 m f
6.27 258.877 m 6.492 256.045 l 7.129 256.045 l 7.129 257.35 7.254 257.541
 8.242 257.541 c 13.715 257.541 l 14.605 257.541 14.605 257.318 14.605 255.951
 c 15.242 255.951 l 15.211 256.584 15.18 257.701 15.18 258.178 c 15.18 258.908
 15.211 259.607 15.242 260.311 c 14.605 260.311 l 14.605 258.94 14.512 258.877
 13.715 258.877 c h
2.738 258.94 m 2.102 258.94 1.656 258.463 1.656 257.889 c 1.656 257.256
 2.195 256.807 2.738 256.807 c 3.277 256.807 3.82 257.256 3.82 257.889 c
 3.82 258.463 3.375 258.94 2.738 258.94 c h
2.738 258.94 m f
8.273 263.147 m 13.715 263.147 l 14.605 263.147 14.605 262.924 14.605 261.553
 c 15.242 261.553 l 15.211 262.287 15.18 263.303 15.18 263.877 c 15.18 264.385
 15.211 265.436 15.242 266.135 c 14.605 266.135 l 14.605 264.768 14.605 
264.545 13.715 264.545 c 9.961 264.545 l 7.859 264.545 6.715 266.01 6.715
 267.283 c 6.715 268.588 7.797 268.811 8.973 268.811 c 13.715 268.811 l 
14.605 268.811 14.605 268.588 14.605 267.217 c 15.242 267.217 l 15.211 267.92
 15.18 268.967 15.18 269.51 c 15.18 270.018 15.211 271.1 15.242 271.768 
c 14.605 271.768 l 14.605 270.432 14.605 270.209 13.715 270.209 c 9.961 
270.209 l 7.859 270.209 6.715 271.643 6.715 272.947 c 6.715 274.221 7.797
 274.443 8.973 274.443 c 13.715 274.443 l 14.605 274.443 14.605 274.221 
14.605 272.85 c 15.242 272.85 l 15.211 273.549 15.18 274.6 15.18 275.143
 c 15.18 275.682 15.211 276.732 15.242 277.432 c 14.605 277.432 l 14.605
 276.385 14.605 275.873 14 275.842 c 10.121 275.842 l 8.367 275.842 7.766
 275.842 7.031 275.205 c 6.684 274.92 6.27 274.252 6.27 273.072 c 6.27 271.389
 7.477 270.463 8.273 270.147 c 6.492 269.861 6.27 268.365 6.27 267.44 c 
6.27 265.947 7.129 264.99 8.402 264.416 c 6.27 264.416 l 6.492 261.553 l
 7.129 261.553 l 7.129 262.986 7.254 263.147 8.273 263.147 c h
8.273 263.147 m f
10.121 280.084 m 7.098 280.213 6.586 281.932 6.586 282.631 c 6.586 284.697
 9.324 284.92 10.121 284.92 c h
10.566 280.084 m 10.566 285.748 l 10.566 286.193 10.566 286.256 10.121 
286.256 c 8.113 286.256 6.141 285.143 6.141 282.631 c 6.141 280.275 8.242
 278.397 10.789 278.397 c 13.492 278.397 15.465 280.529 15.465 282.854 c
 15.465 285.334 13.207 286.256 12.824 286.256 c 12.633 286.256 12.57 286.1
 12.57 285.971 c 12.57 285.811 12.695 285.748 12.855 285.717 c 14.957 285.018
 14.957 283.17 14.957 282.979 c 14.957 281.963 14.352 281.166 13.586 280.69
 c 12.633 280.084 11.297 280.084 10.566 280.084 c h
10.566 280.084 m f
20.332 298.807 m 19.508 298.807 l 19.508 296.834 l 0.828 296.834 l 0.828
 298.807 l 0 298.807 l 0 296.006 l 20.332 296.006 l h
20.332 298.807 m f
7.637 307.17 m 7.668 306.631 8.113 306.217 8.559 306.217 c 8.848 306.217
 9.164 306.408 9.164 306.854 c 9.164 307.299 8.816 307.775 8.02 307.775 
c 7.098 307.775 6.27 306.916 6.27 305.357 c 6.27 302.686 8.336 301.92 9.227
 301.92 c 10.82 301.92 11.105 303.416 11.234 304.022 c 11.457 305.072 11.68
 306.119 12.793 306.119 c 13.301 306.119 15.02 305.674 15.02 303.225 c 15.02
 302.94 15.02 301.381 13.938 300.9 c 14.035 301.697 13.43 302.205 12.855
 302.205 c 12.41 302.205 12.156 301.857 12.156 301.443 c 12.156 300.9 12.57
 300.299 13.492 300.299 c 14.637 300.299 15.465 301.475 15.465 303.193 c
 15.465 306.502 13.016 307.299 12.094 307.299 c 11.359 307.299 10.852 306.916
 10.629 306.662 c 10.055 306.119 9.93 305.518 9.77 304.623 c 9.609 303.893
 9.449 303.096 8.527 303.096 c 7.957 303.096 6.715 303.576 6.715 305.357
 c 6.715 305.865 6.875 306.885 7.637 307.17 c h
7.637 307.17 m f
0 311.971 m 0 309.205 l 0.828 309.205 l 0.828 311.178 l 19.508 311.178 
l 19.508 309.205 l 20.332 309.205 l 20.332 311.971 l h
0 311.971 m f
Q Q
showpage
%%Trailer
end restore
%%EOF
