%!PS-Adobe-3.0 EPSF-3.0
%%Creator: cairo 1.14.6 (http://cairographics.org)
%%CreationDate: Thu Nov  2 16:37:52 2017
%%Pages: 1
%%DocumentData: Clean7Bit
%%LanguageLevel: 2
%%BoundingBox: 0 -1 465 382
%%EndComments
%%BeginProlog
save
50 dict begin
/q { gsave } bind def
/Q { grestore } bind def
/cm { 6 array astore concat } bind def
/w { setlinewidth } bind def
/J { setlinecap } bind def
/j { setlinejoin } bind def
/M { setmiterlimit } bind def
/d { setdash } bind def
/m { moveto } bind def
/l { lineto } bind def
/c { curveto } bind def
/h { closepath } bind def
/re { exch dup neg 3 1 roll 5 3 roll moveto 0 rlineto
      0 exch rlineto 0 rlineto closepath } bind def
/S { stroke } bind def
/f { fill } bind def
/f* { eofill } bind def
/n { newpath } bind def
/W { clip } bind def
/W* { eoclip } bind def
/BT { } bind def
/ET { } bind def
/pdfmark where { pop globaldict /?pdfmark /exec load put }
    { globaldict begin /?pdfmark /pop load def /pdfmark
    /cleartomark load def end } ifelse
/BDC { mark 3 1 roll /BDC pdfmark } bind def
/EMC { mark /EMC pdfmark } bind def
/cairo_store_point { /cairo_point_y exch def /cairo_point_x exch def } def
/Tj { show currentpoint cairo_store_point } bind def
/TJ {
  {
    dup
    type /stringtype eq
    { show } { -0.001 mul 0 cairo_font_matrix dtransform rmoveto } ifelse
  } forall
  currentpoint cairo_store_point
} bind def
/cairo_selectfont { cairo_font_matrix aload pop pop pop 0 0 6 array astore
    cairo_font exch selectfont cairo_point_x cairo_point_y moveto } bind def
/Tf { pop /cairo_font exch def /cairo_font_matrix where
      { pop cairo_selectfont } if } bind def
/Td { matrix translate cairo_font_matrix matrix concatmatrix dup
      /cairo_font_matrix exch def dup 4 get exch 5 get cairo_store_point
      /cairo_font where { pop cairo_selectfont } if } bind def
/Tm { 2 copy 8 2 roll 6 array astore /cairo_font_matrix exch def
      cairo_store_point /cairo_font where { pop cairo_selectfont } if } bind def
/g { setgray } bind def
/rg { setrgbcolor } bind def
/d1 { setcachedevice } bind def
%%EndProlog
%%BeginSetup
%%EndSetup
%%Page: 1 1
%%BeginPageSetup
%%PageBoundingBox: 0 -1 465 382
%%EndPageSetup
q 0 -1 465 383 rectclip q
0 g
0.8 w
0 J
0 j
[] 0.0 d
4 M q 1 0 0 -1 0 390.492706 cm
80.238 343.359 m 90.398 343.359 l 451.602 343.359 m 441.441 343.359 l S Q
q 1 0 0 -1 0 390.492706 cm
80.238 310.801 m 85.281 310.801 l 451.602 310.801 m 446.559 310.801 l 80.238
 291.762 m 85.281 291.762 l 451.602 291.762 m 446.559 291.762 l 80.238 278.238
 m 85.281 278.238 l 451.602 278.238 m 446.559 278.238 l 80.238 267.762 m
 85.281 267.762 l 451.602 267.762 m 446.559 267.762 l 80.238 259.199 m 85.281
 259.199 l 451.602 259.199 m 446.559 259.199 l 80.238 252 m 85.281 252 l
 451.602 252 m 446.559 252 l 80.238 245.68 m 85.281 245.68 l 451.602 245.68
 m 446.559 245.68 l 80.238 240.16 m 85.281 240.16 l 451.602 240.16 m 446.559
 240.16 l 80.238 235.199 m 90.398 235.199 l 451.602 235.199 m 441.441 235.199
 l S Q
q 1 0 0 -1 0 390.492706 cm
80.238 202.641 m 85.281 202.641 l 451.602 202.641 m 446.559 202.641 l 80.238
 183.602 m 85.281 183.602 l 451.602 183.602 m 446.559 183.602 l 80.238 170.16
 m 85.281 170.16 l 451.602 170.16 m 446.559 170.16 l 80.238 159.68 m 85.281
 159.68 l 451.602 159.68 m 446.559 159.68 l 80.238 151.121 m 85.281 151.121
 l 451.602 151.121 m 446.559 151.121 l 80.238 143.84 m 85.281 143.84 l 451.602
 143.84 m 446.559 143.84 l 80.238 137.602 m 85.281 137.602 l 451.602 137.602
 m 446.559 137.602 l 80.238 132.078 m 85.281 132.078 l 451.602 132.078 m
 446.559 132.078 l 80.238 127.121 m 90.398 127.121 l 451.602 127.121 m 441.441
 127.121 l S Q
q 1 0 0 -1 0 390.492706 cm
80.238 94.559 m 85.281 94.559 l 451.602 94.559 m 446.559 94.559 l 80.238
 75.52 m 85.281 75.52 l 451.602 75.52 m 446.559 75.52 l 80.238 62 m 85.281
 62 l 451.602 62 m 446.559 62 l 80.238 51.52 m 85.281 51.52 l 451.602 51.52
 m 446.559 51.52 l 80.238 42.961 m 85.281 42.961 l 451.602 42.961 m 446.559
 42.961 l 80.238 35.68 m 85.281 35.68 l 451.602 35.68 m 446.559 35.68 l 
80.238 29.441 m 85.281 29.441 l 451.602 29.441 m 446.559 29.441 l 80.238
 23.922 m 85.281 23.922 l 451.602 23.922 m 446.559 23.922 l 80.238 18.961
 m 90.398 18.961 l 451.602 18.961 m 441.441 18.961 l S Q
q 1 0 0 -1 0 390.492706 cm
80.238 343.359 m 80.238 333.199 l 80.238 18.961 m 80.238 29.121 l S Q
q 1 0 0 -1 0 390.492706 cm
136.16 343.359 m 136.16 338.32 l 136.16 18.961 m 136.16 24 l 168.801 343.359
 m 168.801 338.32 l 168.801 18.961 m 168.801 24 l 192 343.359 m 192 338.32
 l 192 18.961 m 192 24 l 210 343.359 m 210 338.32 l 210 18.961 m 210 24 
l 224.719 343.359 m 224.719 338.32 l 224.719 18.961 m 224.719 24 l 237.121
 343.359 m 237.121 338.32 l 237.121 18.961 m 237.121 24 l 247.922 343.359
 m 247.922 338.32 l 247.922 18.961 m 247.922 24 l 257.441 343.359 m 257.441
 338.32 l 257.441 18.961 m 257.441 24 l 265.922 343.359 m 265.922 333.199
 l 265.922 18.961 m 265.922 29.121 l S Q
q 1 0 0 -1 0 390.492706 cm
321.84 343.359 m 321.84 338.32 l 321.84 18.961 m 321.84 24 l 354.48 343.359
 m 354.48 338.32 l 354.48 18.961 m 354.48 24 l 377.68 343.359 m 377.68 338.32
 l 377.68 18.961 m 377.68 24 l 395.68 343.359 m 395.68 338.32 l 395.68 18.961
 m 395.68 24 l 410.398 343.359 m 410.398 338.32 l 410.398 18.961 m 410.398
 24 l 422.801 343.359 m 422.801 338.32 l 422.801 18.961 m 422.801 24 l 433.602
 343.359 m 433.602 338.32 l 433.602 18.961 m 433.602 24 l 443.121 343.359
 m 443.121 338.32 l 443.121 18.961 m 443.121 24 l 451.602 343.359 m 451.602
 333.199 l 451.602 18.961 m 451.602 29.121 l S Q
q 1 0 0 -1 0 390.492706 cm
80.238 18.961 371.363 324.398 re S Q
0.580392 0 0.827451 rg
q 1 0 0 -1 0 390.492706 cm
123.199 301.602 m 179.121 225.762 l 235.121 140.398 l 291.121 58.48 l S Q
0.79756 w
q 1 0 0 -1 0 390.492706 cm
118.121 301.602 m 128.281 301.602 l 123.199 296.52 m 123.199 306.68 l S Q
q 1 0 0 -1 0 390.492706 cm
174.039 225.762 m 184.199 225.762 l 179.121 220.68 m 179.121 230.84 l S Q
q 1 0 0 -1 0 390.492706 cm
230.039 140.398 m 240.199 140.398 l 235.121 135.32 m 235.121 145.48 l S Q
q 1 0 0 -1 0 390.492706 cm
286.039 58.48 m 296.199 58.48 l 291.121 53.398 m 291.121 63.559 l S Q
0 0.619608 0.45098 rg
0.8 w
q 1 0 0 -1 0 390.492706 cm
123.199 300.48 m 179.121 239.922 l 235.121 166.32 l 291.121 85.68 l S Q
0.79756 w
q 1 0 0 -1 0 390.492706 cm
118.121 295.398 m 128.281 305.559 l 128.281 295.398 m 118.121 305.559 l
 S Q
q 1 0 0 -1 0 390.492706 cm
174.039 234.84 m 184.199 245 l 184.199 234.84 m 174.039 245 l S Q
q 1 0 0 -1 0 390.492706 cm
230.039 161.238 m 240.199 171.398 l 240.199 161.238 m 230.039 171.398 l
 S Q
q 1 0 0 -1 0 390.492706 cm
286.039 80.602 m 296.199 90.762 l 296.199 80.602 m 286.039 90.762 l S Q
0.337255 0.705882 0.913725 rg
0.8 w
q 1 0 0 -1 0 390.492706 cm
123.199 271.52 m 179.121 218.961 l 235.121 187.281 l 291.121 157.52 l 347.039
 122.961 l 402.879 89.039 l S Q
0.79756 w
q 1 0 0 -1 0 390.492706 cm
118.121 271.52 m 128.281 271.52 l 123.199 266.441 m 123.199 276.602 l 118.121
 266.441 m 128.281 276.602 l 118.121 276.602 m 128.281 266.441 l S Q
q 1 0 0 -1 0 390.492706 cm
174.039 218.961 m 184.199 218.961 l 179.121 213.879 m 179.121 224.039 l
 174.039 213.879 m 184.199 224.039 l 174.039 224.039 m 184.199 213.879 l
 S Q
q 1 0 0 -1 0 390.492706 cm
230.039 187.281 m 240.199 187.281 l 235.121 182.199 m 235.121 192.359 l
 230.039 182.199 m 240.199 192.359 l 230.039 192.359 m 240.199 182.199 l
 S Q
q 1 0 0 -1 0 390.492706 cm
286.039 157.52 m 296.199 157.52 l 291.121 152.441 m 291.121 162.602 l 286.039
 152.441 m 296.199 162.602 l 286.039 162.602 m 296.199 152.441 l S Q
q 1 0 0 -1 0 390.492706 cm
341.961 122.961 m 352.121 122.961 l 347.039 117.879 m 347.039 128.039 l
 341.961 117.879 m 352.121 128.039 l 341.961 128.039 m 352.121 117.879 l
 S Q
q 1 0 0 -1 0 390.492706 cm
397.801 89.039 m 407.961 89.039 l 402.879 83.961 m 402.879 94.121 l 397.801
 83.961 m 407.961 94.121 l 397.801 94.121 m 407.961 83.961 l S Q
0.901961 0.623529 0 rg
0.8 w
q 1 0 0 -1 0 390.492706 cm
123.199 288.48 m 179.121 242.559 l 235.121 205.68 l 291.121 171.84 l 347.039
 133.281 l 402.879 98.398 l S Q
0.79756 w
q 1 0 0 -1 0 390.492706 cm
118.121 283.398 10.16 10.16 re S Q
q 1 0 0 -1 0 390.492706 cm
174.039 237.48 10.16 10.16 re S Q
q 1 0 0 -1 0 390.492706 cm
230.039 200.602 10.16 10.16 re S Q
q 1 0 0 -1 0 390.492706 cm
286.039 166.762 10.16 10.16 re S Q
q 1 0 0 -1 0 390.492706 cm
341.961 128.199 10.16 10.16 re S Q
q 1 0 0 -1 0 390.492706 cm
397.801 93.32 10.16 10.16 re S Q
0 g
0.8 w
q 1 0 0 -1 0 390.492706 cm
80.238 18.961 371.363 324.398 re S Q
181.059 13.809 m 180.867 14.067 180.867 14.098 180.488 14.098 c 177.02 
14.098 l 177.02 13.461 l 177.621 13.461 l 177.91 13.461 178.324 13.43 178.609
 13.43 c 179.086 13.364 179.117 13.333 179.117 12.95 c 179.117 2.356 l 179.117
 1.813 179.117 0.86 177.02 0.86 c 177.02 0.223 l 177.719 0.254 178.734 0.286
 179.406 0.286 c 180.074 0.286 181.059 0.254 181.758 0.223 c 181.758 0.86
 l 179.691 0.86 179.691 1.813 179.691 2.356 c 179.691 12.918 l 179.785 12.825
 179.785 12.793 179.883 12.665 c 188.156 0.477 l 188.348 0.254 188.379 0.223
 188.504 0.223 c 188.793 0.223 188.793 0.348 188.793 0.762 c 188.793 11.965
 l 188.793 12.504 188.793 13.461 190.891 13.461 c 190.891 14.098 l 190.16
 14.067 189.172 14.032 188.504 14.032 c 187.836 14.032 186.852 14.067 186.152
 14.098 c 186.152 13.461 l 188.219 13.461 188.219 12.504 188.219 11.965 
c 188.219 3.278 l h
181.059 13.809 m f
199.492 1.813 m 199.492 0.001 l 202.418 0.223 l 202.418 0.86 l 201.02 0.86
 200.859 0.985 200.859 2.004 c 200.859 9.196 l 197.867 8.973 l 197.867 8.336
 l 199.27 8.336 199.457 8.211 199.457 7.192 c 199.457 3.594 l 199.457 1.813
 198.473 0.446 196.977 0.446 c 195.289 0.446 195.195 1.399 195.195 2.45 
c 195.195 9.196 l 192.203 8.973 l 192.203 8.336 l 193.793 8.336 193.793 
8.274 193.793 6.493 c 193.793 3.438 l 193.793 1.844 193.793 0.001 196.883
 0.001 c 198.027 0.001 198.918 0.575 199.492 1.813 c h
199.492 1.813 m f
205.066 7.192 m 205.066 1.751 l 205.066 0.86 204.844 0.86 203.477 0.86 
c 203.477 0.223 l 204.207 0.254 205.227 0.286 205.801 0.286 c 206.309 0.286
 207.359 0.254 208.059 0.223 c 208.059 0.86 l 206.691 0.86 206.469 0.86 
206.469 1.751 c 206.469 5.504 l 206.469 7.606 207.93 8.751 209.203 8.751
 c 210.508 8.751 210.73 7.668 210.73 6.493 c 210.73 1.751 l 210.73 0.86 
210.508 0.86 209.141 0.86 c 209.141 0.223 l 209.84 0.254 210.891 0.286 211.43
 0.286 c 211.941 0.286 213.023 0.254 213.691 0.223 c 213.691 0.86 l 212.355
 0.86 212.133 0.86 212.133 1.751 c 212.133 5.504 l 212.133 7.606 213.562
 8.751 214.867 8.751 c 216.141 8.751 216.363 7.668 216.363 6.493 c 216.363
 1.751 l 216.363 0.86 216.141 0.86 214.773 0.86 c 214.773 0.223 l 215.473
 0.254 216.523 0.286 217.062 0.286 c 217.605 0.286 218.656 0.254 219.355
 0.223 c 219.355 0.86 l 218.305 0.86 217.797 0.86 217.766 1.465 c 217.766
 5.344 l 217.766 7.094 217.766 7.7 217.129 8.434 c 216.84 8.782 216.172 
9.196 214.996 9.196 c 213.309 9.196 212.387 7.989 212.066 7.192 c 211.781
 8.973 210.285 9.196 209.363 9.196 c 207.867 9.196 206.914 8.336 206.34 
7.063 c 206.34 9.196 l 203.477 8.973 l 203.477 8.336 l 204.906 8.336 205.066
 8.211 205.066 7.192 c h
205.066 7.192 m f
222.68 7.891 m 222.68 14.321 l 219.75 14.098 l 219.75 13.461 l 221.184 
13.461 221.344 13.333 221.344 12.313 c 221.344 0.223 l 221.852 0.223 l 221.852
 0.254 222.012 0.54 222.582 1.497 c 222.871 1.02 223.73 0.001 225.227 0.001
 c 227.645 0.001 229.742 2.004 229.742 4.614 c 229.742 7.192 227.77 9.196
 225.449 9.196 c 223.855 9.196 222.996 8.243 222.68 7.891 c h
222.742 2.547 m 222.742 6.715 l 222.742 7.094 222.742 7.129 222.965 7.446
 c 223.762 8.59 224.875 8.751 225.352 8.751 c 226.273 8.751 227.008 8.211
 227.484 7.446 c 228.023 6.618 228.059 5.473 228.059 4.614 c 228.059 3.883
 228.023 2.672 227.453 1.751 c 227.008 1.114 226.242 0.446 225.16 0.446 
c 224.238 0.446 223.508 0.922 223.031 1.688 c 222.742 2.102 222.742 2.165
 222.742 2.547 c h
222.742 2.547 m f
233.277 5.344 m 233.406 8.368 235.125 8.879 235.824 8.879 c 237.895 8.879
 238.117 6.141 238.117 5.344 c h
233.277 4.899 m 238.945 4.899 l 239.391 4.899 239.453 4.899 239.453 5.344
 c 239.453 7.352 238.34 9.325 235.824 9.325 c 233.469 9.325 231.594 7.223
 231.594 4.676 c 231.594 1.973 233.727 0.001 236.047 0.001 c 238.531 0.001
 239.453 2.258 239.453 2.641 c 239.453 2.833 239.293 2.895 239.168 2.895
 c 239.008 2.895 238.945 2.77 238.91 2.61 c 238.211 0.508 236.367 0.508 
236.176 0.508 c 235.156 0.508 234.359 1.114 233.883 1.876 c 233.277 2.833
 233.277 4.168 233.277 4.899 c h
233.277 4.899 m f
243.441 6.969 m 243.441 9.196 l 240.609 8.973 l 240.609 8.336 l 242.043
 8.336 242.199 8.211 242.199 7.192 c 242.199 1.751 l 242.199 0.86 241.977
 0.86 240.609 0.86 c 240.609 0.223 l 241.406 0.254 242.359 0.286 242.934
 0.286 c 243.727 0.286 244.684 0.286 245.512 0.223 c 245.512 0.86 l 245.062
 0.86 l 243.57 0.86 243.535 1.083 243.535 1.813 c 243.535 4.934 l 243.535
 6.938 244.395 8.751 245.922 8.751 c 246.051 8.751 246.113 8.751 246.145
 8.719 c 246.082 8.719 245.668 8.465 245.668 7.922 c 245.668 7.383 246.113
 7.063 246.559 7.063 c 246.91 7.063 247.418 7.321 247.418 7.954 c 247.418
 8.59 246.781 9.196 245.922 9.196 c 244.43 9.196 243.695 7.829 243.441 6.969
 c h
243.441 6.969 m f
264.285 4.583 m 264.285 7.161 262.281 9.325 259.832 9.325 c 257.285 9.325
 255.312 7.094 255.312 4.583 c 255.312 1.942 257.414 0.001 259.801 0.001
 c 262.25 0.001 264.285 2.004 264.285 4.583 c h
259.832 0.508 m 258.941 0.508 258.051 0.922 257.508 1.876 c 257 2.77 257
 4.008 257 4.743 c 257 5.536 257 6.618 257.477 7.508 c 258.02 8.434 258.973
 8.879 259.801 8.879 c 260.691 8.879 261.551 8.434 262.09 7.543 c 262.633
 6.684 262.633 5.504 262.633 4.743 c 262.633 4.008 262.633 2.895 262.188
 2.004 c 261.711 1.083 260.816 0.508 259.832 0.508 c h
259.832 0.508 m f
268.449 8.973 m 268.449 11.329 l 268.449 13.11 269.402 14.098 270.293 14.098
 c 270.359 14.098 270.676 14.098 270.965 13.938 c 270.742 13.876 270.359
 13.586 270.359 13.079 c 270.359 12.633 270.676 12.219 271.25 12.219 c 271.824
 12.219 272.141 12.633 272.141 13.11 c 272.141 13.876 271.375 14.543 270.293
 14.543 c 268.895 14.543 267.145 13.461 267.145 11.297 c 267.145 8.973 l
 265.555 8.973 l 265.555 8.336 l 267.145 8.336 l 267.145 1.751 l 267.145
 0.86 266.922 0.86 265.586 0.86 c 265.586 0.223 l 266.379 0.254 267.336 
0.286 267.875 0.286 c 268.703 0.286 269.66 0.286 270.453 0.223 c 270.453
 0.86 l 270.039 0.86 l 268.543 0.86 268.512 1.083 268.512 1.813 c 268.512
 8.336 l 270.805 8.336 l 270.805 8.973 l h
268.449 8.973 m f
280.121 5.344 m 280.25 8.368 281.969 8.879 282.668 8.879 c 284.734 8.879
 284.957 6.141 284.957 5.344 c h
280.121 4.899 m 285.785 4.899 l 286.23 4.899 286.297 4.899 286.297 5.344
 c 286.297 7.352 285.18 9.325 282.668 9.325 c 280.312 9.325 278.434 7.223
 278.434 4.676 c 278.434 1.973 280.566 0.001 282.891 0.001 c 285.371 0.001
 286.297 2.258 286.297 2.641 c 286.297 2.833 286.137 2.895 286.008 2.895
 c 285.848 2.895 285.785 2.77 285.754 2.61 c 285.055 0.508 283.207 0.508
 283.016 0.508 c 282 0.508 281.203 1.114 280.727 1.876 c 280.121 2.833 280.121
 4.168 280.121 4.899 c h
280.121 4.899 m f
290.477 14.321 m 287.547 14.098 l 287.547 13.461 l 288.98 13.461 289.137
 13.333 289.137 12.313 c 289.137 1.751 l 289.137 0.86 288.914 0.86 287.547
 0.86 c 287.547 0.223 l 288.215 0.254 289.297 0.286 289.805 0.286 c 290.316
 0.286 291.301 0.254 292.066 0.223 c 292.066 0.86 l 290.699 0.86 290.477
 0.86 290.477 1.751 c h
290.477 14.321 m f
294.773 5.344 m 294.902 8.368 296.621 8.879 297.32 8.879 c 299.391 8.879
 299.613 6.141 299.613 5.344 c h
294.773 4.899 m 300.438 4.899 l 300.883 4.899 300.949 4.899 300.949 5.344
 c 300.949 7.352 299.836 9.325 297.32 9.325 c 294.965 9.325 293.09 7.223
 293.09 4.676 c 293.09 1.973 295.219 0.001 297.543 0.001 c 300.023 0.001
 300.949 2.258 300.949 2.641 c 300.949 2.833 300.789 2.895 300.66 2.895 
c 300.504 2.895 300.438 2.77 300.406 2.61 c 299.707 0.508 297.863 0.508 
297.672 0.508 c 296.652 0.508 295.855 1.114 295.379 1.876 c 294.773 2.833
 294.773 4.168 294.773 4.899 c h
294.773 4.899 m f
303.758 7.192 m 303.758 1.751 l 303.758 0.86 303.535 0.86 302.168 0.86 
c 302.168 0.223 l 302.902 0.254 303.918 0.286 304.492 0.286 c 305 0.286 
306.051 0.254 306.75 0.223 c 306.75 0.86 l 305.383 0.86 305.16 0.86 305.16
 1.751 c 305.16 5.504 l 305.16 7.606 306.625 8.751 307.898 8.751 c 309.203
 8.751 309.426 7.668 309.426 6.493 c 309.426 1.751 l 309.426 0.86 309.203
 0.86 307.832 0.86 c 307.832 0.223 l 308.531 0.254 309.582 0.286 310.125
 0.286 c 310.633 0.286 311.715 0.254 312.383 0.223 c 312.383 0.86 l 311.047
 0.86 310.824 0.86 310.824 1.751 c 310.824 5.504 l 310.824 7.606 312.258
 8.751 313.562 8.751 c 314.832 8.751 315.055 7.668 315.055 6.493 c 315.055
 1.751 l 315.055 0.86 314.832 0.86 313.465 0.86 c 313.465 0.223 l 314.164
 0.254 315.215 0.286 315.758 0.286 c 316.297 0.286 317.348 0.254 318.047
 0.223 c 318.047 0.86 l 316.996 0.86 316.488 0.86 316.457 1.465 c 316.457
 5.344 l 316.457 7.094 316.457 7.7 315.82 8.434 c 315.535 8.782 314.867 
9.196 313.688 9.196 c 312 9.196 311.078 7.989 310.762 7.192 c 310.473 8.973
 308.977 9.196 308.055 9.196 c 306.559 9.196 305.605 8.336 305.031 7.063
 c 305.031 9.196 l 302.168 8.973 l 302.168 8.336 l 303.602 8.336 303.758
 8.211 303.758 7.192 c h
303.758 7.192 m f
320.699 5.344 m 320.824 8.368 322.543 8.879 323.246 8.879 c 325.312 8.879
 325.535 6.141 325.535 5.344 c h
320.699 4.899 m 326.363 4.899 l 326.809 4.899 326.871 4.899 326.871 5.344
 c 326.871 7.352 325.758 9.325 323.246 9.325 c 320.891 9.325 319.012 7.223
 319.012 4.676 c 319.012 1.973 321.145 0.001 323.469 0.001 c 325.949 0.001
 326.871 2.258 326.871 2.641 c 326.871 2.833 326.715 2.895 326.586 2.895
 c 326.426 2.895 326.363 2.77 326.332 2.61 c 325.633 0.508 323.785 0.508
 323.594 0.508 c 322.578 0.508 321.781 1.114 321.305 1.876 c 320.699 2.833
 320.699 4.168 320.699 4.899 c h
320.699 4.899 m f
329.684 7.192 m 329.684 1.751 l 329.684 0.86 329.461 0.86 328.094 0.86 
c 328.094 0.223 l 328.824 0.254 329.844 0.286 330.414 0.286 c 330.926 0.286
 331.977 0.254 332.676 0.223 c 332.676 0.86 l 331.305 0.86 331.082 0.86 
331.082 1.751 c 331.082 5.504 l 331.082 7.606 332.547 8.751 333.82 8.751
 c 335.125 8.751 335.348 7.668 335.348 6.493 c 335.348 1.751 l 335.348 0.86
 335.125 0.86 333.758 0.86 c 333.758 0.223 l 334.457 0.254 335.508 0.286
 336.047 0.286 c 336.559 0.286 337.641 0.254 338.309 0.223 c 338.309 0.86
 l 337.258 0.86 336.746 0.86 336.746 1.465 c 336.746 5.344 l 336.746 7.094
 336.746 7.7 336.113 8.434 c 335.824 8.782 335.156 9.196 333.98 9.196 c 
332.484 9.196 331.527 8.336 330.957 7.063 c 330.957 9.196 l 328.094 8.973
 l 328.094 8.336 l 329.523 8.336 329.684 8.211 329.684 7.192 c h
329.684 7.192 m f
341.66 8.336 m 344.59 8.336 l 344.59 8.973 l 341.66 8.973 l 341.66 12.696
 l 341.152 12.696 l 341.152 11.043 340.547 8.879 338.543 8.782 c 338.543
 8.336 l 340.262 8.336 l 340.262 2.735 l 340.262 0.254 342.172 0.001 342.902
 0.001 c 344.336 0.001 344.906 1.43 344.906 2.735 c 344.906 3.883 l 344.398
 3.883 l 344.398 2.77 l 344.398 1.274 343.793 0.508 343.031 0.508 c 341.66
 0.508 341.66 2.356 341.66 2.704 c h
341.66 8.336 m f
350.285 4.168 m 350.73 4.075 352.383 3.754 352.383 2.29 c 352.383 1.274
 351.684 0.446 350.094 0.446 c 348.375 0.446 347.645 1.59 347.262 3.34 c
 347.195 3.594 347.195 3.661 346.973 3.661 c 346.719 3.661 346.719 3.532
 346.719 3.18 c 346.719 0.477 l 346.719 0.126 346.719 0.001 346.941 0.001
 c 347.039 0.001 347.07 0.032 347.453 0.415 c 347.484 0.446 347.484 0.477
 347.867 0.86 c 348.758 0.032 349.68 0.001 350.094 0.001 c 352.414 0.001
 353.371 1.368 353.371 2.833 c 353.371 3.883 352.766 4.52 352.512 4.743 
c 351.844 5.411 351.047 5.567 350.188 5.727 c 349.043 5.95 347.707 6.204
 347.707 7.383 c 347.707 8.114 348.215 8.942 349.965 8.942 c 352.191 8.942
 352.32 7.094 352.352 6.493 c 352.352 6.301 352.543 6.301 352.574 6.301 
c 352.859 6.301 352.859 6.395 352.859 6.778 c 352.859 8.848 l 352.859 9.165
 352.859 9.325 352.637 9.325 c 352.543 9.325 352.48 9.325 352.227 9.071 
c 352.16 9.004 351.969 8.813 351.875 8.751 c 351.109 9.325 350.285 9.325
 349.965 9.325 c 347.484 9.325 346.719 7.954 346.719 6.809 c 346.719 6.11
 347.039 5.536 347.578 5.09 c 348.246 4.583 348.82 4.454 350.285 4.168 c
 h
350.285 4.168 m f
50.324 377.336 m 50.324 377.844 50.324 377.879 49.848 377.879 c 48.574 
376.575 46.793 376.575 46.156 376.575 c 46.156 375.938 l 46.57 375.938 47.746
 375.938 48.797 376.477 c 48.797 365.946 l 48.797 365.211 48.734 364.989
 46.918 364.989 c 46.281 364.989 l 46.281 364.352 l 46.984 364.418 48.734
 364.418 49.562 364.418 c 50.355 364.418 52.137 364.418 52.84 364.352 c 
52.84 364.989 l 52.203 364.989 l 50.355 364.989 50.324 365.211 50.324 365.946
 c h
50.324 377.336 m f
63.809 370.844 m 63.809 372.469 63.715 374.09 63.016 375.586 c 62.094 377.559
 60.406 377.879 59.578 377.879 c 58.336 377.879 56.875 377.336 56.016 375.458
 c 55.379 374.059 55.281 372.469 55.281 370.844 c 55.281 369.317 55.348 
367.504 56.207 365.946 c 57.062 364.321 58.559 363.907 59.547 363.907 c 
60.629 363.907 62.188 364.321 63.078 366.262 c 63.715 367.665 63.809 369.254
 63.809 370.844 c h
59.547 364.352 m 58.75 364.352 57.543 364.864 57.191 366.805 c 56.969 368.012
 56.969 369.891 56.969 371.098 c 56.969 372.403 56.969 373.743 57.129 374.821
 c 57.512 377.243 59.039 377.43 59.547 377.43 c 60.215 377.43 61.551 377.051
 61.934 375.047 c 62.156 373.899 62.156 372.372 62.156 371.098 c 62.156 
369.571 62.156 368.204 61.934 366.899 c 61.613 364.958 60.469 364.352 59.547
 364.352 c h
59.547 364.352 m f
66.828 379.641 m 67.559 379.45 67.973 379.45 68.195 379.45 c 70.074 379.45
 71.188 380.719 71.188 380.946 c 71.188 381.102 71.094 381.133 71.027 381.133
 c 70.996 381.133 70.965 381.133 70.902 381.102 c 70.551 380.977 69.82 380.688
 68.77 380.688 c 68.355 380.688 67.625 380.719 66.699 381.071 c 66.543 381.133
 66.512 381.133 66.512 381.133 c 66.32 381.133 66.32 380.977 66.32 380.754
 c 66.32 376.583 l 66.32 376.329 66.32 376.172 66.543 376.172 c 66.668 376.172
 66.699 376.172 66.828 376.36 c 67.434 377.126 68.324 377.254 68.801 377.254
 c 69.66 377.254 70.043 376.583 70.105 376.458 c 70.359 375.981 70.457 375.438
 70.457 374.61 c 70.457 374.196 70.457 373.372 70.012 372.735 c 69.66 372.223
 69.055 371.876 68.355 371.876 c 67.434 371.876 66.477 372.383 66.129 373.34
 c 66.668 373.305 66.957 373.657 66.957 374.04 c 66.957 374.645 66.414 374.739
 66.223 374.739 c 66.223 374.739 65.523 374.739 65.523 373.973 c 65.523 
372.704 66.699 371.43 68.387 371.43 c 70.199 371.43 71.793 372.766 71.793
 374.579 c 71.793 376.172 70.582 377.633 68.832 377.633 c 68.195 377.633
 67.465 377.508 66.828 376.965 c h
66.828 379.641 m f
50.324 268.622 m 50.324 269.129 50.324 269.161 49.848 269.161 c 48.574 
267.856 46.793 267.856 46.156 267.856 c 46.156 267.223 l 46.57 267.223 47.746
 267.223 48.797 267.762 c 48.797 257.231 l 48.797 256.497 48.734 256.274
 46.918 256.274 c 46.281 256.274 l 46.281 255.637 l 46.984 255.704 48.734
 255.704 49.562 255.704 c 50.355 255.704 52.137 255.704 52.84 255.637 c 
52.84 256.274 l 52.203 256.274 l 50.355 256.274 50.324 256.497 50.324 257.231
 c h
50.324 268.622 m f
63.809 262.129 m 63.809 263.754 63.715 265.376 63.016 266.872 c 62.094 
268.844 60.406 269.161 59.578 269.161 c 58.336 269.161 56.875 268.622 56.016
 266.743 c 55.379 265.344 55.281 263.754 55.281 262.129 c 55.281 260.602
 55.348 258.79 56.207 257.231 c 57.062 255.606 58.559 255.192 59.547 255.192
 c 60.629 255.192 62.188 255.606 63.078 257.547 c 63.715 258.95 63.809 260.54
 63.809 262.129 c h
59.547 255.637 m 58.75 255.637 57.543 256.149 57.191 258.09 c 56.969 259.297
 56.969 261.176 56.969 262.383 c 56.969 263.688 56.969 265.024 57.129 266.106
 c 57.512 268.528 59.039 268.715 59.547 268.715 c 60.215 268.715 61.551 
268.336 61.934 266.329 c 62.156 265.184 62.156 263.657 62.156 262.383 c 
62.156 260.856 62.156 259.489 61.934 258.184 c 61.613 256.243 60.469 255.637
 59.547 255.637 c h
59.547 255.637 m f
72.141 265.325 m 72.141 265.833 l 70.551 265.833 l 70.551 272.165 l 70.551
 272.45 70.551 272.579 70.266 272.579 c 70.074 272.579 70.012 272.579 69.883
 272.356 c 65.172 265.833 l 65.172 265.325 l 69.375 265.325 l 69.375 264.176
 l 69.375 263.668 69.375 263.508 68.195 263.508 c 67.816 263.508 l 67.816
 263.001 l 68.547 263.032 69.438 263.063 69.945 263.063 c 70.488 263.063
 71.379 263.032 72.109 263.001 c 72.109 263.508 l 71.73 263.508 l 70.551
 263.508 70.551 263.668 70.551 264.176 c 70.551 265.325 l h
69.469 271.02 m 69.469 265.833 l 65.715 265.833 l h
69.469 271.02 m f
71.395 35.836 m 71.395 36.344 71.395 36.376 70.914 36.376 c 69.645 35.071
 67.859 35.071 67.223 35.071 c 67.223 34.434 l 67.637 34.434 68.816 34.434
 69.867 34.977 c 69.867 24.442 l 69.867 23.711 69.801 23.489 67.988 23.489
 c 67.352 23.489 l 67.352 22.852 l 68.051 22.915 69.801 22.915 70.629 22.915
 c 71.426 22.915 73.207 22.915 73.906 22.852 c 73.906 23.489 l 73.27 23.489
 l 71.426 23.489 71.395 23.711 71.395 24.442 c h
71.395 35.836 m f
84.879 29.344 m 84.879 30.965 84.785 32.59 84.082 34.086 c 83.16 36.059
 81.473 36.376 80.648 36.376 c 79.406 36.376 77.941 35.836 77.082 33.958
 c 76.445 32.559 76.352 30.965 76.352 29.344 c 76.352 27.817 76.414 26.001
 77.273 24.442 c 78.133 22.821 79.629 22.407 80.613 22.407 c 81.695 22.407
 83.258 22.821 84.148 24.762 c 84.785 26.161 84.879 27.751 84.879 29.344
 c h
80.613 22.852 m 79.82 22.852 78.609 23.36 78.262 25.301 c 78.039 26.512
 78.039 28.387 78.039 29.598 c 78.039 30.903 78.039 32.239 78.195 33.321
 c 78.578 35.739 80.105 35.93 80.613 35.93 c 81.281 35.93 82.621 35.547 
83 33.543 c 83.223 32.399 83.223 30.872 83.223 29.598 c 83.223 28.071 83.223
 26.704 83 25.399 c 82.684 23.458 81.539 22.852 80.613 22.852 c h
80.613 22.852 m f
89.582 34.954 m 90.695 34.954 91.492 34.192 91.492 32.665 c 91.492 30.915
 90.441 30.372 89.648 30.372 c 89.074 30.372 87.801 30.532 87.227 31.391
 c 87.898 31.391 88.055 31.868 88.055 32.188 c 88.055 32.633 87.707 32.95
 87.262 32.95 c 86.879 32.95 86.465 32.696 86.465 32.122 c 86.465 30.786
 87.93 29.926 89.648 29.926 c 91.621 29.926 92.988 31.262 92.988 32.665 
c 92.988 33.778 92.098 34.891 90.539 35.211 c 92 35.751 92.543 36.801 92.543
 37.692 c 92.543 38.805 91.27 39.633 89.68 39.633 c 88.121 39.633 86.91 
38.868 86.91 37.723 c 86.91 37.247 87.227 36.993 87.641 36.993 c 88.086 
36.993 88.375 37.309 88.375 37.692 c 88.375 38.106 88.086 38.422 87.641 
38.458 c 88.152 39.059 89.105 39.219 89.648 39.219 c 90.285 39.219 91.176
 38.903 91.176 37.692 c 91.176 37.086 90.984 36.418 90.602 36.004 c 90.156
 35.465 89.742 35.434 89.043 35.368 c 88.691 35.336 88.66 35.336 88.598 
35.336 c 88.566 35.336 88.438 35.305 88.438 35.145 c 88.438 34.954 88.566
 34.954 88.82 34.954 c h
89.582 34.954 m f
50.324 54.766 m 50.324 55.274 50.324 55.305 49.848 55.305 c 48.574 54.001
 46.793 54.001 46.156 54.001 c 46.156 53.364 l 46.57 53.364 47.746 53.364
 48.797 53.907 c 48.797 43.372 l 48.797 42.641 48.734 42.418 46.918 42.418
 c 46.281 42.418 l 46.281 41.782 l 46.984 41.844 48.734 41.844 49.562 41.844
 c 50.355 41.844 52.137 41.844 52.84 41.782 c 52.84 42.418 l 52.203 42.418
 l 50.355 42.418 50.324 42.641 50.324 43.372 c h
50.324 54.766 m f
442.789 35.836 m 442.789 36.344 442.789 36.376 442.312 36.376 c 441.039
 35.071 439.258 35.071 438.621 35.071 c 438.621 34.434 l 439.035 34.434 
440.215 34.434 441.262 34.977 c 441.262 24.442 l 441.262 23.711 441.199 
23.489 439.387 23.489 c 438.75 23.489 l 438.75 22.852 l 439.449 22.915 441.199
 22.915 442.027 22.915 c 442.824 22.915 444.605 22.915 445.305 22.852 c 
445.305 23.489 l 444.668 23.489 l 442.824 23.489 442.789 23.711 442.789 
24.442 c h
442.789 35.836 m f
456.277 29.344 m 456.277 30.965 456.18 32.59 455.48 34.086 c 454.559 36.059
 452.871 36.376 452.043 36.376 c 450.805 36.376 449.34 35.836 448.48 33.958
 c 447.844 32.559 447.75 30.965 447.75 29.344 c 447.75 27.817 447.812 26.001
 448.672 24.442 c 449.531 22.821 451.027 22.407 452.012 22.407 c 453.094
 22.407 454.652 22.821 455.543 24.762 c 456.18 26.161 456.277 27.751 456.277
 29.344 c h
452.012 22.852 m 451.219 22.852 450.008 23.36 449.656 25.301 c 449.434 
26.512 449.434 28.387 449.434 29.598 c 449.434 30.903 449.434 32.239 449.594
 33.321 c 449.977 35.739 451.504 35.93 452.012 35.93 c 452.68 35.93 454.016
 35.547 454.398 33.543 c 454.621 32.399 454.621 30.872 454.621 29.598 c 
454.621 28.071 454.621 26.704 454.398 25.399 c 454.082 23.458 452.938 22.852
 452.012 22.852 c h
452.012 22.852 m f
459.293 38.137 m 460.027 37.946 460.441 37.946 460.664 37.946 c 462.539
 37.946 463.652 39.219 463.652 39.442 c 463.652 39.602 463.559 39.633 463.496
 39.633 c 463.465 39.633 463.43 39.633 463.367 39.602 c 463.016 39.473 462.285
 39.188 461.234 39.188 c 460.82 39.188 460.09 39.219 459.168 39.571 c 459.008
 39.633 458.977 39.633 458.977 39.633 c 458.785 39.633 458.785 39.473 458.785
 39.251 c 458.785 35.083 l 458.785 34.829 458.785 34.668 459.008 34.668 
c 459.137 34.668 459.168 34.668 459.293 34.86 c 459.898 35.626 460.789 35.751
 461.266 35.751 c 462.125 35.751 462.508 35.083 462.57 34.954 c 462.828 
34.477 462.922 33.938 462.922 33.11 c 462.922 32.696 462.922 31.868 462.477
 31.231 c 462.125 30.723 461.523 30.372 460.82 30.372 c 459.898 30.372 458.945
 30.883 458.594 31.836 c 459.137 31.805 459.422 32.157 459.422 32.536 c 
459.422 33.141 458.879 33.239 458.691 33.239 c 458.691 33.239 457.988 33.239
 457.988 32.473 c 457.988 31.2 459.168 29.926 460.855 29.926 c 462.668 29.926
 464.258 31.262 464.258 33.079 c 464.258 34.668 463.051 36.133 461.301 36.133
 c 460.664 36.133 459.93 36.004 459.293 35.465 c h
459.293 38.137 m f
257.082 35.676 m 257.082 36.184 257.082 36.215 256.605 36.215 c 255.332
 34.911 253.551 34.911 252.914 34.911 c 252.914 34.274 l 253.328 34.274 
254.504 34.274 255.555 34.817 c 255.555 24.286 l 255.555 23.551 255.492 
23.329 253.676 23.329 c 253.043 23.329 l 253.043 22.692 l 253.742 22.754
 255.492 22.754 256.32 22.754 c 257.113 22.754 258.895 22.754 259.598 22.692
 c 259.598 23.329 l 258.961 23.329 l 257.113 23.329 257.082 23.551 257.082
 24.286 c h
257.082 35.676 m f
270.57 29.184 m 270.57 30.805 270.473 32.43 269.773 33.926 c 268.852 35.899
 267.164 36.215 266.336 36.215 c 265.094 36.215 263.633 35.676 262.773 33.797
 c 262.137 32.399 262.039 30.805 262.039 29.184 c 262.039 27.657 262.105
 25.844 262.965 24.286 c 263.824 22.661 265.316 22.247 266.305 22.247 c 
267.387 22.247 268.945 22.661 269.836 24.602 c 270.473 26.001 270.57 27.594
 270.57 29.184 c h
266.305 22.692 m 265.508 22.692 264.301 23.204 263.949 25.141 c 263.727
 26.352 263.727 28.231 263.727 29.438 c 263.727 30.743 263.727 32.079 263.887
 33.161 c 264.27 35.579 265.797 35.77 266.305 35.77 c 266.973 35.77 268.309
 35.391 268.691 33.383 c 268.914 32.239 268.914 30.711 268.914 29.438 c 
268.914 27.911 268.914 26.543 268.691 25.239 c 268.371 23.297 267.227 22.692
 266.305 22.692 c h
266.305 22.692 m f
278.898 32.379 m 278.898 32.887 l 277.309 32.887 l 277.309 39.219 l 277.309
 39.504 277.309 39.633 277.023 39.633 c 276.832 39.633 276.77 39.633 276.641
 39.411 c 271.93 32.887 l 271.93 32.379 l 276.133 32.379 l 276.133 31.231
 l 276.133 30.723 276.133 30.563 274.953 30.563 c 274.574 30.563 l 274.574
 30.055 l 275.305 30.086 276.195 30.118 276.703 30.118 c 277.246 30.118 
278.137 30.086 278.867 30.055 c 278.867 30.563 l 278.488 30.563 l 277.309
 30.563 277.309 30.723 277.309 31.231 c 277.309 32.379 l h
276.227 38.075 m 276.227 32.887 l 272.473 32.887 l h
276.227 38.075 m f
50.324 160.071 m 50.324 160.579 50.324 160.614 49.848 160.614 c 48.574 
159.309 46.793 159.309 46.156 159.309 c 46.156 158.672 l 46.57 158.672 47.746
 158.672 48.797 159.211 c 48.797 148.68 l 48.797 147.946 48.734 147.723 
46.918 147.723 c 46.281 147.723 l 46.281 147.086 l 46.984 147.153 48.734
 147.153 49.562 147.153 c 50.355 147.153 52.137 147.153 52.84 147.086 c 
52.84 147.723 l 52.203 147.723 l 50.355 147.723 50.324 147.946 50.324 148.68
 c h
50.324 160.071 m f
63.809 153.579 m 63.809 155.204 63.715 156.825 63.016 158.321 c 62.094 
160.293 60.406 160.614 59.578 160.614 c 58.336 160.614 56.875 160.071 56.016
 158.192 c 55.379 156.793 55.281 155.204 55.281 153.579 c 55.281 152.051
 55.348 150.239 56.207 148.68 c 57.062 147.055 58.559 146.641 59.547 146.641
 c 60.629 146.641 62.188 147.055 63.078 148.997 c 63.715 150.399 63.809 
151.989 63.809 153.579 c h
59.547 147.086 m 58.75 147.086 57.543 147.598 57.191 149.54 c 56.969 150.747
 56.969 152.626 56.969 153.833 c 56.969 155.137 56.969 156.477 57.129 157.559
 c 57.512 159.977 59.039 160.168 59.547 160.168 c 60.215 160.168 61.551 
159.786 61.934 157.782 c 62.156 156.633 62.156 155.106 62.156 153.833 c 
62.156 152.305 62.156 150.938 61.934 149.633 c 61.613 147.692 60.469 147.086
 59.547 147.086 c h
59.547 147.086 m f
68.516 159.192 m 69.629 159.192 70.426 158.426 70.426 156.899 c 70.426 
155.149 69.375 154.61 68.578 154.61 c 68.004 154.61 66.734 154.77 66.16 
155.629 c 66.828 155.629 66.988 156.106 66.988 156.422 c 66.988 156.868 
66.637 157.188 66.191 157.188 c 65.809 157.188 65.395 156.934 65.395 156.36
 c 65.395 155.024 66.859 154.165 68.578 154.165 c 70.551 154.165 71.918 
155.501 71.918 156.899 c 71.918 158.016 71.027 159.129 69.469 159.446 c 
70.934 159.989 71.473 161.036 71.473 161.93 c 71.473 163.043 70.199 163.868
 68.609 163.868 c 67.051 163.868 65.84 163.106 65.84 161.961 c 65.84 161.485
 66.16 161.227 66.574 161.227 c 67.02 161.227 67.305 161.547 67.305 161.93
 c 67.305 162.34 67.02 162.661 66.574 162.692 c 67.082 163.297 68.039 163.458
 68.578 163.458 c 69.215 163.458 70.105 163.137 70.105 161.93 c 70.105 161.325
 69.914 160.657 69.531 160.243 c 69.086 159.7 68.672 159.668 67.973 159.606
 c 67.625 159.575 67.594 159.575 67.527 159.575 c 67.496 159.575 67.367 
159.543 67.367 159.383 c 67.367 159.192 67.496 159.192 67.75 159.192 c h
68.516 159.192 m f
8.531 110.368 m 12.734 110.368 15.914 113.645 15.914 117.43 c 15.914 120.743
 13.082 122.715 10.727 122.715 c 10.539 122.715 10.379 122.715 10.379 122.461
 c 10.379 122.239 10.504 122.239 10.727 122.204 c 13.625 122.047 15.277 
119.883 15.277 117.653 c 15.277 116.415 14.609 112.434 8.531 112.434 c 2.488
 112.434 1.785 116.415 1.785 117.653 c 1.785 119.852 3.633 121.665 6.59 
122.079 c 6.879 122.11 6.941 122.11 6.941 122.395 c 6.941 122.715 6.879 
122.715 6.465 122.715 c 1.66 122.715 l 1.309 122.715 1.148 122.715 1.148
 122.493 c 1.148 122.426 1.148 122.333 1.406 122.172 c 2.898 121.157 l 2.168
 120.422 1.148 119.372 1.148 117.43 c 1.148 113.614 4.395 110.368 8.531 
110.368 c h
8.531 110.368 m f
11.109 133.422 m 8.531 133.422 6.367 131.418 6.367 128.965 c 6.367 126.422
 8.598 124.45 11.109 124.45 c 13.75 124.45 15.691 126.547 15.691 128.934
 c 15.691 131.383 13.688 133.422 11.109 133.422 c h
15.184 128.965 m 15.184 128.075 14.77 127.184 13.816 126.645 c 12.922 126.133
 11.684 126.133 10.949 126.133 c 10.156 126.133 9.074 126.133 8.184 126.61
 c 7.258 127.153 6.812 128.106 6.812 128.934 c 6.812 129.825 7.258 130.684
 8.152 131.227 c 9.012 131.766 10.188 131.766 10.949 131.766 c 11.684 131.766
 12.797 131.766 13.688 131.321 c 14.609 130.844 15.184 129.954 15.184 128.965
 c h
15.184 128.965 m f
8.5 136.247 m 13.941 136.247 l 14.832 136.247 14.832 136.024 14.832 134.657
 c 15.469 134.657 l 15.438 135.387 15.406 136.407 15.406 136.981 c 15.406
 137.489 15.438 138.54 15.469 139.239 c 14.832 139.239 l 14.832 137.872 
14.832 137.649 13.941 137.649 c 10.188 137.649 l 8.086 137.649 6.941 139.11
 6.941 140.383 c 6.941 141.688 8.023 141.911 9.199 141.911 c 13.941 141.911
 l 14.832 141.911 14.832 141.688 14.832 140.321 c 15.469 140.321 l 15.438
 141.02 15.406 142.071 15.406 142.61 c 15.406 143.122 15.438 144.204 15.469
 144.872 c 14.832 144.872 l 14.832 143.536 14.832 143.313 13.941 143.313
 c 10.188 143.313 l 8.086 143.313 6.941 144.743 6.941 146.047 c 6.941 147.321
 8.023 147.543 9.199 147.543 c 13.941 147.543 l 14.832 147.543 14.832 147.321
 14.832 145.954 c 15.469 145.954 l 15.438 146.653 15.406 147.704 15.406 
148.243 c 15.406 148.786 15.438 149.836 15.469 150.536 c 14.832 150.536 
l 14.832 149.485 14.832 148.977 14.227 148.946 c 10.348 148.946 l 8.598 
148.946 7.992 148.946 7.258 148.309 c 6.91 148.02 6.496 147.352 6.496 146.176
 c 6.496 144.489 7.707 143.567 8.5 143.247 c 6.719 142.961 6.496 141.465
 6.496 140.543 c 6.496 139.047 7.355 138.094 8.629 137.52 c 6.496 137.52
 l 6.719 134.657 l 7.355 134.657 l 7.355 136.086 7.48 136.247 8.5 136.247
 c h
8.5 136.247 m f
7.832 154.426 m 6.496 154.426 l 6.719 151.501 l 7.355 151.501 l 7.355 152.93
 7.48 153.09 8.375 153.09 c 17.855 153.09 l 18.777 153.09 18.777 152.868
 18.777 151.501 c 19.414 151.501 l 19.383 152.2 19.352 153.251 19.352 153.758
 c 19.352 154.333 19.383 155.352 19.414 156.051 c 18.777 156.051 l 18.777
 154.715 18.777 154.493 17.855 154.493 c 14.262 154.493 l 14.609 154.586
 15.691 155.446 15.691 156.973 c 15.691 159.391 13.688 161.493 11.078 161.493
 c 8.5 161.493 6.496 159.551 6.496 157.258 c 6.496 155.668 7.387 154.809
 7.832 154.426 c h
13.148 154.493 m 8.629 154.493 l 7.578 155.063 7.004 156.051 7.004 157.102
 c 7.004 158.594 8.785 159.805 11.078 159.805 c 13.527 159.805 15.246 158.407
 15.246 156.911 c 15.246 156.083 14.832 155.317 14.004 154.778 c 13.594 
154.493 13.559 154.493 13.148 154.493 c h
13.148 154.493 m f
13.879 170.122 m 15.691 170.122 l 15.469 173.051 l 14.832 173.051 l 14.832
 171.653 14.707 171.493 13.688 171.493 c 6.496 171.493 l 6.719 168.501 l
 7.355 168.501 l 7.355 169.899 7.48 170.09 8.5 170.09 c 12.098 170.09 l 
13.879 170.09 15.246 169.106 15.246 167.61 c 15.246 165.922 14.293 165.829
 13.242 165.829 c 6.496 165.829 l 6.719 162.836 l 7.355 162.836 l 7.355 
164.426 7.418 164.426 9.199 164.426 c 12.254 164.426 l 13.848 164.426 15.691
 164.426 15.691 167.512 c 15.691 168.661 15.121 169.551 13.879 170.122 c
 h
13.879 170.122 m f
7.355 176.973 m 7.355 179.899 l 6.719 179.899 l 6.719 176.973 l 2.996 176.973
 l 2.996 176.465 l 4.648 176.465 6.812 175.86 6.91 173.856 c 7.355 173.856
 l 7.355 175.575 l 12.957 175.575 l 15.438 175.575 15.691 177.481 15.691
 178.215 c 15.691 179.645 14.262 180.219 12.957 180.219 c 11.809 180.219
 l 11.809 179.711 l 12.922 179.711 l 14.418 179.711 15.184 179.106 15.184
 178.34 c 15.184 176.973 13.336 176.973 12.988 176.973 c h
7.355 176.973 m f
13.941 188.11 m 14.738 188.204 15.598 188.747 15.598 189.7 c 15.598 190.145
 15.309 191.387 13.656 191.387 c 12.512 191.387 l 12.512 190.879 l 13.656
 190.879 l 14.832 190.879 14.961 190.368 14.961 190.145 c 14.961 189.477
 14.039 189.383 13.941 189.383 c 9.902 189.383 l 9.043 189.383 8.246 189.383
 7.48 188.649 c 6.688 187.856 6.367 186.836 6.367 185.883 c 6.367 184.196
 7.324 182.793 8.66 182.793 c 9.266 182.793 9.613 183.208 9.613 183.751 
c 9.613 184.325 9.199 184.672 8.691 184.672 c 8.438 184.672 7.77 184.579
 7.77 183.622 c 7.035 184.196 6.812 185.18 6.812 185.817 c 6.812 186.836
 7.609 187.981 9.422 187.981 c 10.156 187.981 l 10.219 186.934 10.281 185.532
 10.887 184.258 c 11.586 182.731 12.637 182.223 13.527 182.223 c 15.184 
182.223 15.691 184.196 15.691 185.469 c 15.691 186.805 14.863 187.727 13.941
 188.11 c h
10.602 187.981 m 12.637 187.981 l 14.547 187.981 15.246 186.52 15.246 185.594
 c 15.246 184.61 14.547 183.782 13.527 183.782 c 12.414 183.782 10.727 184.641
 10.602 187.981 c h
10.602 187.981 m f
7.355 195.008 m 7.355 197.938 l 6.719 197.938 l 6.719 195.008 l 2.996 195.008
 l 2.996 194.501 l 4.648 194.501 6.812 193.895 6.91 191.891 c 7.355 191.891
 l 7.355 193.61 l 12.957 193.61 l 15.438 193.61 15.691 195.516 15.691 196.251
 c 15.691 197.68 14.262 198.254 12.957 198.254 c 11.809 198.254 l 11.809
 197.747 l 12.922 197.747 l 14.418 197.747 15.184 197.141 15.184 196.376
 c 15.184 195.008 13.336 195.008 12.988 195.008 c h
7.355 195.008 m f
6.496 202.997 m 6.719 200.161 l 7.355 200.161 l 7.355 201.465 7.48 201.657
 8.469 201.657 c 13.941 201.657 l 14.832 201.657 14.832 201.434 14.832 200.067
 c 15.469 200.067 l 15.438 200.704 15.406 201.817 15.406 202.293 c 15.406
 203.028 15.438 203.727 15.469 204.426 c 14.832 204.426 l 14.832 203.059
 14.738 202.997 13.941 202.997 c h
2.965 203.059 m 2.328 203.059 1.883 202.583 1.883 202.008 c 1.883 201.372
 2.422 200.926 2.965 200.926 c 3.504 200.926 4.047 201.372 4.047 202.008
 c 4.047 202.583 3.602 203.059 2.965 203.059 c h
2.965 203.059 m f
11.109 214.583 m 8.531 214.583 6.367 212.579 6.367 210.126 c 6.367 207.583
 8.598 205.61 11.109 205.61 c 13.75 205.61 15.691 207.708 15.691 210.094
 c 15.691 212.543 13.688 214.583 11.109 214.583 c h
15.184 210.126 m 15.184 209.235 14.77 208.344 13.816 207.805 c 12.922 207.293
 11.684 207.293 10.949 207.293 c 10.156 207.293 9.074 207.293 8.184 207.77
 c 7.258 208.313 6.812 209.266 6.812 210.094 c 6.812 210.985 7.258 211.844
 8.152 212.387 c 9.012 212.926 10.188 212.926 10.949 212.926 c 11.684 212.926
 12.797 212.926 13.688 212.481 c 14.609 212.004 15.184 211.114 15.184 210.126
 c h
15.184 210.126 m f
8.5 217.407 m 13.941 217.407 l 14.832 217.407 14.832 217.184 14.832 215.817
 c 15.469 215.817 l 15.438 216.547 15.406 217.567 15.406 218.141 c 15.406
 218.649 15.438 219.7 15.469 220.399 c 14.832 220.399 l 14.832 219.032 14.832
 218.809 13.941 218.809 c 10.188 218.809 l 8.086 218.809 6.941 220.27 6.941
 221.543 c 6.941 222.848 8.023 223.071 9.199 223.071 c 13.941 223.071 l 
14.832 223.071 14.832 222.848 14.832 221.481 c 15.469 221.481 l 15.438 222.18
 15.406 223.231 15.406 223.77 c 15.406 224.282 15.438 225.364 15.469 226.032
 c 14.832 226.032 l 14.832 224.981 14.832 224.473 14.227 224.473 c 10.348
 224.473 l 8.598 224.473 7.992 224.473 7.258 223.836 c 6.91 223.547 6.496
 222.879 6.496 221.704 c 6.496 220.208 7.355 219.254 8.629 218.68 c 6.496
 218.68 l 6.719 215.817 l 7.355 215.817 l 7.355 217.247 7.48 217.407 8.5
 217.407 c h
8.5 217.407 m f
13.941 233.2 m 14.738 233.293 15.598 233.836 15.598 234.79 c 15.598 235.235
 15.309 236.477 13.656 236.477 c 12.512 236.477 l 12.512 235.969 l 13.656
 235.969 l 14.832 235.969 14.961 235.458 14.961 235.235 c 14.961 234.567
 14.039 234.473 13.941 234.473 c 9.902 234.473 l 9.043 234.473 8.246 234.473
 7.48 233.739 c 6.688 232.946 6.367 231.926 6.367 230.973 c 6.367 229.286
 7.324 227.883 8.66 227.883 c 9.266 227.883 9.613 228.297 9.613 228.84 c
 9.613 229.411 9.199 229.762 8.691 229.762 c 8.438 229.762 7.77 229.668 
7.77 228.711 c 7.035 229.286 6.812 230.27 6.812 230.907 c 6.812 231.926 
7.609 233.071 9.422 233.071 c 10.156 233.071 l 10.219 232.02 10.281 230.622
 10.887 229.348 c 11.586 227.821 12.637 227.313 13.527 227.313 c 15.184 
227.313 15.691 229.286 15.691 230.559 c 15.691 231.895 14.863 232.817 13.941
 233.2 c h
10.602 233.071 m 12.637 233.071 l 14.547 233.071 15.246 231.61 15.246 230.684
 c 15.246 229.7 14.547 228.872 13.527 228.872 c 12.414 228.872 10.727 229.731
 10.602 233.071 c h
10.602 233.071 m f
1.371 240.192 m 1.594 237.266 l 2.23 237.266 l 2.23 238.7 2.359 238.856
 3.379 238.856 c 13.941 238.856 l 14.832 238.856 14.832 238.633 14.832 237.266
 c 15.469 237.266 l 15.438 237.934 15.406 239.016 15.406 239.524 c 15.406
 240.036 15.438 241.02 15.469 241.786 c 14.832 241.786 l 14.832 240.415 
14.832 240.192 13.941 240.192 c h
1.371 240.192 m f
7.355 252.493 m 7.355 255.418 l 6.719 255.418 l 6.719 252.493 l 2.996 252.493
 l 2.996 251.981 l 4.648 251.981 6.812 251.376 6.91 249.372 c 7.355 249.372
 l 7.355 251.09 l 12.957 251.09 l 15.438 251.09 15.691 253.001 15.691 253.731
 c 15.691 255.165 14.262 255.735 12.957 255.735 c 11.809 255.735 l 11.809
 255.227 l 12.922 255.227 l 14.418 255.227 15.184 254.622 15.184 253.86 
c 15.184 252.493 13.336 252.493 12.988 252.493 c h
7.355 252.493 m f
6.496 260.477 m 6.719 257.645 l 7.355 257.645 l 7.355 258.95 7.48 259.141
 8.469 259.141 c 13.941 259.141 l 14.832 259.141 14.832 258.918 14.832 257.551
 c 15.469 257.551 l 15.438 258.184 15.406 259.301 15.406 259.778 c 15.406
 260.508 15.438 261.208 15.469 261.911 c 14.832 261.911 l 14.832 260.54 
14.738 260.477 13.941 260.477 c h
2.965 260.54 m 2.328 260.54 1.883 260.063 1.883 259.489 c 1.883 258.856
 2.422 258.407 2.965 258.407 c 3.504 258.407 4.047 258.856 4.047 259.489
 c 4.047 260.063 3.602 260.54 2.965 260.54 c h
2.965 260.54 m f
8.5 264.747 m 13.941 264.747 l 14.832 264.747 14.832 264.524 14.832 263.153
 c 15.469 263.153 l 15.438 263.887 15.406 264.903 15.406 265.477 c 15.406
 265.985 15.438 267.036 15.469 267.735 c 14.832 267.735 l 14.832 266.368
 14.832 266.145 13.941 266.145 c 10.188 266.145 l 8.086 266.145 6.941 267.61
 6.941 268.883 c 6.941 270.188 8.023 270.411 9.199 270.411 c 13.941 270.411
 l 14.832 270.411 14.832 270.188 14.832 268.817 c 15.469 268.817 l 15.438
 269.52 15.406 270.567 15.406 271.11 c 15.406 271.618 15.438 272.7 15.469
 273.368 c 14.832 273.368 l 14.832 272.032 14.832 271.809 13.941 271.809
 c 10.188 271.809 l 8.086 271.809 6.941 273.243 6.941 274.547 c 6.941 275.821
 8.023 276.043 9.199 276.043 c 13.941 276.043 l 14.832 276.043 14.832 275.821
 14.832 274.45 c 15.469 274.45 l 15.438 275.149 15.406 276.2 15.406 276.743
 c 15.406 277.282 15.438 278.333 15.469 279.032 c 14.832 279.032 l 14.832
 277.981 14.832 277.473 14.227 277.442 c 10.348 277.442 l 8.598 277.442 
7.992 277.442 7.258 276.805 c 6.91 276.52 6.496 275.852 6.496 274.672 c 
6.496 272.989 7.707 272.063 8.5 271.747 c 6.719 271.458 6.496 269.965 6.496
 269.04 c 6.496 267.543 7.355 266.59 8.629 266.016 c 6.496 266.016 l 6.719
 263.153 l 7.355 263.153 l 7.355 264.586 7.48 264.747 8.5 264.747 c h
8.5 264.747 m f
10.348 281.684 m 7.324 281.813 6.812 283.532 6.812 284.231 c 6.812 286.297
 9.551 286.52 10.348 286.52 c h
10.793 281.684 m 10.793 287.348 l 10.793 287.793 10.793 287.856 10.348 
287.856 c 8.34 287.856 6.367 286.743 6.367 284.231 c 6.367 281.876 8.469
 279.997 11.016 279.997 c 13.719 279.997 15.691 282.129 15.691 284.454 c
 15.691 286.934 13.434 287.856 13.051 287.856 c 12.859 287.856 12.797 287.7
 12.797 287.571 c 12.797 287.411 12.922 287.348 13.082 287.317 c 15.184 
286.618 15.184 284.77 15.184 284.579 c 15.184 283.563 14.578 282.766 13.816
 282.29 c 12.859 281.684 11.523 281.684 10.793 281.684 c h
10.793 281.684 m f
20.562 300.407 m 19.734 300.407 l 19.734 298.434 l 1.055 298.434 l 1.055
 300.407 l 0.227 300.407 l 0.227 297.606 l 20.562 297.606 l h
20.562 300.407 m f
7.863 308.77 m 7.895 308.231 8.34 307.817 8.785 307.817 c 9.074 307.817
 9.391 308.008 9.391 308.454 c 9.391 308.899 9.043 309.376 8.246 309.376
 c 7.324 309.376 6.496 308.516 6.496 306.958 c 6.496 304.286 8.562 303.52
 9.457 303.52 c 11.047 303.52 11.332 305.016 11.461 305.622 c 11.684 306.668
 11.906 307.719 13.02 307.719 c 13.527 307.719 15.246 307.274 15.246 304.825
 c 15.246 304.54 15.246 302.981 14.164 302.501 c 14.262 303.297 13.656 303.805
 13.082 303.805 c 12.637 303.805 12.383 303.458 12.383 303.043 c 12.383 
302.501 12.797 301.899 13.719 301.899 c 14.863 301.899 15.691 303.075 15.691
 304.793 c 15.691 308.102 13.242 308.899 12.32 308.899 c 11.586 308.899 
11.078 308.516 10.855 308.262 c 10.281 307.719 10.156 307.118 9.996 306.223
 c 9.836 305.493 9.68 304.696 8.754 304.696 c 8.184 304.696 6.941 305.176
 6.941 306.958 c 6.941 307.465 7.102 308.485 7.863 308.77 c h
7.863 308.77 m f
0.227 313.571 m 0.227 310.805 l 1.055 310.805 l 1.055 312.778 l 19.734 
312.778 l 19.734 310.805 l 20.562 310.805 l 20.562 313.571 l h
0.227 313.571 m f
314.836 153.235 m 314.645 153.68 314.578 153.68 314.102 153.68 c 310.699
 153.68 l 310.699 153.043 l 311.176 153.043 l 312.734 153.043 312.766 152.821
 312.766 152.09 c 312.766 141.938 l 312.766 141.399 312.766 140.442 310.699
 140.442 c 310.699 139.805 l 311.398 139.836 312.383 139.868 313.051 139.868
 c 313.719 139.868 314.738 139.836 315.438 139.805 c 315.438 140.442 l 313.34
 140.442 313.34 141.399 313.34 141.938 c 313.34 152.883 l 313.371 152.883
 l 318.27 140.251 l 318.367 139.997 318.461 139.805 318.652 139.805 c 318.875
 139.805 318.938 139.965 319.035 140.188 c 324.031 153.043 l 324.031 141.399
 l 324.031 140.665 324 140.442 322.441 140.442 c 321.961 140.442 l 321.961
 139.805 l 322.695 139.868 324.094 139.868 324.891 139.868 c 325.652 139.868
 327.023 139.868 327.785 139.805 c 327.785 140.442 l 327.277 140.442 l 325.719
 140.442 325.684 140.665 325.684 141.399 c 325.684 152.09 l 325.684 152.821
 325.719 153.043 327.277 153.043 c 327.785 153.043 l 327.785 153.68 l 324.348
 153.68 l 323.809 153.68 323.809 153.649 323.68 153.297 c 319.227 141.844
 l h
314.836 153.235 m f
330.793 144.93 m 330.918 147.954 332.637 148.461 333.34 148.461 c 335.406
 148.461 335.629 145.723 335.629 144.93 c h
330.793 144.485 m 336.457 144.485 l 336.902 144.485 336.965 144.485 336.965
 144.93 c 336.965 146.934 335.852 148.907 333.34 148.907 c 330.984 148.907
 329.105 146.805 329.105 144.262 c 329.105 141.555 331.238 139.583 333.562
 139.583 c 336.043 139.583 336.965 141.844 336.965 142.223 c 336.965 142.415
 336.809 142.477 336.68 142.477 c 336.52 142.477 336.457 142.352 336.426
 142.192 c 335.727 140.094 333.879 140.094 333.688 140.094 c 332.668 140.094
 331.875 140.696 331.398 141.461 c 330.793 142.415 330.793 143.751 330.793
 144.485 c h
330.793 144.485 m f
341.051 147.922 m 343.977 147.922 l 343.977 148.555 l 341.051 148.555 l
 341.051 152.282 l 340.539 152.282 l 340.539 150.626 339.938 148.461 337.93
 148.368 c 337.93 147.922 l 339.648 147.922 l 339.648 142.321 l 339.648 
139.836 341.559 139.583 342.293 139.583 c 343.723 139.583 344.297 141.016
 344.297 142.321 c 344.297 143.465 l 343.785 143.465 l 343.785 142.352 l
 343.785 140.856 343.184 140.094 342.418 140.094 c 341.051 140.094 341.051
 141.938 341.051 142.29 c h
341.051 147.922 m f
347.668 141.333 m 347.668 140.442 347.445 140.442 346.078 140.442 c 346.078
 139.805 l 346.809 139.836 347.828 139.868 348.398 139.868 c 348.91 139.868
 349.961 139.836 350.66 139.805 c 350.66 140.442 l 349.289 140.442 349.066
 140.442 349.066 141.333 c 349.066 145.086 l 349.066 147.188 350.531 148.333
 351.805 148.333 c 353.109 148.333 353.332 147.251 353.332 146.075 c 353.332
 141.333 l 353.332 140.442 353.109 140.442 351.742 140.442 c 351.742 139.805
 l 352.441 139.836 353.492 139.868 354.031 139.868 c 354.543 139.868 355.625
 139.836 356.293 139.805 c 356.293 140.442 l 355.242 140.442 354.73 140.442
 354.73 141.047 c 354.73 144.93 l 354.73 146.68 354.73 147.286 354.098 148.016
 c 353.809 148.368 353.141 148.778 351.965 148.778 c 350.246 148.778 349.355
 147.571 349.004 146.774 c 349.004 153.903 l 346.078 153.68 l 346.078 153.043
 l 347.508 153.043 347.668 152.915 347.668 151.899 c h
347.668 141.333 m f
366.258 144.165 m 366.258 146.743 364.254 148.907 361.805 148.907 c 359.258
 148.907 357.285 146.68 357.285 144.165 c 357.285 141.524 359.387 139.583
 361.773 139.583 c 364.223 139.583 366.258 141.586 366.258 144.165 c h
361.805 140.094 m 360.914 140.094 360.023 140.504 359.48 141.461 c 358.973
 142.352 358.973 143.594 358.973 144.325 c 358.973 145.122 358.973 146.204
 359.449 147.094 c 359.992 148.016 360.945 148.461 361.773 148.461 c 362.664
 148.461 363.523 148.016 364.062 147.126 c 364.605 146.266 364.605 145.086
 364.605 144.325 c 364.605 143.594 364.605 142.477 364.16 141.586 c 363.684
 140.665 362.793 140.094 361.805 140.094 c h
361.805 140.094 m f
375.125 140.918 m 375.125 139.583 l 378.117 139.805 l 378.117 140.442 l
 376.719 140.442 376.527 140.571 376.527 141.586 c 376.527 153.903 l 373.633
 153.68 l 373.633 153.043 l 375.031 153.043 375.191 152.915 375.191 151.899
 c 375.191 147.508 l 374.617 148.239 373.727 148.778 372.645 148.778 c 370.258
 148.778 368.125 146.774 368.125 144.165 c 368.125 141.586 370.098 139.583
 372.422 139.583 c 373.727 139.583 374.617 140.282 375.125 140.918 c h
375.125 146.36 m 375.125 142.192 l 375.125 141.844 375.125 141.809 374.902
 141.461 c 374.301 140.473 373.41 140.028 372.516 140.028 c 371.594 140.028
 370.863 140.571 370.387 141.333 c 369.875 142.161 369.812 143.305 369.812
 144.165 c 369.812 144.899 369.844 146.106 370.418 147.028 c 370.863 147.665
 371.625 148.333 372.742 148.333 c 373.441 148.333 374.301 148.016 374.902
 147.126 c 375.125 146.774 375.125 146.743 375.125 146.36 c h
375.125 146.36 m f
391.438 152.79 m 391.438 153.297 391.438 153.329 390.961 153.329 c 389.688
 152.024 387.906 152.024 387.27 152.024 c 387.27 151.387 l 387.684 151.387
 388.859 151.387 389.91 151.93 c 389.91 141.399 l 389.91 140.665 389.848
 140.442 388.031 140.442 c 387.398 140.442 l 387.398 139.805 l 388.098 139.868
 389.848 139.868 390.676 139.868 c 391.469 139.868 393.25 139.868 393.953
 139.805 c 393.953 140.442 l 393.316 140.442 l 391.469 140.442 391.438 140.665
 391.438 141.399 c h
391.438 152.79 m f
314.836 133.454 m 314.645 133.899 314.578 133.899 314.102 133.899 c 310.699
 133.899 l 310.699 133.262 l 311.176 133.262 l 312.734 133.262 312.766 133.04
 312.766 132.305 c 312.766 122.157 l 312.766 121.614 312.766 120.661 310.699
 120.661 c 310.699 120.024 l 311.398 120.055 312.383 120.086 313.051 120.086
 c 313.719 120.086 314.738 120.055 315.438 120.024 c 315.438 120.661 l 313.34
 120.661 313.34 121.614 313.34 122.157 c 313.34 133.102 l 313.371 133.102
 l 318.27 120.469 l 318.367 120.215 318.461 120.024 318.652 120.024 c 318.875
 120.024 318.938 120.184 319.035 120.407 c 324.031 133.262 l 324.031 121.614
 l 324.031 120.883 324 120.661 322.441 120.661 c 321.961 120.661 l 321.961
 120.024 l 322.695 120.086 324.094 120.086 324.891 120.086 c 325.652 120.086
 327.023 120.086 327.785 120.024 c 327.785 120.661 l 327.277 120.661 l 325.719
 120.661 325.684 120.883 325.684 121.614 c 325.684 132.305 l 325.684 133.04
 325.719 133.262 327.277 133.262 c 327.785 133.262 l 327.785 133.899 l 324.348
 133.899 l 323.809 133.899 323.809 133.864 323.68 133.516 c 319.227 122.059
 l h
314.836 133.454 m f
330.793 125.145 m 330.918 128.168 332.637 128.68 333.34 128.68 c 335.406
 128.68 335.629 125.942 335.629 125.145 c h
330.793 124.7 m 336.457 124.7 l 336.902 124.7 336.965 124.7 336.965 125.145
 c 336.965 127.153 335.852 129.126 333.34 129.126 c 330.984 129.126 329.105
 127.024 329.105 124.477 c 329.105 121.774 331.238 119.801 333.562 119.801
 c 336.043 119.801 336.965 122.059 336.965 122.442 c 336.965 122.633 336.809
 122.696 336.68 122.696 c 336.52 122.696 336.457 122.571 336.426 122.411
 c 335.727 120.309 333.879 120.309 333.688 120.309 c 332.668 120.309 331.875
 120.915 331.398 121.676 c 330.793 122.633 330.793 123.969 330.793 124.7
 c h
330.793 124.7 m f
341.051 128.137 m 343.977 128.137 l 343.977 128.774 l 341.051 128.774 l
 341.051 132.497 l 340.539 132.497 l 340.539 130.844 339.938 128.68 337.93
 128.583 c 337.93 128.137 l 339.648 128.137 l 339.648 122.536 l 339.648 
120.055 341.559 119.801 342.293 119.801 c 343.723 119.801 344.297 121.231
 344.297 122.536 c 344.297 123.684 l 343.785 123.684 l 343.785 122.571 l
 343.785 121.075 343.184 120.309 342.418 120.309 c 341.051 120.309 341.051
 122.157 341.051 122.504 c h
341.051 128.137 m f
347.668 121.551 m 347.668 120.661 347.445 120.661 346.078 120.661 c 346.078
 120.024 l 346.809 120.055 347.828 120.086 348.398 120.086 c 348.91 120.086
 349.961 120.055 350.66 120.024 c 350.66 120.661 l 349.289 120.661 349.066
 120.661 349.066 121.551 c 349.066 125.305 l 349.066 127.407 350.531 128.551
 351.805 128.551 c 353.109 128.551 353.332 127.469 353.332 126.293 c 353.332
 121.551 l 353.332 120.661 353.109 120.661 351.742 120.661 c 351.742 120.024
 l 352.441 120.055 353.492 120.086 354.031 120.086 c 354.543 120.086 355.625
 120.055 356.293 120.024 c 356.293 120.661 l 355.242 120.661 354.73 120.661
 354.73 121.266 c 354.73 125.145 l 354.73 126.895 354.73 127.501 354.098
 128.235 c 353.809 128.583 353.141 128.997 351.965 128.997 c 350.246 128.997
 349.355 127.79 349.004 126.993 c 349.004 134.122 l 346.078 133.899 l 346.078
 133.262 l 347.508 133.262 347.668 133.133 347.668 132.114 c h
347.668 121.551 m f
366.258 124.383 m 366.258 126.961 364.254 129.126 361.805 129.126 c 359.258
 129.126 357.285 126.895 357.285 124.383 c 357.285 121.743 359.387 119.801
 361.773 119.801 c 364.223 119.801 366.258 121.805 366.258 124.383 c h
361.805 120.309 m 360.914 120.309 360.023 120.723 359.48 121.676 c 358.973
 122.571 358.973 123.809 358.973 124.543 c 358.973 125.336 358.973 126.418
 359.449 127.309 c 359.992 128.235 360.945 128.68 361.773 128.68 c 362.664
 128.68 363.523 128.235 364.062 127.34 c 364.605 126.485 364.605 125.305
 364.605 124.543 c 364.605 123.809 364.605 122.696 364.16 121.805 c 363.684
 120.883 362.793 120.309 361.805 120.309 c h
361.805 120.309 m f
375.125 121.137 m 375.125 119.801 l 378.117 120.024 l 378.117 120.661 l
 376.719 120.661 376.527 120.786 376.527 121.805 c 376.527 134.122 l 373.633
 133.899 l 373.633 133.262 l 375.031 133.262 375.191 133.133 375.191 132.114
 c 375.191 127.723 l 374.617 128.458 373.727 128.997 372.645 128.997 c 370.258
 128.997 368.125 126.993 368.125 124.383 c 368.125 121.805 370.098 119.801
 372.422 119.801 c 373.727 119.801 374.617 120.501 375.125 121.137 c h
375.125 126.579 m 375.125 122.411 l 375.125 122.059 375.125 122.028 374.902
 121.676 c 374.301 120.692 373.41 120.247 372.516 120.247 c 371.594 120.247
 370.863 120.786 370.387 121.551 c 369.875 122.379 369.812 123.524 369.812
 124.383 c 369.812 125.114 369.844 126.325 370.418 127.247 c 370.863 127.883
 371.625 128.551 372.742 128.551 c 373.441 128.551 374.301 128.235 374.902
 127.34 c 375.125 126.993 375.125 126.961 375.125 126.579 c h
375.125 126.579 m f
388.031 121.583 m 390.195 123.684 l 393.348 126.485 394.555 127.563 394.555
 129.602 c 394.555 131.926 392.742 133.547 390.262 133.547 c 387.969 133.547
 386.473 131.668 386.473 129.856 c 386.473 128.743 387.492 128.743 387.555
 128.743 c 387.906 128.743 388.605 128.965 388.605 129.825 c 388.605 130.333
 388.223 130.876 387.523 130.876 c 387.363 130.876 387.332 130.876 387.27
 130.844 c 387.715 132.18 388.828 132.911 390.008 132.911 c 391.852 132.911
 392.711 131.254 392.711 129.602 c 392.711 127.977 391.723 126.387 390.578
 125.114 c 386.695 120.786 l 386.473 120.563 386.473 120.501 386.473 120.024
 c 394.016 120.024 l 394.555 123.555 l 394.078 123.555 l 393.953 122.95 
393.824 122.059 393.602 121.743 c 393.473 121.583 392.137 121.583 391.691
 121.583 c h
388.031 121.583 m f
314.836 113.668 m 314.645 114.114 314.578 114.114 314.102 114.114 c 310.699
 114.114 l 310.699 113.477 l 311.176 113.477 l 312.734 113.477 312.766 113.254
 312.766 112.524 c 312.766 102.372 l 312.766 101.833 312.766 100.876 310.699
 100.876 c 310.699 100.239 l 311.398 100.274 312.383 100.305 313.051 100.305
 c 313.719 100.305 314.738 100.274 315.438 100.239 c 315.438 100.876 l 313.34
 100.876 313.34 101.833 313.34 102.372 c 313.34 113.321 l 313.371 113.321
 l 318.27 100.684 l 318.367 100.43 318.461 100.239 318.652 100.239 c 318.875
 100.239 318.938 100.399 319.035 100.622 c 324.031 113.477 l 324.031 101.833
 l 324.031 101.098 324 100.876 322.441 100.876 c 321.961 100.876 l 321.961
 100.239 l 322.695 100.305 324.094 100.305 324.891 100.305 c 325.652 100.305
 327.023 100.305 327.785 100.239 c 327.785 100.876 l 327.277 100.876 l 325.719
 100.876 325.684 101.098 325.684 101.833 c 325.684 112.524 l 325.684 113.254
 325.719 113.477 327.277 113.477 c 327.785 113.477 l 327.785 114.114 l 324.348
 114.114 l 323.809 114.114 323.809 114.083 323.68 113.731 c 319.227 102.278
 l h
314.836 113.668 m f
330.793 105.364 m 330.918 108.387 332.637 108.895 333.34 108.895 c 335.406
 108.895 335.629 106.161 335.629 105.364 c h
330.793 104.918 m 336.457 104.918 l 336.902 104.918 336.965 104.918 336.965
 105.364 c 336.965 107.368 335.852 109.34 333.34 109.34 c 330.984 109.34
 329.105 107.243 329.105 104.696 c 329.105 101.989 331.238 100.016 333.562
 100.016 c 336.043 100.016 336.965 102.278 336.965 102.661 c 336.965 102.848
 336.809 102.915 336.68 102.915 c 336.52 102.915 336.457 102.786 336.426
 102.626 c 335.727 100.528 333.879 100.528 333.688 100.528 c 332.668 100.528
 331.875 101.133 331.398 101.895 c 330.793 102.848 330.793 104.188 330.793
 104.918 c h
330.793 104.918 m f
341.051 108.356 m 343.977 108.356 l 343.977 108.993 l 341.051 108.993 l
 341.051 112.715 l 340.539 112.715 l 340.539 111.059 339.938 108.895 337.93
 108.801 c 337.93 108.356 l 339.648 108.356 l 339.648 102.754 l 339.648 
100.274 341.559 100.016 342.293 100.016 c 343.723 100.016 344.297 101.45
 344.297 102.754 c 344.297 103.899 l 343.785 103.899 l 343.785 102.786 l
 343.785 101.29 343.184 100.528 342.418 100.528 c 341.051 100.528 341.051
 102.372 341.051 102.723 c h
341.051 108.356 m f
347.668 101.766 m 347.668 100.876 347.445 100.876 346.078 100.876 c 346.078
 100.239 l 346.809 100.274 347.828 100.305 348.398 100.305 c 348.91 100.305
 349.961 100.274 350.66 100.239 c 350.66 100.876 l 349.289 100.876 349.066
 100.876 349.066 101.766 c 349.066 105.524 l 349.066 107.622 350.531 108.77
 351.805 108.77 c 353.109 108.77 353.332 107.688 353.332 106.508 c 353.332
 101.766 l 353.332 100.876 353.109 100.876 351.742 100.876 c 351.742 100.239
 l 352.441 100.274 353.492 100.305 354.031 100.305 c 354.543 100.305 355.625
 100.274 356.293 100.239 c 356.293 100.876 l 355.242 100.876 354.73 100.876
 354.73 101.481 c 354.73 105.364 l 354.73 107.114 354.73 107.719 354.098
 108.45 c 353.809 108.801 353.141 109.215 351.965 109.215 c 350.246 109.215
 349.355 108.004 349.004 107.208 c 349.004 114.336 l 346.078 114.114 l 346.078
 113.477 l 347.508 113.477 347.668 113.352 347.668 112.333 c h
347.668 101.766 m f
366.258 104.598 m 366.258 107.176 364.254 109.34 361.805 109.34 c 359.258
 109.34 357.285 107.114 357.285 104.598 c 357.285 101.958 359.387 100.016
 361.773 100.016 c 364.223 100.016 366.258 102.024 366.258 104.598 c h
361.805 100.528 m 360.914 100.528 360.023 100.942 359.48 101.895 c 358.973
 102.786 358.973 104.028 358.973 104.758 c 358.973 105.555 358.973 106.637
 359.449 107.528 c 359.992 108.45 360.945 108.895 361.773 108.895 c 362.664
 108.895 363.523 108.45 364.062 107.559 c 364.605 106.7 364.605 105.524 
364.605 104.758 c 364.605 104.028 364.605 102.915 364.16 102.024 c 363.684
 101.098 362.793 100.528 361.805 100.528 c h
361.805 100.528 m f
375.125 101.356 m 375.125 100.016 l 378.117 100.239 l 378.117 100.876 l
 376.719 100.876 376.527 101.004 376.527 102.024 c 376.527 114.336 l 373.633
 114.114 l 373.633 113.477 l 375.031 113.477 375.191 113.352 375.191 112.333
 c 375.191 107.942 l 374.617 108.672 373.727 109.215 372.645 109.215 c 370.258
 109.215 368.125 107.208 368.125 104.598 c 368.125 102.024 370.098 100.016
 372.422 100.016 c 373.727 100.016 374.617 100.719 375.125 101.356 c h
375.125 106.797 m 375.125 102.626 l 375.125 102.278 375.125 102.247 374.902
 101.895 c 374.301 100.911 373.41 100.461 372.516 100.461 c 371.594 100.461
 370.863 101.004 370.387 101.766 c 369.875 102.594 369.812 103.743 369.812
 104.598 c 369.812 105.333 369.844 106.54 370.418 107.465 c 370.863 108.102
 371.625 108.77 372.742 108.77 c 373.441 108.77 374.301 108.45 374.902 107.559
 c 375.125 107.208 375.125 107.176 375.125 106.797 c h
375.125 106.797 m f
391.344 107.399 m 392.996 107.942 394.176 109.34 394.176 110.965 c 394.176
 112.618 392.391 113.766 390.453 113.766 c 388.414 113.766 386.855 112.555
 386.855 110.997 c 386.855 110.329 387.301 109.946 387.906 109.946 c 388.512
 109.946 388.926 110.391 388.926 110.997 c 388.926 111.981 387.969 111.981
 387.684 111.981 c 388.289 113.001 389.625 113.254 390.355 113.254 c 391.215
 113.254 392.328 112.809 392.328 110.997 c 392.328 110.743 392.266 109.563
 391.758 108.672 c 391.152 107.688 390.453 107.622 389.941 107.622 c 389.781
 107.59 389.305 107.559 389.148 107.559 c 388.988 107.528 388.859 107.497
 388.859 107.305 c 388.859 107.083 388.988 107.083 389.336 107.083 c 390.23
 107.083 l 391.883 107.083 392.648 105.715 392.648 103.708 c 392.648 100.942
 391.246 100.368 390.355 100.368 c 389.465 100.368 387.938 100.719 387.238
 101.895 c 387.938 101.801 388.574 102.247 388.574 103.008 c 388.574 103.743
 388.031 104.153 387.461 104.153 c 386.949 104.153 386.316 103.868 386.316
 102.977 c 386.316 101.133 388.191 99.793 390.418 99.793 c 392.902 99.793
 394.746 101.641 394.746 103.708 c 394.746 105.364 393.441 106.954 391.344
 107.399 c h
391.344 107.399 m f
314.836 93.887 m 314.645 94.333 314.578 94.333 314.102 94.333 c 310.699
 94.333 l 310.699 93.696 l 311.176 93.696 l 312.734 93.696 312.766 93.473
 312.766 92.743 c 312.766 82.59 l 312.766 82.047 312.766 81.094 310.699 
81.094 c 310.699 80.458 l 311.398 80.489 312.383 80.52 313.051 80.52 c 313.719
 80.52 314.738 80.489 315.438 80.458 c 315.438 81.094 l 313.34 81.094 313.34
 82.047 313.34 82.59 c 313.34 93.536 l 313.371 93.536 l 318.27 80.903 l 
318.367 80.649 318.461 80.458 318.652 80.458 c 318.875 80.458 318.938 80.618
 319.035 80.84 c 324.031 93.696 l 324.031 82.047 l 324.031 81.317 324 81.094
 322.441 81.094 c 321.961 81.094 l 321.961 80.458 l 322.695 80.52 324.094
 80.52 324.891 80.52 c 325.652 80.52 327.023 80.52 327.785 80.458 c 327.785
 81.094 l 327.277 81.094 l 325.719 81.094 325.684 81.317 325.684 82.047 
c 325.684 92.743 l 325.684 93.473 325.719 93.696 327.277 93.696 c 327.785
 93.696 l 327.785 94.333 l 324.348 94.333 l 323.809 94.333 323.809 94.301
 323.68 93.95 c 319.227 82.493 l h
314.836 93.887 m f
330.793 85.583 m 330.918 88.606 332.637 89.114 333.34 89.114 c 335.406 
89.114 335.629 86.376 335.629 85.583 c h
330.793 85.137 m 336.457 85.137 l 336.902 85.137 336.965 85.137 336.965
 85.583 c 336.965 87.586 335.852 89.559 333.34 89.559 c 330.984 89.559 329.105
 87.458 329.105 84.915 c 329.105 82.208 331.238 80.235 333.562 80.235 c 
336.043 80.235 336.965 82.493 336.965 82.876 c 336.965 83.067 336.809 83.129
 336.68 83.129 c 336.52 83.129 336.457 83.004 336.426 82.844 c 335.727 80.743
 333.879 80.743 333.688 80.743 c 332.668 80.743 331.875 81.348 331.398 82.114
 c 330.793 83.067 330.793 84.403 330.793 85.137 c h
330.793 85.137 m f
341.051 88.571 m 343.977 88.571 l 343.977 89.208 l 341.051 89.208 l 341.051
 92.93 l 340.539 92.93 l 340.539 91.278 339.938 89.114 337.93 89.016 c 337.93
 88.571 l 339.648 88.571 l 339.648 82.973 l 339.648 80.489 341.559 80.235
 342.293 80.235 c 343.723 80.235 344.297 81.668 344.297 82.973 c 344.297
 84.118 l 343.785 84.118 l 343.785 83.004 l 343.785 81.508 343.184 80.743
 342.418 80.743 c 341.051 80.743 341.051 82.59 341.051 82.938 c h
341.051 88.571 m f
347.668 81.985 m 347.668 81.094 347.445 81.094 346.078 81.094 c 346.078
 80.458 l 346.809 80.489 347.828 80.52 348.398 80.52 c 348.91 80.52 349.961
 80.489 350.66 80.458 c 350.66 81.094 l 349.289 81.094 349.066 81.094 349.066
 81.985 c 349.066 85.739 l 349.066 87.84 350.531 88.985 351.805 88.985 c
 353.109 88.985 353.332 87.903 353.332 86.727 c 353.332 81.985 l 353.332
 81.094 353.109 81.094 351.742 81.094 c 351.742 80.458 l 352.441 80.489 
353.492 80.52 354.031 80.52 c 354.543 80.52 355.625 80.489 356.293 80.458
 c 356.293 81.094 l 355.242 81.094 354.73 81.094 354.73 81.7 c 354.73 85.583
 l 354.73 87.333 354.73 87.934 354.098 88.668 c 353.809 89.016 353.141 89.43
 351.965 89.43 c 350.246 89.43 349.355 88.223 349.004 87.426 c 349.004 94.555
 l 346.078 94.333 l 346.078 93.696 l 347.508 93.696 347.668 93.567 347.668
 92.551 c h
347.668 81.985 m f
366.258 84.817 m 366.258 87.395 364.254 89.559 361.805 89.559 c 359.258
 89.559 357.285 87.333 357.285 84.817 c 357.285 82.176 359.387 80.235 361.773
 80.235 c 364.223 80.235 366.258 82.239 366.258 84.817 c h
361.805 80.743 m 360.914 80.743 360.023 81.157 359.48 82.114 c 358.973 
83.004 358.973 84.243 358.973 84.977 c 358.973 85.77 358.973 86.852 359.449
 87.747 c 359.992 88.668 360.945 89.114 361.773 89.114 c 362.664 89.114 
363.523 88.668 364.062 87.778 c 364.605 86.918 364.605 85.739 364.605 84.977
 c 364.605 84.243 364.605 83.129 364.16 82.239 c 363.684 81.317 362.793 
80.743 361.805 80.743 c h
361.805 80.743 m f
375.125 81.571 m 375.125 80.235 l 378.117 80.458 l 378.117 81.094 l 376.719
 81.094 376.527 81.223 376.527 82.239 c 376.527 94.555 l 373.633 94.333 
l 373.633 93.696 l 375.031 93.696 375.191 93.567 375.191 92.551 c 375.191
 88.157 l 374.617 88.891 373.727 89.43 372.645 89.43 c 370.258 89.43 368.125
 87.426 368.125 84.817 c 368.125 82.239 370.098 80.235 372.422 80.235 c 
373.727 80.235 374.617 80.934 375.125 81.571 c h
375.125 87.012 m 375.125 82.844 l 375.125 82.493 375.125 82.461 374.902
 82.114 c 374.301 81.126 373.41 80.68 372.516 80.68 c 371.594 80.68 370.863
 81.223 370.387 81.985 c 369.875 82.813 369.812 83.958 369.812 84.817 c 
369.812 85.547 369.844 86.758 370.418 87.68 c 370.863 88.317 371.625 88.985
 372.742 88.985 c 373.441 88.985 374.301 88.668 374.902 87.778 c 375.125
 87.426 375.125 87.395 375.125 87.012 c h
375.125 87.012 m f
391.438 83.797 m 391.438 82.047 l 391.438 81.317 391.375 81.094 389.879
 81.094 c 389.465 81.094 l 389.465 80.458 l 390.293 80.52 391.344 80.52 
392.203 80.52 c 393.062 80.52 394.109 80.52 394.969 80.458 c 394.969 81.094
 l 394.523 81.094 l 393.027 81.094 392.996 81.317 392.996 82.047 c 392.996
 83.797 l 395 83.797 l 395 84.434 l 392.996 84.434 l 392.996 93.665 l 392.996
 94.079 392.996 94.204 392.648 94.204 c 392.488 94.204 392.426 94.204 392.266
 93.95 c 386.027 84.434 l 386.027 83.797 l h
391.535 84.434 m 386.602 84.434 l 391.535 92.008 l h
391.535 84.434 m f
0.580392 0 0.827451 rg
0.79756 w
q 1 0 0 -1 0 390.492706 cm
407.641 243.75 m 417.801 243.75 l 412.719 238.668 m 412.719 248.828 l S Q
0 0.619608 0.45098 rg
q 1 0 0 -1 0 390.492706 cm
407.641 258.453 m 417.801 268.613 l 417.801 258.453 m 407.641 268.613 l
 S Q
0.337255 0.705882 0.913725 rg
q 1 0 0 -1 0 390.492706 cm
407.641 283.426 m 417.801 283.426 l 412.719 278.348 m 412.719 288.508 l
 407.641 278.348 m 417.801 288.508 l 407.641 288.508 m 417.801 278.348 l
 S Q
0.901961 0.623529 0 rg
q 1 0 0 -1 0 390.492706 cm
407.641 298.02 10.16 10.16 re S Q
Q Q
showpage
%%Trailer
end restore
%%EOF
